245,64,12,13
244.51,63.997,12,13
244.66,65.181,12,13
244.23,63.345,12,13
244.97,63.653,12,13
245.25,64.393,12,13
245.1,63.627,12,13
245.3,64.663,12,13
244.83,62.723,12,13
244.92,63.474,12,13
245.5,63.814,12,13
245.35,63.672,12,13
245.67,64.224,12,13
245.81,62.884,12,13
246.15,64.207,12,13
246.12,63.818,12,13
246.15,63.527,12,13
246.3,62.869,12,13
245.4,64.314,12,13
245.44,63.66,12,13
246.09,63.702,12,13
245.58,63.63,12,13
245.22,63.448,12,13
244.51,63.782,12,13
244.18,63.864,12,13
243.41,64.248,12,13
242.46,63.943,12,13
242.28,63.758,12,13
241.03,63.269,12,13
240.04,64.112,12,13
239.44,63.765,12,13
238.14,64.281,12,13
237.1,64.197,12,13
235.37,63.556,12,13
235.17,65.855,12,13
233.38,64.191,12,13
232.03,63.987,12,13
231.17,65.701,12,13
229.13,64.881,12,13
227.51,66.018,12,13
225.63,65.009,12,13
223.69,64.494,12,13
220.25,63.847,12,13
219.67,63.64,12,13
218.72,64.421,12,13
217.17,63.711,12,13
215.26,63.437,12,13
212.27,63.001,12,13
211.9,64.325,12,13
209.11,62.287,12,13
207.85,61.177,12,13
206.02,62.726,12,13
204.18,63.187,12,13
202.42,62.41,12,13
200.68,63.854,12,13
199.48,63.815,12,13
197.03,63.417,12,13
195.35,62.279,12,13
193.52,63.752,12,13
191.92,63.773,12,13
190.23,63.87,12,13
188.18,62.99,12,13
185.83,63.66,12,13
185.14,62.114,12,13
183.99,61.933,12,13
182.01,61.521,12,13
181.24,62.742,12,13
178.2,61.961,12,13
176.58,62.166,12,13
175.32,62.084,12,13
173.83,62.485,12,13
171.63,61.248,12,13
169.54,62.056,12,13
167.59,62.402,12,13
165.8,62.209,12,13
164.14,63.771,12,13
162.16,64.166,12,13
160.48,63.194,12,13
158.12,62.522,12,13
157.3,61.813,12,13
155.33,62.012,12,13
154.87,62.893,12,13
152.34,62.138,12,13
151.86,61.258,12,13
150.23,59.766,12,13
151.73,61.153,12,13
150.2,61.982,12,13
150.34,61.458,12,13
150.33,62.331,12,13
149.94,61.986,12,13
149.11,61.953,12,13
150.1,62.793,12,13
149.88,63.816,12,13
150.87,64.176,12,13
150.82,64.282,12,13
150.88,62.417,12,13
151.13,63.573,12,13
150.88,63.561,12,13
151.76,62.516,12,13
152.58,62.494,12,13
153.14,63.671,12,13
152.15,62.44,12,13
153.24,61.324,12,13
152.52,61.521,12,13
152.92,61.024,12,13
154.53,60.462,12,13
152.69,61.999,12,13
152.98,60.416,12,13
154.01,61.478,12,13
154.02,61.267,12,13
153.94,61.524,12,13
154.5,61.09,12,13
155.02,61.964,12,13
154.01,64.102,12,13
154.26,64.394,12,13
154.36,64.813,12,13
154.37,65.362,12,13
155.76,65.694,12,13
156.17,64.418,12,13
156.43,65.621,12,13
157.33,63.421,12,13
157.09,64.643,12,13
156.02,64.447,12,13
155.36,65.765,12,13
155.13,64.816,12,13
155.56,62.759,12,13
156.93,63.662,12,13
154.66,63.13,12,13
153.87,62.224,12,13
154.56,60.502,12,13
152.83,61.393,12,13
153.74,59.985,12,13
150.67,59.773,12,13
151.18,58.93,12,13
149.46,58.878,12,13
149.06,58.594,12,13
148.03,58.527,12,13
147.08,59.336,12,13
147.85,59.824,12,13
147.25,62.228,12,13
147.19,60.04,12,13
146.4,60.409,12,13
146.49,58.643,12,13
146.08,59.493,12,13
146.82,59.73,12,13
147.38,57.475,12,13
145.83,57.46,12,13
145.48,55.858,12,13
144.58,57.159,12,13
143.04,57.086,12,13
142.2,55.992,12,13
140.46,56.437,12,13
139.65,59.115,12,13
139.02,56.564,12,13
137.87,56.565,12,13
135.54,57.004,12,13
133.66,57.999,12,13
132.82,56.837,12,13
130.42,58.123,12,13
127.49,58.04,12,13
125.79,57.615,12,13
124.99,58.07,12,13
121.53,58.568,12,13
120.73,57.842,12,13
118.98,58.05,12,13
118.83,57.184,12,13
115.72,55.303,12,13
115.88,54.64,12,13
113.79,55.575,12,13
111.98,54.216,12,13
109.41,53.371,12,13
109.11,53.029,12,13
107.47,53.335,12,13
106.36,52.848,12,13
104.16,53.867,12,13
104.67,52.835,12,13
102.58,54.445,12,13
102.62,53.262,12,13
103.77,53.054,12,13
99.516,55.359,12,13
101.98,53.699,12,13
99.108,55.673,12,13
99.33,53.496,12,13
99.627,53.571,12,13
98.471,53.984,12,13
97.442,53.152,12,13
98.986,58.662,12,13
95.819,52.286,12,13
96.525,52.954,12,13
93.902,54.589,12,13
96.179,52.635,12,13
93.71,57.444,12,13
91.249,54.374,12,13
90.895,58.256,12,13
86.972,55.676,12,13
86.142,55.793,12,13
85.245,57.997,12,13
83.3,58.264,12,13
82.823,60.18,12,13
80.08,59.795,12,13
77.835,58.818,12,13
76.921,58.263,12,13
75.611,58.288,12,13
75.3,58.005,12,13
75.871,57.617,12,13
74.279,57.245,12,13
73.886,56.367,12,13
74.563,55.096,12,13
74.968,55.639,12,13
70.916,49.386,12,13
76.542,54.953,12,13
76.034,54.962,12,13
73.742,52.31,12,13
75.802,52.353,12,13
79.434,55.132,12,13
79.761,55.261,12,13
81.694,54.453,12,13
81.503,53.436,12,13
81.658,51.317,12,13
83.584,52.471,12,13
84.296,51.15,12,13
86.18,51.817,12,13
89.353,52.762,12,13
81.403,46.919,12,13
87.625,52.537,12,13
89.342,52.199,12,13
82.61,45.996,12,13
87.753,51.173,12,13
83.778,48.512,12,13
84.219,48.398,12,13
90.631,53.562,12,13
85.318,48.5,12,13
88.023,54.864,12,13
89.359,52.713,12,13
91.377,55.081,12,13
91.438,57.522,12,13
88.858,52.148,12,13
87.919,50.376,12,13
89.702,52.068,12,13
90.601,54.988,12,13
90.073,49.077,12,13
90.412,53.904,12,13
92.111,48.52,12,13
90.824,48.906,12,13
91.501,48.445,12,13
91.575,50.008,12,13
92.739,46.601,12,13
92.141,46.946,12,13
95.446,45.982,12,13
95.081,46.464,12,13
99.661,45.934,12,13
99.425,47.907,12,13
101.1,47.832,12,13
106.05,49.326,12,13
108.32,49.763,12,13
108.66,50.385,12,13
112.31,50.005,12,13
117.11,51.742,12,13
119.84,53.149,12,13
123.97,53.727,12,13
129.23,52.294,12,13
132.93,54.424,12,13
137.08,52.713,12,13
135.44,51.682,12,13
141.45,50.982,12,13
143.6,51.729,12,13
145.25,47.166,12,13
141.7,45.037,12,13
143.84,45.623,12,13
142.58,41.202,12,13
150.73,44.954,12,13
145.14,42.199,12,13
147.21,40.62,12,13
151.86,42.524,12,13
152.17,41.174,12,13
148.49,45.015,12,13
150.7,46.224,12,13
155.52,43.238,12,13
154.91,48.087,12,13
161.3,48.012,12,13
165.86,47.863,12,13
168.31,47.731,12,13
172.28,49.935,12,13
175.16,50.24,12,13
179.41,49.951,12,13
184.25,51.428,12,13
189.26,48.52,12,13
192.74,52.104,12,13
196.93,51.542,12,13
201.18,50.056,12,13
206.87,50.335,12,13
207.34,50.055,12,13
212.33,47.674,12,13
214.51,50.456,12,13
218.27,48.387,12,13
221.08,47.602,12,13
221.73,46.576,12,13
227.32,44.335,12,13
227.12,48.443,12,13
229.88,49.279,12,13
233.64,50.708,12,13
236.85,50.467,12,13
240.86,48.473,12,13
243.78,49.641,12,13
246.05,48.788,12,13
250.74,48.205,12,13
254.95,49.012,12,13
255.52,48.899,12,13
258.69,50.63,12,13
261.06,50.064,12,13
264.57,47.505,12,13
266.86,46.548,12,13
269.83,45.7,12,13
272.88,44.676,12,13
273.99,44.984,12,13
277.8,44.063,12,13
278.67,44.928,12,13
280.91,45.779,12,13
283.4,45.318,12,13
286.52,45.519,12,13
289.06,45.254,12,13
290.13,46.336,12,13
290.86,45.674,12,13
292.93,45.488,12,13
294.67,45.918,12,13
294.63,43.445,12,13
296.56,42.798,12,13
296.52,42.482,12,13
298.16,41.76,12,13
300.62,40.877,12,13
299.61,39.367,12,13
299.37,43.238,12,13
300.15,40.768,12,13
300.28,42.475,12,13
301.8,38.069,12,13
302.37,40.139,12,13
301.15,41.693,12,13
302.75,43.354,12,13
304.96,41.333,12,13
306.49,42.483,12,13
308.23,47.39,12,13
308.93,47.941,12,13
311.79,46.043,12,13
314.18,48.966,12,13
316.92,50.269,12,13
318.92,47.248,12,13
321.33,44.372,12,13
323.12,45.108,12,13
323.7,42.535,12,13
324.05,41.583,12,13
324.58,40.324,12,13
324.89,39.82,12,13
325.56,39.335,12,13
322.91,37.107,12,13
322.92,39.287,12,13
320.88,39.568,12,13
319.24,39.057,12,13
316.53,37.424,12,13
315.37,39.4,12,13
311.33,40.618,12,13
308.98,43.173,12,13
306.79,42.09,12,13
303.95,45.065,12,13
300.01,44.135,12,13
297.46,44.684,12,13
298.43,48.44,12,13
295.34,52.037,12,13
292.44,53.628,12,13
287.84,48.011,12,13
287.13,49.562,12,13
284.96,45.747,12,13
282.7,48.954,12,13
280.32,48.397,12,13
279.06,51.745,12,13
276.53,53.764,12,13
272.29,50.755,12,13
268.98,55.727,12,13
263.17,52.061,12,13
260.39,51.893,12,13
257.47,53.373,12,13
255.76,54.136,12,13
253.52,53.441,12,13
250.27,53.397,12,13
247.51,53.545,12,13
245.66,53.527,12,13
244.63,53.438,12,13
242.43,53.681,12,13
237.18,53.161,12,13
237.07,55.85,12,13
235.36,55.948,12,13
231.02,56.386,12,13
228.98,57.877,12,13
226.8,57.496,12,13
226.96,59.033,12,13
227.12,60.213,12,13
224.7,57.03,12,13
223.99,55.866,12,13
225.29,57.085,12,13
227.27,58.72,12,13
226.68,55.79,12,13
224.89,49.561,12,13
226.26,51.83,12,13
224.51,46.278,12,13
225.94,44.006,12,13
227.14,39.668,12,13
230.08,38.503,12,13
232.33,35.592,12,13
231.92,29.5,12,13
236.03,30.42,12,13
237.25,31.852,12,13
235.77,27.73,12,13
234.7,29.878,12,13
231.02,27.457,12,13
227.74,27.961,12,13
225.4,30.172,12,13
218.5,28.533,12,13
214.54,31.023,12,13
208.17,33.271,12,13
200.79,34.125,12,13
193.02,35.994,12,13
202.41,27.683,12,13
190.69,28.092,12,13
197.02,17.576,12,13
204.35,17.636,12,13
201.84,18.024,12,13
202.89,18.079,12,13
201.5,18.643,12,13
194.62,21.565,12,13
187.69,12.893,12,13
189.89,9.2095,12,13
182.32,11.203,12,13
181.98,16.909,12,13
192.34,15.179,12,13
185.57,10.635,12,13
182.9,11.576,12,13
188.74,10.811,12,13
182.19,13.918,12,13
177.85,7.5804,12,13
180.69,11.348,12,13
183.65,14.81,12,13
180.69,12.443,12,13
178.86,12.604,12,13
182.59,14.571,12,13
182.92,11.624,12,13
183.28,17.216,12,13
177.72,14.074,12,13
176.88,13.272,12,13
178.87,14.245,12,13
181.06,13.531,12,13
184.88,18.382,12,13
190.75,19.444,12,13
185.18,22.027,12,13
183.48,18.289,12,13
181.06,14.473,12,13
179.93,19.525,12,13
182.67,19.363,12,13
177.56,21.034,12,13
186.57,18.53,12,13
187.45,19.262,12,13
183.58,20.856,12,13
