298,149,67,122
298.12,148.75,67,122
298.6,147.66,67,122
298.05,145.87,67,122
298.26,145.84,67,122
297.66,143.94,67,122
297.32,143.17,67,122
296.59,142.88,67,122
297.31,144.17,67,122
303.09,141.61,67,122
303.53,145.81,67,122
305.42,148.72,67,122
306.29,145.21,67,122
308.84,144.06,67,122
311.48,142.67,67,122
311.52,140.68,67,122
308.9,139.04,67,122
312.49,135.46,67,122
313.54,135.51,67,122
313.4,135.88,67,122
315.44,138.87,67,122
314.75,139.97,67,122
313.71,136.34,67,122
314.42,138.64,67,122
312.83,137.24,67,122
312.32,136.16,67,122
312.04,135.82,67,122
309.29,132.63,67,122
307.95,133.49,67,122
306.1,129.84,67,122
308.43,129.59,67,122
310.37,128.15,67,122
308.02,127.67,67,122
308.62,127.72,67,122
308.13,122.21,67,122
311.86,125.95,67,122
312.98,128.76,67,122
312.33,128.21,67,122
311.24,131.24,67,122
312.85,127.5,67,122
313.85,124.55,67,122
317.53,123.14,67,122
318.06,125.04,67,122
320.46,124.2,67,122
323.74,124.55,67,122
324,123.57,67,122
323.54,121.11,67,122
326.77,124.56,67,122
324.72,121.84,67,122
325.5,121.33,67,122
328.9,123.57,67,122
328.71,122.45,67,122
330.06,123.29,67,122
331.67,121.99,67,122
331.07,121.18,67,122
331.35,121.7,67,122
331.98,121.81,67,122
336.02,123.55,67,122
332.69,120.78,67,122
335.79,124.03,67,122
339.09,122.95,67,122
339.5,121.61,67,122
341.57,118.83,67,122
343.73,121.91,67,122
344.36,119.2,67,122
347.25,120.56,67,122
347.97,118.07,67,122
348.45,119.33,67,122
353.55,118.21,67,122
353.28,120.65,67,122
356.77,122.84,67,122
356.81,120.12,67,122
358.53,118.83,67,122
359.93,119.66,67,122
365.09,121.96,67,122
364.44,118.57,67,122
366.05,119.82,67,122
365.93,117.25,67,122
368.5,119.64,67,122
368.9,119.22,67,122
371.4,117.47,67,122
370.29,121.1,67,122
372.64,118.12,67,122
373.56,118.42,67,122
376.31,118.81,67,122
376.19,117.33,67,122
378.5,116.67,67,122
377.55,117.91,67,122
380.35,112.29,67,122
384.12,117.01,67,122
386.63,118.35,67,122
388.73,116.67,67,122
389.24,118.49,67,122
389.14,117.26,67,122
389.95,120.81,67,122
391.3,117.55,67,122
394.59,119.34,67,122
395.37,119.19,67,122
398.73,118.7,67,122
398.81,116.37,67,122
396.96,119,67,122
398.17,120.4,67,122
400.15,118.77,67,122
399.32,118.68,67,122
400.5,116.68,67,122
399.13,116.31,67,122
400.52,116.19,67,122
397.45,118,67,122
399.66,117.16,67,122
396.45,118.69,67,122
394.99,114.96,67,122
393.85,113.21,67,122
393.55,114.52,67,122
392.87,114.58,67,122
390.41,114.25,67,122
390.22,113.42,67,122
390.65,112.67,67,122
388.06,110.99,67,122
387.11,112.7,67,122
386.14,115.74,67,122
387.11,113.56,67,122
385.3,114.04,67,122
383.4,113.36,67,122
384.68,114.06,67,122
381.26,113.46,67,122
381.57,110.84,67,122
382.41,114.33,67,122
380.44,111.42,67,122
379.62,113.2,67,122
378.95,110.67,67,122
377.49,114.22,67,122
377.19,112.11,67,122
376.57,111.36,67,122
375.81,113.64,67,122
377.2,111.82,67,122
375.09,113.18,67,122
374.1,112.99,67,122
373.48,112.85,67,122
374.52,113.88,67,122
374.13,113.82,67,122
375.55,114.68,67,122
374.61,116.19,67,122
376.51,117.61,67,122
375.72,115.64,67,122
376.06,119.89,67,122
377.34,118.66,67,122
378.01,118.85,67,122
377.68,117.27,67,122
381.14,122.03,67,122
381.6,121.45,67,122
381.02,122.42,67,122
383.04,123.07,67,122
383.6,124.5,67,122
384.68,127.08,67,122
383.89,125.32,67,122
378.99,128.57,67,122
376.88,125.51,67,122
376.96,125.58,67,122
377.13,125.81,67,122
373.38,127.92,67,122
371.08,129.15,67,122
370.88,129,67,122
369.38,128.89,67,122
368.98,129.57,67,122
366.15,130.13,67,122
364.52,128.1,67,122
362.81,130.11,67,122
362.12,129.39,67,122
359.69,127.11,67,122
360.38,128.8,67,122
359.57,131.31,67,122
358.42,130.1,67,122
359.92,129.82,67,122
358.79,132.97,67,122
357.95,131.41,67,122
356.65,128.21,67,122
357.12,128.24,67,122
353.01,129.08,67,122
353.27,131.26,67,122
348.61,124.52,67,122
350.35,130.35,67,122
350.86,129.86,67,122
349.34,131.94,67,122
350.45,131.54,67,122
346.61,123.53,67,122
346.91,126.4,67,122
344.56,132.74,67,122
342.15,133.39,67,122
338.77,131.86,67,122
334.18,125.13,67,122
334.29,129.39,67,122
331.04,128.83,67,122
327.42,126.38,67,122
324.6,123.52,67,122
323.24,123.6,67,122
321.63,123.18,67,122
320.24,120.44,67,122
317.82,119.24,67,122
318.69,118.07,67,122
318.16,119.72,67,122
318.96,120.98,67,122
315.8,116.35,67,122
314.14,121.32,67,122
316.65,117.3,67,122
317.06,119.7,67,122
317.69,121.98,67,122
317.82,118.22,67,122
318.08,117.47,67,122
319.71,116.73,67,122
321.84,117.33,67,122
323.96,114.41,67,122
324.6,114.74,67,122
328.05,117.33,67,122
328.1,114.05,67,122
327.47,117.43,67,122
330.84,117.73,67,122
332.55,115.98,67,122
336.46,116.65,67,122
339.1,116.71,67,122
343.22,113.96,67,122
346.36,114.27,67,122
348.65,113.69,67,122
355.05,113.37,67,122
358.47,112.68,67,122
360.22,114.49,67,122
359.07,114.71,67,122
363.02,114.05,67,122
362.45,115.2,67,122
364.46,113.85,67,122
364.08,114.49,67,122
367.43,109.62,67,122
367.44,110.44,67,122
368.04,108.83,67,122
368.31,104.46,67,122
367.25,103.76,67,122
367.36,104.09,67,122
368.14,101.78,67,122
369.44,98.296,67,122
367.43,98.536,67,122
368.67,102.98,67,122
366.88,102.55,67,122
367.41,103.17,67,122
369.14,105.32,67,122
369.41,102.78,67,122
368.88,106.25,67,122
372.81,107.29,67,122
371.46,106,67,122
370.86,107.92,67,122
370.6,107.02,67,122
370.62,106.66,67,122
370.15,107.4,67,122
371.22,106.98,67,122
372.45,109.89,67,122
369.33,105.7,67,122
369.66,109.38,67,122
370.43,107.54,67,122
369.98,110.27,67,122
372.04,108.1,67,122
368.5,103.09,67,122
372.12,107.95,67,122
373.45,107.17,67,122
372.78,108.12,67,122
372.97,104.89,67,122
372.34,106.16,67,122
373.86,103.71,67,122
377.45,106.28,67,122
380.13,108.96,67,122
381.83,108.58,67,122
384.43,111.08,67,122
386.79,108.42,67,122
389.06,113.25,67,122
393.18,114.6,67,122
395.5,118.01,67,122
396.28,122.86,67,122
400.06,120.63,67,122
404.17,120.17,67,122
406.34,120.06,67,122
405.61,117.73,67,122
403.3,115.68,67,122
402.74,110.32,67,122
399.06,112.87,67,122
395.52,111.74,67,122
394.65,112.83,67,122
389.68,108.48,67,122
383.88,107.89,67,122
383.04,111.83,67,122
375.73,110.27,67,122
374.26,106.35,67,122
370.78,110.91,67,122
365.33,114.08,67,122
360.04,112.24,67,122
353.56,110.74,67,122
347.62,113.82,67,122
342.86,114.95,67,122
338.31,112.01,67,122
334.78,115.92,67,122
331.1,113.79,67,122
329.03,106.28,67,122
326.53,107.63,67,122
322.88,105.79,67,122
323.6,103.62,67,122
321.75,101.52,67,122
319.61,100.24,67,122
320.38,100.94,67,122
323.56,104.57,67,122
321.1,100.62,67,122
319.67,105.43,67,122
319.41,106.4,67,122
315.69,106.97,67,122
318.8,108.07,67,122
319.45,106.36,67,122
317.95,106.21,67,122
317.21,106.49,67,122
316.88,103.52,67,122
320.17,98.87,67,122
321.06,96.019,67,122
323.25,90.824,67,122
322.81,89.009,67,122
322.81,92.22,67,122
327.61,86.032,67,122
324.95,79.62,67,122
327.03,78.796,67,122
319.85,76.332,67,122
320.74,82.218,67,122
321.49,79.211,67,122
320.62,77.003,67,122
317.05,79.276,67,122
314.96,78.638,67,122
314.91,85.739,67,122
313.19,85.28,67,122
306.86,86.577,67,122
307.33,86.81,67,122
302.78,91.277,67,122
297.54,87.441,67,122
293.52,88.302,67,122
291.07,86.404,67,122
289.94,83.61,67,122
289.27,80.089,67,122
292.4,75.829,67,122
288.3,75.168,67,122
289.9,73.973,67,122
288.07,74.475,67,122
290.06,72.855,67,122
290.17,69.139,67,122
290.53,67.794,67,122
291.72,66.809,67,122
294.02,69.311,67,122
297.63,76.919,67,122
291.8,76.398,67,122
297.4,77.743,67,122
298.7,83.079,67,122
299,80.631,67,122
299.66,79.379,67,122
297.94,81.312,67,122
298.57,81.319,67,122
295.51,78.811,67,122
294.9,74.17,67,122
296.76,72.577,67,122
295.8,68.292,67,122
292.31,63.28,67,122
296.49,62.925,67,122
295.04,62.857,67,122
292.86,62.923,67,122
299.39,74.114,67,122
298.85,75.519,67,122
305.56,79.784,67,122
