122,51,51,61
121.99,50.784,51,61
122.78,51.959,51,61
122.1,52.755,51,61
121.87,53.572,51,61
122.02,55.159,51,61
121.9,54.807,51,61
122.74,56.057,51,61
120.99,57.502,51,61
121.11,57.979,51,61
121.58,57.537,51,61
121.22,58.663,51,61
122.19,58.14,51,61
120.86,58.708,51,61
120.97,58.935,51,61
121.6,59.343,51,61
120.76,58.505,51,61
122.31,60.188,51,61
121.14,60.31,51,61
121.3,60.037,51,61
120.29,59.788,51,61
121.42,60.214,51,61
120.01,61,51,61
119.87,61.657,51,61
119.19,61.284,51,61
119.75,62.564,51,61
119.62,61.407,51,61
118.97,62.751,51,61
119.22,62.017,51,61
118.35,60.878,51,61
117.19,59.905,51,61
117.08,60.314,51,61
114.71,59.392,51,61
113.37,58.926,51,61
110.8,59.204,51,61
109.34,58.33,51,61
107.81,57.817,51,61
105.92,55.476,51,61
105.72,57.57,51,61
104.67,55.635,51,61
105.71,56.088,51,61
105.47,56.24,51,61
106.61,56.368,51,61
106.92,54.242,51,61
108.02,53.444,51,61
109.22,52.679,51,61
109.94,52.524,51,61
111.36,50.904,51,61
112.33,51.582,51,61
113.09,52.195,51,61
112.35,52.917,51,61
112.8,54.811,51,61
114.14,56.584,51,61
113.52,57.514,51,61
113.67,60.8,51,61
115.31,63.24,51,61
115.58,64.115,51,61
114.06,68.323,51,61
114.29,70.86,51,61
114.07,70.651,51,61
113.09,73.591,51,61
111.96,75.656,51,61
112.99,76.485,51,61
111.7,79.782,51,61
115.11,82.662,51,61
114.58,82.012,51,61
115.85,81.355,51,61
117.49,84.22,51,61
117.41,83.063,51,61
119.9,85.778,51,61
120.28,86.049,51,61
120.77,85.082,51,61
123.9,87.174,51,61
124.53,84.876,51,61
125.79,84.023,51,61
125.86,81.967,51,61
125.46,78.825,51,61
125.07,77.141,51,61
123.87,75.654,51,61
123.9,73.021,51,61
123.5,70.885,51,61
122.85,70.111,51,61
122.96,67.444,51,61
121.96,67.12,51,61
123.78,67.186,51,61
123.19,66.514,51,61
123.23,66.213,51,61
122.44,64.244,51,61
121.25,65.564,51,61
121.67,63.099,51,61
120.88,62.64,51,61
120.03,60.902,51,61
118.9,59.738,51,61
117.01,58.822,51,61
115.25,57.095,51,61
111.18,56.352,51,61
109.93,54.68,51,61
109.09,54.688,51,61
106.13,55.666,51,61
105.78,54.795,51,61
104.17,54.573,51,61
104.47,54.061,51,61
104.05,55.986,51,61
102.15,54.767,51,61
102.73,54.601,51,61
101.84,53.916,51,61
101.7,52.44,51,61
101.35,53.575,51,61
102.31,54.868,51,61
103,54.369,51,61
103.78,53.889,51,61
104.45,55.644,51,61
104.75,55.76,51,61
106.66,56.254,51,61
106.78,57.657,51,61
107.29,57.765,51,61
107.2,59.282,51,61
110.86,60.28,51,61
112.01,60.713,51,61
110.55,61.562,51,61
110.77,63.031,51,61
111.47,65.516,51,61
111.52,63.987,51,61
111.06,65.194,51,61
111.09,66.878,51,61
112.61,67.239,51,61
112.27,66.222,51,61
112.24,68.593,51,61
112.7,66.346,51,61
114.53,66.817,51,61
112.59,65.813,51,61
112.63,66.223,51,61
113.39,63.835,51,61
112.83,65.547,51,61
113.25,63.691,51,61
112.1,67.238,51,61
113.39,64.769,51,61
113.01,65.982,51,61
111.78,65.509,51,61
111.38,65.966,51,61
110.11,66.285,51,61
110.62,65.156,51,61
108.92,64.185,51,61
105.77,63.589,51,61
107.06,63.709,51,61
102.41,64.333,51,61
103.1,64.156,51,61
101.42,62.352,51,61
101.11,62.241,51,61
102.41,63.51,51,61
101.62,63.253,51,61
102.64,64.915,51,61
102.74,64.101,51,61
103.78,63.892,51,61
103.22,64.284,51,61
104.37,66.007,51,61
104.8,65.862,51,61
105.08,66.902,51,61
104.29,66.036,51,61
105.48,66.513,51,61
105.93,64.635,51,61
105.88,65.692,51,61
106.06,65.387,51,61
105.91,66.139,51,61
106.06,64.967,51,61
106.24,64.255,51,61
107.2,64.195,51,61
107.26,65.278,51,61
107.15,64.932,51,61
106.01,65.04,51,61
105.88,65.213,51,61
105.63,64.847,51,61
106.02,63.858,51,61
105.95,63.967,51,61
105.05,63.718,51,61
104.51,64.407,51,61
103.9,63.214,51,61
103.25,63.262,51,61
103.61,63.475,51,61
102.89,62.114,51,61
102.98,61.869,51,61
101.91,62.509,51,61
101.91,62.235,51,61
101.53,62.773,51,61
100.73,63.083,51,61
101.39,62.845,51,61
101.8,63.309,51,61
101.31,62.811,51,61
102.26,65.29,51,61
101.74,62.314,51,61
102.47,63.26,51,61
102.18,64.009,51,61
102.46,63.85,51,61
102.54,63.403,51,61
103.26,64.975,51,61
103.61,65.695,51,61
104.28,64.542,51,61
105.15,64.839,51,61
103.52,66.636,51,61
104.2,66.119,51,61
105.5,65.832,51,61
104.76,67.392,51,61
105.04,66.065,51,61
106.23,68.182,51,61
106.23,67.447,51,61
106.99,67.512,51,61
105.67,69,51,61
107.08,68.733,51,61
106.73,68.891,51,61
105.82,69.552,51,61
105.97,70.593,51,61
105.07,70.779,51,61
103.6,71.533,51,61
104.22,71.97,51,61
103.12,71.044,51,61
102.91,71.244,51,61
103.56,71.69,51,61
102.73,70.795,51,61
103.26,69.352,51,61
102.16,70.588,51,61
102.69,70.105,51,61
101.62,69.939,51,61
101.04,68.886,51,61
100.71,70.617,51,61
99.942,68.095,51,61
100.72,69.485,51,61
100.24,65.242,51,61
99.576,69.732,51,61
98.679,69.234,51,61
99.581,68.233,51,61
97.472,68.978,51,61
98.128,66.918,51,61
98.408,67.792,51,61
99.663,67.29,51,61
100.27,68.615,51,61
99.599,69.316,51,61
98.932,69.994,51,61
98.466,69.174,51,61
99.133,69.73,51,61
98.498,72.051,51,61
98.493,70.673,51,61
97.902,71.438,51,61
97.933,69.394,51,61
98.783,69.392,51,61
99.022,70.306,51,61
98.75,70.108,51,61
99.792,70.389,51,61
100,70.531,51,61
99.871,70.528,51,61
98.144,70.871,51,61
98.768,70.737,51,61
98.664,71.239,51,61
98.949,68.409,51,61
97.634,67.194,51,61
97.937,66.545,51,61
97.678,64.899,51,61
97.923,62.977,51,61
98.873,60.804,51,61
97.248,59.219,51,61
98.42,58.002,51,61
98.739,57.057,51,61
99.099,53.714,51,61
97.718,50.655,51,61
98.433,50.114,51,61
98.529,48.689,51,61
98.593,46.559,51,61
98.032,45.99,51,61
98.166,43.237,51,61
98.163,41.551,51,61
98.906,41.099,51,61
99.529,37.907,51,61
98.02,37.845,51,61
99.239,39.765,51,61
99.97,39.166,51,61
101.45,40.064,51,61
102.41,41.12,51,61
102.56,43.013,51,61
103.86,45.103,51,61
104.5,46.607,51,61
106.01,47.53,51,61
107.51,47.87,51,61
108.51,49.947,51,61
109.19,49.198,51,61
109.79,51.156,51,61
110.8,51.962,51,61
111.49,51.552,51,61
112.06,52.889,51,61
112.21,52.866,51,61
111.66,52.46,51,61
112.83,54.625,51,61
113.93,54.798,51,61
113.46,56.153,51,61
114.06,57.916,51,61
116.2,58.334,51,61
115.46,60.219,51,61
115.15,61.843,51,61
115.81,63.568,51,61
116.42,64.748,51,61
116.19,65.573,51,61
115.86,66.357,51,61
116.8,67.911,51,61
116.72,69.538,51,61
116.9,71.707,51,61
115.19,72.889,51,61
114.19,73.084,51,61
113.49,73.727,51,61
114.54,74.765,51,61
113.82,74.375,51,61
112.8,75.165,51,61
113.02,75.404,51,61
114.54,76.646,51,61
113.56,77.568,51,61
111.78,76.675,51,61
112.42,75.991,51,61
111.93,74.122,51,61
109.76,74.701,51,61
108.86,74.388,51,61
106.89,72.463,51,61
105.96,72.11,51,61
105.36,71.526,51,61
105.11,73.149,51,61
102.4,71.255,51,61
100.44,71.673,51,61
98.743,69.893,51,61
97.46,69.444,51,61
94.685,70.379,51,61
95.009,69.632,51,61
91.937,65.364,51,61
91.027,68.247,51,61
90.899,67.655,51,61
89.259,64.815,51,61
87.867,66.618,51,61
85.433,64.195,51,61
85.643,66.683,51,61
83.405,63.839,51,61
82.535,65.986,51,61
80.062,63.903,51,61
79.039,66.411,51,61
78.291,63.89,51,61
74.404,63.551,51,61
75.144,65.12,51,61
71.217,65.237,51,61
70.759,64.683,51,61
68.677,64.341,51,61
67.393,63.96,51,61
67.666,64.916,51,61
65.234,63.91,51,61
63.606,64.595,51,61
62.744,64.713,51,61
61.942,64.313,51,61
59.523,65.047,51,61
58.615,64.665,51,61
56.812,65.085,51,61
54.97,63.367,51,61
53.632,66.63,51,61
52.521,65.803,51,61
51.46,65.074,51,61
53.619,64.16,51,61
51.856,63.729,51,61
49.436,62.659,51,61
51.032,64.13,51,61
49.222,63.773,51,61
52.195,62.484,51,61
51.138,62.883,51,61
55.724,61.609,51,61
54.607,60.077,51,61
57.59,58.1,51,61
59.478,59.067,51,61
58.813,56.842,51,61
62.654,56.888,51,61
62.066,56.143,51,61
64.59,53.414,51,61
65.477,51.562,51,61
66.534,49.873,51,61
66.303,46.1,51,61
67.694,45.916,51,61
70.062,43.929,51,61
68.826,41.806,51,61
72.575,41.424,51,61
75.163,41.952,51,61
75.441,38.018,51,61
76.417,37.637,51,61
78.408,37.578,51,61
81.263,37.461,51,61
83.483,36.96,51,61
85.366,36.733,51,61
87.76,38.081,51,61
89.292,38.103,51,61
91.339,38.946,51,61
93.074,39.743,51,61
94.364,41.576,51,61
97.537,42.167,51,61
97.005,44.709,51,61
100.41,46.3,51,61
100.5,48.168,51,61
100.49,49.181,51,61
101.23,50.083,51,61
102.69,51.585,51,61
104.12,54.805,51,61
103.36,55.879,51,61
104.18,58.854,51,61
103.56,61.341,51,61
104.1,65.578,51,61
104.09,66.588,51,61
105.01,67.977,51,61
104.27,69.375,51,61
104.42,72.041,51,61
105.32,74.504,51,61
105.02,76.434,51,61
107.74,78.836,51,61
106.5,82.615,51,61
107.38,84.132,51,61
107.09,84.919,51,61
109.18,89.979,51,61
106.43,92.908,51,61
108.5,93.284,51,61
106.77,96.334,51,61
107.22,97.175,51,61
107.42,99.631,51,61
107.3,100.16,51,61
105.07,105.12,51,61
106.65,105.18,51,61
105.75,108.99,51,61
105.38,110.24,51,61
104.34,109.43,51,61
102.58,114.9,51,61
103.32,116.44,51,61
103.54,120.22,51,61
102.52,121.72,51,61
103.33,122.88,51,61
103.91,125.4,51,61
101.62,126.84,51,61
103.44,131.35,51,61
103.33,132.15,51,61
102.02,133.9,51,61
100.98,137.16,51,61
100.36,137.81,51,61
100.09,138.77,51,61
99.861,140.94,51,61
99.186,143.73,51,61
95.935,143.64,51,61
97.399,144.39,51,61
96.117,145.69,51,61
96.385,147.33,51,61
96.928,147.93,51,61
94.586,148.03,51,61
94.409,149.45,51,61
93.663,152.28,51,61
92.511,150.33,51,61
91.41,151.59,51,61
88.512,151.89,51,61
88.438,149.74,51,61
87.676,153.65,51,61
88.526,151.97,51,61
86.066,153.17,51,61
83.976,153.78,51,61
84.009,150.76,51,61
84.197,148.68,51,61
83.957,143.3,51,61
82.943,142.48,51,61
83.385,139.7,51,61
82.716,136.26,51,61
82.475,134.07,51,61
83.731,131.11,51,61
83.303,122.9,51,61
83.275,119.1,51,61
82.788,116.47,51,61
84.438,112.89,51,61
84.607,110.49,51,61
85.253,106.65,51,61
86.16,104.03,51,61
87.3,97.732,51,61
87.718,97.326,51,61
90.938,94.603,51,61
91.321,92.182,51,61
92.478,92.692,51,61
95.562,91.388,51,61
95.139,87.482,51,61
96.769,86.673,51,61
97.904,86.169,51,61
99.296,84.944,51,61
102.97,86.223,51,61
103.75,84.091,51,61
104.99,86.692,51,61
108.06,88.947,51,61
111.14,86.421,51,61
111.68,86.895,51,61
112.2,85.668,51,61
113.54,86.082,51,61
115.04,84.836,51,61
118.43,86.196,51,61
118.77,86.633,51,61
120.83,85.732,51,61
123.31,85.465,51,61
126.22,83.717,51,61
128.16,84.733,51,61
129.55,84.913,51,61
130.11,85.098,51,61
133.82,83.238,51,61
134.87,84.867,51,61
138.02,83.343,51,61
139.94,83.387,51,61
143.4,84.153,51,61
146.38,83.258,51,61
147.28,83.119,51,61
147.03,85.374,51,61
150.01,86.044,51,61
152.07,85.284,51,61
154.27,86.526,51,61
153.94,88.97,51,61
155.53,91.501,51,61
156.13,93.234,51,61
154.71,98.183,51,61
157.79,98.94,51,61
158.79,102.04,51,61
159.4,102.1,51,61
159.8,107.6,51,61
160.85,109.79,51,61
162.46,110.11,51,61
164.37,109.57,51,61
164.6,107.79,51,61
165.27,105.51,51,61
165.65,104.11,51,61
167.04,99.636,51,61
170.42,97.398,51,61
169.87,92.821,51,61
169.93,88.605,51,61
171.22,84.256,51,61
172.94,83.129,51,61
174.12,80.194,51,61
173.6,80.222,51,61
174.35,75.776,51,61
174.43,74.611,51,61
174.3,72.468,51,61
171.32,68.919,51,61
172.9,67.512,51,61
173.28,65.031,51,61
173.65,61.324,51,61
175.7,59.061,51,61
175.74,54.173,51,61
174.4,52.728,51,61
175.7,50.328,51,61
175.67,49.058,51,61
174.89,48.826,51,61
173.22,47.087,51,61
173.36,47.198,51,61
172.45,48.112,51,61
169.93,50.339,51,61
169.65,49.952,51,61
167.48,52.502,51,61
166.06,53.488,51,61
167.01,54.698,51,61
165.24,56.93,51,61
161.32,57.82,51,61
160.04,58.327,51,61
157.24,58.453,51,61
154.67,60.93,51,61
152.4,62.516,51,61
150.34,61.352,51,61
146.79,62.412,51,61
142.86,64.42,51,61
142.15,62.241,51,61
138.48,63.577,51,61
135.46,63.815,51,61
133.66,63.543,51,61
129.05,67.546,51,61
127.48,67.922,51,61
122.65,69.684,51,61
120.49,71.334,51,61
120.69,72.834,51,61
122.11,71.074,51,61
124.89,70.691,51,61
128.27,68.584,51,61
130.96,67.972,51,61
135.25,67.033,51,61
139.96,66.467,51,61
143.74,67.899,51,61
147.3,68.197,51,61
148.66,67.619,51,61
150.76,66.724,51,61
151.22,67.224,51,61
153.68,65.705,51,61
153.59,64.191,51,61
150.5,62.394,51,61
145.55,66.774,51,61
142.81,66.621,51,61
141.56,69.119,51,61
137.8,71.502,51,61
136.94,72.943,51,61
131.02,74.72,51,61
126.1,77.945,51,61
123.05,80.385,51,61
120.18,79.023,51,61
116.06,82.441,51,61
113.05,81.192,51,61
112.6,83.544,51,61
107.42,84.06,51,61
106.34,86.825,51,61
103.75,89.664,51,61
103.83,91.973,51,61
102.43,94.924,51,61
101.74,95.736,51,61
101.44,97.2,51,61
102.15,102.2,51,61
100.95,109.19,51,61
101.99,112.32,51,61
102.12,114.58,51,61
101.66,116.94,51,61
101.58,118.31,51,61
100.59,122.82,51,61
100.31,125.96,51,61
100.41,126.67,51,61
99.2,124.55,51,61
99.747,130.36,51,61
97.535,128.67,51,61
97.181,126.18,51,61
97.439,129.2,51,61
96.02,126.29,51,61
94.668,125.84,51,61
96.176,123.66,51,61
95.191,121.38,51,61
94.171,121.52,51,61
94.686,114.97,51,61
94.882,110.33,51,61
94.404,108.02,51,61
95.334,105.55,51,61
93.646,102.97,51,61
97.483,98.866,51,61
95.327,97.952,51,61
97.625,93.259,51,61
98.114,90.726,51,61
97.678,91.275,51,61
96.178,88.869,51,61
97.873,88.537,51,61
98.568,84.804,51,61
98.923,83.02,51,61
98.898,79.68,51,61
98.569,78.02,51,61
100.84,74.373,51,61
99.351,73.939,51,61
99.111,71.158,51,61
99.048,67.788,51,61
98.545,67.262,51,61
99.259,64.452,51,61
98.589,62.668,51,61
97.625,62.219,51,61
95.961,60.202,51,61
95.375,59.229,51,61
92.265,57.639,51,61
90.535,57.181,51,61
88.657,56.654,51,61
87.084,55.559,51,61
85.668,56.157,51,61
82.637,55.068,51,61
82.222,53.843,51,61
82.156,55.089,51,61
81.543,53.008,51,61
81.494,54.838,51,61
79.046,55.722,51,61
79.506,55.323,51,61
76.786,56.907,51,61
75.258,57.825,51,61
74.591,59.647,51,61
74.101,60.107,51,61
72.738,61.052,51,61
72.869,63.614,51,61
71.98,64.725,51,61
70.676,66.351,51,61
67.355,66.76,51,61
68.385,65.794,51,61
67.366,69.252,51,61
66.815,69.626,51,61
66.011,70.659,51,61
64.787,72.851,51,61
64.64,76.376,51,61
65.825,76.055,51,61
70.977,76.088,51,61
65.75,81.098,51,61
68.008,81.397,51,61
70.135,79.199,51,61
69.619,81.124,51,61
73.127,78.107,51,61
73.41,77.361,51,61
76.285,72.517,51,61
76.094,68.289,51,61
79.332,67.364,51,61
79.307,66.69,51,61
81.471,65.661,51,61
83.893,62.93,51,61
87.42,60.612,51,61
89.945,55.171,51,61
92.014,55.867,51,61
94.499,53.272,51,61
95.337,52.766,51,61
96.219,51.529,51,61
96.938,49.904,51,61
96.718,50.217,51,61
98.04,50.521,51,61
96.956,49.433,51,61
97.98,49.272,51,61
98.806,48.084,51,61
98.123,48.827,51,61
96.789,45.471,51,61
96.145,46.545,51,61
97.607,46.129,51,61
97.061,43.93,51,61
97.446,43.167,51,61
95.845,42.256,51,61
95.81,40.926,51,61
94.892,40.963,51,61
92.123,41.16,51,61
90.501,42.021,51,61
90.279,43.565,51,61
87.967,41.571,51,61
86.435,42.776,51,61
83.263,40.671,51,61
82.711,42.991,51,61
82.652,42.571,51,61
80.348,40.244,51,61
77.558,38.075,51,61
75.686,35.478,51,61
76.399,34.176,51,61
72.396,32.417,51,61
74.836,31.221,51,61
73.393,31.456,51,61
71.534,28.388,51,61
71.638,27.398,51,61
70.033,28.23,51,61
69.434,24.823,51,61
68.919,26.932,51,61
68.569,27.262,51,61
70.876,27.978,51,61
71.378,29.992,51,61
69.247,29.881,51,61
71.756,31.035,51,61
73.134,35.503,51,61
73.743,38.958,51,61
74.477,40.84,51,61
73.378,40.521,51,61
75.456,44.16,51,61
78.095,46.141,51,61
76.445,47.345,51,61
79.282,48.868,51,61
78.749,48.892,51,61
81.446,52.88,51,61
82.557,53.238,51,61
84.549,49.9,51,61
86.931,49.893,51,61
89.501,48.515,51,61
91.962,46.089,51,61
94.216,47.058,51,61
98.279,44.207,51,61
99.94,43.214,51,61
102.39,41.31,51,61
103.68,41.081,51,61
106.95,38.94,51,61
109.87,36.888,51,61
112.69,33.801,51,61
114.78,34.155,51,61
117,32.764,51,61
118.67,32.436,51,61
119.98,32.125,51,61
122.45,30.868,51,61
124.61,30.758,51,61
126.97,29.265,51,61
130.3,30.879,51,61
131.26,30.766,51,61
133.13,30.41,51,61
135.92,31.138,51,61
137.89,29.918,51,61
139.58,29.052,51,61
142.71,31.643,51,61
142.83,29.899,51,61
145.17,29.699,51,61
146.28,29.773,51,61
146.66,30.9,51,61
149.91,31.752,51,61
151.5,32.438,51,61
153.23,34.284,51,61
153.86,34.496,51,61
154.08,35.446,51,61
155.71,37.87,51,61
157.33,39.025,51,61
157.05,39.573,51,61
158.36,42.367,51,61
159.37,43.53,51,61
160.46,46.422,51,61
160.9,47.324,51,61
163.61,48.565,51,61
162.3,49.973,51,61
164.92,52.28,51,61
163.89,51.412,51,61
167.22,54.24,51,61
164.62,55.884,51,61
167.13,58.915,51,61
168.72,57.402,51,61
166.05,59.972,51,61
164.96,58.352,51,61
163.15,59.467,51,61
163.07,58.777,51,61
160.54,57.29,51,61
159.79,57.316,51,61
158.3,56.716,51,61
155.32,56.881,51,61
156.01,58.411,51,61
154.4,56.863,51,61
153.05,55.558,51,61
151.61,57.058,51,61
149.32,56.823,51,61
147.27,59.337,51,61
143.63,58.411,51,61
141.24,61.257,51,61
136.96,59.082,51,61
133.38,60.326,51,61
129.85,58.41,51,61
125.45,61.277,51,61
122.03,61.528,51,61
117.93,62.74,51,61
116.17,64.947,51,61
112.13,64.249,51,61
108.02,64.136,51,61
106.52,64.507,51,61
105.14,65.665,51,61
102.33,66.695,51,61
99.435,69.878,51,61
98.296,69.579,51,61
95.825,69.7,51,61
93.67,71.608,51,61
91.832,73.474,51,61
88.871,74.613,51,61
86.941,75.052,51,61
87.685,74.215,51,61
86.487,74.425,51,61
85.123,75.132,51,61
86.548,75.944,51,61
89.107,77.934,51,61
87.223,81.398,51,61
90.348,85.36,51,61
91.076,89.916,51,61
90.839,93.412,51,61
88.679,95.437,51,61
90.792,99.509,51,61
89.109,102.57,51,61
89.853,109.37,51,61
87.678,110.54,51,61
87.58,111.89,51,61
87.482,119.92,51,61
87.607,122.05,51,61
88.232,122.14,51,61
88.025,122.75,51,61
88.845,124.07,51,61
86.537,121.95,51,61
89.626,121.3,51,61
89.32,117.72,51,61
88.29,113.91,51,61
87.977,110.83,51,61
86.127,103.06,51,61
85.035,97.615,51,61
86.61,92.584,51,61
85.53,87.295,51,61
86.445,83.096,51,61
87.012,77.793,51,61
87.547,76.781,51,61
86.534,72.982,51,61
87.324,70.31,51,61
87.404,68.503,51,61
90.616,66.055,51,61
93.979,64.054,51,61
97.679,62.836,51,61
99.182,62.572,51,61
104.67,62.024,51,61
109.24,62.399,51,61
112,62.393,51,61
116.69,64.423,51,61
118.45,63.507,51,61
120.93,63.16,51,61
124.18,66.556,51,61
124.46,66.42,51,61
128.64,64.998,51,61
129.86,66.78,51,61
131.26,67.141,51,61
131.27,64.485,51,61
129.31,65.362,51,61
128,65.284,51,61
127.24,65.387,51,61
126.3,64.565,51,61
122.96,65.002,51,61
119.48,65.329,51,61
117.33,64.422,51,61
113,66.028,51,61
112.11,64.79,51,61
107.36,65.231,51,61
104.89,64.286,51,61
101.79,64.53,51,61
98.639,68.866,51,61
96.371,69.092,51,61
91.147,70.107,51,61
90.253,71.229,51,61
89.49,72.542,51,61
87.334,74.193,51,61
85.728,74.665,51,61
84.948,75.306,51,61
83.521,76.25,51,61
82.304,79.762,51,61
82.085,82.642,51,61
81.743,85.17,51,61
82.702,86.926,51,61
83.036,89.094,51,61
82.736,94.146,51,61
81.725,99.338,51,61
86.323,101.48,51,61
84.342,104.79,51,61
88.397,107.91,51,61
92.241,106.68,51,61
85.347,113.39,51,61
81.985,121.38,51,61
86.137,115.78,51,61
87.213,117.81,51,61
88.218,118.89,51,61
87.809,124,51,61
88.903,124.08,51,61
91.744,123.62,51,61
92.951,121.35,51,61
94.564,113.75,51,61
102.62,108.11,51,61
104.47,102.53,51,61
105.25,99.054,51,61
104.01,95.001,51,61
106.68,91.359,51,61
107.17,87.515,51,61
107.42,82.473,51,61
105.93,81.643,51,61
104.14,80.479,51,61
101.88,77.8,51,61
100.63,76.24,51,61
99.453,75.523,51,61
97.378,72.157,51,61
95.67,72.898,51,61
93.63,70.171,51,61
91.991,68.68,51,61
90.858,67.317,51,61
87.316,66.526,51,61
89.214,64.358,51,61
88.278,63.939,51,61
89.621,63.204,51,61
88.475,61.392,51,61
89.805,58.678,51,61
90.908,56.254,51,61
90.088,57.893,51,61
92.028,60.603,51,61
94.226,60.391,51,61
96.068,58.834,51,61
97.72,60.478,51,61
97.802,59.018,51,61
99.717,58.254,51,61
100.95,57.777,51,61
102.09,57.518,51,61
103.05,57.844,51,61
104.23,56.141,51,61
104.27,55.942,51,61
109.28,56.691,51,61
109.4,55.071,51,61
111.69,56.873,51,61
114.4,55.273,51,61
114.1,57.193,51,61
116.6,56.62,51,61
117.89,57.038,51,61
119.33,58.157,51,61
120.52,56.744,51,61
123.28,57.393,51,61
123.18,57.202,51,61
124.96,55.418,51,61
122.33,56.232,51,61
125.74,54.915,51,61
125.5,54.488,51,61
124.8,55.045,51,61
125.08,55.515,51,61
125.28,57.121,51,61
125.8,57.433,51,61
127.25,54.52,51,61
126.66,55.128,51,61
126.73,56.143,51,61
127.7,56.776,51,61
128.7,56.471,51,61
128.27,60.113,51,61
128.59,61.739,51,61
128.96,65.527,51,61
127.27,69.126,51,61
126.41,72.837,51,61
126.09,76.588,51,61
125.28,80.863,51,61
126.12,82.776,51,61
125.11,84.632,51,61
126.26,85.755,51,61
125.37,90.145,51,61
125.46,91.161,51,61
123.47,93.583,51,61
123.39,96.364,51,61
122.28,97.3,51,61
122.54,97.872,51,61
123.2,98.745,51,61
122.99,99.157,51,61
122.53,97.158,51,61
123.24,94.677,51,61
122.46,92.654,51,61
123.2,88.936,51,61
121.63,86.471,51,61
121.04,82.88,51,61
120.45,79.588,51,61
120.04,75.795,51,61
119.98,72.721,51,61
119.97,70.456,51,61
120.89,67.538,51,61
120.18,65.281,51,61
118.53,63.76,51,61
117.93,60.192,51,61
116.6,57.623,51,61
115.87,57.28,51,61
113.26,56.928,51,61
111.22,56.61,51,61
108.1,56.656,51,61
106.5,55.305,51,61
104.48,56.217,51,61
101.38,53.438,51,61
97.241,54.454,51,61
95.202,52.088,51,61
91.179,51.355,51,61
88.246,50.83,51,61
86.049,51.073,51,61
82.473,52.432,51,61
79.733,50.419,51,61
78.256,52.009,51,61
75.478,52.861,51,61
70.105,52.44,51,61
69.382,52.543,51,61
69.486,53.954,51,61
64.92,53.179,51,61
64.973,52.573,51,61
65.443,52.329,51,61
65.441,53.449,51,61
64.04,53.831,51,61
64.092,55.137,51,61
64.26,54.491,51,61
65.614,53.791,51,61
69.971,54.452,51,61
73.002,55.046,51,61
77.259,56.292,51,61
80.499,57.489,51,61
84.854,59.432,51,61
85.105,62.066,51,61
89.556,63.105,51,61
95.709,61.893,51,61
96.6,64.854,51,61
99.149,66.148,51,61
108.27,63.241,51,61
108.95,65.43,51,61
113.55,68.323,51,61
116.75,67.601,51,61
121.46,65.866,51,61
126.51,65.548,51,61
129.08,67.359,51,61
133.32,67.656,51,61
136.99,65.527,51,61
140.42,66.545,51,61
142.21,67.032,51,61
146.01,67.45,51,61
148.47,67.925,51,61
152.65,69.005,51,61
152.86,71.746,51,61
155.44,73.18,51,61
157.72,78.436,51,61
157.81,81.675,51,61
160.06,83.986,51,61
160.3,86.806,51,61
166.39,91.63,51,61
161.13,92.936,51,61
162.5,96.954,51,61
161.15,99.825,51,61
162.31,107.47,51,61
162.35,111.77,51,61
161.91,114.23,51,61
161.67,117.64,51,61
161.05,121.88,51,61
160.29,124.83,51,61
162.15,128.73,51,61
160.38,135.31,51,61
161.36,138.77,51,61
161.24,142.16,51,61
161.67,143.56,51,61
159.53,145.73,51,61
160.14,146.41,51,61
160.46,142.94,51,61
160.97,140.44,51,61
162.06,139.85,51,61
161.28,138.86,51,61
161.9,138.92,51,61
160.27,138.74,51,61
158.42,136.48,51,61
160.8,131.35,51,61
159.57,126.16,51,61
157.45,120.9,51,61
157.14,117.36,51,61
156.04,113.42,51,61
154.47,111.1,51,61
153.94,104.9,51,61
153.03,101.14,51,61
152.47,98.442,51,61
148.12,96.47,51,61
145.69,91.298,51,61
144.3,90.382,51,61
143.33,86.077,51,61
140.74,85.324,51,61
138.47,84.364,51,61
136.53,82.496,51,61
132.93,83.742,51,61
131.57,84.413,51,61
129.3,83.503,51,61
126.79,85.406,51,61
125.77,83.234,51,61
124.24,81.851,51,61
122.96,80.667,51,61
118.7,82.62,51,61
119.06,82.09,51,61
114.41,83.786,51,61
115.81,86.141,51,61
114.18,87.494,51,61
111.85,90.113,51,61
110.22,91.943,51,61
109.36,94.87,51,61
92.622,88.118,51,61
90.281,86.744,51,61
90.569,88.878,51,61
90.048,88.902,51,61
92.219,90.337,51,61
90.834,89.062,51,61
90.245,89.187,51,61
89.167,89.357,51,61
90.116,91.672,51,61
88.279,91.503,51,61
91.361,92.863,51,61
89.352,93.96,51,61
89.031,95.455,51,61
87.995,95.315,51,61
89.031,95.929,51,61
87.343,94.749,51,61
84.921,96.21,51,61
85.109,94.069,51,61
84.885,96.337,51,61
83.385,94.542,51,61
82.044,94.407,51,61
80.442,95.115,51,61
80.567,94.388,51,61
81.634,91.315,51,61
80.149,91.498,51,61
77.862,92.458,51,61
78.529,91.602,51,61
79.369,87.938,51,61
76.314,88.123,51,61
76.752,86.697,51,61
74.431,88.873,51,61
75.498,85.239,51,61
75.264,83.984,51,61
77.034,80.821,51,61
78.237,80.49,51,61
75.922,80.312,51,61
78.446,77.244,51,61
85.035,72.439,51,61
88.257,73.633,51,61
87.757,73.982,51,61
97.109,67.611,51,61
95.973,67.255,51,61
99.33,63.882,51,61
100.55,60.801,51,61
100.99,59.142,51,61
102.65,57.784,51,61
100.51,56.435,51,61
100.71,53.748,51,61
101.19,49.828,51,61
101.23,47.611,51,61
101.47,46.022,51,61
102.38,44.825,51,61
103.25,42.91,51,61
103.27,42.883,51,61
104.8,42.304,51,61
106.33,40.82,51,61
107.46,42.051,51,61
108.52,41.122,51,61
110.77,39.641,51,61
111.88,40.695,51,61
112.96,40.334,51,61
115.18,39.056,51,61
116.26,37.98,51,61
118.66,37.497,51,61
120.72,38.363,51,61
122.68,38.824,51,61
123.75,38.726,51,61
125.72,40.726,51,61
127.39,40.253,51,61
130.52,43.071,51,61
132.57,43.115,51,61
134.39,44.031,51,61
135.24,43.099,51,61
134.33,43.671,51,61
131.81,41.56,51,61
129.32,45.66,51,61
128.91,45.28,51,61
126.39,46.389,51,61
123.74,46.823,51,61
123.21,47.693,51,61
120.36,47.862,51,61
117.65,48.426,51,61
115.95,49.934,51,61
114.36,51.035,51,61
113.07,50.591,51,61
110.13,51.865,51,61
105.18,54.535,51,61
102.27,54.268,51,61
99.732,57.122,51,61
95.722,59.138,51,61
92.5,61.053,51,61
92.453,61.854,51,61
92.026,63.328,51,61
88.819,65.41,51,61
88.727,65.901,51,61
87.84,67.723,51,61
87.307,69.398,51,61
85.339,69.986,51,61
84.769,71.425,51,61
85.561,73.631,51,61
83.696,75.874,51,61
82.856,75.548,51,61
85.137,79.776,51,61
83.448,80.471,51,61
83.592,80.748,51,61
84.316,82.931,51,61
87.218,81.517,51,61
88.841,83.138,51,61
89.088,84.537,51,61
93.146,82.335,51,61
92.585,84.665,51,61
94.462,81.94,51,61
95.022,83.984,51,61
96.09,81.378,51,61
95.911,81.436,51,61
98.305,81.202,51,61
98.083,81.106,51,61
98.016,82.491,51,61
99.438,80.21,51,61
98.996,80.199,51,61
100.52,77.297,51,61
99.75,77.087,51,61
100.93,75.827,51,61
100.04,74.478,51,61
100.32,72.4,51,61
100.97,70.785,51,61
101.17,68.629,51,61
101.64,68.314,51,61
103.25,67.979,51,61
105.11,67.946,51,61
108.1,67.858,51,61
109.03,67.928,51,61
111.75,70.699,51,61
114.56,71.678,51,61
116.61,71.714,51,61
116.77,72.932,51,61
117.72,74.284,51,61
118.86,72.785,51,61
119.66,72.879,51,61
119.65,74.104,51,61
120.49,72.561,51,61
119.42,73.503,51,61
121.21,74.026,51,61
121.72,74.458,51,61
124.6,77.272,51,61
126.34,77.158,51,61
131.65,79.884,51,61
136.68,83.518,51,61
143.44,87.413,51,61
144.98,90.98,51,61
151.36,92.359,51,61
158.01,95.939,51,61
165.64,94.993,51,61
168.78,97.217,51,61
174.04,98.065,51,61
179.07,99.193,51,61
184.36,99.059,51,61
186.51,100.69,51,61
189.79,98.79,51,61
193.08,98.094,51,61
192.61,99.158,51,61
193.67,100.71,51,61
191.55,100.7,51,61
193.2,100.13,51,61
192.17,100.71,51,61
188.19,97.416,51,61
187.7,100.65,51,61
185.09,99.473,51,61
185.39,100.04,51,61
185.11,97.95,51,61
182.57,101.83,51,61
183.74,100.96,51,61
182.21,102.36,51,61
181.74,102.92,51,61
182.09,103.5,51,61
181.45,102.43,51,61
183.65,101.76,51,61
183.01,104.44,51,61
182.37,104.23,51,61
184.62,101.69,51,61
184.77,101.94,51,61
185.71,103.68,51,61
184.62,102.85,51,61
183.16,103.89,51,61
183.29,104.19,51,61
183.62,103.38,51,61
183.2,103.45,51,61
183.25,106.46,51,61
182.64,103.11,51,61
182.21,103.05,51,61
182.74,103.11,51,61
182.54,104.62,51,61
183.46,104.92,51,61
183.69,107.47,51,61
183.9,105.74,51,61
183.82,106.14,51,61
184.09,106.64,51,61
183.07,105.73,51,61
184.36,106.76,51,61
185.29,109.08,51,61
185.97,107.73,51,61
184.79,105.95,51,61
184.86,106.54,51,61
185.32,108.01,51,61
184.02,107.01,51,61
184.65,107.24,51,61
184.3,105.78,51,61
184.99,107.65,51,61
184.83,108.81,51,61
184.9,105.72,51,61
184.73,106.68,51,61
183.97,107.06,51,61
184.75,108.36,51,61
184.51,109.57,51,61
184.91,107.5,51,61
185.52,106.76,51,61
