205,151,17,50
203,147.7,17,50
201.67,149.74,17,50
200.24,148.36,17,50
199.59,148.54,17,50
199.44,146.88,17,50
197.36,145.77,17,50
194.8,148.52,17,50
194.09,148.04,17,50
192.22,145.34,17,50
190.9,144.44,17,50
190.38,144.73,17,50
188.78,142.27,17,50
187.55,142.11,17,50
186.44,141.45,17,50
183.33,142.26,17,50
183.48,139.88,17,50
181.59,143.56,17,50
182.28,140.12,17,50
180.17,140.27,17,50
180.03,138.96,17,50
178.39,137.45,17,50
177.61,137.68,17,50
177.55,136.58,17,50
175.12,136.06,17,50
175.04,137.49,17,50
173.74,135.36,17,50
173.2,134.89,17,50
171.83,134.32,17,50
170.18,131.56,17,50
169.58,131.95,17,50
169.8,130.82,17,50
168.55,128.24,17,50
167.09,129.38,17,50
165.25,127.66,17,50
165.36,126.32,17,50
164.11,126.44,17,50
165.21,126.55,17,50
164.08,125.55,17,50
164.99,125.41,17,50
163.12,125.19,17,50
163.69,124.8,17,50
162.2,122.79,17,50
161.92,125.36,17,50
160.92,124.09,17,50
160.93,122.53,17,50
159.1,124.18,17,50
157.64,122.67,17,50
155.97,119.99,17,50
156.01,123.35,17,50
154.53,121.83,17,50
153.38,119.83,17,50
151.77,119.07,17,50
150.79,119.13,17,50
149.89,116.99,17,50
148.85,116.38,17,50
147.26,117.11,17,50
145.87,116.88,17,50
146.25,118.46,17,50
143.31,119.75,17,50
140.92,117.84,17,50
139.82,116.63,17,50
138.22,115.54,17,50
137.06,115.66,17,50
135.11,115.08,17,50
134.88,112.82,17,50
132.86,114.69,17,50
130.64,114.3,17,50
128.04,113.75,17,50
127.72,113.44,17,50
125.1,109.91,17,50
124.26,109.5,17,50
124.63,108.94,17,50
124.12,107.19,17,50
120.96,109.12,17,50
121.24,107.18,17,50
118.7,106.86,17,50
117.64,105.27,17,50
116.59,104.65,17,50
116.14,105.48,17,50
114.23,101.49,17,50
112.17,102.12,17,50
111.77,102.86,17,50
108.25,100.89,17,50
107.28,101.8,17,50
104.6,101.46,17,50
103.49,101.65,17,50
101.35,101.43,17,50
100.74,101.63,17,50
99.034,98.931,17,50
97.227,98.831,17,50
96.304,97.675,17,50
94.504,96.901,17,50
93.117,96.275,17,50
91.798,98.367,17,50
90.555,97.889,17,50
87.47,96.611,17,50
86.824,94.646,17,50
84.264,94.476,17,50
83.326,93.395,17,50
81.663,93.853,17,50
79.63,92.903,17,50
79.148,93.57,17,50
77.03,94.835,17,50
76.027,93.763,17,50
73.431,93.381,17,50
72.012,93.185,17,50
71.443,95.405,17,50
69.33,91.175,17,50
66.995,89.086,17,50
66.576,91.861,17,50
65.681,89.999,17,50
64.277,90.985,17,50
64.028,90.622,17,50
62.893,89.955,17,50
60.795,88.17,17,50
58.521,88.677,17,50
57.571,91.157,17,50
56.39,89.697,17,50
56.091,86.953,17,50
