141,73,27,34
140.87,72.959,27,34
141.06,72.711,27,34
141.5,73.728,27,34
141.24,73.155,27,34
142.55,72.654,27,34
142.6,72.662,27,34
142.72,73.267,27,34
143.84,72.958,27,34
143.88,72.742,27,34
145.13,74.089,27,34
145.14,73.129,27,34
146.22,73.038,27,34
146.7,73.562,27,34
147.42,72.459,27,34
147.42,72.952,27,34
148.25,73.552,27,34
148.86,72.753,27,34
149.34,73.01,27,34
150.64,73.375,27,34
154.36,73.69,27,34
153.53,73.409,27,34
155.32,73.533,27,34
156.4,73.298,27,34
158.25,73.581,27,34
160.25,72.977,27,34
161.67,74.339,27,34
162.81,74.22,27,34
163.75,73.242,27,34
165.3,72.991,27,34
167.26,74.37,27,34
168.37,74.618,27,34
169.47,72.418,27,34
169.65,72.964,27,34
172.28,72.432,27,34
171.98,74.569,27,34
173.36,71.946,27,34
174.15,72.682,27,34
175.43,71.47,27,34
175.42,73.027,27,34
176.75,72.895,27,34
176.72,71.896,27,34
176.88,72.24,27,34
176.76,72.198,27,34
177.26,71.897,27,34
177.37,71.696,27,34
176.85,72.142,27,34
176.2,72.613,27,34
175.44,72.334,27,34
175.62,71.477,27,34
172.33,72.802,27,34
172.99,72.133,27,34
170.59,72.318,27,34
169.53,72.896,27,34
167.52,73.757,27,34
167.05,72.956,27,34
164.9,72.796,27,34
162.86,72.521,27,34
161.12,71.857,27,34
158.76,73.887,27,34
155.68,72.433,27,34
155.35,73.932,27,34
154.68,73.237,27,34
152.14,72.222,27,34
150.03,72.708,27,34
147.81,73.175,27,34
146.76,73.752,27,34
144.49,74.855,27,34
142.78,72.906,27,34
140.96,73.72,27,34
137.11,73.676,27,34
137.84,73.396,27,34
135.13,73.506,27,34
133.56,74.317,27,34
131.48,74.852,27,34
130.29,74.831,27,34
128.3,74.896,27,34
126.39,74.659,27,34
124.93,75.389,27,34
123.85,75.335,27,34
121.45,74.784,27,34
120.94,76.254,27,34
120.73,75.512,27,34
119.27,76.168,27,34
119.19,75.863,27,34
119.1,75.524,27,34
118.91,76.206,27,34
118.44,75.577,27,34
117.23,76.368,27,34
117.34,75.985,27,34
116.02,76.175,27,34
116.92,75.964,27,34
116.85,75.561,27,34
117.48,76.976,27,34
117.44,76.184,27,34
118.26,75.785,27,34
118.7,76.019,27,34
119.68,75.396,27,34
118.94,75.282,27,34
119.68,75.767,27,34
119.68,76.91,27,34
120.09,76.493,27,34
121.31,76.169,27,34
121.63,76.34,27,34
122.29,76.65,27,34
121.75,76.154,27,34
123.85,76.011,27,34
124.52,77.366,27,34
124.29,76.846,27,34
126.61,76.773,27,34
129.11,77.259,27,34
129.57,75.982,27,34
129.89,77.073,27,34
131.19,76.984,27,34
133.06,77.713,27,34
133.9,77.991,27,34
135.67,77.204,27,34
135.8,78.312,27,34
137.16,77.777,27,34
139.46,76.959,27,34
140.64,76.098,27,34
140.97,77.555,27,34
141.95,77.097,27,34
143.87,76.734,27,34
144.89,76.068,27,34
145.23,76.002,27,34
147.08,76.417,27,34
147.5,75.158,27,34
148.75,76.913,27,34
149.35,75.593,27,34
150.95,76.06,27,34
151.04,76.224,27,34
151.25,75.989,27,34
151.02,76.059,27,34
152.95,76.794,27,34
153.44,75.917,27,34
154.6,76.7,27,34
154.38,77.508,27,34
156.56,77.543,27,34
155.68,76.747,27,34
156.04,77.408,27,34
157.66,76.882,27,34
156.77,76.573,27,34
158.5,78.185,27,34
158.08,77.791,27,34
157.05,78.431,27,34
157.4,79.535,27,34
157.21,80.153,27,34
158.04,80.222,27,34
157.95,80.767,27,34
156.83,82.342,27,34
156.89,81.469,27,34
157.39,82.954,27,34
156.6,83.469,27,34
156.29,83.424,27,34
157.25,84.733,27,34
157.25,85.932,27,34
156.31,85.903,27,34
156.9,86.328,27,34
156.51,86.795,27,34
156.82,88.142,27,34
156.71,87.392,27,34
156.39,89.125,27,34
156.27,88.317,27,34
156.72,88.902,27,34
156.83,89.572,27,34
155.64,89.991,27,34
155.48,88.819,27,34
155.99,89.981,27,34
156.49,89.445,27,34
155.9,89.385,27,34
154.97,90.152,27,34
155.32,87.962,27,34
155.1,88.961,27,34
154.5,88.055,27,34
155.11,88.148,27,34
153.66,87.087,27,34
153.25,87.658,27,34
152.54,87.39,27,34
152.04,86.741,27,34
150.67,84.309,27,34
151.32,84.179,27,34
150.33,83.134,27,34
150.38,82.464,27,34
150.24,82.391,27,34
150.72,81.495,27,34
150.6,81.596,27,34
150.08,79.86,27,34
151.08,79.208,27,34
150.98,78.948,27,34
150.68,77.617,27,34
150.95,76.874,27,34
150.91,77.664,27,34
151.81,79.925,27,34
151.09,75.674,27,34
151.64,77.109,27,34
151.98,77.081,27,34
151.9,77.733,27,34
152.75,76.586,27,34
152.35,75.805,27,34
152.14,77.059,27,34
152.47,75.078,27,34
152.4,75.611,27,34
153.34,75.514,27,34
153.12,76.872,27,34
153.37,74.022,27,34
153.43,75.364,27,34
153.27,76.213,27,34
153.9,75.675,27,34
152.63,75.151,27,34
150.96,74.867,27,34
151.81,76.021,27,34
150.95,75.275,27,34
148.88,76.103,27,34
147.06,76.554,27,34
146.08,75.759,27,34
143.26,76.709,27,34
141.98,78.033,27,34
139.28,77.007,27,34
137.32,77.326,27,34
131.5,77.21,27,34
130.82,76.843,27,34
128.68,78.188,27,34
125.65,78.186,27,34
123.03,77.84,27,34
119.96,77.281,27,34
117.92,78.561,27,34
115.6,77.518,27,34
114.37,77.634,27,34
112.59,77.802,27,34
109.87,77.188,27,34
109.62,76.976,27,34
108.14,76.846,27,34
107.05,76.559,27,34
106.09,77.512,27,34
105.09,77.634,27,34
104.82,76.631,27,34
103.8,76.714,27,34
103.37,77.394,27,34
102.22,77.517,27,34
103.31,78.697,27,34
102.81,77.9,27,34
102.32,78.126,27,34
102.11,78.326,27,34
101.95,78.454,27,34
102.22,78.925,27,34
102.06,79.336,27,34
102.33,79.691,27,34
102.72,80.09,27,34
103.12,80.718,27,34
103.25,81.631,27,34
103.8,81.581,27,34
104.46,82.751,27,34
103.22,83.954,27,34
103.84,84.309,27,34
103.36,83.628,27,34
103.64,84.221,27,34
101.98,83.751,27,34
100.79,84.796,27,34
100.3,84.547,27,34
96.394,83.943,27,34
96.634,84.774,27,34
94.734,84.014,27,34
92.591,83.533,27,34
90.534,84.726,27,34
89.146,83.26,27,34
87.267,82.634,27,34
84.613,83.086,27,34
82.586,83.392,27,34
80.917,83.188,27,34
75.47,82.659,27,34
75.405,82.749,27,34
72.536,83.084,27,34
68.278,83.234,27,34
65.645,83.053,27,34
62.655,82.154,27,34
59.31,82.992,27,34
56.785,82.973,27,34
52.962,82.511,27,34
49.966,83.486,27,34
46.017,82.134,27,34
45.185,82.835,27,34
42.491,83.087,27,34
39.877,82.939,27,34
37.546,81.928,27,34
34.69,82.807,27,34
32.435,83.563,27,34
31.172,83.657,27,34
29.589,83.236,27,34
27.888,83.055,27,34
24.09,83.864,27,34
23.739,82.759,27,34
22.756,84.106,27,34
21.049,83.471,27,34
19.702,82.815,27,34
18.196,82.88,27,34
16.997,82.645,27,34
16.32,82.366,27,34
15.342,82.201,27,34
15.149,82.865,27,34
13.246,81.992,27,34
14.254,82.467,27,34
13.65,82.367,27,34
13.182,81.908,27,34
12.203,81.475,27,34
11.719,82.046,27,34
12.625,81.246,27,34
12.237,80.151,27,34
12.686,82.504,27,34
12.71,81.089,27,34
13.119,81.095,27,34
13.26,80.533,27,34
13.567,80.578,27,34
13.338,81.194,27,34
13.639,81.373,27,34
14.3,83.842,27,34
14.801,81.417,27,34
15.157,82.302,27,34
16.762,83.768,27,34
17.492,83.53,27,34
20.506,83.36,27,34
19.793,84.933,27,34
22.306,84.272,27,34
24.807,85.694,27,34
26.987,85.876,27,34
29.441,87.585,27,34
32.355,88.972,27,34
36.137,90.074,27,34
38.902,92.659,27,34
42.218,95.738,27,34
49.74,100.11,27,34
49.105,100.69,27,34
52.745,102.37,27,34
56.248,104.4,27,34
58.9,107.84,27,34
61.087,112.03,27,34
65.049,112.84,27,34
66.903,115.75,27,34
71.424,117.91,27,34
72.738,120.93,27,34
77.614,122.86,27,34
77.876,123.45,27,34
79.849,124.87,27,34
82.729,127.2,27,34
84.133,128.87,27,34
85.737,130.16,27,34
88.171,130.41,27,34
89.01,131.98,27,34
91.296,132.7,27,34
91.584,131.99,27,34
95.015,136.21,27,34
95.06,134.69,27,34
96.37,133.48,27,34
98.289,137.52,27,34
99.978,137.12,27,34
100.35,137.56,27,34
102.35,137.53,27,34
103.63,136.71,27,34
105.42,139.21,27,34
107.68,138.58,27,34
110.38,139.72,27,34
109.77,140.62,27,34
112.26,141.28,27,34
113.6,140.3,27,34
113.89,140.04,27,34
114.16,138.98,27,34
114.94,138.34,27,34
115.36,137.61,27,34
116.03,134.86,27,34
116.74,135.04,27,34
117.59,131.41,27,34
117.37,132.62,27,34
118.03,130.55,27,34
118.67,129.01,27,34
117.48,128.69,27,34
119.59,126.45,27,34
120.05,127.03,27,34
121.15,125.79,27,34
122.27,123.66,27,34
122.39,123.26,27,34
123.32,123.45,27,34
123.7,123.19,27,34
125.85,121.7,27,34
125.81,122.06,27,34
125.63,121.75,27,34
126.67,120.44,27,34
127.49,120.42,27,34
127.85,119.68,27,34
127.81,118.12,27,34
125.98,116.41,27,34
128.57,118.21,27,34
128.4,117.23,27,34
127.43,116.34,27,34
128.56,117.89,27,34
127.72,114.47,27,34
129.95,116.32,27,34
129.3,113.89,27,34
131.16,114.53,27,34
131.85,115.6,27,34
132.77,113.85,27,34
137.88,114.27,27,34
137.28,114.45,27,34
139.16,113.95,27,34
144.09,112,27,34
145.33,111.94,27,34
148.72,110.11,27,34
152.73,109.68,27,34
157.32,109.46,27,34
159.67,109.05,27,34
161.99,105.29,27,34
168.67,104.42,27,34
168.59,103.43,27,34
171.28,102.06,27,34
174,101.49,27,34
175.58,100.21,27,34
177.99,99.818,27,34
179.72,100.09,27,34
182.23,99.403,27,34
182.17,99.833,27,34
184.18,99.434,27,34
185.05,98.684,27,34
184.6,98.688,27,34
185.37,98.859,27,34
183.7,98.187,27,34
183.97,97.569,27,34
184.79,97.233,27,34
183.56,97.597,27,34
181.87,97.487,27,34
181.23,96.521,27,34
180.24,95.915,27,34
177.27,96.697,27,34
178.01,96.508,27,34
175.85,95.372,27,34
174.7,97.197,27,34
174.44,97.104,27,34
172.95,95.708,27,34
173.3,96.065,27,34
171.45,95.234,27,34
171.21,95.056,27,34
172.78,94.94,27,34
173.22,93.765,27,34
174.3,94.592,27,34
175.01,92.988,27,34
176.34,93.438,27,34
176.57,90.839,27,34
179.09,90.373,27,34
181.1,89.82,27,34
184.01,89.107,27,34
186.1,87.731,27,34
189.28,88.834,27,34
195.54,87.36,27,34
195.79,88.493,27,34
198.48,87.87,27,34
200.68,86.516,27,34
203.92,85.606,27,34
206.78,86.399,27,34
210.23,86.519,27,34
212.79,86.783,27,34
215.73,87.122,27,34
217.14,86.14,27,34
222.47,87.415,27,34
222.69,87.783,27,34
224.98,86.568,27,34
225.67,85.365,27,34
228.38,84.226,27,34
230.84,84.064,27,34
233.06,82.945,27,34
235.28,81.221,27,34
236.65,80.281,27,34
239.1,78.494,27,34
244.06,76.836,27,34
242.15,75.702,27,34
246.27,75.553,27,34
247.91,75.189,27,34
248.99,72.293,27,34
250.82,73.295,27,34
251.55,73.825,27,34
252.1,72.595,27,34
252.87,72.574,27,34
253.69,73.549,27,34
253.01,74.13,27,34
253.47,73.953,27,34
252.75,72.452,27,34
251.4,73.191,27,34
250.78,72.547,27,34
249.18,74.314,27,34
248.87,74.791,27,34
247.09,73.97,27,34
245.88,75.596,27,34
245.13,75.833,27,34
241.78,77.346,27,34
242.4,77.277,27,34
241.56,78.163,27,34
239.3,79.151,27,34
237.54,77.997,27,34
236.37,78.212,27,34
234.88,80.694,27,34
233.2,79.63,27,34
232.15,80.711,27,34
231.38,80.576,27,34
226.67,81.453,27,34
226.87,82.986,27,34
224.01,81.557,27,34
223.69,82.091,27,34
220.93,80.872,27,34
218.98,82.781,27,34
217.28,82.614,27,34
215.75,82.848,27,34
213.26,82.517,27,34
212.25,80.857,27,34
209.32,82.388,27,34
209.68,81.775,27,34
208.76,81.095,27,34
207.19,81.03,27,34
207.08,80.868,27,34
206.29,80.787,27,34
205.44,80.687,27,34
205.48,80.486,27,34
205.18,79.709,27,34
204.83,79.66,27,34
204.94,79.202,27,34
204.89,79.373,27,34
204.33,79.27,27,34
204.92,79.326,27,34
205.29,78.396,27,34
205.55,77.622,27,34
206.21,78.137,27,34
206.81,79.346,27,34
207.52,78.484,27,34
207.38,77.104,27,34
209.51,78.74,27,34
209.74,78.214,27,34
210.68,78.483,27,34
210.33,77.847,27,34
211.58,78.298,27,34
210.64,77.125,27,34
212.21,77.242,27,34
