310,102,39,50
308.63,100.6,39,50
306.8,99.833,39,50
305.38,98.599,39,50
304.05,97.281,39,50
303.11,96.138,39,50
301.85,95.307,39,50
301.4,94.739,39,50
298.14,90.74,39,50
298,91.511,39,50
296.96,91.754,39,50
295.11,89.426,39,50
295.06,88.591,39,50
294.06,88.693,39,50
293.23,86.85,39,50
292.13,85.358,39,50
292.4,85.789,39,50
290.73,84.314,39,50
288.97,82.612,39,50
288.89,81.243,39,50
288.14,82.468,39,50
287.04,81.674,39,50
286.35,82.352,39,50
285.22,82.838,39,50
283.05,82.487,39,50
282.43,81.411,39,50
280.62,82.112,39,50
279.21,80.955,39,50
277.25,83.053,39,50
276.41,81.605,39,50
274.05,81.272,39,50
272,81.262,39,50
270.56,81.138,39,50
269.55,79.504,39,50
267.59,80.468,39,50
266.29,80.891,39,50
263.87,78.703,39,50
262.48,80.931,39,50
261.41,80.98,39,50
260.51,82.157,39,50
258.06,82.459,39,50
256.63,83.112,39,50
256.39,82.95,39,50
253.84,83.682,39,50
252.24,83.951,39,50
250.84,85.415,39,50
249.79,85.933,39,50
250.13,84.059,39,50
248.88,84.956,39,50
249.15,84.588,39,50
248.65,83.042,39,50
248.82,81.882,39,50
251.53,81.653,39,50
252.31,79.431,39,50
254.45,77.753,39,50
257.06,75.29,39,50
258.27,73.906,39,50
261.97,69.559,39,50
266.86,65.634,39,50
269.29,64.883,39,50
274.16,60.728,39,50
276.35,59.754,39,50
280.82,55.652,39,50
285.53,53.655,39,50
286.17,53.076,39,50
290.04,52.4,39,50
293.01,52.231,39,50
295.53,50.101,39,50
299.36,48.722,39,50
301.65,49.467,39,50
303.38,47.234,39,50
307.54,44.856,39,50
306.76,43.371,39,50
310.69,42.111,39,50
313.5,42.111,39,50
315.17,40.291,39,50
316.52,39.15,39,50
316.36,37.02,39,50
317.9,36.339,39,50
319.63,34.164,39,50
320.22,32.898,39,50
321.13,30.878,39,50
320.86,30.697,39,50
322.04,29.286,39,50
321.94,28.645,39,50
320.45,26.932,39,50
321.16,26.493,39,50
320.68,25.777,39,50
319.77,25.474,39,50
319.45,26.156,39,50
319.05,27.154,39,50
318.37,27.959,39,50
318.79,28.244,39,50
317.29,27.328,39,50
317.03,28.563,39,50
317.15,30.241,39,50
316.64,29.284,39,50
315.81,30.784,39,50
313.86,32.852,39,50
312.3,31.421,39,50
312.04,34.429,39,50
309.21,35.637,39,50
311.54,35.152,39,50
310.92,37.725,39,50
310.69,36.811,39,50
310.06,36.496,39,50
310.22,37.323,39,50
308.76,38.674,39,50
308.42,38.025,39,50
309.34,38.292,39,50
309.74,38.573,39,50
310.38,37.805,39,50
312.48,40.05,39,50
311.73,36.675,39,50
313.71,36.789,39,50
315.65,36.957,39,50
316.12,36.839,39,50
315.87,38.421,39,50
318.74,37.228,39,50
319.35,37.273,39,50
322.29,37.572,39,50
321.1,38.759,39,50
323.18,39.925,39,50
326.21,41.265,39,50
327.79,41.99,39,50
328.73,44.911,39,50
328.46,44.905,39,50
328.89,45.327,39,50
330.52,47.924,39,50
329.64,47.76,39,50
329.33,48.867,39,50
329.23,49.231,39,50
328.75,49.309,39,50
327.8,50.279,39,50
326.42,51.555,39,50
324.63,50.653,39,50
322.86,52.823,39,50
321.35,50.091,39,50
319.25,49.096,39,50
318.79,51.288,39,50
315.27,51.858,39,50
315.38,50.511,39,50
313.99,50.844,39,50
307.89,48.629,39,50
307.26,48.098,39,50
306.87,50.399,39,50
304.7,48.852,39,50
302.51,50.252,39,50
301.91,47.235,39,50
301.08,49.607,39,50
297.62,48.275,39,50
297.82,44.925,39,50
298.29,46.182,39,50
297.24,45.133,39,50
295.21,45.816,39,50
295.66,48.233,39,50
293.59,46.65,39,50
294.24,44.874,39,50
293.38,43.946,39,50
292.85,42.584,39,50
290.18,42.637,39,50
288.44,43.848,39,50
287.63,44.24,39,50
286.88,42.754,39,50
286.86,42.368,39,50
284.94,41.558,39,50
285.11,42.828,39,50
283.57,43.313,39,50
283.75,44.658,39,50
283.26,44.884,39,50
281.13,44.716,39,50
281.41,44.396,39,50
282.07,46.295,39,50
281.86,44.724,39,50
282.86,45.847,39,50
283.14,45.481,39,50
284.59,45.758,39,50
283.17,46.115,39,50
283.74,46.218,39,50
286.32,46.602,39,50
285.48,45.611,39,50
287.77,45.956,39,50
290.03,47.466,39,50
290.73,46.766,39,50
290.96,48.364,39,50
292.93,48.458,39,50
294.44,47.926,39,50
295.42,49.256,39,50
297.08,50.017,39,50
299.59,49.693,39,50
301.77,49.996,39,50
301.98,49.888,39,50
306.26,51.074,39,50
306.94,51.097,39,50
308.71,52.513,39,50
311.86,53.466,39,50
312.75,53.368,39,50
314.09,57.534,39,50
315.13,55.233,39,50
318.36,57.935,39,50
319.91,57.518,39,50
320.18,60.25,39,50
322.13,60.176,39,50
324.06,60.083,39,50
324.58,59.945,39,50
324.39,61.254,39,50
326.53,62.656,39,50
327.99,61.89,39,50
325.11,63.254,39,50
326.53,64.327,39,50
330.08,65.032,39,50
327.92,65.863,39,50
327.96,67.299,39,50
329.86,69.103,39,50
330.04,71.576,39,50
329.01,70.076,39,50
329.7,71.302,39,50
330.24,72.39,39,50
328.49,72.673,39,50
330.88,72.032,39,50
329.39,70.581,39,50
329.33,69.842,39,50
330.08,68.496,39,50
331.39,70.7,39,50
329.48,68.739,39,50
329.21,68.508,39,50
329.54,67.011,39,50
330.84,67.096,39,50
327.27,68.832,39,50
328.67,68.8,39,50
328.51,69.208,39,50
328.36,70.278,39,50
328.16,70.031,39,50
327.55,70.027,39,50
326.89,69.614,39,50
323.46,70.016,39,50
325.86,70.926,39,50
324.74,71.927,39,50
324.9,72.601,39,50
323.5,73.06,39,50
321.8,72.233,39,50
321.6,74.308,39,50
320.24,73.413,39,50
320.41,75.764,39,50
317.94,75.715,39,50
317.21,74.77,39,50
315.32,76.855,39,50
314.47,77.176,39,50
314.58,78.402,39,50
311.96,79.893,39,50
310.88,78.638,39,50
309.09,78.774,39,50
306.85,79.913,39,50
306.71,81.051,39,50
303.34,81.991,39,50
302.29,81.766,39,50
300.43,81.765,39,50
299.24,81.942,39,50
296.8,84.328,39,50
296.21,82.591,39,50
294.67,84.03,39,50
294.05,84.705,39,50
292.93,86.378,39,50
292.34,85.351,39,50
291.48,87.065,39,50
290.51,88.481,39,50
289.88,90.269,39,50
290.02,90.803,39,50
290.07,92.644,39,50
290.05,93.324,39,50
290.26,95.509,39,50
289.94,97.025,39,50
290.72,100.93,39,50
290.99,102.31,39,50
290.93,105.1,39,50
291.71,106.52,39,50
292.23,110.07,39,50
291.52,111.2,39,50
290.54,118.26,39,50
289.41,119.34,39,50
288.65,121.45,39,50
289.4,121.11,39,50
288.6,122.06,39,50
289.38,120.92,39,50
298.05,133.45,39,50
292.64,125.21,39,50
290.41,131.13,39,50
286.67,131.99,39,50
285.44,130.24,39,50
283.57,126.84,39,50
279.57,126.49,39,50
278.97,125.33,39,50
275.03,124.06,39,50
273.82,123.39,39,50
271.51,116.33,39,50
268.9,112.62,39,50
269.09,116.12,39,50
266.33,110.24,39,50
265.83,108.6,39,50
265.96,107.06,39,50
264.99,105.28,39,50
263.16,101.91,39,50
263.45,99.548,39,50
260.68,100.37,39,50
259.99,99.037,39,50
257.63,96.857,39,50
254.51,93.072,39,50
256.03,92.919,39,50
254.23,90.853,39,50
251.18,89.205,39,50
252.84,89.827,39,50
250.91,86.149,39,50
250.15,83.987,39,50
250.05,83.297,39,50
249.82,79.988,39,50
247.07,77.079,39,50
248.1,74.116,39,50
247.41,72.382,39,50
247.47,69.907,39,50
247.55,70.2,39,50
246.94,67.338,39,50
245.91,66.255,39,50
246.25,65.087,39,50
245.65,64.084,39,50
245.41,63.162,39,50
245.85,62.432,39,50
243.99,60.859,39,50
244.07,60.923,39,50
243.75,58.44,39,50
244.72,59.465,39,50
243.72,61.395,39,50
243,59.861,39,50
242.49,58.674,39,50
243.96,60.169,39,50
242.95,60.305,39,50
243.08,61.94,39,50
242.95,61.523,39,50
241.86,62.361,39,50
241.53,62.019,39,50
240.62,62.964,39,50
241.03,64.164,39,50
239.69,65.797,39,50
239.9,67.173,39,50
238.6,67.229,39,50
239.01,69.274,39,50
238.05,70.787,39,50
238.27,72.897,39,50
236.97,74.179,39,50
236.3,76.775,39,50
235.52,77.869,39,50
234.62,80.534,39,50
234.24,83.344,39,50
232.99,84.025,39,50
232.96,85.14,39,50
232.05,84.992,39,50
230.51,88.944,39,50
230.98,91.392,39,50
228.63,93.213,39,50
226.9,94.502,39,50
226.69,96.283,39,50
226,99.381,39,50
224.29,100.18,39,50
