153,105,26,43
152.11,98.816,26,43
152.58,92.26,26,43
152.45,86.94,26,43
152.88,80.09,26,43
152.49,74.853,26,43
152.67,70.39,26,43
150.69,68.635,26,43
147.78,66.204,26,43
142.56,64.924,26,43
137.05,64.962,26,43
132.34,63.449,26,43
125.47,61.65,26,43
118.11,63.674,26,43
113.72,59.138,26,43
111.27,59.874,26,43
112.65,56.744,26,43
112.7,55.704,26,43
111.09,54.321,26,43
107.56,50.555,26,43
102.9,48.77,26,43
95.853,44.839,26,43
89.946,42.53,26,43
84.254,38.73,26,43
79.827,37.004,26,43
77.819,34.253,26,43
76.749,33.963,26,43
77.546,34.434,26,43
79.965,37.098,26,43
85.709,37.918,26,43
88.967,39.24,26,43
92.718,43.815,26,43
96.373,45.43,26,43
99.547,53.02,26,43
101.44,57.916,26,43
105.68,64.571,26,43
110.57,65.457,26,43
114.41,67.503,26,43
119.6,67.552,26,43
123.08,61.305,26,43
129.78,54.999,26,43
135.25,46.548,26,43
140.24,40.03,26,43
143.91,39.813,26,43
148.91,38.709,26,43
152.83,37.265,26,43
157.69,36.851,26,43
160.27,36.926,26,43
162.92,37,26,43
164.01,36.612,26,43
167.55,34.769,26,43
169.1,35.174,26,43
173.62,34.25,26,43
178.71,39.637,26,43
190.88,45.327,26,43
197.19,45.1,26,43
205.28,49.308,26,43
211.32,55.126,26,43
219.97,59.428,26,43
225.59,67.775,26,43
236.76,62.283,26,43
239.88,74.338,26,43
246.2,69.912,26,43
251.16,86.325,26,43
255.15,90.468,26,43
257.29,94.168,26,43
260.01,96.456,26,43
259.71,99.908,26,43
258.38,100.57,26,43
257.62,104.38,26,43
255.51,105.01,26,43
244.7,115.42,26,43
230.84,119.67,26,43
214.06,130.82,26,43
