57,21,31,45
57.278,21.298,31,45
58.462,20.419,31,45
59.685,20.198,31,45
62.002,20.191,31,45
65.689,18.967,31,45
67.993,18.008,31,45
71.352,16.846,31,45
75.447,17.233,31,45
78.038,17.63,31,45
80.497,18.557,31,45
80.364,18.549,31,45
80.772,17.292,31,45
77.631,19.696,31,45
70.905,19.967,31,45
63.981,18.464,31,45
57.371,18.322,31,45
53.484,17.043,31,45
47.379,17.601,31,45
41.109,18.298,31,45
37.103,18.436,31,45
29.861,19.178,31,45
25.454,20.651,31,45
21.767,19.634,31,45
18.42,19.961,31,45
17.086,21.361,31,45
19.043,22.01,31,45
19.587,21.397,31,45
19.366,20.493,31,45
18.878,20.573,31,45
17.54,21.294,31,45
15.806,22.406,31,45
16.86,23.28,31,45
18.032,23.035,31,45
19.776,21.86,31,45
21.148,24.325,31,45
21.313,24.285,31,45
23.734,24.74,31,45
27.207,26.178,31,45
31.609,27.658,31,45
35.534,30.161,31,45
39.595,31.9,31,45
41.379,32.882,31,45
44.887,34.704,31,45
45.946,35.194,31,45
47.085,37.269,31,45
46.729,37.161,31,45
48.59,36.534,31,45
49.189,32.319,31,45
49.758,29.139,31,45
52.69,21.747,31,45
52.804,20.217,31,45
52.838,16.033,31,45
54.595,14.43,31,45
56.134,15.343,31,45
56.368,16.428,31,45
58.053,20.607,31,45
58.546,22.899,31,45
59.532,22.267,31,45
60.952,22.102,31,45
61.85,22.164,31,45
64.462,22.7,31,45
65.731,23.52,31,45
67.045,21.186,31,45
67.341,21.757,31,45
66.772,21.218,31,45
65.135,21.032,31,45
61.602,22.159,31,45
57.658,22.17,31,45
56.079,24.071,31,45
56.398,24.027,31,45
55.907,23.827,31,45
56.979,24.515,31,45
58.691,24.461,31,45
58.905,24.596,31,45
59.381,24.226,31,45
59.302,24.582,31,45
58.931,24.41,31,45
57.651,24.877,31,45
57.349,24.626,31,45
56.482,24.527,31,45
53.653,25.393,31,45
53.385,25.183,31,45
50.989,24.424,31,45
48.556,26.359,31,45
47.043,25.391,31,45
43.688,25.463,31,45
43.024,23.997,31,45
41.427,23.574,31,45
40.272,24.015,31,45
39.866,24.3,31,45
39.456,23.22,31,45
38.344,22.386,31,45
38.7,22.162,31,45
42.28,23.412,31,45
43.236,23.052,31,45
43.447,24.121,31,45
43.004,20.839,31,45
42.846,20.813,31,45
43.984,21.361,31,45
45.252,23.167,31,45
48.229,23.668,31,45
51.207,21.925,31,45
54.273,23.721,31,45
56.22,22.106,31,45
58.965,20.888,31,45
61.544,24.277,31,45
65.108,25.771,31,45
60.458,26.37,31,45
58.351,26.332,31,45
56.124,25.4,31,45
55.196,27.034,31,45
56.18,26.33,31,45
59.868,23.498,31,45
56.147,25.01,31,45
52.899,23.428,31,45
53.607,23.504,31,45
53.792,23.713,31,45
56.308,20.98,31,45
57.732,22.715,31,45
60.491,23.027,31,45
60.546,21.936,31,45
59.018,22.732,31,45
55.501,21.854,31,45
50.242,21.224,31,45
50.395,19.092,31,45
49.877,18.871,31,45
49.517,17.542,31,45
48.563,16.224,31,45
50.271,20.419,31,45
49.715,25.16,31,45
52.139,28.095,31,45
52.957,30.222,31,45
54.328,30.799,31,45
54.555,32.295,31,45
55.934,32.404,31,45
59.546,33.861,31,45
59.391,35.487,31,45
60.894,35.98,31,45
62.077,36.717,31,45
60.832,37.131,31,45
56.352,36.627,31,45
53.252,39.125,31,45
51.737,35.572,31,45
52.578,30.264,31,45
53.624,28.341,31,45
54.701,27.798,31,45
55.558,28.762,31,45
56.233,28.696,31,45
56.354,28.324,31,45
54.765,23.068,31,45
53.475,20.032,31,45
52.79,21.471,31,45
52.223,21.794,31,45
53.457,22.856,31,45
52.748,21.977,31,45
54.032,21.895,31,45
52.973,22.955,31,45
52.341,23.912,31,45
50.816,23.287,31,45
50.166,23.36,31,45
49.636,24.531,31,45
47.61,24.053,31,45
46.955,25.983,31,45
45.189,23.573,31,45
44.839,25.709,31,45
44.27,25.211,31,45
42.797,23.138,31,45
41.978,23.619,31,45
39.663,22.418,31,45
39.135,22.191,31,45
37.884,21.621,31,45
38.981,22.324,31,45
42.577,23.663,31,45
45.064,24.608,31,45
45.43,23.787,31,45
45.345,24.985,31,45
44.98,23.463,31,45
44.195,22.465,31,45
43.546,24.718,31,45
45.079,23.443,31,45
44.535,24.648,31,45
45.253,22.965,31,45
46.137,22.847,31,45
48.02,23.455,31,45
50.692,22.354,31,45
52.13,25.861,31,45
54.329,27.801,31,45
56.132,24.969,31,45
56.681,24.236,31,45
57.472,24.173,31,45
57.833,22.988,31,45
56.771,25.171,31,45
55.373,22.851,31,45
54.152,22.148,31,45
51.504,21.407,31,45
48.235,26.384,31,45
45.567,27.34,31,45
44.408,25.415,31,45
41.827,23.302,31,45
42.505,27.668,31,45
41.741,26.449,31,45
39.702,21.814,31,45
39.236,23.265,31,45
36.416,20.994,31,45
35.404,21.581,31,45
29.986,22.531,31,45
32.135,22.885,31,45
37.775,22.044,31,45
41.865,20.828,31,45
42.176,19.806,31,45
41.089,18.6,31,45
40.276,19.792,31,45
41.133,21.739,31,45
41.422,24.335,31,45
42.408,24.58,31,45
45.044,25.23,31,45
48.028,24.811,31,45
47.924,21.025,31,45
49.159,22.395,31,45
53.141,22.739,31,45
55.9,21.637,31,45
56.842,21.832,31,45
57.737,19.804,31,45
59.547,18.513,31,45
59.65,17.848,31,45
60.447,18.311,31,45
59.892,15.87,31,45
61.884,18.093,31,45
64.913,18.318,31,45
59.072,18.721,31,45
59.278,19.058,31,45
60.868,17.603,31,45
64.615,19.363,31,45
59.738,18.009,31,45
56.839,18.885,31,45
50.717,21.277,31,45
54.891,18.424,31,45
53.214,16.753,31,45
57.029,14.634,31,45
58.309,12.091,31,45
59.524,9.2773,31,45
59.898,10.32,31,45
64.507,6.6089,31,45
62.844,7.4583,31,45
60.883,8.8948,31,45
58.116,10.866,31,45
55.492,11.253,31,45
52.126,12.002,31,45
49.581,11.477,31,45
47.966,11.474,31,45
50.284,13.433,31,45
51.015,15.071,31,45
51.413,17.493,31,45
51.583,16.884,31,45
53.233,15.886,31,45
54.907,15.179,31,45
55.978,15.804,31,45
57.672,16.431,31,45
59.174,16.835,31,45
59.753,16.331,31,45
59.877,14.533,31,45
58.483,15.025,31,45
57.909,13.157,31,45
61.239,15.38,31,45
63.339,17.825,31,45
66.422,21.323,31,45
65.27,20.856,31,45
62.775,21.863,31,45
57.654,21.482,31,45
55.323,20.747,31,45
54.685,21.267,31,45
52.971,20.61,31,45
51.944,19.647,31,45
50.518,20.532,31,45
49.638,19.936,31,45
49.543,19.754,31,45
51.406,18.974,31,45
51.156,18.983,31,45
54.169,17.79,31,45
55.94,17.668,31,45
56.258,17.936,31,45
55.877,17.74,31,45
58.168,22.289,31,45
59.045,25.464,31,45
60.162,25.053,31,45
61.947,24.852,31,45
61.988,25.522,31,45
63.11,25.076,31,45
61.378,24.44,31,45
59.603,24.566,31,45
61.427,25.043,31,45
62.487,24.815,31,45
61.844,25.067,31,45
62.839,24.682,31,45
61.763,24.482,31,45
60.999,24.6,31,45
58.485,25.032,31,45
56.356,25.641,31,45
57.546,24.889,31,45
57.942,26.711,31,45
59.581,25.87,31,45
59.949,25.239,31,45
60.757,27.379,31,45
61.139,26.132,31,45
58.312,28.445,31,45
55.731,27.984,31,45
55.693,27.031,31,45
55.929,28.696,31,45
57.998,25.636,31,45
58.995,26.351,31,45
58.918,23.246,31,45
58.39,19.459,31,45
57.061,16.942,31,45
55.144,16.99,31,45
52.487,14.693,31,45
50.145,15.259,31,45
46.423,14.689,31,45
45.622,17.419,31,45
43.391,20.109,31,45
40.063,21.536,31,45
36.978,21.586,31,45
35.351,22.49,31,45
33.294,24.084,31,45
35.716,25.222,31,45
35.541,26.462,31,45
38.773,26.419,31,45
40.939,29.705,31,45
41.393,29.885,31,45
41.674,30.474,31,45
41.206,28.441,31,45
42.275,26.603,31,45
45.653,23.65,31,45
47.945,22.621,31,45
51.557,21.566,31,45
55.887,21.036,31,45
56.035,22.338,31,45
57.498,21.213,31,45
58.483,21.586,31,45
59.044,19.345,31,45
58.887,19.587,31,45
57.731,19.041,31,45
57.209,18.903,31,45
55.491,16.768,31,45
51.575,16.001,31,45
47.512,14.956,31,45
43.489,14.43,31,45
37.615,13.988,31,45
32.364,16.914,31,45
29.453,16.234,31,45
27.305,16.322,31,45
27.213,15.644,31,45
30.313,15.474,31,45
32.076,16.249,31,45
32.534,18.11,31,45
32.259,17.755,31,45
31.846,17.706,31,45
33.669,17.998,31,45
36.099,17.379,31,45
38.235,15.459,31,45
39.283,16.012,31,45
39.779,14.55,31,45
40.152,13.528,31,45
38.435,13.731,31,45
39.835,13.073,31,45
41.292,13.775,31,45
42.017,18.681,31,45
41.878,22.024,31,45
42.774,21.107,31,45
43.77,22.401,31,45
44.674,22.977,31,45
46.206,24.732,31,45
48.317,25.46,31,45
51.073,25.418,31,45
51.659,25.316,31,45
53.683,24.839,31,45
55.543,24.535,31,45
57.28,23.496,31,45
59.6,22.919,31,45
62.591,22.438,31,45
64.909,20.577,31,45
68.619,17.969,31,45
69.111,15.225,31,45
65.543,7.8513,31,45
61.58,0.41907,31,45
60.655,-0.21369,31,45
58.408,-0.047507,31,45
55.942,8.5376,31,45
54.633,19.498,31,45
52.864,32.096,31,45
53.013,36.932,31,45
53.259,38.565,31,45
53.669,38.563,31,45
54.317,37.696,31,45
55.526,33.958,31,45
56.159,30.854,31,45
56.329,26.749,31,45
54.428,25.12,31,45
54.098,24.702,31,45
52.488,25.25,31,45
50.639,24.369,31,45
50.513,25.402,31,45
49.442,23.746,31,45
49.051,24.892,31,45
48.367,26.191,31,45
48.713,25.389,31,45
48.271,26.786,31,45
49.06,25.801,31,45
48.338,26.833,31,45
48.254,26.845,31,45
47.786,26.785,31,45
47.636,25.82,31,45
46.091,26.902,31,45
47.418,26.6,31,45
46.204,26.483,31,45
46.722,25.862,31,45
46.396,26.151,31,45
45.793,26.451,31,45
46.191,26.109,31,45
45.655,25.422,31,45
47.119,25.585,31,45
46.696,26.555,31,45
47.483,25.643,31,45
48.665,26.304,31,45
48.631,26.771,31,45
48.266,25.567,31,45
49.197,25.636,31,45
48.864,26.099,31,45
49.413,25.311,31,45
22.972,29.531,31,45
25.781,31.997,31,45
26.749,33.693,31,45
30.153,34.349,31,45
32.698,35.939,31,45
35.022,37.752,31,45
39.91,40.611,31,45
40.399,43.037,31,45
43.611,44.557,31,45
45.829,48.612,31,45
49.385,51.106,31,45
50.368,54.508,31,45
54.137,61.435,31,45
57.522,65.748,31,45
60.639,70.842,31,45
63.826,73.986,31,45
65.943,76.022,31,45
64.836,73.83,31,45
64.719,74.521,31,45
63.86,70.579,31,45
62.59,68.718,31,45
59.794,63.419,31,45
57.517,60.58,31,45
51.571,55.231,31,45
51.191,50.06,31,45
48.301,48.192,31,45
45.385,45.38,31,45
44.227,43.406,31,45
39.503,37.991,31,45
37.774,36.077,31,45
34.648,34.601,31,45
33.709,32.822,31,45
30.848,31.016,31,45
30.439,30.141,31,45
27.042,28.055,31,45
25.752,26.755,31,45
25.844,25.394,31,45
23.006,20.953,31,45
18.23,20.597,31,45
15.907,18.088,31,45
12.341,16.23,31,45
6.0791,15.475,31,45
4.8786,14.631,31,45
1.3848,12.591,31,45
-1.3613,13.429,31,45
-3.0915,12.615,31,45
-3.3815,14.006,31,45
-5.5208,12.873,31,45
-3.7487,3.5682,31,45
25.268,0.94591,31,45
25.746,-1.5374,31,45
23.649,-1.2604,31,45
24.926,-0.21855,31,45
24.513,3.0041,31,45
24.049,0.055486,31,45
24.48,2.1621,31,45
24.596,0.44388,31,45
25.011,2.5273,31,45
25.319,0.51705,31,45
26.782,1.642,31,45
25.416,0.16774,31,45
25.251,1.6566,31,45
25.394,2.4284,31,45
26.177,1.7369,31,45
26.563,1.118,31,45
26.435,2.139,31,45
26.491,1.4154,31,45
26.241,2.9878,31,45
26.367,2.2587,31,45
26.525,2.325,31,45
27.746,1.1281,31,45
