225,135,61,71
223.95,136.87,61,71
224.99,137.56,61,71
229.24,136.71,61,71
228.87,138.27,61,71
228.38,139.47,61,71
225.11,136.13,61,71
223.97,134.61,61,71
221.62,130.28,61,71
222.7,129.42,61,71
221.2,118.82,61,71
217.3,118.17,61,71
214.82,113.24,61,71
214.29,111.15,61,71
214.67,105.51,61,71
217.37,104.27,61,71
216.34,105.79,61,71
219.68,103.14,61,71
220.56,103.56,61,71
224.83,109.64,61,71
226.04,107.07,61,71
226.3,113.74,61,71
227.66,113.96,61,71
227.71,118.32,61,71
227.51,119.56,61,71
226.59,120.3,61,71
228.5,122.83,61,71
226.69,126.9,61,71
231.41,129.58,61,71
229.3,132.06,61,71
229.06,127.98,61,71
231.01,125.26,61,71
232.63,119.25,61,71
234.21,118.21,61,71
235.63,112.51,61,71
237.72,105.63,61,71
242.11,102.35,61,71
242.4,100.56,61,71
244.94,98.667,61,71
248.29,98.354,61,71
249.43,98.272,61,71
249.99,100.43,61,71
251.22,104.42,61,71
252.79,110.4,61,71
255.34,117.55,61,71
257.53,122.94,61,71
260.22,129.88,61,71
265.6,141.34,61,71
271.93,150.27,61,71
275.17,155.22,61,71
277.07,161.58,61,71
277.34,162.64,61,71
281.66,164.99,61,71
287,162.57,61,71
289.15,157.05,61,71
292.85,150.8,61,71
294.58,146.81,61,71
296.34,139.51,61,71
312.75,146.94,61,71
314.86,153.04,61,71
321.29,151.84,61,71
321.66,152.48,61,71
325,151.38,61,71
325.24,153.18,61,71
327.6,156.93,61,71
343.99,169.52,61,71
342.55,171.84,61,71
346.25,188.65,61,71
342.29,194.73,61,71
344.97,197.12,61,71
346.9,192.21,61,71
352.24,189.98,61,71
349.5,188.87,61,71
349.58,186.87,61,71
350.3,184.27,61,71
350.25,183.23,61,71
354.12,183.48,61,71
353.53,181.36,61,71
353.77,180.17,61,71
355.08,179.17,61,71
354.37,175.08,61,71
354.24,171.87,61,71
354.67,173.29,61,71
354.65,169.77,61,71
355.17,173.32,61,71
354.44,174.7,61,71
353.18,171.52,61,71
352.06,168.99,61,71
353.65,168.5,61,71
353.18,168.4,61,71
352.62,169.01,61,71
353.03,169.25,61,71
353.14,171.14,61,71
353.86,168.92,61,71
354.64,168.48,61,71
355.34,167.63,61,71
353.53,167.07,61,71
352.97,167.56,61,71
355.25,170.15,61,71
354.45,167.01,61,71
354.41,166.09,61,71
354.47,167.67,61,71
354.82,164.24,61,71
356.38,168.18,61,71
355.6,165.44,61,71
356.04,164.59,61,71
354.64,164.57,61,71
356.54,166.09,61,71
354.85,169.37,61,71
354.48,171.23,61,71
355.14,171.47,61,71
354.01,170.29,61,71
354.78,167.33,61,71
354.31,166.6,61,71
356.07,167.75,61,71
355.97,169.1,61,71
356.65,168.97,61,71
355.88,170.58,61,71
356.44,167.74,61,71
355.62,169.41,61,71
356.3,170.22,61,71
358.04,169.46,61,71
358.19,169.88,61,71
357.69,171.35,61,71
356.94,171.27,61,71
359.12,172.94,61,71
360.72,171.66,61,71
357.12,169.4,61,71
359.17,165.15,61,71
361.07,166.11,61,71
361.58,171.64,61,71
360.96,173.48,61,71
358.4,172.32,61,71
359.14,172.43,61,71
357.2,168.59,61,71
354.8,169.58,61,71
356.39,168.52,61,71
355.63,168.89,61,71
353.58,167.23,61,71
353.64,167.78,61,71
352.69,168.7,61,71
353.41,170.07,61,71
355.55,172.32,61,71
353.82,170.43,61,71
352.56,167.47,61,71
354.44,169.26,61,71
354.71,168.42,61,71
353.9,169.37,61,71
355.75,170.65,61,71
355.09,167.75,61,71
357,168.32,61,71
357.97,168.79,61,71
356.29,171.07,61,71
355.71,166.21,61,71
354.11,165.81,61,71
352.25,165.9,61,71
352.26,169.6,61,71
351.78,173.27,61,71
350.21,173.29,61,71
351.61,173.27,61,71
349.71,169.42,61,71
350.86,171.33,61,71
350.95,170.64,61,71
352.02,172.4,61,71
351.08,170.54,61,71
349.94,168.09,61,71
349.57,169.7,61,71
351.33,167.69,61,71
352.2,169.23,61,71
352.41,167.4,61,71
354.66,170.56,61,71
354.54,169.78,61,71
354.79,170.3,61,71
354.04,167.95,61,71
355.96,166.63,61,71
353.31,164.08,61,71
355.04,165.55,61,71
353.48,164.63,61,71
353.4,168.2,61,71
353.14,168.71,61,71
352.33,169.57,61,71
351.96,169.55,61,71
352.01,169.98,61,71
353.98,169.13,61,71
352.98,168.25,61,71
350.36,169.94,61,71
347.7,168.74,61,71
347.13,170.13,61,71
344.35,168.32,61,71
346.18,167.83,61,71
350.62,169.06,61,71
350.42,167.81,61,71
352.72,167.81,61,71
350.48,163.29,61,71
352.03,165.85,61,71
350.25,165.88,61,71
352.74,167,61,71
352.46,165.91,61,71
351.36,166.35,61,71
353.51,168.19,61,71
352.2,161.46,61,71
351.12,159.55,61,71
351.35,162.13,61,71
348.99,161.56,61,71
350.32,161.56,61,71
349,161.85,61,71
345.35,161.86,61,71
344.8,163.28,61,71
344.48,159.34,61,71
345.24,160.94,61,71
345.72,160.33,61,71
346.31,163.47,61,71
344.67,168.17,61,71
345.77,165.38,61,71
343.19,160.86,61,71
346.68,160.83,61,71
344.59,159.57,61,71
347.37,161.73,61,71
346.13,160.61,61,71
345.77,162.29,61,71
346.39,158.6,61,71
347.9,158.8,61,71
345.59,154.89,61,71
345.59,154.62,61,71
347.36,154.76,61,71
345.62,156.73,61,71
351.22,157.63,61,71
350.75,156.98,61,71
344.53,156.25,61,71
344.12,153.05,61,71
342.86,152.33,61,71
344.69,153.31,61,71
343.39,153.89,61,71
342.71,155.47,61,71
341.12,158.46,61,71
338.28,164.21,61,71
337.81,165.22,61,71
335.59,158.62,61,71
336.96,162.83,61,71
334.9,155.79,61,71
333.01,153.4,61,71
333.45,160.55,61,71
330.72,162.28,61,71
330.33,162.03,61,71
328.31,161.26,61,71
327.19,160.91,61,71
327.74,152.12,61,71
320.28,150.88,61,71
320.92,146.41,61,71
320.13,145.28,61,71
320.65,148.53,61,71
316.84,142.88,61,71
315.89,141.47,61,71
315.3,140.19,61,71
318.56,135.11,61,71
320.77,135.61,61,71
321.35,134.04,61,71
323.08,134.13,61,71
324.37,128.79,61,71
324.77,127.79,61,71
324.52,130.93,61,71
322.97,127.15,61,71
319.84,126.75,61,71
319.1,131.09,61,71
317.48,135.27,61,71
318.22,141.86,61,71
317.95,145.26,61,71
316.24,146.06,61,71
315.51,143.12,61,71
315.7,141.09,61,71
314.86,134.88,61,71
317.04,133.68,61,71
314.28,130.03,61,71
311.27,129.74,61,71
310.44,131.88,61,71
312.82,133.91,61,71
318.79,132.03,61,71
320.78,131.57,61,71
320.27,134.23,61,71
327.88,134.24,61,71
326.54,141.3,61,71
329.32,143.47,61,71
326.24,148.08,61,71
325.57,135.77,61,71
323.91,137.48,61,71
315.26,146.23,61,71
313.64,151.07,61,71
318.49,139.76,61,71
315.53,147.29,61,71
310.14,148.95,61,71
303.67,162.33,61,71
304.21,154.76,61,71
305.98,152.9,61,71
306.61,149.18,61,71
304.13,142.26,61,71
302.54,139.76,61,71
299.58,148.65,61,71
294.2,147.3,61,71
292.6,143.41,61,71
292.29,145.13,61,71
294.07,142.58,61,71
297.48,140.36,61,71
300.7,137.62,61,71
304.3,135.4,61,71
308.01,133.36,61,71
308.41,127.49,61,71
311.74,123.47,61,71
315.09,125.03,61,71
313.57,129.69,61,71
310.72,142.16,61,71
310.97,144.88,61,71
307.67,149.46,61,71
305.44,154.1,61,71
308.9,160.07,61,71
305.55,159.55,61,71
307.91,155.93,61,71
309.65,153.78,61,71
308.31,145.49,61,71
306.92,141.43,61,71
305.65,138.92,61,71
305.63,139.21,61,71
304.13,138.16,61,71
302.98,138.68,61,71
303.9,140.34,61,71
305.51,132.64,61,71
306.61,125.19,61,71
309.84,124.25,61,71
310.37,119.93,61,71
312.67,116.83,61,71
316.35,120.1,61,71
316.47,122.35,61,71
318.76,122.23,61,71
319.13,125.6,61,71
322.89,130.45,61,71
321.9,139.31,61,71
321.34,148.46,61,71
318.42,157.87,61,71
318.73,159.15,61,71
317.55,151.94,61,71
317.37,152.54,61,71
316.72,145.11,61,71
316.77,144.57,61,71
318.75,135.3,61,71
318.71,139.75,61,71
320,140.36,61,71
319.47,141.63,61,71
319.42,145.87,61,71
317.15,151.27,61,71
315.45,154.35,61,71
312.25,156.46,61,71
311.92,160.24,61,71
309.31,158.76,61,71
308.85,159.41,61,71
308.09,163.25,61,71
308.33,157.1,61,71
306.08,154.59,61,71
306.72,154.37,61,71
305.87,151.44,61,71
306.26,154.65,61,71
304.03,158.82,61,71
302.59,155.67,61,71
302.9,159.04,61,71
299.24,159.73,61,71
297.71,158.11,61,71
298.22,157.01,61,71
