302,135,67,81
300.23,138.22,67,81
296.16,142.25,67,81
296.17,145.05,67,81
296.96,146.18,67,81
299.12,146.94,67,81
304.73,148.34,67,81
308.63,147.97,67,81
309.22,147.63,67,81
306.48,149.31,67,81
307.2,149.93,67,81
312.16,146.48,67,81
319.12,144.08,67,81
325.26,138.57,67,81
332.06,134.57,67,81
336.95,132.49,67,81
337.74,132.1,67,81
335.29,130.89,67,81
336.06,131.76,67,81
338.29,124.25,67,81
345.3,121.3,67,81
351.88,116.2,67,81
357.26,114.95,67,81
362.03,113.52,67,81
367.92,121.79,67,81
379.72,130.32,67,81
385.33,133.05,67,81
378.83,126.39,67,81
365.62,109.53,67,81
356.9,98.297,67,81
352.34,91.709,67,81
347.21,87.576,67,81
343.3,85.596,67,81
343.57,88.409,67,81
348.45,97.744,67,81
358.99,109.9,67,81
374.94,126.9,67,81
385.28,138.15,67,81
383,133.02,67,81
375.86,119.37,67,81
372.57,103.93,67,81
367.9,95.574,67,81
367.71,90.216,67,81
369.26,89.026,67,81
369.63,91.731,67,81
372.45,98.594,67,81
379.13,110.83,67,81
387.86,129.83,67,81
393.28,143.34,67,81
395.17,152.68,67,81
387.99,139.78,67,81
383.08,118.49,67,81
376.19,115.64,67,81
372.85,107.83,67,81
373.4,108.3,67,81
371.77,107.7,67,81
371.16,119.57,67,81
372.41,136.07,67,81
377.59,159.63,67,81
372.86,174.09,67,81
366.69,169.72,67,81
357.82,152.91,67,81
349.53,130.99,67,81
342.2,119.92,67,81
334.36,120.52,67,81
329.45,120.41,67,81
326.81,123.19,67,81
323.4,127.87,67,81
328.35,135.89,67,81
327.04,151.11,67,81
336.09,135.36,67,81
335.66,138.04,67,81
346.97,149.27,67,81
348.63,153.16,67,81
348.65,142.42,67,81
367.67,124.37,67,81
347.93,116.41,67,81
332,110,67,81
328.39,111.95,67,81
336.2,121.47,67,81
347.05,132.92,67,81
348.25,155.96,67,81
346.28,172.84,67,81
348.72,194.48,67,81
344.06,193.81,67,81
339.1,188.43,67,81
339.48,179.74,67,81
339.9,174.95,67,81
338.15,174.1,67,81
339.19,181.26,67,81
338.1,193.91,67,81
341.2,207.08,67,81
349.48,219.14,67,81
348.68,224.4,67,81
345.12,226.58,67,81
347.79,228.46,67,81
347.26,226.26,67,81
350.93,224.82,67,81
350.42,219.28,67,81
353.64,223.59,67,81
354.05,220.27,67,81
353.56,216.15,67,81
356.99,211.82,67,81
355.32,204.5,67,81
348.77,194.41,67,81
351.88,190.7,67,81
348.44,194.14,67,81
342.61,195.71,67,81
333.77,203.46,67,81
333.16,201.99,67,81
338.34,196.15,67,81
327.91,187.43,67,81
323.43,186.78,67,81
322.27,183.78,67,81
320.22,181.27,67,81
316.83,187.56,67,81
317.86,189.39,67,81
314.85,188.01,67,81
314.03,182.42,67,81
303.97,195.89,67,81
300.53,203.24,67,81
297.81,213.53,67,81
314.52,211.2,67,81
311.83,221.09,67,81
318.04,214.13,67,81
337.99,219.05,67,81
333.47,218.2,67,81
336.8,203.82,67,81
328.46,201.33,67,81
317.27,194.17,67,81
315.52,188.75,67,81
319.24,187.72,67,81
322.71,201.49,67,81
335.44,207.17,67,81
329.71,208.99,67,81
329.69,202.96,67,81
333.02,203.85,67,81
336.11,201.63,67,81
337.92,198.43,67,81
336.87,202.48,67,81
338.24,204.78,67,81
339.14,203.98,67,81
342.06,195.19,67,81
339.4,200.45,67,81
337.27,202.4,67,81
337.76,202.27,67,81
341.28,198.74,67,81
346.04,198.4,67,81
341.2,198.43,67,81
348.45,192.7,67,81
355.18,189.18,67,81
353.37,194.29,67,81
339.89,202.21,67,81
336.55,203.18,67,81
331.93,204.36,67,81
326.75,204.09,67,81
333.96,202.67,67,81
340.37,204.73,67,81
338.06,203.63,67,81
332.48,204.81,67,81
332.34,198.88,67,81
328.78,195.72,67,81
330.88,196.71,67,81
337.01,201.67,67,81
331.34,201.28,67,81
338.8,204.07,67,81
344.14,202.46,67,81
334.61,195.29,67,81
337.81,190.5,67,81
343.15,193.58,67,81
343.26,196.07,67,81
339.37,196.37,67,81
343.07,195.61,67,81
346.8,196.42,67,81
342.58,200.06,67,81
343.62,201.35,67,81
347.91,199.03,67,81
348.48,193.85,67,81
343.1,199.56,67,81
334.68,198.74,67,81
322.31,187.13,67,81
313.45,185.43,67,81
312.83,186.71,67,81
324.26,188.55,67,81
337.06,178.62,67,81
346.37,176.01,67,81
342.29,175.03,67,81
346.35,178.32,67,81
350.68,182.1,67,81
351.12,182.94,67,81
351.15,182.56,67,81
351.58,167.88,67,81
347.19,158.67,67,81
342.96,152.83,67,81
335.73,156.32,67,81
336.24,163.66,67,81
337.51,172.52,67,81
341.64,181.08,67,81
344.55,195.12,67,81
348.89,189.54,67,81
344.68,177.83,67,81
345.85,165.7,67,81
345.38,153.34,67,81
344.33,144.53,67,81
342.31,144.48,67,81
344.31,149.32,67,81
342.88,161.21,67,81
338.91,172.98,67,81
332.36,178.24,67,81
320.41,167.43,67,81
310.72,166.43,67,81
308.53,160.41,67,81
308.09,158.21,67,81
304.06,151.65,67,81
298.23,157.72,67,81
294.91,149.32,67,81
292.94,145.24,67,81
294.45,156.66,67,81
297.55,165.74,67,81
300.64,174.92,67,81
300.26,177.6,67,81
301.03,175.49,67,81
302.39,170.95,67,81
301.44,170.51,67,81
298.85,173.49,67,81
301.7,150.67,67,81
301.43,155.99,67,81
302.88,157.14,67,81
297.74,155,67,81
289.43,174.29,67,81
285.91,164.74,67,81
286.88,160.06,67,81
286.98,159.52,67,81
285.32,160.98,67,81
287.86,166.08,67,81
283.29,173.25,67,81
286.11,181.2,67,81
285.42,182.35,67,81
290.03,164.52,67,81
295.62,164.64,67,81
295.92,175.79,67,81
298.87,178.61,67,81
300.17,178.44,67,81
296.47,167.24,67,81
294.39,159.87,67,81
294.06,148.82,67,81
295.84,142.49,67,81
295.71,139.41,67,81
297.92,135.1,67,81
295.97,140.35,67,81
296.84,142.95,67,81
295.65,146.61,67,81
296.6,146.49,67,81
300.49,137.41,67,81
296.21,126.98,67,81
298.58,121.09,67,81
300.65,114.52,67,81
298.13,113.14,67,81
299.34,114.23,67,81
294.43,120.2,67,81
294.25,123.62,67,81
292.63,128.65,67,81
288.93,125.41,67,81
290.42,118.73,67,81
287.55,111.91,67,81
285.16,105.95,67,81
284.48,103.21,67,81
284.27,111.73,67,81
280.99,114.47,67,81
280.84,122.73,67,81
278.21,130.65,67,81
277.88,135.53,67,81
278.07,136.79,67,81
275.19,137.63,67,81
277.95,133.38,67,81
278.6,128.94,67,81
279.26,130.7,67,81
284.13,128.91,67,81
282.97,136.5,67,81
282.21,138.03,67,81
279.73,150.49,67,81
279.66,152.3,67,81
278,142.25,67,81
277.62,139.96,67,81
279.4,136.98,67,81
282.11,137.71,67,81
280.68,134.17,67,81
279.79,137.34,67,81
281.51,138.38,67,81
283.65,140.83,67,81
281.64,142.74,67,81
283.11,133.44,67,81
285.53,130.43,67,81
287.23,126.15,67,81
289.37,125.19,67,81
293.14,125.32,67,81
296.18,128.84,67,81
297.76,132,67,81
296.65,130.46,67,81
294.73,132.1,67,81
292.03,131.96,67,81
291.37,125.82,67,81
293.12,120.89,67,81
293.4,120.84,67,81
294.29,116.3,67,81
294.37,122.27,67,81
292.89,131.54,67,81
292.43,133.27,67,81
297.04,138.55,67,81
298.17,140.73,67,81
299.28,143.25,67,81
300.35,132.18,67,81
300.66,126.87,67,81
301.17,124.56,67,81
302.52,126.62,67,81
301.3,129.25,67,81
301.88,134.22,67,81
301.54,136.74,67,81
302.32,135.53,67,81
300.03,131.31,67,81
300.56,127.63,67,81
297.98,116.94,67,81
296.93,113.79,67,81
297.18,111.98,67,81
296.63,114.92,67,81
293.5,114.3,67,81
291.01,122.01,67,81
290.13,128.79,67,81
287.7,126.97,67,81
285.44,124.46,67,81
284.67,121.9,67,81
285.18,116.49,67,81
284.42,115.7,67,81
284.77,116.23,67,81
286.9,117.05,67,81
286,123.71,67,81
287.52,131.23,67,81
286.3,138.21,67,81
289.56,135.34,67,81
292.73,130.18,67,81
294.5,124.08,67,81
295.21,118.03,67,81
299.8,109.5,67,81
302.44,115.16,67,81
302.18,118.87,67,81
304.04,122.41,67,81
307.69,128.07,67,81
305.77,127.14,67,81
303.02,130,67,81
303.11,130.53,67,81
300.65,132.42,67,81
305.05,127.03,67,81
302.15,124.36,67,81
310.3,123.1,67,81
323.24,125.77,67,81
322.08,127.51,67,81
317.53,124.25,67,81
311.24,122.68,67,81
307.4,120.57,67,81
310.25,117.92,67,81
309.59,123.27,67,81
305.31,120.03,67,81
305.05,121.53,67,81
304.82,122.29,67,81
301.82,123.65,67,81
306.67,126.19,67,81
303.4,122.41,67,81
303.28,122.85,67,81
302.54,125.26,67,81
302.07,128.29,67,81
303.74,125.73,67,81
301.15,126.68,67,81
302.32,127.61,67,81
304.98,130.31,67,81
304.68,129.25,67,81
306.31,132.63,67,81
306.98,130.46,67,81
306.75,132.78,67,81
311.19,135.14,67,81
315.11,140.35,67,81
314.86,141.12,67,81
317.27,145.35,67,81
321.24,148.42,67,81
321.66,157.34,67,81
326.21,159.94,67,81
321.52,170.34,67,81
320.85,175.95,67,81
319.71,185.83,67,81
324.59,189.97,67,81
324.5,195.47,67,81
327.04,205.75,67,81
326.26,207.85,67,81
