16,88,19,51
17.248,89.187,19,51
18.555,88.883,19,51
20.301,86.844,19,51
22.282,88.098,19,51
24.302,87.078,19,51
24.488,88.401,19,51
26.255,88.189,19,51
28.186,87.562,19,51
27.595,89.518,19,51
30.536,88.346,19,51
32.752,87.045,19,51
34.506,88.715,19,51
36.954,91.365,19,51
38.246,90.243,19,51
39.439,91.08,19,51
41.199,91.535,19,51
42.421,90.975,19,51
44.354,91.037,19,51
45.878,91.155,19,51
48.343,92.37,19,51
49.225,92.795,19,51
49.624,90.981,19,51
51.352,92.103,19,51
53.104,91.906,19,51
54.853,89.825,19,51
56.095,89.997,19,51
58.584,91.865,19,51
60.767,91.369,19,51
61.783,91.62,19,51
64.504,89.813,19,51
65.42,90.111,19,51
67.029,91.095,19,51
68.532,90.517,19,51
69.337,89.955,19,51
71.627,89.687,19,51
72.396,89.818,19,51
73.961,90.888,19,51
74.229,88.18,19,51
76.203,90.563,19,51
88.506,98.441,19,51
88.302,100.25,19,51
86.857,100.16,19,51
85.328,96.7,19,51
85.128,93.148,19,51
86.234,93.886,19,51
88.888,94.009,19,51
91.67,92.593,19,51
93.387,91.574,19,51
94.68,92.065,19,51
95.999,92.543,19,51
97.475,88.642,19,51
100.07,92.562,19,51
102.46,90.471,19,51
103.44,91.238,19,51
105.47,90.282,19,51
106.73,90.982,19,51
108.94,90.393,19,51
110.43,90.438,19,51
112.03,90.82,19,51
112.8,90.635,19,51
114.57,90.071,19,51
115.86,90.282,19,51
118.47,90.143,19,51
120.15,89.78,19,51
121.8,88.599,19,51
123.67,88.281,19,51
124.61,89.666,19,51
126.72,90.446,19,51
128.42,90.189,19,51
129.99,89.486,19,51
131.9,89.92,19,51
133.64,90.769,19,51
135.71,92.104,19,51
137.19,91.947,19,51
137.24,90.536,19,51
139,91.881,19,51
142.63,89.492,19,51
143.94,89.766,19,51
146.2,88.726,19,51
149.28,89.994,19,51
149.72,89.67,19,51
151.6,89.724,19,51
153.25,90.3,19,51
154.49,91.1,19,51
155.74,89.971,19,51
157.77,90.128,19,51
159.25,90.891,19,51
161.01,90.223,19,51
162.65,88.768,19,51
164.61,89.13,19,51
165.33,90.339,19,51
166.63,88.743,19,51
167.37,87.918,19,51
168.49,87.285,19,51
170.47,87.886,19,51
174.21,88.25,19,51
176.17,89.853,19,51
177.88,90.757,19,51
179.01,90.117,19,51
179.62,88.752,19,51
181.7,89.425,19,51
182.59,90.279,19,51
185.33,89.511,19,51
185.75,88.872,19,51
187.6,87.038,19,51
188.41,89.021,19,51
191.97,88.932,19,51
193.74,89.339,19,51
195.15,86.612,19,51
197.1,88.268,19,51
198.93,88.157,19,51
201.17,87.116,19,51
201.52,86.399,19,51
203.82,85.984,19,51
204.45,87.44,19,51
206.94,87.482,19,51
207.98,85.001,19,51
208.71,87.472,19,51
210.3,87.162,19,51
212.21,84.504,19,51
214.92,86.676,19,51
216.2,87.071,19,51
219.48,86.211,19,51
219.36,87.24,19,51
220.47,87.049,19,51
223.88,83.96,19,51
224.41,86.298,19,51
226.63,87.73,19,51
227.77,87.415,19,51
230.44,87.855,19,51
231.72,86.363,19,51
233.58,86.514,19,51
234.63,86.384,19,51
236.43,88.004,19,51
238.54,87.241,19,51
240.96,87.899,19,51
243.15,85.777,19,51
244.05,86.648,19,51
245.08,87.012,19,51
246.09,84.119,19,51
247.75,86.569,19,51
250.41,86.855,19,51
252.1,85.318,19,51
253.27,85.638,19,51
255.09,84.089,19,51
257.18,85.221,19,51
258.61,83.681,19,51
262.1,88.363,19,51
263.4,86.456,19,51
264.63,89.161,19,51
266.07,87.269,19,51
268.24,87.163,19,51
269.64,86.425,19,51
271.35,88.676,19,51
273.46,88.232,19,51
274.88,87.611,19,51
276.99,87.556,19,51
278.35,88.089,19,51
280.58,86.28,19,51
282.38,85.769,19,51
283.34,87.213,19,51
286.34,88.861,19,51
287.44,87.714,19,51
289.79,87.913,19,51
291.46,87.678,19,51
292.39,86.922,19,51
294.56,87.866,19,51
296.26,87.235,19,51
297.45,85.592,19,51
299.16,84.463,19,51
300.22,85.342,19,51
301.76,83.903,19,51
304.2,84.172,19,51
305.88,85.175,19,51
