232,88,76,84
240.38,90.246,76,84
251.06,96.181,76,84
258.43,102.05,76,84
264.53,103.59,76,84
274.45,107.06,76,84
282.93,107.88,76,84
293.16,111.66,76,84
296.26,113.37,76,84
300.94,115.59,76,84
307.52,116.29,76,84
310.57,116.74,76,84
308.66,112.65,76,84
301.95,108.7,76,84
292.37,102.34,76,84
282.36,93.832,76,84
268.53,91.558,76,84
255.26,86.689,76,84
241.18,83.686,76,84
230.19,83.961,76,84
214.59,84.773,76,84
206.19,90.064,76,84
198.48,90.942,76,84
194.35,91.071,76,84
200.44,95.2,76,84
213.26,102.52,76,84
231.15,104.08,76,84
246.1,108.34,76,84
259.24,111.74,76,84
269.77,112.2,76,84
278.02,118.49,76,84
287.68,117.41,76,84
293.89,116.72,76,84
296.45,112.47,76,84
293.88,112.91,76,84
289.31,114.88,76,84
284.9,117.53,76,84
276.07,115.16,76,84
265.85,114.61,76,84
254.86,108.82,76,84
248.07,103.57,76,84
234.88,95.004,76,84
228.3,88.186,76,84
227.67,78.596,76,84
244.27,77.053,76,84
268.28,77.998,76,84
293.58,75.278,76,84
320.04,75.74,76,84
340.82,78.237,76,84
351.27,79.756,76,84
350.52,83.821,76,84
344.03,88.754,76,84
328.34,95.774,76,84
308.95,99.857,76,84
286.08,106.64,76,84
258.92,108.12,76,84
228.19,111.5,76,84
207.59,115.28,76,84
192.83,113.63,76,84
179.22,115.21,76,84
171.86,116.55,76,84
171.27,109.71,76,84
168.78,101.83,76,84
183.2,91.338,76,84
207.89,73.376,76,84
226.91,54.168,76,84
251,47.561,76,84
267.18,47.386,76,84
286.2,52.854,76,84
295.39,55.389,76,84
297.11,57.48,76,84
287.3,66.39,76,84
293.77,73.016,76,84
306.16,82.677,76,84
324.85,82.754,76,84
345.83,87.34,76,84
359.93,79.374,76,84
375.49,67.803,76,84
377.13,58.034,76,84
367.22,47.098,76,84
366.04,54.555,76,84
342.18,61.026,76,84
314.55,65.406,76,84
289.28,71.743,76,84
269.77,75.847,76,84
251.26,80.878,76,84
236.69,85.204,76,84
222.12,84.205,76,84
205.28,84.625,76,84
194.67,78.617,76,84
182.68,74.724,76,84
170.75,70.021,76,84
153.84,66.788,76,84
133.94,65.419,76,84
121.85,65.743,76,84
112.64,69.531,76,84
114.12,77.435,76,84
119.1,77.098,76,84
124.86,84.244,76,84
138.23,87.017,76,84
145.3,80.781,76,84
155.81,83.365,76,84
168.01,93.434,76,84
174.26,102.23,76,84
175.88,112.23,76,84
174.17,115.72,76,84
171.1,115.37,76,84
172.29,113.28,76,84
176.16,112.69,76,84
181.27,111.23,76,84
199.6,108.8,76,84
220.42,102.93,76,84
241.11,103.48,76,84
263.58,103.76,76,84
285.22,105.5,76,84
306.1,98.718,76,84
329.33,94.596,76,84
341.77,91.861,76,84
357.08,90.724,76,84
363.29,89.284,76,84
364.75,89.488,76,84
363.05,90.438,76,84
360,95.434,76,84
357.57,98.673,76,84
356.18,99.613,76,84
356.53,98.313,76,84
360.81,91.573,76,84
359.24,85.131,76,84
351.32,75.523,76,84
338.02,68.753,76,84
325.18,67.361,76,84
305.88,71.08,76,84
285.17,75.025,76,84
257.59,78.252,76,84
237.99,78.139,76,84
224.52,79.752,76,84
209.68,89.232,76,84
195.19,93.707,76,84
181.77,94.128,76,84
169,94.948,76,84
147.76,93.411,76,84
134.35,93.006,76,84
125.35,94.503,76,84
112.98,92.773,76,84
110.66,94.22,76,84
108.36,93.069,76,84
113.29,89.271,76,84
126.99,90.682,76,84
143.17,86.982,76,84
158.27,86.063,76,84
181.49,88.432,76,84
200.58,89.205,76,84
222.82,85.041,76,84
242.63,79.378,76,84
254.93,75.499,76,84
276.9,67.855,76,84
298.43,58.526,76,84
314.72,51.311,76,84
317.79,47.625,76,84
317.22,45.693,76,84
311.78,49.267,76,84
302.97,51.126,76,84
294.27,45.641,76,84
296.19,32.406,76,84
292.2,35.633,76,84
282.55,44.703,76,84
266.48,43.3,76,84
251.48,44.297,76,84
245.74,47.412,76,84
236.22,46.384,76,84
224.63,51.166,76,84
208.46,51.627,76,84
190.53,53.703,76,84
157.25,63.633,76,84
152.03,69.063,76,84
154.12,74.378,76,84
165.78,74.141,76,84
181.63,77.899,76,84
209.26,74.032,76,84
232.8,77.368,76,84
247.69,73.082,76,84
248.79,65.085,76,84
244.17,65.145,76,84
234.12,66.002,76,84
221.36,64.608,76,84
214.04,58.01,76,84
223.49,50.405,76,84
243.76,44.617,76,84
250.25,47.64,76,84
257.14,64.168,76,84
256.98,85.259,76,84
250.7,100.26,76,84
254.81,100.56,76,84
263.61,98.974,76,84
275.1,91.759,76,84
284.85,87.144,76,84
287.81,85.764,76,84
276.12,80.193,76,84
261.21,74.805,76,84
260.12,69.702,76,84
258.9,56.879,76,84
244.07,48.811,76,84
230.19,54.405,76,84
219.78,66.921,76,84
214.72,79.731,76,84
223.97,82.864,76,84
238.57,77.217,76,84
245.12,69.044,76,84
240.97,60.334,76,84
235.5,55.367,76,84
222.42,61.413,76,84
203.69,74.245,76,84
188.32,88.291,76,84
193.06,107.83,76,84
211.39,115,76,84
235.51,109.76,76,84
258.92,94.221,76,84
280.25,80.118,76,84
302.66,67.196,76,84
306.18,61.871,76,84
319.68,52.694,76,84
327.59,58.487,76,84
319.72,66.182,76,84
301.65,84.681,76,84
275.19,97.764,76,84
249.27,103.82,76,84
235.56,94.83,76,84
237.78,86.492,76,84
247.48,78.158,76,84
261.45,83.452,76,84
263.35,86.629,76,84
255.68,94.693,76,84
238.06,95.201,76,84
217.93,97.741,76,84
202.72,103.47,76,84
177.28,103.7,76,84
176.42,105.09,76,84
185.49,103.52,76,84
209.52,97.25,76,84
241.12,86.019,76,84
258.91,80.941,76,84
277.15,81.741,76,84
295.02,87.635,76,84
306.05,90.93,76,84
302.95,95.076,76,84
286.55,100.83,76,84
268.35,108.31,76,84
239.3,115.67,76,84
223.16,116.31,76,84
216.88,115.02,76,84
213.32,109.99,76,84
208.84,105.03,76,84
214.74,99.356,76,84
238.47,91.465,76,84
263.81,83.108,76,84
286.46,69.237,76,84
300.54,62.314,76,84
295.65,59.932,76,84
288.73,60.994,76,84
286.94,66.373,76,84
296.66,71.283,76,84
306.1,74.519,76,84
318.79,70.732,76,84
325.67,59.884,76,84
323.95,45.827,76,84
324.78,46.18,76,84
323.97,45.561,76,84
327.45,51.055,76,84
328.77,59.149,76,84
326.45,65.322,76,84
317.63,68.552,76,84
314.11,67.151,76,84
315.17,64.617,76,84
317.53,55.548,76,84
321.31,46.3,76,84
322.9,29.996,76,84
322.44,20.971,76,84
323.4,11.115,76,84
320.2,5.4555,76,84
313.75,6.0976,76,84
299.4,12.663,76,84
298.57,22.405,76,84
294.65,30.704,76,84
290.44,42.514,76,84
285.25,57.553,76,84
277.14,82.887,76,84
269.92,89.084,76,84
257.62,94.223,76,84
242.52,97.344,76,84
225.68,97.925,76,84
203.88,102.86,76,84
190.71,91.828,76,84
191.85,80.159,76,84
201.46,68.247,76,84
212.45,60.879,76,84
223.99,62.339,76,84
229.26,62.497,76,84
231.16,69.517,76,84
227.6,76.308,76,84
219.52,81.324,76,84
213.52,79.208,76,84
223.37,69.733,76,84
227.56,55.84,76,84
229.12,45.931,76,84
229.54,36.128,76,84
215.39,35.221,76,84
193.19,48.7,76,84
171.57,60.228,76,84
170.39,65.661,76,84
163.9,77.492,76,84
175.63,82.652,76,84
170.67,84.017,76,84
169.35,85.438,76,84
170.47,88.466,76,84
172.55,84.981,76,84
171.21,88.114,76,84
172.09,87.559,76,84
170.56,87.219,76,84
173.09,88.836,76,84
171.4,87.067,76,84
170.04,87.556,76,84
170.93,86.408,76,84
170.38,88.486,76,84
172.68,85.937,76,84
169.46,85.498,76,84
171.25,86.586,76,84
171.53,84.844,76,84
170.24,83.442,76,84
170.55,86.125,76,84
172.31,85.03,76,84
171.94,84.954,76,84
171.54,85.486,76,84
172.85,83.559,76,84
172.28,83.387,76,84
171.33,83.242,76,84
169.73,85.451,76,84
168.27,86.952,76,84
170.87,85.221,76,84
170.06,88.309,76,84
168.33,89.147,76,84
177.96,89.154,76,84
173.55,87.233,76,84
171.12,88.35,76,84
169.08,85.774,76,84
172.09,84.303,76,84
171.18,87.217,76,84
171,84.966,76,84
170.82,87.86,76,84
170.21,90.433,76,84
169.2,84.508,76,84
178.65,104.99,76,84
170.97,93.774,76,84
159.02,82.355,76,84
145.91,73.275,76,84
