146,150,32,73
146.67,149.5,32,73
147.4,149.74,32,73
146.96,149.43,32,73
147.61,149.99,32,73
147.83,149.11,32,73
146.98,149.22,32,73
147.13,149.66,32,73
147.24,150.65,32,73
147.22,149.61,32,73
146.79,151.13,32,73
147.21,150.05,32,73
146.86,150.76,32,73
147.62,151.23,32,73
147.58,149.37,32,73
148.49,148.91,32,73
148.17,149.63,32,73
148.83,149.49,32,73
147.95,148.73,32,73
147.2,150.29,32,73
147.67,149.26,32,73
146.93,148.99,32,73
147.23,149.01,32,73
148.2,149.12,32,73
148.34,149.31,32,73
148.75,149.42,32,73
148.38,150.31,32,73
149.12,147.85,32,73
148.96,150.29,32,73
149.58,148.32,32,73
150.18,150.08,32,73
150.39,149.99,32,73
148.99,150.93,32,73
148.94,151.45,32,73
148.32,150.56,32,73
148.08,151.37,32,73
146.99,150.86,32,73
146.47,150.93,32,73
146.33,152.03,32,73
145.81,152.35,32,73
145.31,153.33,32,73
145.72,152.44,32,73
145.22,152.52,32,73
144.85,151.93,32,73
144.6,151.58,32,73
144.61,151.5,32,73
144.55,151.03,32,73
144.95,152.45,32,73
144.85,150.82,32,73
144.14,152.47,32,73
144,152.91,32,73
142.9,151.49,32,73
142.41,152.66,32,73
142.49,153.03,32,73
142.8,151.67,32,73
142.93,152.42,32,73
142.29,152.1,32,73
143.02,152.65,32,73
142.82,153.01,32,73
142.7,153.42,32,73
143.08,153.79,32,73
143.04,153.52,32,73
143.39,153.66,32,73
144.82,152.42,32,73
144.66,154.04,32,73
144.64,154.07,32,73
144.5,152.42,32,73
144.29,152.83,32,73
144.63,153.03,32,73
144.72,153.01,32,73
144.97,152.58,32,73
144.56,153.02,32,73
145.09,152.91,32,73
144.99,153.27,32,73
144.8,152.97,32,73
144.36,153.66,32,73
144.14,152.66,32,73
144.44,152.81,32,73
144.95,152.12,32,73
144.16,152.01,32,73
143.78,152.48,32,73
144.06,153.44,32,73
144.32,150.82,32,73
145.26,151.41,32,73
145.98,152.06,32,73
146.29,152.98,32,73
146.61,152.3,32,73
147.11,151.42,32,73
147.08,151.27,32,73
147.1,151.31,32,73
147.49,151.87,32,73
146.93,151.74,32,73
147.52,152.82,32,73
147.56,152.7,32,73
148.31,155.4,32,73
148.39,155.87,32,73
149.26,153.85,32,73
149.44,154.05,32,73
149.2,155.6,32,73
150.27,156.12,32,73
150.2,156.72,32,73
150.31,155.22,32,73
150.66,155.48,32,73
151.07,155.25,32,73
150.72,155.56,32,73
150.55,156.17,32,73
150.4,154.95,32,73
150.41,155.56,32,73
150.44,153.7,32,73
150.95,154.8,32,73
151.72,156.03,32,73
151.35,155.47,32,73
152,158.14,32,73
151.73,154.87,32,73
151.79,155.09,32,73
152.57,154.48,32,73
152.85,153.63,32,73
154.25,154.77,32,73
154.59,154.63,32,73
154.8,153.1,32,73
154.51,153.75,32,73
154.17,153.51,32,73
153.3,153.92,32,73
153.94,153.35,32,73
153.96,154.27,32,73
153.23,153.77,32,73
153.64,153.39,32,73
152.51,152.28,32,73
152.08,151.89,32,73
152.19,150.49,32,73
152.22,153.06,32,73
152.12,153.64,32,73
151.83,151.65,32,73
151.51,151.99,32,73
151.51,152.19,32,73
151.08,150.29,32,73
151.14,149.22,32,73
151.73,149.86,32,73
151.5,150.3,32,73
151.52,151.05,32,73
151.22,151.26,32,73
151.05,149.99,32,73
150.64,150.58,32,73
150.45,149.51,32,73
150.58,150.46,32,73
149.59,151.54,32,73
148.91,150.16,32,73
148.92,151.37,32,73
148.4,151.28,32,73
148.32,151.21,32,73
147.88,150.84,32,73
148,149.44,32,73
147.43,151.09,32,73
147.65,149.57,32,73
147.58,149.24,32,73
147.16,150.68,32,73
146.32,150.81,32,73
146.09,150.05,32,73
145.78,150.73,32,73
145.69,150.6,32,73
145.71,149.59,32,73
145.4,150.49,32,73
145.34,150.7,32,73
144.6,151.37,32,73
143.9,150.81,32,73
143.79,149.81,32,73
144.67,152.15,32,73
144.62,151.63,32,73
144.71,150.58,32,73
144.62,149.99,32,73
144.89,150.76,32,73
145.11,150.26,32,73
143.72,150.62,32,73
144.13,150.76,32,73
144.53,151.2,32,73
143.78,148.74,32,73
144.35,149.4,32,73
144.11,150.13,32,73
143.57,149,32,73
144.07,150.26,32,73
144.4,149.78,32,73
143.48,149.68,32,73
143.54,149.35,32,73
144.14,149.6,32,73
144.75,149,32,73
146.41,149.96,32,73
147.35,148.9,32,73
149.05,149.86,32,73
150.99,147.75,32,73
153.22,149.17,32,73
155.73,147.01,32,73
158.33,145.85,32,73
161.45,146.6,32,73
163.11,144.96,32,73
166.17,142.09,32,73
168.01,143.04,32,73
169.95,143,32,73
170.36,141.24,32,73
170.16,141.48,32,73
170.13,140.7,32,73
169.63,138.92,32,73
166.85,137.11,32,73
164.61,136.64,32,73
161.58,135.37,32,73
157.45,134.58,32,73
153.7,137.79,32,73
148.82,133.97,32,73
143.17,133.99,32,73
138.46,134.33,32,73
133.74,131.93,32,73
128.16,134.92,32,73
123.23,134.36,32,73
120.22,136.91,32,73
116.73,137.01,32,73
113.62,136.88,32,73
111.56,138.06,32,73
109.95,137.81,32,73
108.4,140.41,32,73
107.21,141.45,32,73
105.68,145.56,32,73
105.63,146.16,32,73
104.9,149.61,32,73
105.01,149.86,32,73
105.31,151.32,32,73
106.08,151.98,32,73
107.85,156.11,32,73
107.84,157.36,32,73
108.47,159.3,32,73
110.11,159.62,32,73
110.84,159.07,32,73
111.87,160.88,32,73
112.23,161.72,32,73
112.29,163.16,32,73
111.01,163.4,32,73
110.15,164.27,32,73
108.49,162.12,32,73
107.49,163.9,32,73
106.19,161.85,32,73
104.9,161.08,32,73
103.29,161.97,32,73
101.38,163.73,32,73
99.361,161.94,32,73
97.582,161.19,32,73
94.627,162.48,32,73
92.075,160.53,32,73
88.069,158.02,32,73
85.011,160.23,32,73
82.142,158.71,32,73
79.129,159.59,32,73
75.412,156.62,32,73
72.16,152.83,32,73
68.834,151.53,32,73
66.942,151.83,32,73
63.708,150.47,32,73
61.363,147.28,32,73
59.131,149.89,32,73
57.357,147.07,32,73
55.263,143.95,32,73
54.439,143.17,32,73
53.452,143.06,32,73
53.825,144.43,32,73
52.7,143.46,32,73
52.8,142.52,32,73
53.054,141.53,32,73
54.989,142.96,32,73
56.047,144.33,32,73
58.618,142.47,32,73
61.545,142,32,73
65.646,143.19,32,73
69.082,142.58,32,73
73.514,141.44,32,73
79.135,143.09,32,73
83.263,140.54,32,73
89.548,141.33,32,73
94.065,140.04,32,73
100.04,145.87,32,73
104.07,145.17,32,73
109.32,140.48,32,73
113.61,142.13,32,73
117.79,143.64,32,73
121.87,142.08,32,73
124.56,144.33,32,73
127.4,144.39,32,73
131.01,144.97,32,73
132.99,148.31,32,73
136.4,146.12,32,73
138.44,148.04,32,73
141.05,149.46,32,73
143.6,148.87,32,73
145.9,149.18,32,73
146.57,150.9,32,73
147.95,148.89,32,73
149.48,152.15,32,73
151.38,154.64,32,73
151.44,154.05,32,73
151.87,152.57,32,73
152.61,155.96,32,73
151.59,156.25,32,73
151.33,157.42,32,73
151.06,158.53,32,73
150.5,160.96,32,73
149.6,160.73,32,73
149.16,164.21,32,73
148.56,164.58,32,73
146.91,165.88,32,73
143.93,167.33,32,73
141.57,166.8,32,73
138.4,168.81,32,73
135.43,167.48,32,73
131.48,170.2,32,73
128.47,171.94,32,73
124.77,170.83,32,73
121.93,172.37,32,73
118.97,171.82,32,73
117.53,170.42,32,73
114.55,168.31,32,73
110.71,168.63,32,73
106.96,168.8,32,73
102.96,167.72,32,73
99.277,169.72,32,73
96.891,167.38,32,73
92.429,166.68,32,73
88.763,165.72,32,73
86.527,165.98,32,73
82.89,164.3,32,73
77.618,164.24,32,73
75.509,163.1,32,73
71.747,159.41,32,73
69.253,160.94,32,73
67.842,158.86,32,73
63.938,157.1,32,73
63.586,155.87,32,73
61.806,153.94,32,73
60.393,152.69,32,73
60.454,150.84,32,73
61.228,149.17,32,73
61.724,146.67,32,73
63.956,146.09,32,73
66.803,143.33,32,73
68.214,142.54,32,73
71.209,139.63,32,73
74.395,137.93,32,73
77.957,137.89,32,73
80.723,136.75,32,73
86.474,136.39,32,73
89.92,135.52,32,73
95.937,135.36,32,73
101.37,134.06,32,73
107.12,131.35,32,73
113.37,133.44,32,73
118.39,133.87,32,73
124.4,130.85,32,73
130.38,131.72,32,73
136.93,131.94,32,73
143.34,133.63,32,73
149.69,134.22,32,73
154.69,134.06,32,73
161.98,131.61,32,73
169.45,133.22,32,73
175.73,133.2,32,73
183.03,134.18,32,73
189.29,133.63,32,73
195.05,134.08,32,73
200.52,134.74,32,73
206.64,135.66,32,73
210.94,133.91,32,73
214.94,136.44,32,73
218.62,135.29,32,73
222.46,137.94,32,73
224.82,139.8,32,73
228.06,142.07,32,73
227.82,145.03,32,73
228.98,146.18,32,73
228.77,146.07,32,73
227.34,147.9,32,73
225.86,149.15,32,73
221.52,150.59,32,73
218.17,151.78,32,73
213.64,153.94,32,73
207.33,153.19,32,73
203.38,154.13,32,73
198.15,156.79,32,73
191.93,157.77,32,73
184.71,159.52,32,73
179.84,158.39,32,73
174.28,161.42,32,73
167.72,160.34,32,73
161.4,162.95,32,73
154.75,163,32,73
149.7,162.07,32,73
142.64,161.34,32,73
135.6,162.64,32,73
128.6,162.57,32,73
122.43,161.84,32,73
116.65,161.07,32,73
110.2,160.4,32,73
104.99,156.93,32,73
99.844,156.56,32,73
94.051,153.94,32,73
91.155,150.51,32,73
86.92,146.2,32,73
82.852,141.44,32,73
79.678,140.06,32,73
77.674,136.16,32,73
77.683,131.52,32,73
78.417,128.61,32,73
80.783,124.87,32,73
83.622,122.55,32,73
87.558,118.41,32,73
91.591,115.18,32,73
98.102,111.68,32,73
102.58,109.33,32,73
108.42,107.66,32,73
113,105.3,32,73
118.49,102.41,32,73
123.02,100.01,32,73
128.33,95.084,32,73
132.31,90.904,32,73
136.89,88.247,32,73
140.38,86.52,32,73
143.81,83.019,32,73
145.94,81.274,32,73
148.25,78.431,32,73
150.86,72.749,32,73
152.96,70.6,32,73
154.01,68.541,32,73
155.95,65.446,32,73
155.25,62.983,32,73
153.55,58.667,32,73
153.18,55.64,32,73
151.51,53.319,32,73
149.8,51.654,32,73
145.6,49.829,32,73
143.25,49.161,32,73
140.99,47.639,32,73
138.32,49.381,32,73
134.66,47.957,32,73
131.68,48.38,32,73
129.22,51.975,32,73
125.79,52.441,32,73
124.7,54.485,32,73
120.74,55.08,32,73
117.58,57.837,32,73
114.18,62.994,32,73
112.17,65.578,32,73
108.9,70.059,32,73
106.86,72.903,32,73
103.87,75.619,32,73
102.52,80.58,32,73
100.89,83.756,32,73
98.403,87.832,32,73
97.257,93.209,32,73
97.039,95.687,32,73
95.905,100.38,32,73
95.154,105.01,32,73
94.926,108.19,32,73
94.336,111.28,32,73
95.768,117.62,32,73
95.931,123.63,32,73
97.207,126.85,32,73
96.75,130.89,32,73
98.636,134.18,32,73
100.89,137.58,32,73
100.75,141.62,32,73
102.19,141.71,32,73
104.34,145.31,32,73
105.48,145.35,32,73
106.16,147.63,32,73
107.75,150.55,32,73
107.77,154.12,32,73
108.97,153.58,32,73
108.93,156.91,32,73
109.76,155.4,32,73
109.51,158.66,32,73
110.5,158.14,32,73
110.66,156.86,32,73
110.75,159.34,32,73
111.37,161.92,32,73
110.31,161.99,32,73
110.32,160.91,32,73
110.75,162.57,32,73
109.84,162.87,32,73
109.8,163.12,32,73
109.75,163.63,32,73
109.54,163.55,32,73
110.34,161.67,32,73
110.35,160.04,32,73
109.44,161.03,32,73
110.76,159.26,32,73
109.42,162.02,32,73
108.08,159.81,32,73
106.88,158.6,32,73
106.07,158.22,32,73
105.8,156.25,32,73
104.93,155.43,32,73
103.79,155.98,32,73
104.36,154.59,32,73
102.83,151.75,32,73
102.48,151.39,32,73
102.11,150.76,32,73
100.9,151.45,32,73
100.04,147.62,32,73
99.557,146.47,32,73
98.245,141.31,32,73
96.55,140.69,32,73
97.549,137.87,32,73
96.291,135.8,32,73
95.678,131.8,32,73
93.884,129.32,32,73
93.692,126.22,32,73
94.236,125.37,32,73
94.368,121.39,32,73
95.665,118.2,32,73
97.194,114.46,32,73
99.896,113.89,32,73
106.52,109.71,32,73
110.6,110.18,32,73
116.25,110.89,32,73
123.67,108.48,32,73
129.34,110.14,32,73
138.22,112.5,32,73
144.51,115.61,32,73
155.86,119.17,32,73
162.62,121.62,32,73
169.65,120.99,32,73
175.73,120.08,32,73
182.16,123.18,32,73
186.05,123.35,32,73
190.23,124.74,32,73
192.76,128.57,32,73
194.18,130.2,32,73
195.39,130.86,32,73
196.05,133.25,32,73
196.38,133.9,32,73
196.7,138.43,32,73
194.77,138.39,32,73
194.4,140.19,32,73
192.03,143.98,32,73
189.62,144.43,32,73
187.5,145.48,32,73
184.58,148.93,32,73
180.52,152.98,32,73
177.71,153.63,32,73
173.91,157.43,32,73
169.63,158.5,32,73
167.14,161.09,32,73
164.33,167.39,32,73
160.56,171.29,32,73
158.77,170.26,32,73
156.87,167.27,32,73
153.25,171.18,32,73
148.47,176.23,32,73
146.17,182.1,32,73
146.64,180.69,32,73
147.51,179.28,32,73
145.59,181.39,32,73
143.59,182.55,32,73
140.48,183.46,32,73
135.74,180.91,32,73
131.45,181.26,32,73
127.44,180.11,32,73
123.17,180.35,32,73
121.56,181.48,32,73
118.56,182.8,32,73
118.27,181.51,32,73
116.95,183.22,32,73
115.27,182.83,32,73
115.05,180.65,32,73
116.08,181.68,32,73
118.28,181.35,32,73
120.43,182.63,32,73
123.2,179.48,32,73
125.15,181.86,32,73
127.17,182.9,32,73
129.14,182.37,32,73
131.73,186.31,32,73
133.45,186.78,32,73
134.68,188.04,32,73
137.05,188.47,32,73
139.9,188.9,32,73
141.79,189.15,32,73
145.99,189.97,32,73
149.6,188.97,32,73
153.21,188.27,32,73
156.73,187.67,32,73
161.17,186.05,32,73
165.14,186.68,32,73
169.45,186.77,32,73
174.14,187.28,32,73
177.88,184.79,32,73
179.59,183.88,32,73
182.79,179.59,32,73
184.11,175.4,32,73
185.15,172.64,32,73
184.59,172.47,32,73
186.12,168.21,32,73
183.53,167.36,32,73
182.68,165.49,32,73
183,162.81,32,73
180.8,163.61,32,73
180.89,162.61,32,73
179.8,160.35,32,73
177.62,161.03,32,73
176.19,158.97,32,73
172.81,159.24,32,73
170.31,161.17,32,73
166.2,161.23,32,73
162.38,163.3,32,73
159.02,161.32,32,73
155.73,161.13,32,73
152.85,163.16,32,73
149.33,163.84,32,73
145.82,166.08,32,73
143.07,167.85,32,73
142.54,168.42,32,73
142.61,170.19,32,73
142.42,173.47,32,73
143.1,177.15,32,73
144.12,178.36,32,73
145.95,180.26,32,73
147.54,184.61,32,73
148.97,185.69,32,73
150.3,186.75,32,73
151.33,189.95,32,73
152.75,188.32,32,73
154.64,187.77,32,73
156.89,188.33,32,73
158.97,187.87,32,73
160.79,189.68,32,73
163.14,187.69,32,73
166.08,188.03,32,73
169.04,188.78,32,73
171.93,189.32,32,73
175.47,188.04,32,73
176.92,185.75,32,73
179.78,186.44,32,73
183.12,185.75,32,73
186.06,186.55,32,73
188.85,185.06,32,73
192.63,183.14,32,73
196.23,182.89,32,73
200.14,181.22,32,73
201.16,179.91,32,73
203.62,177.33,32,73
206.53,177.14,32,73
209.82,174.41,32,73
212.9,175,32,73
216.11,172.93,32,73
220.67,169.49,32,73
222.81,167.21,32,73
223.82,167.23,32,73
225.78,165.66,32,73
226.22,164.97,32,73
227.08,163.71,32,73
227.91,161.87,32,73
228.8,162.52,32,73
230.24,160.31,32,73
231.53,159.48,32,73
232.83,160.41,32,73
234.34,159.81,32,73
235.29,156.66,32,73
236.18,157.41,32,73
238.49,153.58,32,73
239.92,151.26,32,73
241.12,151.72,32,73
241.7,150.04,32,73
241.57,148.14,32,73
241.88,147.81,32,73
242.57,146.57,32,73
241.58,144.79,32,73
240.91,141.5,32,73
239.89,140.93,32,73
238.43,139.6,32,73
235.55,138.72,32,73
231.8,139.46,32,73
229.15,137.99,32,73
225.29,136.23,32,73
221.68,132.85,32,73
218.52,133.38,32,73
214.06,131.15,32,73
209.6,131.87,32,73
204.33,130.05,32,73
199.07,129.16,32,73
194.6,127.81,32,73
189.63,129.19,32,73
183.32,127.2,32,73
178.06,126.45,32,73
173.37,127.63,32,73
169.13,126.58,32,73
164.38,126.25,32,73
159.61,124.01,32,73
155.05,125.33,32,73
149.36,125.56,32,73
144.81,125.47,32,73
139.74,123.32,32,73
135.36,124.68,32,73
132.77,122.85,32,73
129.68,122.75,32,73
126.65,123.86,32,73
124.82,120.65,32,73
122.04,125.1,32,73
120.27,125.19,32,73
117.86,127.48,32,73
115.87,125.73,32,73
116.91,128.37,32,73
116.36,131.63,32,73
117.07,133.44,32,73
117.16,134.55,32,73
117.23,134.03,32,73
118.58,135.69,32,73
120.12,139.5,32,73
123,142.76,32,73
124.64,143.93,32,73
127.07,148.26,32,73
128.73,150.27,32,73
132.42,153.58,32,73
135.84,156.67,32,73
138.15,158.55,32,73
141.48,161.42,32,73
143.59,164.99,32,73
146.33,166.16,32,73
148.91,166.03,32,73
151.28,166.5,32,73
153.19,166.31,32,73
155.94,164.68,32,73
158.5,162.19,32,73
160.75,161.14,32,73
163.61,157.76,32,73
165.73,156.91,32,73
167.85,152.61,32,73
170.56,148.58,32,73
171.94,143.81,32,73
174.95,139.85,32,73
177.13,134.78,32,73
177.61,130.27,32,73
179.57,125.26,32,73
180.4,120.83,32,73
181.45,115.86,32,73
182.71,109.24,32,73
182.74,105.77,32,73
183.44,97.423,32,73
182.76,92.065,32,73
182.44,85.34,32,73
181.05,81.175,32,73
178.64,74.001,32,73
178.99,72.498,32,73
176.29,67.573,32,73
174.14,60.608,32,73
170.93,58.844,32,73
167.9,56.747,32,73
164.6,55.183,32,73
160.1,53.568,32,73
156.19,52.882,32,73
151.75,52.943,32,73
147.27,54.017,32,73
142.04,52.335,32,73
138.62,52.958,32,73
133.55,56.544,32,73
128.85,57.614,32,73
124.4,58.067,32,73
120.19,61.075,32,73
116.06,62.199,32,73
112.64,66.169,32,73
109.12,70.545,32,73
107.02,71.356,32,73
105.95,76.608,32,73
104.26,81.896,32,73
103.39,87.527,32,73
102.99,94.349,32,73
103.84,97.652,32,73
105.14,101.36,32,73
103.5,109.93,32,73
103.75,115.19,32,73
105.74,119.68,32,73
106.86,127.1,32,73
106.52,131.85,32,73
108.34,136.77,32,73
109.98,139.22,32,73
111.87,145.15,32,73
112.46,147.38,32,73
116.2,150.44,32,73
118.7,154.69,32,73
122.15,159.68,32,73
124.5,162.75,32,73
128.56,165.69,32,73
130.85,169.5,32,73
135.39,172.74,32,73
138.29,177.03,32,73
141.51,178.53,32,73
144.97,178.6,32,73
149.38,182.5,32,73
152.59,183.8,32,73
156.17,184.94,32,73
160.39,185.35,32,73
165.25,186.16,32,73
168.1,181.18,32,73
172.72,185.42,32,73
175.51,183.2,32,73
179.22,184.33,32,73
181.68,182.56,32,73
184.72,176.7,32,73
186.32,176.25,32,73
190.72,173.5,32,73
191.89,172.71,32,73
192,167.99,32,73
193.05,164.92,32,73
192.82,159.91,32,73
192.96,158.53,32,73
193.27,157.82,32,73
193.23,153.91,32,73
193.62,151.87,32,73
194.42,145.86,32,73
194.59,142.29,32,73
195.28,137.98,32,73
194.9,133.67,32,73
194.16,129.58,32,73
192.91,126.27,32,73
191.49,122.89,32,73
188.96,120.54,32,73
185.91,116.44,32,73
182.38,110.67,32,73
179.77,109.42,32,73
176.77,107.84,32,73
173.25,109.49,32,73
169.44,108.84,32,73
167.48,113.56,32,73
164.74,112.77,32,73
161.77,116.87,32,73
160.66,122.95,32,73
160.63,129.04,32,73
159.48,135.96,32,73
156.87,138.21,32,73
157.49,139.82,32,73
157.28,137.76,32,73
158.35,133.72,32,73
157.49,124.19,32,73
157.74,117.93,32,73
157.75,109.18,32,73
157.53,106.01,32,73
156.66,100.05,32,73
153.78,98.85,32,73
150.64,99.503,32,73
149.27,101.27,32,73
145.59,104.35,32,73
141.89,110.27,32,73
139.14,115.63,32,73
137.94,121.93,32,73
135.53,123.02,32,73
136.12,128.25,32,73
133.9,130.25,32,73
134.42,129.55,32,73
136.45,126.9,32,73
136.4,124.46,32,73
137.75,117.57,32,73
135.79,113.48,32,73
134.1,105.51,32,73
134.18,98.876,32,73
134.16,96.741,32,73
133.4,95.687,32,73
131.74,94.776,32,73
131.97,94.523,32,73
131.44,97.699,32,73
132.76,103.62,32,73
133.92,111.67,32,73
136.36,117.25,32,73
138.27,119.83,32,73
139.97,127.15,32,73
143.27,130.36,32,73
147.21,128.88,32,73
151.81,127.96,32,73
154.77,123.94,32,73
158.14,119.89,32,73
162.13,111.68,32,73
165.1,104.12,32,73
168.18,95.029,32,73
170.57,87.797,32,73
173.58,79.6,32,73
174.77,74.778,32,73
175.32,68.611,32,73
173.73,71.074,32,73
172.39,69.208,32,73
172.6,70.206,32,73
171.64,77.881,32,73
171.03,84.249,32,73
171.18,87.477,32,73
171.62,95.33,32,73
174.45,96.916,32,73
176.1,97.51,32,73
178.13,98.261,32,73
179.94,97.852,32,73
182.32,93.818,32,73
183.99,87.23,32,73
184.44,79.768,32,73
185.47,72.123,32,73
183.9,66.028,32,73
183.12,63.862,32,73
180.12,62.02,32,73
178.8,63.545,32,73
177.12,69.615,32,73
175.74,79.987,32,73
178.04,86.16,32,73
178,96.576,32,73
179.01,101.79,32,73
179,110.85,32,73
179.18,114.15,32,73
181.08,111.1,32,73
182.68,108.59,32,73
185.26,102.09,32,73
188.12,95.75,32,73
188.43,86.107,32,73
187.93,78.917,32,73
187.45,71.891,32,73
182.73,65.323,32,73
178.17,61.518,32,73
175.3,57.8,32,73
172.21,57.139,32,73
170.96,61.878,32,73
168.8,64.07,32,73
169.3,71.225,32,73
170.55,76.3,32,73
172.62,84.464,32,73
173.63,87.12,32,73
174.66,92.832,32,73
175.89,91.371,32,73
177.52,100.19,32,73
178.74,100.47,32,73
181.06,101.04,32,73
183.28,103.1,32,73
187.36,103.63,32,73
191.71,99.318,32,73
199.31,98.114,32,73
205.36,96.707,32,73
213.53,91.043,32,73
222,85.232,32,73
229.81,82.059,32,73
238.4,78.503,32,73
246.61,76.917,32,73
251.54,78.328,32,73
255.89,78.002,32,73
258.73,77.666,32,73
258.41,78.748,32,73
258.36,81.735,32,73
255.67,84.408,32,73
251.11,87.105,32,73
246.1,90.17,32,73
241.78,96.776,32,73
235.7,98.902,32,73
229.86,101.11,32,73
221.66,105.39,32,73
214.56,108.05,32,73
206.63,112.77,32,73
198.95,117.55,32,73
191.47,120.92,32,73
183.81,124.6,32,73
176.22,131.62,32,73
173.68,135.59,32,73
167.73,139.51,32,73
165.18,141.91,32,73
160.04,149.04,32,73
159.45,150.75,32,73
159.63,154.64,32,73
159.34,159.68,32,73
160.54,160.39,32,73
163.46,162.44,32,73
165.21,163.93,32,73
169.97,165.76,32,73
169.79,165.24,32,73
173.25,164.47,32,73
175.46,164.31,32,73
179.86,163.25,32,73
182.59,161.99,32,73
185.21,159.06,32,73
187.74,156.7,32,73
190.27,154.28,32,73
192.93,152.18,32,73
194.42,148.1,32,73
195.98,146.03,32,73
196.17,143.03,32,73
196.88,136.47,32,73
195.32,133.65,32,73
193.95,128.77,32,73
192.28,125,32,73
188.69,119.98,32,73
185.72,118.27,32,73
181.32,112.04,32,73
177.88,110.66,32,73
173.12,107.6,32,73
168.89,104.96,32,73
165.92,102.68,32,73
162.77,106.47,32,73
159.26,105.51,32,73
156.55,106.15,32,73
154.17,108.08,32,73
152.05,108.7,32,73
152.34,108.8,32,73
150.54,108.73,32,73
151.2,112.76,32,73
152.24,115.01,32,73
152.31,117.07,32,73
153.77,120.3,32,73
155.14,120.75,32,73
155.95,120.72,32,73
158.47,124.02,32,73
160.95,124.22,32,73
163.44,128.44,32,73
166.39,128.06,32,73
170.4,129.94,32,73
174.38,131.69,32,73
181.17,132.52,32,73
185.36,133.86,32,73
191.07,132.64,32,73
196.49,131.27,32,73
201.68,130.97,32,73
207.29,132.53,32,73
213.14,133.68,32,73
218.72,131.82,32,73
224.32,131.3,32,73
229.37,130.46,32,73
234.49,129.55,32,73
237.58,130.74,32,73
238.82,132.25,32,73
240.88,130.35,32,73
241.35,130.54,32,73
241.66,130.97,32,73
239.82,127.19,32,73
238.94,128.49,32,73
234.41,129.34,32,73
231.27,126.65,32,73
227.22,129.54,32,73
221.94,127.95,32,73
216.2,127.99,32,73
210.8,125.73,32,73
204.73,127.62,32,73
198.85,128.45,32,73
193.45,126.11,32,73
186.41,126.69,32,73
181.37,126.67,32,73
174.96,126.52,32,73
169.28,128.67,32,73
164.5,127.57,32,73
157.07,129.1,32,73
151.86,130.58,32,73
146.57,131.34,32,73
141.04,131.61,32,73
135.79,136.19,32,73
131.36,134.94,32,73
126.05,138.3,32,73
123.03,139.3,32,73
118.63,141.6,32,73
115.43,142.51,32,73
112.58,142.3,32,73
110.84,147.22,32,73
108.66,149.15,32,73
107.71,150.59,32,73
106.91,152.79,32,73
106.39,156.33,32,73
107.23,158.06,32,73
108.54,163.27,32,73
110.78,160.04,32,73
112.38,161.9,32,73
115.03,161.98,32,73
118.58,165.46,32,73
121.26,165.74,32,73
125.05,167.26,32,73
130.18,170.13,32,73
133.48,173.36,32,73
138.96,172.14,32,73
144.31,174.8,32,73
150.12,177.43,32,73
155.36,175.77,32,73
158.78,177.66,32,73
164.7,175.82,32,73
170.12,177.02,32,73
175.42,176.45,32,73
179.21,177.58,32,73
184.27,174.6,32,73
190.14,172.42,32,73
194.23,174.68,32,73
201.01,175.04,32,73
207.81,174.16,32,73
213.57,172.15,32,73
219.53,168.68,32,73
224.9,167.35,32,73
231.21,165.79,32,73
237.44,166.45,32,73
242.09,163.19,32,73
247.49,161.8,32,73
251.82,162.3,32,73
256.03,159.99,32,73
260.03,157.48,32,73
261.82,156.14,32,73
263.91,154.96,32,73
267.08,153.14,32,73
269.58,149.88,32,73
271.28,149.44,32,73
271.89,147.54,32,73
272.85,143.81,32,73
273.29,143.36,32,73
272.94,142.68,32,73
271.89,139.76,32,73
270.5,138.35,32,73
267.95,136.69,32,73
266.44,134.82,32,73
264.81,134.01,32,73
260.11,136.1,32,73
256.98,132.14,32,73
252.95,130.64,32,73
249.6,131.99,32,73
244.97,133.21,32,73
241.66,133.36,32,73
237.6,131.26,32,73
233.23,132.79,32,73
228.35,132.34,32,73
222.74,133.34,32,73
217.54,132.92,32,73
212.14,134.73,32,73
207.6,133.15,32,73
200.14,136.19,32,73
196.23,135.22,32,73
190.93,133.21,32,73
183.78,135.74,32,73
179,135.17,32,73
174.23,134.25,32,73
169.4,133.57,32,73
164.94,132.2,32,73
160,135.31,32,73
155.12,137.92,32,73
150.89,138.23,32,73
149.56,137.42,32,73
146.15,138.9,32,73
141.91,140.3,32,73
138.1,143.81,32,73
135.84,144.98,32,73
133.45,147.47,32,73
131.48,148.37,32,73
130.26,148.62,32,73
130.59,151.26,32,73
129.53,155.38,32,73
128.68,156.91,32,73
128.63,158.03,32,73
128.06,162.92,32,73
129.9,160.57,32,73
130.23,163.57,32,73
132.21,165.17,32,73
134.74,167.12,32,73
137.39,168.73,32,73
139.81,169.12,32,73
142.75,170.15,32,73
146.18,170.08,32,73
151.4,170.01,32,73
154.94,173,32,73
160.06,171.49,32,73
164.09,172.27,32,73
167.65,169.07,32,73
171.34,171.9,32,73
175.01,171.29,32,73
176.01,172.44,32,73
179.14,169.06,32,73
182.66,168.88,32,73
185.67,167.34,32,73
189.27,166.49,32,73
191.04,165.32,32,73
193.03,161.98,32,73
195.34,158.88,32,73
199.14,158.42,32,73
200.34,155.11,32,73
203.16,151.06,32,73
205.79,149.24,32,73
206.09,146.63,32,73
208.37,142.89,32,73
209.69,137.91,32,73
210.69,134.69,32,73
211.58,130.06,32,73
212.89,124.32,32,73
212.68,118.02,32,73
212.43,114.43,32,73
211.78,107.85,32,73
211.85,105.69,32,73
209.33,99.086,32,73
208.29,95.525,32,73
207.27,91.44,32,73
206.09,87.021,32,73
205.41,81.485,32,73
201.06,77.618,32,73
198.55,73.244,32,73
193.58,69.219,32,73
189.64,68.272,32,73
185.43,67.843,32,73
180.38,65.027,32,73
173.89,67.426,32,73
167.94,67.418,32,73
162.2,69.33,32,73
155.46,69.988,32,73
150.59,74.775,32,73
143.8,78.079,32,73
138.89,86.374,32,73
133.4,89.345,32,73
128.47,96.086,32,73
123.71,100.15,32,73
121.03,106.2,32,73
117.15,114.01,32,73
113.68,118.61,32,73
111.45,122.31,32,73
110.18,130,32,73
108.08,138.89,32,73
107.48,141.67,32,73
106.77,147.99,32,73
108.35,150.23,32,73
110.66,156.3,32,73
111.67,161.91,32,73
114.22,165.2,32,73
116.89,164.62,32,73
119.24,167.08,32,73
122.79,168.02,32,73
125.61,171.53,32,73
129.26,171.23,32,73
131.85,173.7,32,73
134.97,173.85,32,73
139.47,176.32,32,73
142.49,174.91,32,73
144.9,176.48,32,73
148.5,176.72,32,73
151.14,179.19,32,73
154.75,179.85,32,73
157.54,179.37,32,73
160.89,179.98,32,73
163.71,179.81,32,73
165.17,180.79,32,73
166.3,183.29,32,73
167.34,181.72,32,73
167.66,180.98,32,73
166.88,180.33,32,73
169.29,179.6,32,73
167.42,178.15,32,73
166.74,178.04,32,73
166.49,177.88,32,73
167.94,172.86,32,73
166.82,171.71,32,73
167.09,169.33,32,73
166.21,164.67,32,73
166.89,160.44,32,73
166.56,155.97,32,73
166.36,151.66,32,73
166.75,147.2,32,73
168.61,141.08,32,73
168.33,136.95,32,73
170.46,130.57,32,73
169.22,127.08,32,73
172.93,121.63,32,73
172.71,117.18,32,73
173.19,112.15,32,73
175.18,108.87,32,73
174.92,106.85,32,73
175.11,100.7,32,73
175.96,98.663,32,73
176.24,96.281,32,73
176.57,93.465,32,73
177.3,95.59,32,73
176.8,94.022,32,73
177.78,94.68,32,73
178.07,94.873,32,73
177.78,96.435,32,73
177.22,94.797,32,73
178.16,99.226,32,73
177.34,98.697,32,73
177.18,101.54,32,73
176.69,103.18,32,73
176.06,101.93,32,73
175.24,100.74,32,73
173.82,104.6,32,73
172.72,110.27,32,73
171.85,106.1,32,73
170.81,112.51,32,73
170.41,114.19,32,73
168.63,115.18,32,73
167.97,118.68,32,73
166.58,120.24,32,73
166.07,120.29,32,73
164.64,124.95,32,73
163.89,127.72,32,73
163.35,130.82,32,73
162.8,133.46,32,73
162.31,135.64,32,73
161.95,135.05,32,73
161.17,138.91,32,73
161.53,141.42,32,73
161.15,144.21,32,73
162.17,145.72,32,73
162.2,149.92,32,73
162.21,149.58,32,73
163.88,153.26,32,73
163.94,157.25,32,73
165.05,157.38,32,73
165.47,159.55,32,73
167.56,160.46,32,73
168.49,162.64,32,73
168.87,161.34,32,73
170.18,162.12,32,73
170.67,162.54,32,73
170.6,163.52,32,73
172.4,162.67,32,73
174.46,160.92,32,73
175.61,160.32,32,73
177.45,158.75,32,73
180.02,159.76,32,73
182.65,158.15,32,73
185.75,154.34,32,73
189.24,153.28,32,73
191.99,152.01,32,73
195.33,151.08,32,73
199.86,149.25,32,73
202.15,148.47,32,73
205.91,147.87,32,73
209.31,144.78,32,73
212.69,142.79,32,73
215.12,140.45,32,73
218.45,142.24,32,73
221.96,140.89,32,73
225.08,138.54,32,73
227.69,138.75,32,73
230.34,140.02,32,73
234.04,138.35,32,73
237.29,137.34,32,73
240.62,137.18,32,73
241.35,139.92,32,73
242.44,139.51,32,73
246.1,138.16,32,73
247.68,137.86,32,73
249.5,136.58,32,73
250.06,133.7,32,73
248.61,134.87,32,73
248.31,134.78,32,73
247.04,134.11,32,73
245.84,136.05,32,73
243.47,136.11,32,73
241.33,136.58,32,73
238.73,138.88,32,73
237.34,139.23,32,73
235.35,138.19,32,73
232.71,139.36,32,73
231.48,138.59,32,73
229.89,136.66,32,73
225.74,140.92,32,73
222.74,141.39,32,73
219.53,144.2,32,73
216.24,143.11,32,73
212.28,145.1,32,73
209.15,145.47,32,73
204.47,146.71,32,73
201.55,145.42,32,73
196.91,146.64,32,73
192.18,147.78,32,73
187.69,148.41,32,73
183.74,151.38,32,73
181.16,149.95,32,73
178.61,152.96,32,73
176.24,150.31,32,73
173.12,152.02,32,73
170.38,153.36,32,73
166.81,153.35,32,73
165.35,152.5,32,73
162.42,154.39,32,73
159.74,154.34,32,73
157.52,154.41,32,73
155.49,152.59,32,73
151.43,154.94,32,73
148.54,153.7,32,73
145.82,151.47,32,73
144.3,152.07,32,73
141.9,152.13,32,73
140.86,151.78,32,73
138.89,152.8,32,73
137.56,151.96,32,73
137.53,150.87,32,73
135.5,153.32,32,73
136.05,152.36,32,73
134.39,152.31,32,73
133.16,153.02,32,73
132.4,151.6,32,73
131.19,148.65,32,73
131.69,149.25,32,73
133.51,149.25,32,73
133.86,147.9,32,73
135.5,147.11,32,73
139.21,144.92,32,73
140.98,146.5,32,73
144.14,145,32,73
147.03,143.78,32,73
152.87,143.88,32,73
157.88,142.4,32,73
162.82,146.25,32,73
166.97,146.46,32,73
175.52,141.06,32,73
178.56,140.19,32,73
183.48,141.42,32,73
187.07,138.49,32,73
193.28,138.65,32,73
197.47,135.03,32,73
201.7,134.9,32,73
206.47,136.31,32,73
211.83,133.49,32,73
217.99,129.78,32,73
222.59,135.62,32,73
227.48,130.38,32,73
232.13,128.22,32,73
236.98,131.88,32,73
242.99,129.51,32,73
246.29,128.87,32,73
251.1,128.71,32,73
253.64,128.83,32,73
251.39,144.98,32,73
255.79,138.74,32,73
257.18,142.86,32,73
260.03,140.32,32,73
265.77,129.26,32,73
266.43,128.62,32,73
265.47,128.88,32,73
264.56,126.31,32,73
264.16,123.68,32,73
261.65,122.89,32,73
257.14,123.35,32,73
254,118.34,32,73
248.25,116.29,32,73
244.29,114.39,32,73
239.53,114.77,32,73
231.98,116.38,32,73
227.84,113.4,32,73
221.7,115.75,32,73
216.5,113.49,32,73
207.63,113.37,32,73
201.59,115.2,32,73
196.04,115.34,32,73
189.23,114.26,32,73
182.62,113.79,32,73
175.76,116.48,32,73
170.45,114.11,32,73
163.7,120.07,32,73
156.39,118.59,32,73
150.22,118.84,32,73
146.2,118.55,32,73
141.16,121.01,32,73
138.13,119.72,32,73
132.02,124.14,32,73
126.76,123.84,32,73
122.18,127.13,32,73
118.19,126.64,32,73
114.74,124.95,32,73
111.21,125.17,32,73
110.83,125.13,32,73
107.99,127.16,32,73
105.93,127.62,32,73
105.46,130.18,32,73
105.45,130.7,32,73
106.34,133.09,32,73
108.45,132.74,32,73
109.96,135.58,32,73
113.79,136.07,32,73
117.4,138.01,32,73
119.4,139.54,32,73
121.85,140.59,32,73
123.01,142.66,32,73
124.13,146.69,32,73
123.58,149.06,32,73
123.15,147.62,32,73
119.42,153.1,32,73
118.65,153.73,32,73
115.51,156.23,32,73
111.38,156.42,32,73
107.88,157.03,32,73
106,157.48,32,73
103.07,157.18,32,73
101.32,158.06,32,73
99.622,159.49,32,73
99.316,157.92,32,73
100.65,158.44,32,73
101.16,158.58,32,73
102.45,161.84,32,73
105.26,160.82,32,73
107.89,161.46,32,73
111.47,163.25,32,73
115.84,164.79,32,73
120.14,165.53,32,73
125.69,167.84,32,73
131.31,169.87,32,73
136.8,174.55,32,73
142.31,172.98,32,73
148.1,175.7,32,73
153.57,176.69,32,73
160.47,176.31,32,73
165.41,177.89,32,73
172.15,176.43,32,73
177.22,176.54,32,73
183.86,175.06,32,73
187.91,176.1,32,73
194.14,174.53,32,73
198.42,173.04,32,73
204.07,170.54,32,73
208.22,168.94,32,73
214.2,168.65,32,73
218.71,165.06,32,73
224.44,162.5,32,73
229.43,159.58,32,73
234.31,156.47,32,73
238.62,152.35,32,73
243.76,151.93,32,73
247.11,148.5,32,73
250.42,144.7,32,73
252.5,143.79,32,73
253.96,138.16,32,73
255.31,135.72,32,73
254.77,136.02,32,73
253.33,131.65,32,73
251.38,129.57,32,73
248.5,125.19,32,73
245.44,125.73,32,73
242.6,119.42,32,73
239.06,119.95,32,73
234.28,118.97,32,73
229.76,117.72,32,73
224.82,118.99,32,73
220.01,115.28,32,73
212.79,119.77,32,73
206.7,119.51,32,73
199.65,123.37,32,73
194.48,121.73,32,73
188.94,124.72,32,73
184.48,125.82,32,73
180.08,129.24,32,73
176.62,133.47,32,73
174.45,137.37,32,73
172.31,139.39,32,73
171.79,143.29,32,73
172.02,146.82,32,73
172.09,150.73,32,73
173.65,153.47,32,73
174.06,157.86,32,73
177.02,160.75,32,73
178.99,163.87,32,73
182.08,169.07,32,73
184.83,169.97,32,73
188.04,172.91,32,73
191.6,173.81,32,73
194.28,175.33,32,73
196.59,176.23,32,73
199.24,172.84,32,73
200.93,170.84,32,73
202.5,171.1,32,73
203.95,169.48,32,73
204.28,162.16,32,73
204.32,160.26,32,73
205.19,154.1,32,73
205.53,151.33,32,73
205.9,145.76,32,73
205.81,139.02,32,73
205.73,133.78,32,73
206.55,128.73,32,73
206.03,121.36,32,73
204.87,118.91,32,73
204.38,113.45,32,73
203.27,107.54,32,73
202.14,103.42,32,73
199.99,98.742,32,73
198.8,93.147,32,73
197.07,92.545,32,73
193.34,87.927,32,73
190.3,84.737,32,73
184.48,81.507,32,73
178.65,76.769,32,73
173.69,75.122,32,73
168.39,72.272,32,73
162.51,69.345,32,73
156.73,69.419,32,73
151.39,67.041,32,73
144.7,70.529,32,73
137.82,69.816,32,73
131.72,69.241,32,73
126.38,70.29,32,73
119.95,69.933,32,73
115.08,73.623,32,73
106.76,74.432,32,73
102.19,74.844,32,73
96.648,77.533,32,73
89.303,81,32,73
85.223,82.481,32,73
78.991,84.21,32,73
74.677,87.588,32,73
71.588,95.07,32,73
69.108,96.504,32,73
67.789,100.15,32,73
68.975,105.44,32,73
71.071,107.19,32,73
73.182,111.5,32,73
76.527,113.2,32,73
81.593,119.32,32,73
86.939,125.93,32,73
94.792,128.15,32,73
102.59,132.56,32,73
111.29,136.12,32,73
121.01,141,32,73
132.25,145.27,32,73
141.59,144.94,32,73
151.65,147.53,32,73
160.35,148.99,32,73
171.82,150.79,32,73
181.02,150.66,32,73
192.23,155.19,32,73
202.34,159.05,32,73
210.78,156.9,32,73
221.62,159.03,32,73
229.47,161.2,32,73
237.89,162.97,32,73
242.88,164.35,32,73
247,160.12,32,73
248.48,162.39,32,73
247.97,159.7,32,73
247.48,162.25,32,73
242.31,164.58,32,73
239.32,160.44,32,73
233.82,159.33,32,73
228.42,160.75,32,73
222.13,159.53,32,73
215.13,160.46,32,73
207.77,156.21,32,73
201.54,153.66,32,73
193.84,155.2,32,73
187.24,155,32,73
179.08,155.07,32,73
171.64,156.88,32,73
165.91,158.25,32,73
159.49,158.89,32,73
155.1,161.48,32,73
151.66,161.75,32,73
148.01,162.15,32,73
145.6,167.37,32,73
144.53,169.7,32,73
143.88,176.06,32,73
144.23,179.64,32,73
146.21,186.02,32,73
148.57,190.27,32,73
152.38,195.17,32,73
156.61,198.2,32,73
162.72,200.29,32,73
167.12,205.38,32,73
172.82,207.78,32,73
179.09,210.3,32,73
184.95,211.23,32,73
192.98,211.55,32,73
198.15,209.29,32,73
204.23,206.91,32,73
210.99,204.66,32,73
215.71,202.56,32,73
221.37,200.65,32,73
227.97,199.97,32,73
232.16,195.3,32,73
236.03,191.99,32,73
240.14,192.1,32,73
243.13,185.37,32,73
246.13,183.01,32,73
248.82,181.61,32,73
250.47,174.69,32,73
251.01,169.63,32,73
251.16,164.93,32,73
252.14,161.75,32,73
252.39,159.71,32,73
251.13,157.86,32,73
251.42,149.71,32,73
251.88,148.42,32,73
251.23,146.59,32,73
251.08,139.81,32,73
251.71,137.02,32,73
249.94,134.83,32,73
248.63,131.52,32,73
246.8,126.27,32,73
244.11,123.59,32,73
241.66,120.38,32,73
238.61,116.44,32,73
234.89,113.71,32,73
231.77,110.05,32,73
226.49,106.84,32,73
222.56,107.52,32,73
216.39,105.48,32,73
211.68,103.75,32,73
206.06,99.845,32,73
201.81,99.308,32,73
196.78,100.9,32,73
191.6,101.65,32,73
187.61,101.39,32,73
183.14,102.02,32,73
179.8,102.8,32,73
174.83,104.84,32,73
171.24,107,32,73
167.36,109.58,32,73
164.26,113.68,32,73
162.73,114.68,32,73
159.65,121.04,32,73
158.77,124.56,32,73
158.25,128.32,32,73
157.99,132.64,32,73
157.54,137.72,32,73
156.33,138.95,32,73
155.83,141.43,32,73
155.35,144.22,32,73
155.34,148.73,32,73
154.75,149.47,32,73
154.41,152.66,32,73
154.43,153.35,32,73
154.15,158.37,32,73
154.67,160.77,32,73
155.72,162.25,32,73
155.57,165.19,32,73
156.66,169.13,32,73
157.78,176.75,32,73
159.37,177.38,32,73
163.38,183.55,32,73
165.93,189.12,32,73
168.27,189.28,32,73
171.67,191.05,32,73
175.73,195.8,32,73
180.03,197.15,32,73
184.73,199.77,32,73
188.67,197.85,32,73
193.79,199.35,32,73
196.71,197.43,32,73
200.79,195.12,32,73
203.73,190.33,32,73
209.1,186.84,32,73
211.52,180.46,32,73
212.15,171.95,32,73
211.69,169.5,32,73
211.83,160.04,32,73
211.1,151.73,32,73
208.25,146.45,32,73
204.04,140.6,32,73
201.25,132.69,32,73
195.46,128.06,32,73
191.74,122.06,32,73
185.73,118.4,32,73
180.53,114.66,32,73
174.84,111.28,32,73
167.66,108.62,32,73
159.68,108.4,32,73
152.73,106.67,32,73
144.63,108.98,32,73
137.21,108.5,32,73
129.63,112.4,32,73
123.23,115.64,32,73
117.22,116.95,32,73
111.11,119.43,32,73
106.96,124.87,32,73
102.49,127.36,32,73
101.07,130.52,32,73
98.242,132.53,32,73
97.672,135.02,32,73
96.63,137.91,32,73
96.923,141.14,32,73
97.482,145.3,32,73
98.633,148.11,32,73
99.757,149.34,32,73
102.39,148.93,32,73
104.86,151.64,32,73
108.41,154.48,32,73
114.37,153.67,32,73
117.98,156.63,32,73
121.98,158.07,32,73
127.69,158.02,32,73
132.69,160.13,32,73
137.14,160.13,32,73
141.62,160.57,32,73
146.74,164.5,32,73
152.11,162.72,32,73
157.5,163.57,32,73
162.98,165.04,32,73
169.78,165.04,32,73
178.08,164.7,32,73
184.9,166.75,32,73
192.14,168.3,32,73
197.33,171.91,32,73
204.94,167.14,32,73
209.09,172.02,32,73
214.73,169.8,32,73
221.19,168.83,32,73
225.68,166.3,32,73
230.36,167.78,32,73
232.54,163.94,32,73
236.74,162.7,32,73
239.99,161.71,32,73
241.4,159.67,32,73
243.22,161.13,32,73
243.6,158.48,32,73
244.64,155.71,32,73
245.35,157.1,32,73
247.91,154.38,32,73
247.72,155.09,32,73
247.66,153.31,32,73
248.11,150.41,32,73
246.65,148.72,32,73
247.53,147.11,32,73
243.78,146.07,32,73
244.46,144.4,32,73
244.4,143.5,32,73
244.4,144.13,32,73
243.75,141.29,32,73
243.57,139.7,32,73
241.03,140.99,32,73
240.85,137.56,32,73
239.95,136.29,32,73
236.65,134.33,32,73
233.08,135.41,32,73
230.68,133.83,32,73
227.26,132.5,32,73
222.01,132.34,32,73
218.57,131.25,32,73
214.41,130.04,32,73
210.92,125.48,32,73
207.86,126.15,32,73
202.35,126.26,32,73
198.94,124.71,32,73
194.06,126.93,32,73
189.87,126.18,32,73
186.9,127.59,32,73
179.41,125.44,32,73
176.81,127.72,32,73
171.46,128.37,32,73
165.58,128.87,32,73
160.56,129.54,32,73
159.26,130.46,32,73
152.68,134.04,32,73
150.35,132.84,32,73
147.59,134.61,32,73
145.41,136.13,32,73
141.98,136.55,32,73
140.55,136.22,32,73
136.38,141.11,32,73
135.33,141.32,32,73
133.36,145.21,32,73
131.46,147.09,32,73
131.94,150.47,32,73
130.74,154.64,32,73
131.31,159.61,32,73
132.44,163.05,32,73
133.33,168.72,32,73
133.85,171.66,32,73
138.26,176.54,32,73
141.21,178.2,32,73
144.17,183.91,32,73
147.14,186.75,32,73
151.19,185.78,32,73
155.18,186.56,32,73
159.72,186,32,73
162.98,184.53,32,73
166.14,183.17,32,73
172.06,180.79,32,73
175.34,179.13,32,73
180.63,176.02,32,73
185.43,170.41,32,73
189.42,164.71,32,73
193.64,163.44,32,73
196.97,157.96,32,73
199.4,151.31,32,73
200.73,147.61,32,73
201.19,146.94,32,73
202.17,142.98,32,73
203,135.74,32,73
200.61,132.18,32,73
199.98,129.2,32,73
198.2,127.03,32,73
196.4,125.46,32,73
193.01,120.99,32,73
189.26,120.6,32,73
182.7,121.65,32,73
176.2,119.76,32,73
169.31,119.34,32,73
160.87,119.34,32,73
152.32,121.89,32,73
143.91,121.56,32,73
136.73,122.49,32,73
128.86,119.39,32,73
120.41,125.86,32,73
112.38,122.67,32,73
106.63,120.93,32,73
100.63,117,32,73
93.809,116.75,32,73
87.473,116.78,32,73
83.22,114.69,32,73
78.59,114.07,32,73
76.479,113.86,32,73
73.858,115.52,32,73
72.466,110.36,32,73
71.568,110.17,32,73
73.68,107.05,32,73
77.444,106.57,32,73
81.061,105.67,32,73
86.698,100.14,32,73
93.478,101.35,32,73
100.4,105.55,32,73
108.83,101.25,32,73
116.71,101.39,32,73
127.31,103.28,32,73
138.74,107.52,32,73
149.16,108.37,32,73
160.02,109.47,32,73
170.15,106.17,32,73
182.13,109.35,32,73
192.6,111.93,32,73
200.8,118.13,32,73
206.56,120.98,32,73
210.61,123.06,32,73
213.03,127.1,32,73
213.9,135.35,32,73
212.51,131.87,32,73
209.99,134.35,32,73
206.7,138.66,32,73
201.73,141.03,32,73
197.87,141.77,32,73
193.1,145.23,32,73
187.29,141.87,32,73
181.34,142.15,32,73
175.59,140.52,32,73
168.98,138.91,32,73
163.71,135.05,32,73
158.42,134.11,32,73
150.69,128.86,32,73
145.57,126.36,32,73
143.53,121.33,32,73
141.3,119.29,32,73
138.92,113.58,32,73
138.1,109.08,32,73
137.72,103.27,32,73
135.65,101.06,32,73
136.14,95.855,32,73
136.67,92.472,32,73
137.95,91.4,32,73
139.89,86.448,32,73
140.16,83.568,32,73
141.33,79.791,32,73
143.42,78.812,32,73
145.51,75.464,32,73
149.2,71.37,32,73
154.02,72.146,32,73
157.58,69.206,32,73
162.99,66.923,32,73
168.2,67.893,32,73
174.19,68.678,32,73
179.86,66.833,32,73
186.54,70.083,32,73
193.88,71.281,32,73
201.68,71.647,32,73
208.14,76.978,32,73
215.56,77.63,32,73
223.74,80.993,32,73
230,84.22,32,73
235.24,85.498,32,73
241.37,90.63,32,73
244.93,94.339,32,73
247.13,97.782,32,73
250.07,103.47,32,73
250.08,106.67,32,73
250.45,110.78,32,73
248.7,112.85,32,73
245.26,116.94,32,73
241.75,121.22,32,73
235.42,123.23,32,73
229.53,125.72,32,73
223.2,126.23,32,73
215.01,128.22,32,73
206.16,133.14,32,73
197.95,132.12,32,73
189.07,137.08,32,73
183.21,138.5,32,73
175.22,136.12,32,73
167.46,137.31,32,73
160.17,139.95,32,73
153.99,142.63,32,73
145.74,139.4,32,73
140.43,139.81,32,73
133.78,138.98,32,73
127.77,141.99,32,73
123.9,141.84,32,73
118.51,142.43,32,73
115.51,139.41,32,73
112.13,140.74,32,73
111.82,142.36,32,73
110.25,140.84,32,73
111.25,140.4,32,73
112.7,140.12,32,73
113.62,139.84,32,73
117.25,142.07,32,73
119.39,140.49,32,73
122.26,146.31,32,73
128.47,146.58,32,73
132.5,143.3,32,73
137.21,147.41,32,73
144.03,144.52,32,73
150.54,145.03,32,73
155.72,145.3,32,73
161.61,146.14,32,73
167.22,142.97,32,73
172.87,143.75,32,73
178.72,141.96,32,73
183.61,141.27,32,73
189.66,139.24,32,73
195.37,140.88,32,73
199.17,138.81,32,73
204.46,136.61,32,73
210.37,136.1,32,73
214.09,133.78,32,73
216.33,133.87,32,73
218.84,130.58,32,73
220.22,129.78,32,73
222.57,128.69,32,73
222.68,127.66,32,73
222.96,124.42,32,73
221.36,121.94,32,73
220.56,121.62,32,73
220.34,120.58,32,73
218.15,118.93,32,73
216.25,116.73,32,73
213.58,114.52,32,73
209.46,113.86,32,73
205.75,111.14,32,73
201.57,109.07,32,73
196.39,108.11,32,73
191.87,107.63,32,73
186.6,104.75,32,73
180.78,104.71,32,73
175.29,105.26,32,73
169.9,104.86,32,73
163.23,108.38,32,73
157.15,108.93,32,73
151.65,109.44,32,73
146.28,110.43,32,73
140.8,114.63,32,73
135.82,115.51,32,73
130.26,117.06,32,73
124.82,113.35,32,73
120.5,120.01,32,73
115.95,118.2,32,73
110.7,119.05,32,73
107.41,121.34,32,73
104.79,125.99,32,73
101.82,127.71,32,73
99.241,130.88,32,73
97.976,134.14,32,73
97.969,132.94,32,73
98.626,136.9,32,73
99.7,141.69,32,73
101.55,143.98,32,73
103.94,144.94,32,73
106.44,147.4,32,73
110.18,150.69,32,73
113.86,153.01,32,73
117.74,155.03,32,73
122.22,154.27,32,73
126.5,158.76,32,73
131.67,156.03,32,73
136.59,156.37,32,73
141.6,158.01,32,73
147.81,157.01,32,73
151.79,156,32,73
158.86,156.08,32,73
164.93,156.35,32,73
172.08,154.73,32,73
178.4,154.55,32,73
184.45,155.66,32,73
192.18,153.14,32,73
196.23,152.67,32,73
202.55,153,32,73
207.64,152.21,32,73
214.72,152.75,32,73
219.35,152.13,32,73
225.47,149.32,32,73
230.96,149.36,32,73
235.44,148.13,32,73
240.04,148.31,32,73
244.46,145.78,32,73
248.16,144.23,32,73
250.62,143.39,32,73
252,141.56,32,73
253.44,138.38,32,73
254.78,135.99,32,73
254.95,132.15,32,73
254.71,130.85,32,73
252.51,130.13,32,73
250.08,129.65,32,73
247.92,127.01,32,73
245.16,124.67,32,73
242.14,120.02,32,73
240.01,119.52,32,73
234.12,119.72,32,73
230.55,116.5,32,73
225.16,114.3,32,73
218.39,111.98,32,73
213.11,114.31,32,73
206.87,112.4,32,73
199.97,111.07,32,73
193.44,107.41,32,73
187.24,110.48,32,73
181.59,109.56,32,73
175.45,109.04,32,73
168.51,108.6,32,73
163.84,114.97,32,73
157.08,113.63,32,73
150.87,116.91,32,73
146.18,116.21,32,73
141.85,118.39,32,73
137.61,123.92,32,73
132.53,123.36,32,73
129.89,124.82,32,73
127.16,127.43,32,73
124.97,131.25,32,73
123.79,133.29,32,73
124.28,135.98,32,73
124.41,138.79,32,73
125.59,141.24,32,73
127.48,143.64,32,73
128.38,145.43,32,73
129.97,146.45,32,73
133.63,148.5,32,73
135.61,148.64,32,73
138.48,149.62,32,73
139.88,149.26,32,73
142.47,148.62,32,73
145.36,147.74,32,73
147.63,147.34,32,73
151.16,145.08,32,73
155.15,141.39,32,73
159.13,141.2,32,73
165.04,138.9,32,73
170,135.49,32,73
174.71,136.37,32,73
180.24,132.26,32,73
184.2,128.08,32,73
188.69,122.76,32,73
193.16,117.74,32,73
198.06,113.07,32,73
201.56,108.09,32,73
206.6,106.94,32,73
210.82,100.4,32,73
214.76,95.421,32,73
217.7,89.266,32,73
220.9,84.677,32,73
224.51,78.074,32,73
226.46,73.015,32,73
229.93,67.972,32,73
230.48,62.915,32,73
231.8,56.761,32,73
230.35,51.909,32,73
230.34,47.468,32,73
228.75,44.184,32,73
227,39.371,32,73
224.53,37.254,32,73
220.8,35.129,32,73
216.17,33.856,32,73
212.33,31.502,32,73
208.28,35.848,32,73
202.05,38.2,32,73
194.61,38.218,32,73
189.46,42.74,32,73
182.44,46.666,32,73
176.13,52.829,32,73
168.99,57.024,32,73
163.28,59.826,32,73
155.42,63.909,32,73
149.62,67.93,32,73
145.32,72.639,32,73
139.72,76.859,32,73
135.05,82.255,32,73
129.03,88.729,32,73
125.55,90.717,32,73
120.48,98.051,32,73
116.09,102.49,32,73
112.52,110.09,32,73
109.42,118.25,32,73
105.25,121.03,32,73
101.12,124.75,32,73
97.996,131.89,32,73
95.372,137.74,32,73
93.871,143.61,32,73
91.823,151.76,32,73
92.567,155.79,32,73
92.707,159.7,32,73
95.534,160.79,32,73
97.894,166.28,32,73
101.3,171.08,32,73
105.57,173.36,32,73
110.51,172.59,32,73
114.91,176.67,32,73
119.68,178.22,32,73
125.08,177.8,32,73
129.32,178.83,32,73
134.21,177.14,32,73
138.74,177.82,32,73
143.31,175.99,32,73
148.65,177.53,32,73
152.46,175.59,32,73
157.19,175.65,32,73
162.03,175.16,32,73
167.88,171.95,32,73
171.76,169.17,32,73
175.26,168.57,32,73
179.8,168.25,32,73
183.21,166.99,32,73
185.81,164.74,32,73
189.54,161.43,32,73
191.78,161.54,32,73
194.03,159.68,32,73
196.31,156.35,32,73
197.15,158.22,32,73
197.55,155.15,32,73
197.47,152.74,32,73
196.43,150.96,32,73
193.98,149.01,32,73
192.14,144.13,32,73
188.67,143.94,32,73
184.89,142.95,32,73
180.94,138.12,32,73
176.11,136,32,73
170.44,136.44,32,73
164.02,135.35,32,73
157.16,133.66,32,73
152.23,134.46,32,73
144.54,133.72,32,73
139.26,131.35,32,73
132.98,132.83,32,73
125.87,135.89,32,73
121.02,136.63,32,73
115.02,133.41,32,73
110.29,134.77,32,73
105.83,136.42,32,73
102.99,138.95,32,73
98.602,138.91,32,73
94.661,140.78,32,73
91.806,141.23,32,73
88.14,144.03,32,73
85.869,145.75,32,73
83.081,146.03,32,73
81.194,148.63,32,73
78.309,151.73,32,73
77.031,154.53,32,73
75.711,154.84,32,73
74.7,156.82,32,73
74.525,156.15,32,73
73.912,157.3,32,73
75.023,161.34,32,73
76.45,163.08,32,73
76.098,162.76,32,73
78.637,163.39,32,73
81.847,164.17,32,73
84.735,165.78,32,73
88.956,167.95,32,73
92.871,168.24,32,73
96.877,168.87,32,73
102.42,170.13,32,73
108.52,171,32,73
114.11,170.8,32,73
119.76,171.11,32,73
125.6,171.78,32,73
131.91,172.97,32,73
138.43,169.39,32,73
144.25,168.88,32,73
151.08,168.5,32,73
156.75,170.33,32,73
163.24,167.83,32,73
170.15,169,32,73
176,168.53,32,73
182.79,170.55,32,73
190.38,169.19,32,73
195.91,171.34,32,73
202.15,171.66,32,73
207.67,172.66,32,73
213.07,171.82,32,73
218.79,170.44,32,73
224.15,168.79,32,73
228.06,169.35,32,73
234.93,167.43,32,73
238.85,167.8,32,73
246.19,164.18,32,73
250.01,162.34,32,73
256.49,159.01,32,73
261.47,156.61,32,73
266.09,151.26,32,73
269.07,151.07,32,73
274.06,147.19,32,73
276.78,143.39,32,73
278.64,140.36,32,73
280.19,139.33,32,73
281.45,136.29,32,73
280.86,131.85,32,73
280.14,129.44,32,73
279.77,128.71,32,73
278.23,124.55,32,73
276.72,122.31,32,73
274.54,121.55,32,73
270.87,118.53,32,73
267.54,118.45,32,73
263.2,114.94,32,73
258.68,113.74,32,73
255.35,110.64,32,73
249.32,109.92,32,73
244.84,111.47,32,73
239.66,107.33,32,73
233.36,108.74,32,73
226.74,106.8,32,73
219.65,105.63,32,73
212.32,107.9,32,73
203.84,109.71,32,73
194.71,111.87,32,73
185.58,113.94,32,73
176.7,117.24,32,73
167.7,120.86,32,73
159.47,124,32,73
152.89,123.37,32,73
144.39,127.74,32,73
137.18,133.95,32,73
131.7,136.56,32,73
125.86,139.27,32,73
121.41,145.19,32,73
117.56,149.05,32,73
114.98,153.77,32,73
113.17,158.84,32,73
113.14,160.96,32,73
114.17,164.44,32,73
117.01,166.8,32,73
120.93,172.19,32,73
127.38,176.54,32,73
134.41,174.69,32,73
140.81,176.76,32,73
148.14,177.22,32,73
157.85,178.81,32,73
165.95,176.43,32,73
174.54,174.86,32,73
183.18,173.06,32,73
194.15,169.59,32,73
205.16,166.52,32,73
214.57,166.47,32,73
224.4,162.83,32,73
235.83,160.46,32,73
245.71,156.24,32,73
254.41,152.59,32,73
264.54,153.81,32,73
274.05,149.94,32,73
281.6,149.97,32,73
291.75,145.9,32,73
299.93,145.72,32,73
307.04,143.77,32,73
315.95,142.27,32,73
323.77,144.28,32,73
329.91,142.68,32,73
335.95,138.74,32,73
343.82,142.96,32,73
348.36,137.92,32,73
354.14,138.44,32,73
360.85,140.53,32,73
365.82,136.81,32,73
367.48,137.75,32,73
367.97,136.42,32,73
369.08,134.23,32,73
368.67,136.16,32,73
368.29,133.42,32,73
365.89,134.61,32,73
362.52,130.97,32,73
359.49,131.35,32,73
354.69,129.67,32,73
347.64,131.68,32,73
341.77,126.43,32,73
335.41,129.16,32,73
327.66,129.83,32,73
320.24,131.57,32,73
311.46,131.27,32,73
302.88,132.89,32,73
293.02,132.15,32,73
282.47,136.77,32,73
274.88,132.35,32,73
265.68,135.86,32,73
255.03,141.74,32,73
245.97,138.27,32,73
237.29,139.4,32,73
229,139.28,32,73
220.67,140.87,32,73
212.74,142.01,32,73
203.48,142.33,32,73
197.64,142.66,32,73
191.03,142.94,32,73
185.72,142.71,32,73
179.58,147.26,32,73
173.76,147.87,32,73
167.51,149.62,32,73
161.69,152.24,32,73
158.14,153.88,32,73
153.11,157.62,32,73
148.53,161.12,32,73
144.98,166.67,32,73
143.3,169.69,32,73
139.14,174.8,32,73
136.64,180.04,32,73
135.78,184.82,32,73
136.44,188.53,32,73
137.08,194.51,32,73
136.53,203,32,73
139.92,208.11,32,73
143.63,211.46,32,73
149.68,212.73,32,73
155.47,215.35,32,73
158.36,220.71,32,73
168.73,219.48,32,73
174.2,219.56,32,73
181.75,221.41,32,73
191.47,220.5,32,73
198.36,221.74,32,73
207.17,218.73,32,73
217.37,215.74,32,73
226.13,216.77,32,73
231.07,213.07,32,73
240.26,209.63,32,73
245.37,205.95,32,73
253.34,203.95,32,73
259.98,199.66,32,73
260.95,197.22,32,73
263.52,193.89,32,73
266.04,189.93,32,73
267.06,186.14,32,73
267.12,183.08,32,73
264.62,178.91,32,73
264.31,175.72,32,73
260.45,173.01,32,73
258.55,170.46,32,73
253.55,166.49,32,73
249.14,161.95,32,73
243.44,163.17,32,73
237.65,157.5,32,73
231.38,154.37,32,73
225.25,153.93,32,73
217.16,151.19,32,73
211.67,149.84,32,73
206.49,148.52,32,73
199.08,146.6,32,73
193.06,146.4,32,73
186.37,145.84,32,73
180.47,145.01,32,73
172.94,147.08,32,73
167.27,147.18,32,73
160.72,149.9,32,73
154.69,151.17,32,73
149.64,151.56,32,73
145.25,152.41,32,73
139.2,153.09,32,73
134.89,156.82,32,73
131.72,155.52,32,73
129.84,156.36,32,73
127.26,155.82,32,73
125.13,156.28,32,73
122.71,158.51,32,73
120.12,159.11,32,73
117.8,158.98,32,73
118.87,157.08,32,73
117.64,159.52,32,73
118.21,158.96,32,73
118.48,162.06,32,73
120.08,159.94,32,73
120.61,160.34,32,73
122.95,163.14,32,73
124.13,161.04,32,73
126.51,161.78,32,73
126.56,161.36,32,73
129.66,161.73,32,73
131.83,159.47,32,73
135.78,157.75,32,73
138.29,157.52,32,73
140.91,158.34,32,73
143.62,156.47,32,73
146.73,156.64,32,73
149.43,156.98,32,73
152.96,155.68,32,73
154.98,155.85,32,73
158.15,156.72,32,73
162.06,155.71,32,73
166.23,155.73,32,73
168.44,159.38,32,73
173.61,153.31,32,73
178.49,152.62,32,73
182.4,156.87,32,73
186.01,158.17,32,73
191.47,156.22,32,73
193.87,158.51,32,73
196.36,160.95,32,73
200.14,159.49,32,73
204.84,158.01,32,73
207.09,156.07,32,73
208.47,156.29,32,73
210.11,155.56,32,73
210.82,154.53,32,73
211.06,153.8,32,73
210.32,155.29,32,73
210.39,153.32,32,73
207.81,155.28,32,73
207.58,153.79,32,73
204.84,151.4,32,73
202.83,150.15,32,73
200.91,151.01,32,73
198.71,149.75,32,73
195.03,148.08,32,73
191.3,146.11,32,73
188.16,146.05,32,73
184.88,147.46,32,73
181.75,148.65,32,73
179.01,144.82,32,73
174.14,145.37,32,73
170.69,143.77,32,73
166.34,146.57,32,73
164.6,143.88,32,73
160.1,143.55,32,73
157.86,143.18,32,73
155.17,142.3,32,73
152.77,142.2,32,73
150.53,142,32,73
147.66,140.56,32,73
146.38,140.79,32,73
144.41,142.52,32,73
143.14,139.32,32,73
141.21,138.45,32,73
141.35,136.87,32,73
140.67,138.16,32,73
138.82,136.66,32,73
139.94,135.3,32,73
139.36,137.01,32,73
139.38,134.92,32,73
139.45,132.96,32,73
139.88,135.95,32,73
139.86,135.94,32,73
140.99,134.98,32,73
140.83,134.33,32,73
142.71,134.34,32,73
143.91,134.44,32,73
145,134.01,32,73
146.51,134.12,32,73
148.1,133.65,32,73
149.12,133.71,32,73
151.74,131.31,32,73
152.33,132.69,32,73
154.06,136.05,32,73
157.14,132.72,32,73
158.58,132.68,32,73
160.36,134.36,32,73
162.07,136.56,32,73
163.84,135.78,32,73
165.92,133.86,32,73
169.67,135.25,32,73
171.68,134.67,32,73
173.55,137.96,32,73
176.35,137.8,32,73
178.49,137.98,32,73
179.8,137.22,32,73
182.6,134.16,32,73
184.45,134.27,32,73
187.18,134.96,32,73
188.14,136.35,32,73
189.76,134.77,32,73
192.29,139.04,32,73
192.24,138.9,32,73
192.8,137.92,32,73
193.73,139.5,32,73
194.42,140.22,32,73
194.45,140.41,32,73
195.43,140.01,32,73
194.12,140.04,32,73
194.89,137.57,32,73
192.71,138.7,32,73
192.74,138.93,32,73
191.16,137.72,32,73
191.17,137.61,32,73
190.68,135.38,32,73
189.95,134.78,32,73
190.29,135.88,32,73
189.55,132.87,32,73
190.41,132,32,73
189.97,133.46,32,73
188.06,130.9,32,73
188.32,131.54,32,73
187.69,129.82,32,73
185.71,127.94,32,73
184.64,128.42,32,73
183.81,128.6,32,73
182.31,127.32,32,73
181.52,128.18,32,73
181.8,127.99,32,73
179.27,128.54,32,73
178.65,127.04,32,73
177.38,129.41,32,73
175.3,130.43,32,73
173.77,130.39,32,73
172.46,130.06,32,73
169.3,126.14,32,73
167.63,130.02,32,73
165.68,130.91,32,73
163.83,130.51,32,73
162.6,127.34,32,73
160.99,126.27,32,73
159.01,124.8,32,73
157.69,123.92,32,73
157.49,122.29,32,73
156.13,118.5,32,73
152.86,119.97,32,73
151.23,114.78,32,73
148.08,115.45,32,73
145.86,111.79,32,73
142.26,112.12,32,73
138.26,110.27,32,73
137.3,110.64,32,73
134.13,110.32,32,73
132.58,111.54,32,73
130.63,112.92,32,73
128.83,112.53,32,73
129.77,113.87,32,73
130.33,115.94,32,73
131.41,119.45,32,73
132.3,119.88,32,73
133.95,122.41,32,73
134.91,127.48,32,73
138.45,128.09,32,73
141.72,130.66,32,73
145.33,130.05,32,73
148.58,132.97,32,73
151.7,133.33,32,73
154.97,135.17,32,73
157.83,134.04,32,73
162.42,136.46,32,73
166.09,137.92,32,73
170.07,139.75,32,73
171.3,140.27,32,73
174.16,142.56,32,73
176.8,141.22,32,73
178.86,143.2,32,73
180.64,143.17,32,73
183.37,147.07,32,73
181.34,149.34,32,73
181.85,149.01,32,73
182.14,148.38,32,73
182.23,153.11,32,73
181.27,153.91,32,73
180.48,153.14,32,73
179.26,152.52,32,73
178.49,152.63,32,73
176.92,149.78,32,73
175.38,149.76,32,73
174.62,148.82,32,73
173.85,147.64,32,73
173.75,148.73,32,73
173.06,147.42,32,73
171.44,146.32,32,73
169.95,145.31,32,73
170.26,144.17,32,73
168.82,142.71,32,73
168.1,142.03,32,73
167.04,142.63,32,73
166.81,139.89,32,73
165.56,138.1,32,73
164.67,138.96,32,73
163.19,136.49,32,73
162.17,135.08,32,73
160.42,135.41,32,73
158.82,135.46,32,73
159.05,136.24,32,73
156.07,133.08,32,73
155.8,133.03,32,73
155.45,134.43,32,73
154.15,133.07,32,73
153.88,131.95,32,73
152.37,132.87,32,73
151.89,131.54,32,73
151.94,129.68,32,73
152.55,128.77,32,73
151.22,128.43,32,73
152.43,127.82,32,73
153.59,127.72,32,73
152.83,125.63,32,73
153.98,123.53,32,73
155.12,124.02,32,73
155.39,121.68,32,73
156.54,121.32,32,73
155.83,118.69,32,73
157.06,116.24,32,73
155.59,116.42,32,73
156.05,115.22,32,73
155.17,114.68,32,73
156.37,114.37,32,73
155.61,114.08,32,73
155.29,113.01,32,73
157.14,111.11,32,73
156.1,110.95,32,73
156.98,113.43,32,73
155.76,115.9,32,73
157.58,116.67,32,73
158.52,116.64,32,73
159.86,119.36,32,73
161.27,120.22,32,73
162.45,121.07,32,73
165.27,124,32,73
167.66,128.1,32,73
170.26,131.38,32,73
172.96,133.87,32,73
175.48,136.84,32,73
179.51,139.9,32,73
181.91,141.73,32,73
183.36,142.96,32,73
186.54,144.65,32,73
188.35,145.82,32,73
190.68,148.1,32,73
193.74,148.4,32,73
196.38,148.63,32,73
199.06,151.16,32,73
198.29,149.92,32,73
199.77,149.4,32,73
199.53,148.75,32,73
198.65,149.49,32,73
196.67,152.82,32,73
194.96,151.15,32,73
193.31,151.47,32,73
189.81,151.91,32,73
187.37,152.67,32,73
181.8,157.25,32,73
177.07,157.08,32,73
173.88,154.92,32,73
167.81,158.3,32,73
162.39,160.08,32,73
157.92,159.62,32,73
152.72,159.38,32,73
147.42,160.48,32,73
140.71,161.76,32,73
137.69,160.72,32,73
131.22,160.97,32,73
127.84,161.05,32,73
122.71,160.76,32,73
118.04,160.08,32,73
114.52,162.54,32,73
110.72,160.89,32,73
107.16,161.22,32,73
102.36,161.92,32,73
100.21,158.98,32,73
96.735,159.96,32,73
95.556,157.36,32,73
94.407,157.19,32,73
92.479,155.87,32,73
92.229,156.11,32,73
91.98,154.04,32,73
93.693,153.62,32,73
92.951,153.88,32,73
93.948,152.9,32,73
96.984,149.27,32,73
98.388,149.07,32,73
102.58,147.56,32,73
104.23,148.05,32,73
108.58,147.83,32,73
111.34,146.04,32,73
115.57,144.86,32,73
119.21,147.18,32,73
124,145.4,32,73
130.14,145.15,32,73
135.47,143.82,32,73
140.46,144.65,32,73
147.18,144.13,32,73
153.03,144.67,32,73
158.85,142.12,32,73
165.02,139.19,32,73
169.33,139.48,32,73
176.28,134.64,32,73
181.96,134.04,32,73
184.86,134.26,32,73
188.96,132.87,32,73
192.05,131.21,32,73
194.24,127.23,32,73
194.91,127.27,32,73
198.42,125.02,32,73
198.06,124.4,32,73
197.6,123.42,32,73
196.81,122.85,32,73
194.89,120.4,32,73
192.25,120.55,32,73
188.28,120.47,32,73
184.4,121.08,32,73
179.41,120.23,32,73
173.89,122.91,32,73
168.95,120.94,32,73
164.46,123.74,32,73
158.91,125,32,73
154.75,127.81,32,73
148.24,128.24,32,73
142.62,130.21,32,73
138.99,132.29,32,73
135.01,133.62,32,73
130.49,134.63,32,73
127.56,135.39,32,73
123.56,137.02,32,73
120.87,138.35,32,73
118.37,138.2,32,73
116.5,140.32,32,73
114.64,141.67,32,73
113.39,144.75,32,73
111.39,145.32,32,73
110.88,148.44,32,73
110.45,149.96,32,73
111.6,151.57,32,73
114.2,148.53,32,73
114.47,151.15,32,73
116.97,152.03,32,73
119.14,148.4,32,73
122.61,148.86,32,73
126.38,145.35,32,73
132.13,146.21,32,73
136.84,142.69,32,73
140.13,140.63,32,73
146.81,133.15,32,73
151.74,132.76,32,73
156.54,127.59,32,73
161.91,124.56,32,73
166.98,120.76,32,73
172.68,115.95,32,73
178.22,111.24,32,73
184.37,107.64,32,73
189.92,103.29,32,73
196.33,100.42,32,73
202.26,95.254,32,73
208.71,91.189,32,73
214.22,85.722,32,73
218.81,85.483,32,73
221.03,79.679,32,73
223.57,79.123,32,73
225.34,76.001,32,73
228.66,72.834,32,73
229.1,69.588,32,73
228.39,68.52,32,73
226.66,65.568,32,73
223.66,63.502,32,73
220.85,63.19,32,73
217.94,65.067,32,73
213.13,62.834,32,73
207.3,66.522,32,73
202.99,65.13,32,73
197.31,69.622,32,73
190.14,71.707,32,73
183.05,74.161,32,73
174.94,78.711,32,73
168.03,81.038,32,73
161.14,84.955,32,73
153.76,92.047,32,73
146.28,94.189,32,73
139.22,98.652,32,73
131.62,101.2,32,73
124.21,107.16,32,73
117.13,110.65,32,73
111.12,112.35,32,73
105.85,121.29,32,73
99.928,125.65,32,73
93.076,126.66,32,73
90.49,132.91,32,73
86.823,136.53,32,73
82.512,141.37,32,73
79.556,144.93,32,73
77.331,146.55,32,73
76.854,149.67,32,73
75.765,155.59,32,73
77.301,155.94,32,73
78.836,157.03,32,73
78.676,156.92,32,73
81.582,159.01,32,73
81.733,156.47,32,73
84.286,156.88,32,73
85.933,155.14,32,73
86.541,153.03,32,73
87.827,150.93,32,73
88.757,147.58,32,73
87.669,144.33,32,73
87.988,139.75,32,73
86.721,135.58,32,73
86.512,131.54,32,73
86.21,127.28,32,73
85.447,122.31,32,73
83.702,118.1,32,73
80.807,114.07,32,73
77.558,112.93,32,73
74.245,112.98,32,73
70.62,112.94,32,73
68.82,113.96,32,73
65.163,116.73,32,73
64.132,120.08,32,73
63.515,127.07,32,73
64.225,133.5,32,73
64.613,137.47,32,73
68.447,144.27,32,73
69.782,151.46,32,73
74.902,156.23,32,73
79.206,162.36,32,73
87.287,167.1,32,73
93.8,173.68,32,73
100.9,176.83,32,73
109.78,181.21,32,73
118.95,179.78,32,73
127.02,181.93,32,73
137.51,183.41,32,73
147.89,182.16,32,73
157.2,182.22,32,73
167.33,181.84,32,73
175.91,179.9,32,73
184.62,176.52,32,73
192.9,176.65,32,73
199.35,173.99,32,73
208.43,169.91,32,73
214.42,166.24,32,73
221.13,164.26,32,73
227.04,158.99,32,73
232.11,152.78,32,73
238.23,151.36,32,73
244.42,146.63,32,73
247.82,142.03,32,73
251.12,137.28,32,73
255.83,131.59,32,73
259.51,126.78,32,73
263.19,126.67,32,73
262.99,121.64,32,73
264.58,118.78,32,73
265.76,112.95,32,73
267.11,107.35,32,73
262.79,104.1,32,73
261.27,100.8,32,73
255.75,92.015,32,73
250.18,87.257,32,73
242.23,83.582,32,73
235.6,81.298,32,73
226.47,76.975,32,73
215.82,70.972,32,73
204.79,68.676,32,73
194.81,66.223,32,73
184.37,69.043,32,73
173.59,68.085,32,73
162.87,69.441,32,73
153.19,71.149,32,73
142.64,74.626,32,73
133.39,75.387,32,73
124.69,79.943,32,73
117.19,84.28,32,73
110.01,86.508,32,73
104.86,91.538,32,73
99.983,94.994,32,73
96.665,103.59,32,73
94.119,107.88,32,73
92.918,114.17,32,73
89.403,120.9,32,73
89.475,128.9,32,73
91.375,136.22,32,73
92.32,142.16,32,73
94.574,148.14,32,73
98.449,155.09,32,73
101.49,161.57,32,73
105.18,166.5,32,73
108.75,171.32,32,73
115.14,176.33,32,73
117.99,182.31,32,73
122.49,184.49,32,73
126.74,189.58,32,73
132.71,190.84,32,73
138.36,195.11,32,73
143.03,195.6,32,73
148.37,198.22,32,73
153.62,199.11,32,73
158.82,200.24,32,73
163.06,199.2,32,73
169.47,202.58,32,73
173.07,200.68,32,73
177.72,199.57,32,73
182.17,196.94,32,73
188.31,197.02,32,73
190.24,197.09,32,73
195.3,195.65,32,73
197.85,191.94,32,73
201.92,186.09,32,73
204.78,181.04,32,73
207.03,179.46,32,73
211.29,173.63,32,73
211.48,171.21,32,73
213.81,169.82,32,73
215.29,166.8,32,73
213.57,163.63,32,73
214.34,160.6,32,73
213.56,160.33,32,73
212.95,158.78,32,73
212.3,157.93,32,73
210.06,155.83,32,73
208.2,154.46,32,73
205.81,154.44,32,73
202.58,155.83,32,73
200.15,153.59,32,73
193.89,156.52,32,73
189.89,158.25,32,73
183.21,155.98,32,73
178.09,157.27,32,73
170.53,158.98,32,73
164.54,160.14,32,73
156.36,161.02,32,73
148.89,163.56,32,73
142.69,166.05,32,73
136.69,167.62,32,73
130.08,170.93,32,73
123.13,171.47,32,73
116.07,172.39,32,73
109.89,172.5,32,73
104.38,170.85,32,73
99.028,171.91,32,73
94.117,172.05,32,73
90.676,173.94,32,73
87.654,173.27,32,73
86.981,171.38,32,73
86.498,170.6,32,73
88.255,170.22,32,73
88.889,168.11,32,73
91.379,168.4,32,73
95.332,163.7,32,73
99.951,164.46,32,73
105.72,161.72,32,73
111.6,161.8,32,73
119.3,160.11,32,73
125.95,158.69,32,73
135.39,159.1,32,73
143.74,160.39,32,73
151.86,159.53,32,73
163.29,160.9,32,73
172.67,160.33,32,73
182.92,161.55,32,73
193.37,160.72,32,73
203.95,161.49,32,73
215.2,161.29,32,73
224.58,159.99,32,73
233.73,160.68,32,73
245.15,161,32,73
253.68,163.06,32,73
260.58,162.42,32,73
269.71,158.5,32,73
276.46,156.56,32,73
281.98,155.91,32,73
287.04,157.99,32,73
292.27,155.07,32,73
295.64,154.9,32,73
298.58,152.61,32,73
299.93,152.75,32,73
301.07,149.24,32,73
300.68,147.62,32,73
298.68,145.94,32,73
296.24,144.55,32,73
291.14,142.37,32,73
287.63,138.26,32,73
281.13,141.11,32,73
275.69,136.85,32,73
269.56,138.59,32,73
263.07,133.49,32,73
253.95,134.63,32,73
246,128.94,32,73
238.47,130.71,32,73
229.21,129.59,32,73
219.78,129.58,32,73
211.18,129.73,32,73
202.9,131.2,32,73
194.87,132.9,32,73
187.59,131.46,32,73
178.11,133.92,32,73
170.28,133.05,32,73
160.79,135.67,32,73
152.47,137.35,32,73
146.09,137.4,32,73
138.93,142.78,32,73
133.8,140.96,32,73
128.56,139.6,32,73
124.79,140.59,32,73
122.01,142.43,32,73
118.5,145.73,32,73
116.92,149.32,32,73
115.38,152.95,32,73
115.41,155.99,32,73
114.42,157.9,32,73
115.32,160.16,32,73
118.47,163.31,32,73
120,165.93,32,73
123.57,169.72,32,73
126.66,170.3,32,73
130.26,170.07,32,73
134.41,174.45,32,73
138.27,172.55,32,73
143.54,174.09,32,73
149.05,174.3,32,73
153.61,175,32,73
158.63,172.06,32,73
163.72,173.39,32,73
168.69,173.56,32,73
174.51,172.11,32,73
179.98,170.84,32,73
187.42,171.45,32,73
192.54,170.29,32,73
198.76,173.14,32,73
205.12,168.84,32,73
210.68,170.83,32,73
217.35,171.84,32,73
222.14,173.31,32,73
226.84,169.38,32,73
232.34,167.41,32,73
235.59,165.19,32,73
239.91,164.36,32,73
242.9,163.71,32,73
246.2,161.92,32,73
247.43,161.56,32,73
248.13,159.03,32,73
247.53,159.14,32,73
247.17,156.57,32,73
245.77,155.48,32,73
243.68,155.6,32,73
240.07,155.86,32,73
236.87,153.55,32,73
233.04,152.23,32,73
227.9,151.84,32,73
223.41,152.91,32,73
218.38,154.03,32,73
212.62,153.89,32,73
206.26,153.93,32,73
201.43,151.47,32,73
194.12,154.16,32,73
189.89,154.56,32,73
182.07,156.1,32,73
177.58,156.05,32,73
171.47,156.67,32,73
164.18,153.26,32,73
157.5,159.33,32,73
152.97,159.34,32,73
146.66,158.79,32,73
140.38,158.15,32,73
134.8,159.51,32,73
129.49,162.39,32,73
124.37,162.52,32,73
121.75,165.18,32,73
115.83,163.55,32,73
111.88,168.25,32,73
108.44,170.25,32,73
105.51,172.25,32,73
103.31,171.74,32,73
102.29,173.32,32,73
100.32,172.16,32,73
100.23,173.85,32,73
100.75,174.8,32,73
101.61,176.16,32,73
102.86,175.15,32,73
103.12,175.38,32,73
105.53,174.33,32,73
107.19,175.09,32,73
108.7,173.28,32,73
112.8,176.19,32,73
115.31,173.73,32,73
118.36,173.96,32,73
120.8,171.84,32,73
124.29,172.14,32,73
126.29,169.18,32,73
129.64,171.38,32,73
132.83,169.14,32,73
136.87,168.86,32,73
138.3,167.72,32,73
141.69,167.63,32,73
144.48,164.22,32,73
147.81,163.25,32,73
152.52,166.75,32,73
154.76,163.57,32,73
157.13,164.42,32,73
159.55,163.6,32,73
161.45,163.34,32,73
163.88,164.68,32,73
166.1,164.28,32,73
170.05,167.11,32,73
171.51,166.46,32,73
173.1,166.37,32,73
173.98,167.39,32,73
174.64,168.32,32,73
175.51,167.61,32,73
176.63,169.62,32,73
177.77,169.9,32,73
178.48,170.91,32,73
180.44,169.18,32,73
180.41,169.71,32,73
180.29,170.67,32,73
178.11,171.34,32,73
177.2,172.18,32,73
176.24,168.6,32,73
174.82,166.99,32,73
172.7,169.03,32,73
171.04,168.93,32,73
168.87,167.51,32,73
164.68,163.69,32,73
162.14,165.74,32,73
158.66,165.06,32,73
156.98,166.41,32,73
152.08,167,32,73
148.95,166.44,32,73
144.94,166.23,32,73
140.06,163.69,32,73
136.23,164.18,32,73
133.61,166.02,32,73
128.75,165.59,32,73
125.3,164.71,32,73
121.76,166.49,32,73
118.41,165.17,32,73
113.71,169.56,32,73
108.28,168.01,32,73
104.28,167.82,32,73
101,167.08,32,73
96.565,166.85,32,73
91.708,169.74,32,73
88.049,169.05,32,73
82.948,168.13,32,73
77.673,166.52,32,73
73.518,165.85,32,73
70.01,168.05,32,73
64.836,164.81,32,73
62.972,163.49,32,73
62.732,165.69,32,73
61.584,164.47,32,73
61.183,161.87,32,73
62.863,164.72,32,73
64.365,166.21,32,73
67.431,163.52,32,73
71.231,163.96,32,73
75.479,163.2,32,73
81.739,161.85,32,73
88.677,160.72,32,73
93.954,159.77,32,73
98.86,159.86,32,73
108.87,157.34,32,73
116.16,154.19,32,73
122.93,152.92,32,73
129.35,151.21,32,73
134.6,149.21,32,73
142.54,145.45,32,73
148.95,144.26,32,73
155.48,143.6,32,73
160.31,138.09,32,73
165.36,135.55,32,73
170.26,133.95,32,73
174.04,132.54,32,73
177.2,130.63,32,73
179.24,130.27,32,73
179.28,128.71,32,73
180.71,126.87,32,73
178.29,125.18,32,73
177.52,125.87,32,73
174.1,124.63,32,73
171.87,124.36,32,73
165.5,124.93,32,73
160.32,125.94,32,73
155.15,126.44,32,73
148.58,128.53,32,73
141.07,129.63,32,73
134.88,132.84,32,73
127.1,132.38,32,73
118.24,135.68,32,73
111.31,136.61,32,73
102.3,139.12,32,73
96.329,143.49,32,73
88.784,146.56,32,73
82.423,150.1,32,73
75.45,153.39,32,73
70.46,153.79,32,73
63.465,157.73,32,73
59.656,159.72,32,73
55.896,159.29,32,73
51.489,162.42,32,73
50.952,164.52,32,73
49.807,165.42,32,73
48.199,167.65,32,73
51.193,169.58,32,73
50.904,171.02,32,73
52.027,173.04,32,73
54.69,173.45,32,73
57.677,174.55,32,73
61.784,174.49,32,73
67.932,176.13,32,73
69.625,173.08,32,73
76.433,170.3,32,73
83.523,166.9,32,73
87.214,165.75,32,73
93.97,160.83,32,73
101.44,155.22,32,73
107.55,150.56,32,73
115.54,144.01,32,73
123.52,137,32,73
127.09,130.35,32,73
136.26,124.23,32,73
143.83,116.09,32,73
148.23,107.29,32,73
155.63,98.95,32,73
159.62,90.375,32,73
162.4,85.765,32,73
165.72,78.666,32,73
168.76,71.175,32,73
168.94,63.963,32,73
167.11,63.4,32,73
167.13,58.164,32,73
166.48,57.304,32,73
161.55,56.687,32,73
158.9,56.963,32,73
154.87,55.365,32,73
149.92,57.657,32,73
144.4,60.349,32,73
140.24,64.353,32,73
134.06,69.094,32,73
131.51,75.208,32,73
128.27,80.941,32,73
124.24,86.986,32,73
120.7,94.658,32,73
118.11,101.19,32,73
109.71,109.45,32,73
107.92,118,32,73
106.31,125.86,32,73
107,135.81,32,73
104.62,141.96,32,73
104.73,150.92,32,73
106.43,159.27,32,73
108.87,167.78,32,73
111.2,173.37,32,73
114.59,182.94,32,73
119.2,187.85,32,73
123.13,193.41,32,73
127.6,197.39,32,73
131.65,199.48,32,73
141.03,204.86,32,73
145.22,203.06,32,73
151.18,204.97,32,73
156.58,204.6,32,73
162.83,206.37,32,73
168.99,204.92,32,73
173.63,201.89,32,73
177.13,201.23,32,73
182.79,197.85,32,73
186.94,195.07,32,73
190.79,192.97,32,73
193.96,190.56,32,73
196.43,188.95,32,73
200.14,188.46,32,73
200.67,186.13,32,73
203.05,182.95,32,73
203.9,180.42,32,73
205.18,180.1,32,73
206.18,179.29,32,73
207.76,179.06,32,73
208.22,176.73,32,73
209.26,177.73,32,73
209.91,176.87,32,73
210.92,175.9,32,73
211.77,176.35,32,73
210.04,176.4,32,73
210.12,175.1,32,73
210.63,174.39,32,73
210.54,174.84,32,73
212.19,173.29,32,73
213.66,170.82,32,73
214.96,168.3,32,73
216.64,164.69,32,73
218.11,164.26,32,73
221.41,159.39,32,73
223.38,155.5,32,73
225.22,154.57,32,73
228.31,151.58,32,73
229.91,151.4,32,73
231.56,146.7,32,73
231.72,150.87,32,73
231.77,147.79,32,73
229.18,147.98,32,73
228.16,145.6,32,73
225.95,146.29,32,73
222.51,144.84,32,73
217.32,146.25,32,73
214.39,143.63,32,73
208.59,142.93,32,73
204.1,141.7,32,73
198.2,139.9,32,73
194.34,139.78,32,73
189.45,138.26,32,73
185.3,142.1,32,73
181.33,141.17,32,73
177,142.54,32,73
172.74,139.52,32,73
171.02,145.91,32,73
165.75,144.38,32,73
163.73,147.35,32,73
162.63,149.51,32,73
160.61,152.23,32,73
157.81,154.33,32,73
156.41,154.81,32,73
156.3,158.76,32,73
155.31,161.43,32,73
154.98,163.93,32,73
156.32,165.83,32,73
154.77,168.99,32,73
154.25,169.84,32,73
155.07,173.67,32,73
156.72,175.12,32,73
158.65,176.06,32,73
160.7,179.35,32,73
162.93,177.41,32,73
165.99,180.79,32,73
169.59,183.4,32,73
172.7,182.93,32,73
175.73,184.27,32,73
179.54,181.31,32,73
183.76,182.57,32,73
187.32,182.06,32,73
191.62,182.67,32,73
194.98,180.97,32,73
198.76,178,32,73
202.15,178.94,32,73
204.67,178.1,32,73
207.77,174.59,32,73
209.59,174.89,32,73
209.74,174.36,32,73
209.7,172.33,32,73
209.7,173.33,32,73
207.4,173.61,32,73
205.51,170.56,32,73
202.63,168.55,32,73
199.74,167.46,32,73
196.74,165.34,32,73
192.94,164.93,32,73
189.47,162.38,32,73
186.2,162.6,32,73
179.98,161.47,32,73
175.74,161.01,32,73
170.42,160.58,32,73
166.33,161.4,32,73
161.38,160.22,32,73
155.8,160.91,32,73
149.4,163.31,32,73
144.76,160.12,32,73
140.26,161.22,32,73
136.11,161.14,32,73
131.13,161.01,32,73
126.36,159.29,32,73
123.23,161.13,32,73
119.55,159.51,32,73
115.11,162.17,32,73
111.01,160.88,32,73
105.73,164.95,32,73
102.67,167.13,32,73
99.934,169.58,32,73
95.956,170.92,32,73
93.462,171.96,32,73
91.249,175.82,32,73
87.15,178.65,32,73
86.655,181.16,32,73
85.237,184.95,32,73
84.364,188.74,32,73
86.06,189.09,32,73
87.953,191.17,32,73
90.901,194.89,32,73
95.307,196.33,32,73
99.745,194.79,32,73
105.5,193.91,32,73
111.44,194.66,32,73
118.12,194.57,32,73
124.12,192.1,32,73
130.8,190.71,32,73
138.81,190.61,32,73
146.69,188.47,32,73
156.78,186.95,32,73
164.3,183.8,32,73
171.77,181.33,32,73
180,179.85,32,73
188.26,175.74,32,73
194.72,173.44,32,73
202.49,171.13,32,73
207.94,170.16,32,73
215.09,166.34,32,73
221.01,162.76,32,73
227.05,160.97,32,73
234.46,158.88,32,73
242.1,155.51,32,73
247.74,156.77,32,73
254.72,152.15,32,73
263.76,153.3,32,73
269.19,147.96,32,73
276.69,150.21,32,73
281.45,148.39,32,73
285.41,147.01,32,73
289.48,142.65,32,73
290.73,141.48,32,73
292.31,138.92,32,73
291.96,135.58,32,73
290.81,135.93,32,73
287.27,134.49,32,73
284.18,131.41,32,73
281.52,130.21,32,73
276.02,128.82,32,73
270.85,126.02,32,73
265.56,126.78,32,73
258.83,124.23,32,73
253.14,123,32,73
245.67,122.63,32,73
236.69,121.94,32,73
228.6,121.73,32,73
220.85,120.05,32,73
212.85,122.76,32,73
201.8,119.8,32,73
193.51,119.4,32,73
183.64,116.62,32,73
174.8,118.9,32,73
165.26,123.92,32,73
158.21,123.91,32,73
150.91,126.38,32,73
141.66,128.82,32,73
134.98,130.24,32,73
130.58,131.2,32,73
124.67,135.54,32,73
122.08,138.51,32,73
118.07,143.27,32,73
115.42,144.48,32,73
115.05,148.84,32,73
113.12,150.32,32,73
112.18,152.38,32,73
111.79,155.38,32,73
112.73,153.76,32,73
112.08,156.93,32,73
112.11,154.23,32,73
111.92,152.83,32,73
111.48,152.6,32,73
112.56,153.24,32,73
113.92,151.24,32,73
113.31,148.09,32,73
114.17,143.99,32,73
110.67,144.52,32,73
111.07,138.76,32,73
109.58,136.39,32,73
108.48,132.77,32,73
107.72,129.26,32,73
106.05,123.24,32,73
103.81,119.56,32,73
101.63,116,32,73
100.12,111.32,32,73
99.47,106.89,32,73
98.589,101.44,32,73
97.925,92.938,32,73
98.97,90.526,32,73
98.568,84.708,32,73
99.22,81.99,32,73
101.52,75.049,32,73
106.43,73.091,32,73
109.48,68.457,32,73
114.78,65.441,32,73
122.71,62.535,32,73
130.26,58.174,32,73
137.78,55.452,32,73
146,52.532,32,73
157.62,48.902,32,73
169.51,50.776,32,73
183.67,43.325,32,73
194.78,39.532,32,73
207.09,37.254,32,73
221.4,34.721,32,73
232.18,29.443,32,73
248.11,28.11,32,73
258.47,25.981,32,73
267.36,25.89,32,73
278.58,25.057,32,73
285.05,26.671,32,73
290.88,25.908,32,73
292.88,25.832,32,73
294.23,29.875,32,73
292.52,33.527,32,73
288.78,35.081,32,73
280.94,40.999,32,73
272.47,43.464,32,73
261.13,45.315,32,73
250.02,49.262,32,73
235.48,55.746,32,73
223.07,56.324,32,73
209.69,60.316,32,73
193.1,66.494,32,73
178.59,68.262,32,73
166.94,73.959,32,73
156.29,79.367,32,73
144.81,85.211,32,73
136.01,93.352,32,73
128.76,101.26,32,73
124.77,107.1,32,73
122.87,114.02,32,73
120.63,122.94,32,73
121.73,129.76,32,73
124.57,136.25,32,73
127.7,143.74,32,73
131.02,150.23,32,73
136.88,153.37,32,73
141.12,157.88,32,73
148.01,162.24,32,73
155.83,165.41,32,73
166.09,164.36,32,73
176.38,165.04,32,73
185.95,164.85,32,73
194.87,162.47,32,73
203.05,159.87,32,73
211.32,153.28,32,73
218.71,147.56,32,73
225.42,144.38,32,73
232.34,136.99,32,73
236.42,131.55,32,73
239.08,126.09,32,73
243.18,117.97,32,73
244.01,111.61,32,73
244.07,106.08,32,73
241.36,98.527,32,73
238.93,94.214,32,73
233.86,91.72,32,73
225.76,90.025,32,73
219.57,89.735,32,73
212.66,89.911,32,73
205.72,91.627,32,73
197.97,94.702,32,73
192.74,95.715,32,73
189.31,101.86,32,73
185.95,106.47,32,73
185.16,113.81,32,73
183.04,117.42,32,73
184.67,121.5,32,73
186.8,126.22,32,73
190.04,132.86,32,73
197.15,139.11,32,73
204.64,145.53,32,73
208.56,146.93,32,73
216.2,152.17,32,73
223.21,156.94,32,73
230.8,160.47,32,73
239,158.8,32,73
246.09,161.05,32,73
253.19,161.62,32,73
258.65,161.07,32,73
263.18,157.56,32,73
268.43,156.45,32,73
274.73,153.18,32,73
280.11,149.28,32,73
285.42,143.71,32,73
287.35,139.62,32,73
290.3,134.69,32,73
291.91,127.74,32,73
293.68,125.51,32,73
294.18,120.58,32,73
293.97,116.86,32,73
293.18,112.72,32,73
290.53,110.54,32,73
288.16,106.83,32,73
285.94,101.75,32,73
278.04,97.663,32,73
272.11,96.421,32,73
264.5,90.878,32,73
257.45,86.695,32,73
247.88,82.875,32,73
241.02,78.844,32,73
232.19,74.566,32,73
225.77,65.627,32,73
217.47,62.959,32,73
208.81,58.006,32,73
202.22,55.749,32,73
194.71,48.864,32,73
190.12,45.844,32,73
183.19,41.566,32,73
178.13,38.158,32,73
170.22,33.918,32,73
162.46,32.961,32,73
157,31.706,32,73
153.34,31.344,32,73
149.71,30.901,32,73
147.66,33.829,32,73
144.65,37.471,32,73
141.29,39.609,32,73
141.31,46.461,32,73
140.46,48.775,32,73
141.4,57.05,32,73
143.41,66.42,32,73
145.9,71.667,32,73
149.11,80.248,32,73
153.6,87.421,32,73
157.6,94.627,32,73
161.3,103.6,32,73
167.01,110.76,32,73
174.24,117.93,32,73
181.42,125.43,32,73
188.21,129.74,32,73
198.44,136.36,32,73
209.21,143.97,32,73
218.59,145.26,32,73
227.7,149.47,32,73
239.2,152.97,32,73
249.17,154.54,32,73
261.08,155.47,32,73
269.87,153.62,32,73
280.07,152.25,32,73
291.57,150.23,32,73
297.69,145.94,32,73
307.15,141.19,32,73
313.25,136.05,32,73
319.21,133,32,73
323.3,126.93,32,73
323.49,121.22,32,73
326.63,116.67,32,73
326.84,109.53,32,73
325.24,102.08,32,73
323.26,98.726,32,73
321.76,94.417,32,73
318.32,86.772,32,73
313.32,82.244,32,73
308.3,75.965,32,73
301.46,68.249,32,73
295.3,61.547,32,73
287.09,51.314,32,73
280.03,45.332,32,73
271.49,43.414,32,73
262.62,36.109,32,73
255.91,32.483,32,73
246.13,31.274,32,73
235.24,34.176,32,73
225.36,31.001,32,73
213.49,34.589,32,73
202.87,36.987,32,73
191.46,40.633,32,73
181.61,43.598,32,73
171.58,46.088,32,73
162.81,47.707,32,73
157.95,46.899,32,73
149.97,51.352,32,73
145.26,51.936,32,73
140.86,52.349,32,73
138.3,51.179,32,73
134.74,52.677,32,73
134.92,49.772,32,73
133.3,51.626,32,73
133.75,50.592,32,73
133.27,52.365,32,73
136.46,51.613,32,73
136.76,48.496,32,73
138.19,46.032,32,73
139.1,43.758,32,73
141.33,42.76,32,73
143.59,38.006,32,73
147.8,32.046,32,73
149.8,26.838,32,73
154.49,19.487,32,73
157.1,11.709,32,73
161.69,2.7787,32,73
165.77,-5.974,32,73
153.76,1.2157,32,73
159.39,-4.5099,32,73
163.49,-12.396,32,73
168.92,-18,32,73
168.82,-16.577,32,73
177.32,-24.282,32,73
183.85,-29.691,32,73
189.69,-34.745,32,73
195.27,-37.26,32,73
200.81,-40.999,32,73
205.41,-38.107,32,73
211.92,-41.023,32,73
215.62,-39.832,32,73
223.9,-38.855,32,73
228.94,-38.113,32,73
237.67,-36.044,32,73
242.69,-26.655,32,73
251.04,-20.429,32,73
259.66,-15.16,32,73
267.18,-9.3454,32,73
276.67,-3.4716,32,73
284.37,5.4419,32,73
291.93,11.031,32,73
295.62,22.08,32,73
302.68,27.506,32,73
306.09,34.276,32,73
311.99,37.764,32,73
313.09,45.236,32,73
315.98,54.079,32,73
317.61,55.999,32,73
318.04,60.076,32,73
315.69,64.703,32,73
313.13,70.077,32,73
308.85,72.489,32,73
302.04,74.679,32,73
296.88,79.661,32,73
292.08,78.085,32,73
285.24,80.785,32,73
278.41,82.169,32,73
272.89,81.675,32,73
265.6,83.074,32,73
257.65,82.701,32,73
251.37,82.152,32,73
245.04,83.97,32,73
235.25,83.914,32,73
225.67,84.096,32,73
216.25,83.569,32,73
209.54,83.563,32,73
199.33,84.456,32,73
191.08,84.612,32,73
183.94,84.119,32,73
175.24,85.216,32,73
167.06,86.747,32,73
158.42,88.91,32,73
151.77,89.488,32,73
144.58,89.848,32,73
138.1,92.492,32,73
132.63,95.288,32,73
128.69,99.69,32,73
125.59,103.35,32,73
124.82,104.54,32,73
124.96,108.1,32,73
125.35,111.8,32,73
126.73,114.61,32,73
129.02,115.02,32,73
134.46,119.54,32,73
139.25,122.49,32,73
145.83,124.15,32,73
155.4,127.49,32,73
161.06,128.75,32,73
169.92,131.44,32,73
182.47,133.71,32,73
190.63,132.48,32,73
201.37,130.87,32,73
212.89,130.36,32,73
223.92,129.31,32,73
233.79,129.04,32,73
239.91,128.92,32,73
246.75,127.62,32,73
254.74,128.47,32,73
260.93,129.06,32,73
262.39,128.97,32,73
265.29,127.96,32,73
271.75,128.38,32,73
275.69,130.67,32,73
276.8,130.37,32,73
279.56,131.72,32,73
282.19,133.68,32,73
283.61,136.18,32,73
283.15,137.21,32,73
281.68,140.82,32,73
280.2,145.87,32,73
278.89,148.48,32,73
277.31,151.47,32,73
273,156.38,32,73
269,157.94,32,73
263.89,163.15,32,73
258.89,168.48,32,73
253.6,171.16,32,73
247.55,179.62,32,73
242.34,181.46,32,73
236.53,182.86,32,73
232.07,184.42,32,73
226.85,184,32,73
222.16,183.1,32,73
217.85,181.8,32,73
211.91,183.08,32,73
210.73,178.45,32,73
208.31,175.18,32,73
203.27,173.22,32,73
202.73,171.5,32,73
201.66,169.13,32,73
201.76,165.92,32,73
202.71,165.22,32,73
203.99,163.75,32,73
205.01,161.29,32,73
207.27,159.62,32,73
207.12,159.89,32,73
208.04,156.28,32,73
208.1,154.72,32,73
205.99,150.63,32,73
204.45,146.22,32,73
204.13,143.43,32,73
201.19,141.53,32,73
199.41,138.19,32,73
195.74,133.78,32,73
196.51,130.96,32,73
