123,87,132,176
123.32,87.642,132,176
123.39,86.966,132,176
123.74,87.332,132,176
124.65,87.854,132,176
125.28,87.558,132,176
127.04,87.44,132,176
127.12,88.759,132,176
127.55,88.338,132,176
129.5,83.816,132,176
132.06,86.495,132,176
132.2,86.944,132,176
135.33,84.778,132,176
136.13,85.707,132,176
138.5,84.891,132,176
137.66,83.267,132,176
138.92,83.713,132,176
142.55,84.699,132,176
142.13,84.264,132,176
143.34,82.689,132,176
143.04,83.869,132,176
142.78,82.972,132,176
141.79,84.72,132,176
140.72,82.549,132,176
138.49,81.789,132,176
135.78,83.53,132,176
133.12,79.69,132,176
131.4,82.664,132,176
131.67,79.897,132,176
130,81.416,132,176
130.23,80.896,132,176
128.67,80.631,132,176
130.64,80.914,132,176
134.3,81.098,132,176
134.79,80.146,132,176
132.72,80.985,132,176
135.35,81.936,132,176
136.18,80.864,132,176
136.14,80.848,132,176
137.51,82.404,132,176
136.62,83.501,132,176
136.63,81.76,132,176
137.21,82.169,132,176
140.03,82.02,132,176
141.03,81.927,132,176
140.83,80.69,132,176
141.07,82.855,132,176
140.47,82.543,132,176
140.89,83.039,132,176
141.34,79.832,132,176
143.73,80.602,132,176
145.29,80.603,132,176
145.03,78.876,132,176
146.45,81.127,132,176
147.1,80.62,132,176
148.41,82.211,132,176
147.57,79.592,132,176
149.97,78.577,132,176
148.47,78.086,132,176
148.07,79.778,132,176
148.29,80.903,132,176
149.2,77.403,132,176
147.88,78.619,132,176
145.5,80.665,132,176
144.99,78.553,132,176
147.46,80.737,132,176
146.27,80.723,132,176
144.83,79.984,132,176
143.17,79.853,132,176
144.05,79.846,132,176
141.61,77.761,132,176
144.51,79.233,132,176
143.12,78.762,132,176
144.33,76.774,132,176
143.29,79.216,132,176
144.29,78.776,132,176
145.63,79.734,132,176
148.92,81.677,132,176
150.22,79.713,132,176
150.29,78.62,132,176
152.32,80.698,132,176
152.09,83.23,132,176
155.33,80.775,132,176
156.09,80.29,132,176
155.55,81.523,132,176
154.95,85.394,132,176
155.43,82.739,132,176
157.47,82.714,132,176
158.05,85.073,132,176
157.02,85.168,132,176
158.31,85.434,132,176
159.19,85.198,132,176
160.3,83.582,132,176
160.97,83.387,132,176
162.19,85.289,132,176
161.33,88.747,132,176
162.67,84.436,132,176
161.76,83.746,132,176
162.27,86.149,132,176
161.69,86.199,132,176
160.83,88.631,132,176
160.69,86.016,132,176
159.21,83.313,132,176
160.8,86.432,132,176
159.82,88.123,132,176
158.45,86.425,132,176
159.89,86.031,132,176
158.28,85.662,132,176
157.82,85.587,132,176
157.69,82.982,132,176
158.97,80.148,132,176
157.71,82.829,132,176
161.38,84.334,132,176
163.21,84.23,132,176
163.19,81.485,132,176
165.13,81.78,132,176
166.46,82.453,132,176
169.93,81.661,132,176
172.99,79.882,132,176
176.94,77.876,132,176
180.07,79.654,132,176
183.93,78.587,132,176
187.06,77.04,132,176
190.63,78.213,132,176
193.62,76.557,132,176
195.95,72.564,132,176
201.87,72.637,132,176
204.05,70.932,132,176
208.11,70.177,132,176
212.38,70.11,132,176
216.29,70.827,132,176
218.8,68.801,132,176
224.62,65.566,132,176
228.49,65.701,132,176
233.56,65.217,132,176
238.71,65.914,132,176
240.83,67.139,132,176
246.83,66.25,132,176
249.97,68.521,132,176
252.58,67.839,132,176
258.83,69.423,132,176
260.08,69.26,132,176
264.58,70.011,132,176
268.09,69.45,132,176
272.35,70.108,132,176
277.45,71.415,132,176
283.28,73.373,132,176
288.56,77.116,132,176
290.1,74.213,132,176
295.94,75.041,132,176
304.88,78.562,132,176
308.48,77.516,132,176
313.5,76.477,132,176
321.92,74.91,132,176
329.39,76.959,132,176
334.57,76.306,132,176
342.03,76.657,132,176
350.16,74.709,132,176
353.76,71.538,132,176
361.95,73.772,132,176
368.58,74.133,132,176
371.19,73.554,132,176
377.46,71.502,132,176
387.09,73.183,132,176
386.93,71.497,132,176
393.08,66.652,132,176
398.26,71.068,132,176
397.95,72.633,132,176
402.77,73.478,132,176
405.27,73.14,132,176
405.67,74,132,176
409.31,76.963,132,176
410.11,77.903,132,176
411.5,78.506,132,176
412.71,78.374,132,176
414.66,81.282,132,176
416.67,84.939,132,176
415.52,84.13,132,176
415.36,82.256,132,176
414.77,84.547,132,176
414.13,85.534,132,176
412.18,84.136,132,176
410.64,84.732,132,176
405.79,84.919,132,176
404.38,86.032,132,176
401.96,85.663,132,176
398.96,85.413,132,176
398.6,83.616,132,176
395.51,83.362,132,176
395.99,82.721,132,176
396.05,87.9,132,176
392.55,85.02,132,176
389.52,85.079,132,176
389.3,84.907,132,176
388.19,84.414,132,176
386.92,84.035,132,176
387.33,87.157,132,176
387.51,86.985,132,176
386.41,87.046,132,176
386.74,88.455,132,176
385.88,93.609,132,176
385.13,94.92,132,176
381.82,97.414,132,176
380.04,100.05,132,176
372.92,104.78,132,176
370.87,109.42,132,176
368.9,114.57,132,176
364.55,118.57,132,176
363.19,122.71,132,176
360.57,122.72,132,176
360.06,127.77,132,176
356.54,126.21,132,176
358.19,130.86,132,176
356.41,131.03,132,176
359.1,131.18,132,176
358.69,137.43,132,176
356.27,135.93,132,176
355.55,136.69,132,176
355.38,138.9,132,176
355.6,141.79,132,176
352.84,141.39,132,176
352.34,146.22,132,176
354.58,145.7,132,176
350.97,146.38,132,176
352.77,148.93,132,176
351.73,151.71,132,176
352.62,153.88,132,176
352.02,155.98,132,176
354.13,157.34,132,176
352.63,160.44,132,176
354.68,161.86,132,176
354.83,161.87,132,176
352.81,162.39,132,176
353.01,164.59,132,176
353.72,164.75,132,176
352.35,167.77,132,176
352.7,168.96,132,176
351.89,166.84,132,176
351.26,164.51,132,176
350.94,165.98,132,176
350.6,167.43,132,176
350.72,165.57,132,176
348.51,166.68,132,176
348.62,166.87,132,176
345.42,165.92,132,176
345.72,166.51,132,176
346.98,164.86,132,176
342.02,165.49,132,176
344.14,164.6,132,176
341.71,160.34,132,176
342.66,159.69,132,176
342.8,155.77,132,176
339.55,156.76,132,176
341.15,158.03,132,176
339.23,156.78,132,176
335.01,156.61,132,176
336.82,154.53,132,176
334.29,152.97,132,176
331.51,154.01,132,176
329.39,152.82,132,176
325.96,153.44,132,176
323.47,152.08,132,176
317.48,155.73,132,176
315.97,157.17,132,176
311.84,157.63,132,176
307.63,162.78,132,176
306.14,159.71,132,176
303.48,164.1,132,176
299.04,164.06,132,176
295.3,165.16,132,176
291.01,168.75,132,176
290.08,165.59,132,176
288.05,167.53,132,176
282.78,166.82,132,176
279.11,161.09,132,176
272.49,163.07,132,176
270.28,158.45,132,176
264.57,158.72,132,176
259.15,156.55,132,176
253.3,155.48,132,176
248.13,153.04,132,176
245.46,149.26,132,176
242.81,148.17,132,176
238.28,147.26,132,176
234.75,143.57,132,176
232.29,137.32,132,176
226.57,136.62,132,176
225.6,134.37,132,176
221.92,129.87,132,176
222.5,128.38,132,176
216.82,127.93,132,176
212.94,125.13,132,176
210.04,124.09,132,176
212.88,121.12,132,176
210.87,113.28,132,176
209.96,116.91,132,176
207.55,115.89,132,176
204.95,117.47,132,176
203.89,114.45,132,176
203.01,114.27,132,176
198.63,111.2,132,176
198.37,111.46,132,176
197.9,113.08,132,176
193.39,110.76,132,176
191.51,110.54,132,176
190.76,107.33,132,176
187.91,113.35,132,176
185.36,106.75,132,176
181.09,107.94,132,176
181.31,103.34,132,176
177.9,103.92,132,176
175.98,103.81,132,176
175.49,105.22,132,176
171.92,104.4,132,176
173.95,104.07,132,176
170.79,102.7,132,176
169.49,102.95,132,176
165.62,101.11,132,176
166.61,100.39,132,176
164.11,97.888,132,176
161.63,99.926,132,176
158.79,97.128,132,176
159.14,98.352,132,176
157.94,91.483,132,176
158.14,92.61,132,176
157.9,93.018,132,176
155.89,91.596,132,176
155.69,90.008,132,176
155.86,87.214,132,176
154.8,83.608,132,176
155.02,85.093,132,176
153.46,84.435,132,176
152.4,83.327,132,176
153.74,83.478,132,176
150.82,81.89,132,176
151.43,84.706,132,176
150.66,86.164,132,176
151.35,88.082,132,176
150.36,90.213,132,176
146.55,90.466,132,176
146.86,92.376,132,176
149.14,94.601,132,176
149.95,91.913,132,176
151.32,95.061,132,176
151.25,94.853,132,176
149.03,92.909,132,176
150.22,96.609,132,176
154.8,95.763,132,176
156.2,94.981,132,176
158.8,96.75,132,176
162.54,97.936,132,176
162.42,96.216,132,176
165.28,98.427,132,176
168.11,95.455,132,176
168.53,100.46,132,176
168.59,100.88,132,176
170.71,102.15,132,176
172.07,100.95,132,176
171.45,102.2,132,176
171.69,103.25,132,176
171.5,103.86,132,176
169.74,104.17,132,176
169,105.55,132,176
169.06,103.43,132,176
167.64,102.75,132,176
168.63,103.77,132,176
168.29,103.97,132,176
168.28,102.46,132,176
168.89,100.28,132,176
169.5,97.576,132,176
168.06,100.01,132,176
167.65,98.185,132,176
167.21,97.653,132,176
168.13,96.398,132,176
170.47,94.688,132,176
170.71,91.086,132,176
171.81,91.55,132,176
173,91.998,132,176
172.73,90.965,132,176
175.1,89.718,132,176
179.95,90.89,132,176
185.52,93.68,132,176
184.8,93.983,132,176
190.09,92.372,132,176
192.56,92.589,132,176
194.94,94.806,132,176
194.9,97.592,132,176
197.48,98.712,132,176
198.22,98.024,132,176
193.79,99.167,132,176
196.7,99.811,132,176
195.4,97.501,132,176
195.52,99.781,132,176
198.39,98.705,132,176
197.07,100.48,132,176
199.43,101.92,132,176
199.82,99.785,132,176
199.32,100.66,132,176
197.58,100.77,132,176
200.75,100.99,132,176
197.1,102.49,132,176
199.65,102.94,132,176
196.39,100.34,132,176
198.56,106.24,132,176
197.67,103.68,132,176
197.61,100.34,132,176
197.62,102.69,132,176
198.26,100.08,132,176
197.21,103.48,132,176
195.82,100.23,132,176
196.47,101.8,132,176
196.83,99.775,132,176
194.85,100.01,132,176
195.72,97.87,132,176
196.25,98.956,132,176
197.02,98.055,132,176
197.32,98.943,132,176
197.84,101.79,132,176
195.71,98.624,132,176
197.16,98.414,132,176
197.9,97.096,132,176
196.6,98.984,132,176
197.89,98.955,132,176
195.97,98.867,132,176
195.49,100.02,132,176
198.36,100.53,132,176
197.39,100.73,132,176
195.74,101.39,132,176
196.67,101.97,132,176
195.45,101.17,132,176
198.64,102.91,132,176
197.05,104.22,132,176
196.12,105.03,132,176
197.49,107.87,132,176
197.63,103.97,132,176
197.38,104.04,132,176
199.06,107.17,132,176
197.91,105.55,132,176
196.58,105.7,132,176
196.56,106.32,132,176
196.76,105.96,132,176
197.73,106.93,132,176
196.81,107.94,132,176
196.84,110.11,132,176
197.61,107.06,132,176
197.78,106.33,132,176
197.75,108.61,132,176
198.45,108.27,132,176
198.87,108.75,132,176
198.4,109.02,132,176
198.84,105.93,132,176
199.62,108.24,132,176
198.43,104.78,132,176
199.09,106.32,132,176
199.82,105.46,132,176
201,106.44,132,176
197.15,106.44,132,176
198.34,108.1,132,176
199.03,107.53,132,176
197.06,107.58,132,176
198.32,107.21,132,176
199.1,109.98,132,176
198.3,109.57,132,176
200.61,111.7,132,176
200.67,108.99,132,176
200.63,108.82,132,176
201.09,109.25,132,176
199.44,108.6,132,176
199.36,109.12,132,176
201.77,106.85,132,176
201.38,109.1,132,176
201.28,107.39,132,176
202.56,106.95,132,176
201.6,106.73,132,176
202.02,109.47,132,176
204.53,109.9,132,176
205.33,109.77,132,176
205.56,109.62,132,176
206.46,110.26,132,176
207.45,110.01,132,176
207.81,111.1,132,176
208.31,110.2,132,176
209.07,109.69,132,176
211.7,110.65,132,176
211.45,110.46,132,176
211.96,109.33,132,176
214.91,111.15,132,176
216.26,110.68,132,176
217.45,113.17,132,176
222.51,109.89,132,176
223.75,111.56,132,176
226.18,111.88,132,176
230.17,110.42,132,176
230.78,114.4,132,176
233.63,110.61,132,176
236.44,112.7,132,176
239.62,112.37,132,176
240.23,111.76,132,176
242.96,110.21,132,176
245.03,112.59,132,176
244.96,110.23,132,176
246.36,111.92,132,176
247.62,112.08,132,176
251.46,114.52,132,176
253.27,115.66,132,176
254.57,112.36,132,176
255.34,112.8,132,176
257.64,111.27,132,176
260.32,113.18,132,176
260.1,112.16,132,176
262.47,111.27,132,176
263.47,111.86,132,176
266.97,112.48,132,176
267.74,109.47,132,176
269.43,109.29,132,176
271.41,107.6,132,176
272.85,108.52,132,176
275.05,105.54,132,176
275.27,106.54,132,176
278.3,103.33,132,176
279.89,104.68,132,176
282.17,105.68,132,176
286.78,103.35,132,176
286.14,99.171,132,176
289.49,103.34,132,176
292.87,100.91,132,176
294.03,98.302,132,176
295.74,97.077,132,176
299.51,96.262,132,176
303.44,95.379,132,176
304.95,94.161,132,176
307.17,92.874,132,176
309.35,90.599,132,176
312.11,88.796,132,176
314.62,89.248,132,176
313.58,90.061,132,176
317.32,87.374,132,176
317.87,85.521,132,176
320.04,88.27,132,176
319.58,85.34,132,176
321.79,85.344,132,176
321.1,86.924,132,176
320.86,83.075,132,176
320.56,89.642,132,176
317.73,90.17,132,176
320.3,86.171,132,176
315.76,89.608,132,176
314.1,93.005,132,176
309.24,93.667,132,176
309.58,101.07,132,176
301.92,102.23,132,176
301.15,104.42,132,176
297.52,104.52,132,176
294.74,102.05,132,176
287.75,102.43,132,176
285.58,105.22,132,176
283.2,108.62,132,176
278.02,109.39,132,176
274.75,113.26,132,176
273.86,113.22,132,176
270.18,121.06,132,176
271.22,118.54,132,176
266.52,120.94,132,176
263.85,118.78,132,176
260.8,114.46,132,176
257.98,111.47,132,176
255.73,101.35,132,176
253.49,90.666,132,176
248.83,81.384,132,176
246.48,67.061,132,176
246.96,54.028,132,176
243.58,40.164,132,176
241.15,27.888,132,176
241.86,18.098,132,176
235.77,5.0823,132,176
236.12,0.059559,132,176
233.15,-3.6312,132,176
232.51,-7.2233,132,176
232.37,-8.0698,132,176
227.48,-6.8079,132,176
223.2,-5.2378,132,176
225,-6.5575,132,176
222.77,1.5671,132,176
221.69,0.76546,132,176
219.56,10.221,132,176
216.68,14.642,132,176
215.33,14.071,132,176
212,15.421,132,176
214.21,18.253,132,176
211.1,21.36,132,176
209.86,20.241,132,176
208.81,23.182,132,176
204.72,20.715,132,176
206.1,24.39,132,176
201.99,23.269,132,176
200.41,24.196,132,176
200.31,25.823,132,176
195.64,27.016,132,176
193.6,25.322,132,176
190.64,27.331,132,176
188.24,29.892,132,176
186.71,30.571,132,176
181.07,34.998,132,176
180,38.392,132,176
176.47,43.492,132,176
174.47,42.034,132,176
174.99,45.835,132,176
174.13,43.66,132,176
173.16,47.357,132,176
170.79,44.954,132,176
170.04,49.138,132,176
169.75,52.819,132,176
168.5,57.188,132,176
165.43,60.914,132,176
166.33,64.221,132,176
166.93,63.687,132,176
163.34,69.139,132,176
162.34,72.476,132,176
162.44,77.379,132,176
159.73,80.734,132,176
157.57,83.678,132,176
159.01,88.527,132,176
156.49,86.866,132,176
158.22,88.467,132,176
161.1,89.211,132,176
161.62,88.357,132,176
164.89,92.72,132,176
169.32,94.666,132,176
171.24,97.985,132,176
173.7,97.78,132,176
174.78,98.409,132,176
183.41,100.36,132,176
181.83,100.15,132,176
181.18,102.23,132,176
181.09,100.11,132,176
180.23,99.434,132,176
181.67,96.878,132,176
180.51,96.458,132,176
177.65,92.36,132,176
178.12,88.123,132,176
175.24,82.485,132,176
174.6,82.174,132,176
172.27,79.822,132,176
169.04,76.008,132,176
169.62,78.28,132,176
165.39,79.167,132,176
162.38,76.795,132,176
160.86,75.659,132,176
160.67,78.626,132,176
159.99,78.405,132,176
160.86,81.46,132,176
163.07,82.058,132,176
161.25,84.102,132,176
166.87,84.538,132,176
170.42,88.194,132,176
176.52,86.185,132,176
181.61,81.152,132,176
183.49,80.917,132,176
185.96,82.936,132,176
186.64,82.473,132,176
190.39,84.215,132,176
191.13,81.976,132,176
189.29,80.084,132,176
189.3,77.724,132,176
189.88,75.521,132,176
189.51,72.417,132,176
188,68.099,132,176
184.15,72.404,132,176
183.21,70.296,132,176
183.22,70.712,132,176
180.63,72.782,132,176
178.82,72.551,132,176
180.06,75.888,132,176
175.57,73.085,132,176
177.59,74.731,132,176
177.08,74.959,132,176
180.69,73.315,132,176
187.04,71.151,132,176
189.5,68.949,132,176
195.05,69.415,132,176
204.18,70.016,132,176
207.89,69.368,132,176
211.9,64.191,132,176
217.31,65.909,132,176
221.79,67.801,132,176
224.07,69.326,132,176
224.34,64.795,132,176
223.19,67.72,132,176
220.53,67.617,132,176
216.08,67.932,132,176
213.8,58.072,132,176
203.64,57.113,132,176
203.39,57.794,132,176
196.81,55.781,132,176
191.43,54.729,132,176
186.28,59.37,132,176
185.65,61.367,132,176
181.5,65.605,132,176
183.64,64.124,132,176
180.55,67.58,132,176
180.79,71.52,132,176
182.97,72.171,132,176
185.21,73.47,132,176
183.77,74.388,132,176
189.29,73.043,132,176
187.21,77.405,132,176
194.68,78.963,132,176
198.49,80.777,132,176
210.88,83.781,132,176
221.57,85.994,132,176
228.23,85.009,132,176
236.09,84.967,132,176
246.01,87.094,132,176
252.37,85.122,132,176
261.56,83.814,132,176
265.01,84.901,132,176
267.94,79.378,132,176
269.93,76.621,132,176
273.25,73.912,132,176
274.99,70.137,132,176
275.91,70.871,132,176
278.9,67.237,132,176
277.2,69.64,132,176
275.04,73.655,132,176
271.89,78.69,132,176
274.1,82.139,132,176
273.52,88.861,132,176
267.55,93.451,132,176
267.27,96.016,132,176
260.05,104.13,132,176
258.06,105.32,132,176
256.37,108.67,132,176
253.71,110.73,132,176
250.88,113.98,132,176
252.99,113.28,132,176
251.31,117.76,132,176
257.94,118.93,132,176
262.23,120.28,132,176
268.48,118.84,132,176
280.73,121.48,132,176
287.47,123.75,132,176
298.99,124.98,132,176
308.88,126.2,132,176
316.74,130.12,132,176
329.71,131.47,132,176
342.35,134.06,132,176
347.34,137.45,132,176
357.09,141.23,132,176
363.66,141.43,132,176
370.47,142.44,132,176
375.5,147.16,132,176
383.61,147.92,132,176
385.8,156.02,132,176
390.69,157.3,132,176
393.98,156.96,132,176
395.81,159.61,132,176
400.22,158.81,132,176
405.69,162.66,132,176
410.63,163.15,132,176
412.44,164.36,132,176
418.08,167.08,132,176
420.31,170.15,132,176
420.59,170.53,132,176
421.41,173.16,132,176
422.09,169.63,132,176
423.5,177.53,132,176
419.89,178.37,132,176
421.57,174.3,132,176
418.85,172.24,132,176
414.24,174.31,132,176
412.64,172.25,132,176
411.58,172.99,132,176
407.04,175.85,132,176
403.76,174.47,132,176
401.64,173.54,132,176
398.86,175.88,132,176
397.2,175.61,132,176
394.67,172.51,132,176
390.72,177.61,132,176
387.18,174.96,132,176
386.32,175.71,132,176
386.31,175.09,132,176
382.95,174.49,132,176
383.51,177.69,132,176
382.94,176.74,132,176
382.54,175.88,132,176
384.84,178.91,132,176
380.31,180,132,176
379.64,180.23,132,176
379.19,180.9,132,176
378.54,183.7,132,176
377.4,180.7,132,176
376.61,181.56,132,176
373.88,181.6,132,176
371,185.58,132,176
371.2,189.21,132,176
370.59,187.55,132,176
364.07,186.64,132,176
362.92,186.78,132,176
362.6,184.11,132,176
358.97,182.75,132,176
357.44,183.88,132,176
358.02,181.58,132,176
352.58,183.72,132,176
353.21,181.41,132,176
350.84,183.5,132,176
349.37,180.19,132,176
350.93,179.68,132,176
348.89,178.26,132,176
346.43,176.19,132,176
345.23,178.76,132,176
346.04,177.36,132,176
344.93,176.8,132,176
343.71,177.77,132,176
344.96,179.02,132,176
342.89,174.32,132,176
342.06,176.07,132,176
341.87,175.48,132,176
342.5,177.75,132,176
342.39,180.36,132,176
342.98,176.89,132,176
341.01,179.82,132,176
339.58,178.89,132,176
340.51,179.33,132,176
340.99,179.99,132,176
339.17,175.69,132,176
337.52,177.63,132,176
337.24,178.74,132,176
332.4,178.28,132,176
330.92,175.98,132,176
328.95,172.87,132,176
323.02,169.56,132,176
317.05,171.7,132,176
313.63,173.48,132,176
311.97,169.83,132,176
301.52,168.15,132,176
295.33,168.96,132,176
292.03,168.46,132,176
282.4,169.07,132,176
278.48,170.69,132,176
274.1,171.37,132,176
275.23,171.42,132,176
267.76,169.59,132,176
262.81,167.74,132,176
261.89,168.89,132,176
259.03,165.89,132,176
259.3,165.47,132,176
258.57,165.58,132,176
257.22,165.97,132,176
256.76,165.14,132,176
255.33,165.6,132,176
254.86,163.72,132,176
254.54,161.72,132,176
252.7,155.42,132,176
253.75,155.77,132,176
252,153.21,132,176
251.52,150.48,132,176
247.72,144.66,132,176
247.45,142.85,132,176
245.92,141.32,132,176
241.83,140.57,132,176
239.26,139.22,132,176
235.37,136.75,132,176
229.5,131.69,132,176
225.42,129.09,132,176
224.24,124.62,132,176
219.13,123.06,132,176
217.58,121.81,132,176
213.65,120.38,132,176
209.79,121.76,132,176
206.48,121.51,132,176
206.72,122.11,132,176
203.59,124.01,132,176
199.97,123.17,132,176
198.71,129.72,132,176
193.58,129.39,132,176
193.34,126.37,132,176
191.05,121.1,132,176
186.87,124.13,132,176
186.46,123.63,132,176
183.43,118.92,132,176
178.48,114.65,132,176
178.22,114.74,132,176
173.3,106.33,132,176
171.44,108.43,132,176
171.98,105.8,132,176
172.24,105.21,132,176
172.03,101.24,132,176
175.29,96.825,132,176
181.67,96.572,132,176
189.1,94.781,132,176
198.21,95.687,132,176
207.29,95.361,132,176
216.51,96.459,132,176
228.33,91.119,132,176
240.32,87.661,132,176
247.23,83.603,132,176
254.28,81.092,132,176
256.62,81.308,132,176
257.17,75.916,132,176
252.76,77.825,132,176
253.86,77.61,132,176
257.52,72.74,132,176
249.94,70.605,132,176
246.94,71.261,132,176
239.17,71.483,132,176
236.71,66.593,132,176
233.85,67.814,132,176
230.99,70.368,132,176
230.97,74.221,132,176
233.06,75.743,132,176
235.91,75.622,132,176
238.98,79.125,132,176
245.22,76.284,132,176
247.67,78.895,132,176
254.83,83.068,132,176
259.83,84.615,132,176
261.09,85.278,132,176
261.55,92.839,132,176
262.33,90.195,132,176
263.05,89.211,132,176
263.74,85.819,132,176
263.82,82.771,132,176
263.84,78.605,132,176
260.14,84.972,132,176
261.36,82.498,132,176
260.5,81.672,132,176
260.9,80.448,132,176
263.31,82.362,132,176
260.2,80.84,132,176
263.21,79.665,132,176
265.37,82.711,132,176
265.15,81.858,132,176
265.83,83.922,132,176
267.55,84.207,132,176
271.09,88.936,132,176
276.91,93.732,132,176
283.83,98.235,132,176
293.4,103.2,132,176
300.42,109.39,132,176
314.69,118.49,132,176
326.5,123.81,132,176
338.36,132.93,132,176
354.59,144.85,132,176
371.24,148.33,132,176
382.18,154.32,132,176
392.84,160.34,132,176
404.05,167.56,132,176
412.85,168,132,176
419.67,167.59,132,176
424.33,172.78,132,176
427.87,175.81,132,176
433.68,177.79,132,176
437.77,179.48,132,176
437.82,186.16,132,176
439.32,189.19,132,176
442.14,191.1,132,176
442.04,196.79,132,176
444.67,204.69,132,176
441.33,207.96,132,176
440.63,213.39,132,176
437.74,218.79,132,176
433.13,226.36,132,176
427.18,231.58,132,176
418.64,236.7,132,176
414.08,243.89,132,176
404.81,252.08,132,176
397.22,260.57,132,176
389.53,268.11,132,176
384.51,276.05,132,176
377.29,284.71,132,176
373.6,292.93,132,176
369.02,299.24,132,176
360.53,304.17,132,176
353.37,313.67,132,176
350,318.72,132,176
347.95,323.96,132,176
346.92,328.23,132,176
347.08,332.16,132,176
349.68,333.24,132,176
350.77,335.84,132,176
354.91,338.25,132,176
356.34,335.95,132,176
360.61,333.99,132,176
364.27,335.85,132,176
367.48,329.56,132,176
370.86,326.53,132,176
376.73,319.05,132,176
374.21,309.71,132,176
376.2,300.72,132,176
378.59,295.11,132,176
380.41,285.38,132,176
384.14,281.98,132,176
382.66,278.81,132,176
384.39,275.8,132,176
382.83,275.81,132,176
382.41,272.32,132,176
381.52,272.18,132,176
379.29,268.55,132,176
379.42,264.96,132,176
380.5,266.56,132,176
378.47,268.27,132,176
376.03,262.36,132,176
377.17,264.73,132,176
377.01,264.75,132,176
381.03,261.62,132,176
378.06,260.72,132,176
380.48,261.07,132,176
378.79,258.83,132,176
378.29,256.91,132,176
377.8,255.4,132,176
378.86,251.76,132,176
377.91,250.68,132,176
377.12,250.34,132,176
375.43,246.12,132,176
374.75,245.65,132,176
373.12,248.82,132,176
369.74,247.11,132,176
368.54,242.04,132,176
367.23,236.43,132,176
365.2,236.17,132,176
361.95,234.86,132,176
357.42,235.86,132,176
355.86,233.53,132,176
350.77,234.86,132,176
346.5,235.18,132,176
345.8,233.73,132,176
346,230.23,132,176
342.08,228.34,132,176
340.31,228.35,132,176
339.95,226.2,132,176
339.2,225.57,132,176
338.88,225.29,132,176
337.77,224.7,132,176
340.99,219.87,132,176
336.96,219.11,132,176
337.61,215.16,132,176
338,218.24,132,176
340.04,218.39,132,176
340.85,216.22,132,176
342.99,213.13,132,176
340.72,210,132,176
339.73,211.65,132,176
342.83,209.2,132,176
342.31,205.39,132,176
340.69,204.4,132,176
339.86,202.76,132,176
338.33,200.76,132,176
337,198.04,132,176
338.13,197.43,132,176
335.41,194.57,132,176
332.17,193.82,132,176
329.19,191.49,132,176
330.66,188.93,132,176
326.44,190.78,132,176
328.13,187.21,132,176
325.34,184.98,132,176
324.98,182.12,132,176
322.64,183.24,132,176
322.56,181.5,132,176
320.32,179.61,132,176
319.31,178.59,132,176
319.24,174.37,132,176
317.73,174.09,132,176
316.99,171.49,132,176
314.76,173.15,132,176
312.54,169.71,132,176
310.27,170.02,132,176
311.83,165.82,132,176
306.21,168.06,132,176
302.74,170.07,132,176
300.66,169.03,132,176
298.55,169.63,132,176
293.23,166.9,132,176
291.51,166.19,132,176
289.1,165.7,132,176
285.22,165.32,132,176
283.38,165.35,132,176
280.81,165.8,132,176
277.83,158.5,132,176
275.1,161.17,132,176
272.65,158.92,132,176
270.8,157.86,132,176
266.4,153.8,132,176
264.33,156.44,132,176
261.26,158.27,132,176
256.03,151.46,132,176
252.87,157.89,132,176
250.53,152.76,132,176
246.75,153.04,132,176
242.37,156.07,132,176
237.73,153.61,132,176
235.71,153.8,132,176
235.17,156.4,132,176
230.94,154.22,132,176
229.95,154.04,132,176
226.07,155.29,132,176
220.77,154.67,132,176
220.67,151.21,132,176
218.86,152.88,132,176
216.35,151.93,132,176
216.38,147.96,132,176
214.06,142.28,132,176
211.45,146.44,132,176
208.16,147.18,132,176
209.34,143.76,132,176
209.26,145,132,176
206.78,141.57,132,176
203.48,141.85,132,176
204.85,142.52,132,176
202.46,141.22,132,176
203.99,139.34,132,176
198.44,143.05,132,176
200.42,143.82,132,176
200.8,147.51,132,176
204.69,144.25,132,176
204.55,145.09,132,176
203.75,145.58,132,176
210.52,147.4,132,176
213.11,145.91,132,176
213.32,144.55,132,176
218.81,145.79,132,176
219.8,145.76,132,176
220.62,150.14,132,176
224.39,148.64,132,176
228.17,147.28,132,176
226.33,149.49,132,176
228.74,147.23,132,176
229.68,143.83,132,176
229.76,143.71,132,176
232.7,146.16,132,176
229.75,139.7,132,176
233.6,142.52,132,176
232.64,140.69,132,176
233.64,140.37,132,176
229.75,138.67,132,176
228.33,133.08,132,176
227,127.49,132,176
222.55,123.3,132,176
220.24,115.27,132,176
217.75,114.62,132,176
213.66,111.26,132,176
209.87,112.42,132,176
206.6,111.04,132,176
205.25,115.83,132,176
