84,53,62,70
86.219,52.986,62,70
88.583,53.081,62,70
89.441,53.828,62,70
90.853,54.4,62,70
91.049,55.017,62,70
91.864,55.496,62,70
91.196,55.229,62,70
89.798,53.681,62,70
88.3,53.817,62,70
87.357,52.84,62,70
86.621,53.727,62,70
85.59,54.358,62,70
83.689,55.256,62,70
81.942,55.063,62,70
79.954,55.552,62,70
79.285,55.611,62,70
78.249,56.692,62,70
76.437,57.803,62,70
74.875,58.889,62,70
74.196,60.226,62,70
73.891,60.734,62,70
74.328,60.787,62,70
74.382,59.584,62,70
76.547,58.98,62,70
77.149,58.586,62,70
77.886,59.68,62,70
78.763,59.015,62,70
80.149,58.364,62,70
82.529,57.08,62,70
83.423,56.391,62,70
84.574,55.945,62,70
86.194,54.194,62,70
87.474,55.602,62,70
88.046,54.718,62,70
88.854,55.269,62,70
90.407,55.678,62,70
91.678,54.813,62,70
91.691,54.536,62,70
93.388,54.583,62,70
94.622,54.243,62,70
94.104,54.442,62,70
94.622,55.861,62,70
95.926,55.238,62,70
96.604,55.322,62,70
97.22,56.115,62,70
96.804,56.366,62,70
97.018,57.858,62,70
97.229,56.515,62,70
97.461,56.827,62,70
97.261,55.989,62,70
96.719,57.801,62,70
97.095,56.728,62,70
96.718,57.408,62,70
96.537,58.389,62,70
96.141,57.567,62,70
95.688,57.099,62,70
94.331,56.751,62,70
95.113,57.38,62,70
94.457,55.725,62,70
93.8,56.359,62,70
92.02,57.327,62,70
92.145,58.25,62,70
90.849,58.042,62,70
90.688,56.852,62,70
90.672,56.988,62,70
88.39,57.89,62,70
88.751,57.16,62,70
86.553,56.041,62,70
86.218,56.869,62,70
85.302,57.574,62,70
84.941,57.549,62,70
84.507,55.766,62,70
83.622,57.002,62,70
83.665,56.295,62,70
83.144,56.278,62,70
82.984,55.742,62,70
82.877,56.142,62,70
81.535,56.653,62,70
82.475,55.37,62,70
81.345,55.791,62,70
81.374,56.566,62,70
80.762,55.801,62,70
80.524,55.992,62,70
80.821,56.701,62,70
81.413,56.727,62,70
79.878,56.532,62,70
80.414,55.615,62,70
81.448,56.158,62,70
80.604,57.259,62,70
80.086,56.386,62,70
80.009,56.508,62,70
78.698,55.772,62,70
79.544,56.274,62,70
79.572,55.161,62,70
78.7,56.83,62,70
79.302,56.731,62,70
79.991,55.857,62,70
79.499,56.727,62,70
79.786,56.447,62,70
79.926,56.439,62,70
79.658,54.861,62,70
80.499,57.405,62,70
80.882,56.814,62,70
80.965,56.8,62,70
80.782,56.421,62,70
80.13,57.615,62,70
81.334,55.409,62,70
82.557,57.287,62,70
81.402,56.68,62,70
81.04,56.287,62,70
82.177,56.312,62,70
82.822,57.181,62,70
84.171,56.954,62,70
84.638,56.61,62,70
83.795,56.963,62,70
85.081,56.934,62,70
85.363,56.233,62,70
85.243,56.742,62,70
85.409,56.762,62,70
85.771,56.888,62,70
85.839,56.938,62,70
85.482,56.738,62,70
86.787,55.161,62,70
86.209,56.655,62,70
86.929,56.218,62,70
87.126,55.464,62,70
86.39,56.353,62,70
86.988,56.514,62,70
86.887,56.125,62,70
86.789,56.021,62,70
85.73,56.656,62,70
83.874,56.903,62,70
84.321,56.297,62,70
83.786,57.368,62,70
82.197,58.22,62,70
81.466,56.929,62,70
81.854,57.977,62,70
81.685,56.177,62,70
81.927,58.698,62,70
80.483,58.56,62,70
79.039,58.175,62,70
82.539,57.619,62,70
80.914,57.054,62,70
81.234,57.746,62,70
83.357,56.119,62,70
83.237,57.303,62,70
83.685,56.167,62,70
84.802,56.175,62,70
86.391,56.614,62,70
86.24,55.477,62,70
85.742,55.811,62,70
86.697,55.698,62,70
86.56,55.209,62,70
85.687,55.905,62,70
85.796,54.315,62,70
85.635,55.592,62,70
85.589,54.93,62,70
84.146,54.548,62,70
83.872,55.089,62,70
83.56,55.553,62,70
83.016,56.06,62,70
82.585,54.896,62,70
81.925,54.781,62,70
80.833,54.976,62,70
79.777,55.082,62,70
79.036,54.483,62,70
78.024,54.626,62,70
77.784,55.909,62,70
77.457,54.97,62,70
76.456,54.751,62,70
75.394,54.958,62,70
76.312,54.005,62,70
75.702,54.333,62,70
75.723,54.784,62,70
75.474,54.389,62,70
75.914,54.641,62,70
75.287,54.805,62,70
75.535,53.867,62,70
76.512,54.359,62,70
76.137,53.725,62,70
77.606,53.921,62,70
78.547,54.246,62,70
78.715,53.741,62,70
80.698,53.272,62,70
80.689,53.936,62,70
83.018,54.203,62,70
84.501,53.412,62,70
86.518,54.28,62,70
87.841,54.463,62,70
89.226,54.482,62,70
90.799,55.397,62,70
92.261,54.482,62,70
93.579,55.284,62,70
94.841,55.778,62,70
93.998,54.453,62,70
95.403,54.492,62,70
96.177,55.44,62,70
96.013,55.481,62,70
96.096,56.45,62,70
94.808,55.335,62,70
93.37,56.053,62,70
93.102,55.322,62,70
92.185,54.271,62,70
90.513,53.37,62,70
89.467,52.78,62,70
86.836,53.096,62,70
85.43,53.571,62,70
84.434,52.895,62,70
81.79,52.124,62,70
81.738,53.256,62,70
79.165,52.676,62,70
78.545,52.935,62,70
77.017,51.995,62,70
75.93,52.657,62,70
76.237,51.831,62,70
75.038,50.84,62,70
74.912,50.766,62,70
74.843,50.813,62,70
74.71,51.139,62,70
75.996,49.675,62,70
76.061,49.136,62,70
76.812,48.784,62,70
77.502,47.501,62,70
78.97,47.63,62,70
80.178,47.494,62,70
81.045,46.663,62,70
83.398,46.674,62,70
85.324,46.421,62,70
87.104,46.199,62,70
90.606,46.917,62,70
93.939,46.608,62,70
96.604,46.957,62,70
101.62,47.719,62,70
105.61,47.398,62,70
111.99,48.958,62,70
117,48.661,62,70
122.54,49.291,62,70
129.04,48.576,62,70
135.04,47.944,62,70
140.18,46.422,62,70
145.94,47.835,62,70
152.07,46.87,62,70
156.4,45.124,62,70
161.6,46.08,62,70
165.12,45.889,62,70
169.18,45.661,62,70
173.46,45.063,62,70
177.18,46.149,62,70
180.23,45.905,62,70
183.14,45.091,62,70
185.13,45.435,62,70
186.95,46.227,62,70
188.66,44.903,62,70
189.49,45.865,62,70
192.38,45.183,62,70
192.29,45.966,62,70
191.93,45.71,62,70
191.37,45.56,62,70
191.79,46.103,62,70
191.43,45.679,62,70
188.73,45.211,62,70
189.03,46.321,62,70
187.04,46.343,62,70
185.35,47.444,62,70
183.24,48.568,62,70
180.75,46.693,62,70
178.26,47.897,62,70
174.87,47.826,62,70
171.59,48.229,62,70
168.98,47.551,62,70
164.51,48.366,62,70
160.64,48.008,62,70
156.54,48.541,62,70
152.04,48.782,62,70
147.3,48.39,62,70
142.59,48.96,62,70
137.98,49.907,62,70
132.04,49.915,62,70
127.26,48.974,62,70
122.69,49.795,62,70
118.65,50.897,62,70
113.45,51.059,62,70
109.13,50.219,62,70
105.42,52.09,62,70
101.24,52.121,62,70
98.081,51.561,62,70
95.878,52.838,62,70
93.607,52.361,62,70
91.092,52.703,62,70
89.155,52.924,62,70
86.535,53.245,62,70
85.958,52.531,62,70
83.66,53.165,62,70
82.728,52.596,62,70
82.74,53.363,62,70
81.639,53.077,62,70
81.321,53.513,62,70
81.231,53.09,62,70
81.383,52.929,62,70
82.423,52.779,62,70
81.89,52.749,62,70
83.299,52.277,62,70
84.146,52.959,62,70
85.141,53.134,62,70
87.737,52.637,62,70
88.575,53.253,62,70
90.96,54.349,62,70
93.248,53.624,62,70
95.413,53.884,62,70
98.586,53.549,62,70
101.52,54.582,62,70
105.05,55.594,62,70
109.38,54.847,62,70
113.41,55.105,62,70
117.93,55.284,62,70
122.58,55.914,62,70
126.34,56.658,62,70
131.8,55.706,62,70
135.93,56.309,62,70
141.1,56.337,62,70
145.82,55.284,62,70
151.1,55.561,62,70
155.57,55.024,62,70
160.2,55.908,62,70
165,56.877,62,70
168.81,56.289,62,70
172.53,56.746,62,70
175.47,57.329,62,70
180.85,56.852,62,70
183.55,57.138,62,70
186.28,57.566,62,70
189.52,57.234,62,70
191.72,56.313,62,70
194.62,57.438,62,70
197.22,57.957,62,70
197.76,57.605,62,70
200.6,57.846,62,70
201.45,58.003,62,70
202.87,57.801,62,70
202.88,58.037,62,70
204.1,57.108,62,70
204.1,57.622,62,70
205.13,57.35,62,70
202.88,56.623,62,70
204.22,57.38,62,70
203.21,57.148,62,70
201.65,56.88,62,70
201.19,56.879,62,70
201.46,57.132,62,70
198.52,56.996,62,70
197.55,56.315,62,70
195.76,56.267,62,70
194.71,54.754,62,70
191.91,55.897,62,70
189.57,55.322,62,70
189.54,55.047,62,70
185.41,55.857,62,70
183.99,53.631,62,70
181.25,53.996,62,70
176.97,54.698,62,70
176.45,54.33,62,70
173.15,53.629,62,70
170.72,52.839,62,70
167.05,53.961,62,70
164.58,54.156,62,70
162.46,52.793,62,70
158.99,52.631,62,70
156.39,52.15,62,70
152.95,51.824,62,70
151.56,51.333,62,70
148.48,50.701,62,70
145.43,50.973,62,70
143.14,52.266,62,70
140.33,51.191,62,70
139.5,51.07,62,70
137.7,50.679,62,70
136.24,51.769,62,70
134.79,52.306,62,70
133.57,52.082,62,70
131.67,52.157,62,70
132.04,50.904,62,70
130.21,51.442,62,70
130.43,51.099,62,70
128.62,50.633,62,70
129.97,49.778,62,70
128.96,50.55,62,70
129.89,50.23,62,70
130.36,51.073,62,70
130.74,51.363,62,70
131.6,51.824,62,70
132.25,51.33,62,70
134.34,51.165,62,70
134.35,49.288,62,70
136.02,49.989,62,70
137.95,51,62,70
140.32,51.259,62,70
142.48,47.939,62,70
145.05,49.125,62,70
148.25,49.029,62,70
151.77,48.99,62,70
155.04,48.58,62,70
158.91,47.843,62,70
161.88,46.689,62,70
165.57,46.83,62,70
169.79,45.799,62,70
173.14,46.489,62,70
178.7,44.976,62,70
181.84,44.84,62,70
184.7,45.426,62,70
190.69,43.258,62,70
193.92,44.213,62,70
196.62,43.92,62,70
201.53,43.96,62,70
204.83,44.662,62,70
207.29,44.659,62,70
212.87,44.331,62,70
215.25,43.979,62,70
217.11,43.784,62,70
219.06,44.081,62,70
222.58,43.855,62,70
224.64,45.538,62,70
227.32,44.198,62,70
228.6,44.859,62,70
228.25,44.128,62,70
229.73,43.927,62,70
232.86,45.501,62,70
231.2,43.478,62,70
230.15,44.135,62,70
230.12,43.883,62,70
229.8,44.737,62,70
228.65,43.379,62,70
227.64,43.813,62,70
226.35,44.896,62,70
225.93,44.619,62,70
222.89,44.152,62,70
220.89,43.96,62,70
217.54,43.228,62,70
215.62,41.235,62,70
212.68,42.664,62,70
209.94,41.842,62,70
205.68,40.663,62,70
201.94,40.831,62,70
197.81,40.844,62,70
193.09,38.883,62,70
190.3,38.095,62,70
184.72,38.044,62,70
181.21,37.798,62,70
176.96,37.972,62,70
173.55,36.818,62,70
169.97,37.73,62,70
165.49,37.267,62,70
162.55,38.736,62,70
158.34,37.526,62,70
155.83,37.816,62,70
151.2,38.358,62,70
149.27,37.368,62,70
146.43,38.618,62,70
143.76,37.838,62,70
140.31,39.19,62,70
140.88,38.287,62,70
138.22,37.607,62,70
136.32,38.201,62,70
134.85,39.138,62,70
134.8,40.272,62,70
134.71,40.52,62,70
133.97,40.474,62,70
134.28,40.632,62,70
134.42,40.284,62,70
135.21,40.906,62,70
134.94,42.327,62,70
136.48,42.586,62,70
137.67,43.2,62,70
138.98,43.812,62,70
140.15,44.32,62,70
141.07,45.071,62,70
143.72,44.828,62,70
145.73,45.117,62,70
146.97,45.806,62,70
148.75,47.008,62,70
149.57,48.201,62,70
150.69,49.925,62,70
152.3,49.898,62,70
151.08,49.726,62,70
153.06,49.953,62,70
154.4,51.418,62,70
153.85,51.786,62,70
154.5,51.862,62,70
154.77,52.465,62,70
154.48,52.508,62,70
154.24,52.703,62,70
155.05,53.237,62,70
152.88,53.427,62,70
153.53,53.631,62,70
153.01,53.622,62,70
152.5,52.477,62,70
151.4,53.926,62,70
149.9,53.346,62,70
147.76,53.227,62,70
147.15,53.901,62,70
145.01,53.752,62,70
142.68,53.372,62,70
139.98,53.994,62,70
138.74,54.723,62,70
136.16,54.914,62,70
134.37,54.168,62,70
130.6,55.692,62,70
128.8,55.457,62,70
124.04,56.207,62,70
121.49,57.39,62,70
118.14,57.084,62,70
115.37,57.802,62,70
112.51,57.432,62,70
108.55,59.019,62,70
106.4,59.832,62,70
103.64,60.474,62,70
100.79,60.181,62,70
99.011,61.542,62,70
94.697,61.543,62,70
94.482,61.495,62,70
92.301,61.779,62,70
90.365,61.257,62,70
89.594,62.315,62,70
89.044,62.023,62,70
87.116,60.198,62,70
86.537,61.243,62,70
86.48,62.017,62,70
84.596,61.138,62,70
85.468,61.703,62,70
84.239,61.185,62,70
83.331,61.561,62,70
84.594,60.984,62,70
84.769,61.341,62,70
84.448,61.702,62,70
85.423,61.139,62,70
85.779,61.092,62,70
86.419,60.658,62,70
87.285,60.25,62,70
88.811,59.918,62,70
88.679,59.284,62,70
90.432,59.521,62,70
93.652,59.392,62,70
93.608,59.37,62,70
95.106,58.765,62,70
95.036,60.032,62,70
98.525,58.483,62,70
100,58.941,62,70
102.76,59.299,62,70
103.92,56.933,62,70
106.2,58.59,62,70
107.61,59.161,62,70
110.38,58.502,62,70
113.4,58.968,62,70
116.13,56.83,62,70
117.65,57.786,62,70
119.67,57.991,62,70
122.71,58.776,62,70
125.44,58.848,62,70
127.38,59.341,62,70
129.49,59.76,62,70
132.6,58.554,62,70
133.99,59.859,62,70
138.12,59.119,62,70
139.87,60.932,62,70
141.3,61.416,62,70
142.2,61.306,62,70
144.42,60.865,62,70
146.2,60.478,62,70
146.84,61.307,62,70
149.16,60.95,62,70
149.36,60.688,62,70
149.21,60.857,62,70
150.83,60.694,62,70
151.89,60.407,62,70
151.83,60.356,62,70
152.13,60.386,62,70
151.31,60.902,62,70
151.45,60.243,62,70
150.94,60.292,62,70
149.68,60.655,62,70
149.67,59.028,62,70
148.67,59.405,62,70
149.23,59.469,62,70
146.98,59.02,62,70
144.41,58.167,62,70
144.41,58.215,62,70
143.48,57.615,62,70
142.53,55.862,62,70
140.68,56.149,62,70
138.61,55.576,62,70
137.76,56.352,62,70
137.01,55.38,62,70
134.59,55.058,62,70
133.54,54.807,62,70
132.11,54.986,62,70
130.04,55.172,62,70
129.94,54.905,62,70
127.7,55.336,62,70
126.62,54.455,62,70
127.13,53.474,62,70
125.25,53.405,62,70
125.3,53.981,62,70
125.32,53.096,62,70
124.8,54.227,62,70
124.94,52.408,62,70
124.06,53.569,62,70
125.35,53.355,62,70
124.84,53.813,62,70
125.54,52.563,62,70
126.98,53.682,62,70
127.92,53.196,62,70
129.28,54.275,62,70
129.44,53.35,62,70
132.1,53.959,62,70
133.27,52.764,62,70
134.84,52.962,62,70
137.71,52.962,62,70
139.43,51.187,62,70
142.53,51.373,62,70
145.53,52.116,62,70
147.59,51.24,62,70
151.47,51.152,62,70
155.57,50.384,62,70
157.83,48.792,62,70
160.46,48.698,62,70
164.19,49.834,62,70
167.86,47.928,62,70
170.59,47.952,62,70
173.88,47.831,62,70
178.12,47.667,62,70
181.82,47.693,62,70
184.05,47.835,62,70
187.41,47.534,62,70
190.45,46.869,62,70
193.56,46.59,62,70
195.77,45.8,62,70
199.71,46.306,62,70
201.86,46.761,62,70
203.46,46.447,62,70
205.46,48.114,62,70
208.23,48.019,62,70
210.49,47.788,62,70
210.45,47.682,62,70
212.88,47.756,62,70
214.17,47.226,62,70
214.74,47.543,62,70
216.08,46.837,62,70
215.93,46.998,62,70
216.91,47.017,62,70
217.29,47.486,62,70
217.06,47.418,62,70
216.77,47.437,62,70
217.53,45.64,62,70
216.78,44.849,62,70
216.61,45.257,62,70
215.75,46.291,62,70
215.13,46.18,62,70
213.31,45.482,62,70
213.13,46.281,62,70
212.15,45.003,62,70
209.76,45.173,62,70
207.25,44.842,62,70
205.06,43.313,62,70
202.53,43.557,62,70
199.39,42.861,62,70
198.18,42.934,62,70
194.27,41.527,62,70
191.48,41.735,62,70
188.35,42.119,62,70
184.94,40.904,62,70
181.06,40.971,62,70
178.61,40.151,62,70
174.49,39.846,62,70
170.25,39.64,62,70
166.5,39.313,62,70
161.85,39.247,62,70
160.03,37.572,62,70
155.61,39.724,62,70
153.11,38.534,62,70
148.72,38.222,62,70
145.22,37.392,62,70
142.99,37.901,62,70
140.13,39.061,62,70
136.94,38.96,62,70
133.66,37.228,62,70
132.38,40.539,62,70
128.85,39.928,62,70
127.17,38.911,62,70
124.48,38.292,62,70
122.74,40.002,62,70
120.47,39.396,62,70
119.63,39.264,62,70
118.35,39.816,62,70
115.75,39.247,62,70
115.53,39.208,62,70
114.38,40.227,62,70
114.12,40.655,62,70
113.17,39.411,62,70
112.8,38.856,62,70
112.57,39.437,62,70
114.07,39.121,62,70
113.92,39.262,62,70
112.63,38.59,62,70
114.67,38.811,62,70
116.46,37.291,62,70
116.48,38.902,62,70
116.93,37.568,62,70
118.65,37.594,62,70
119.75,38.993,62,70
119.6,39.559,62,70
120.28,39.384,62,70
121.77,39.87,62,70
123.84,39.519,62,70
125.62,39.903,62,70
126.27,42.535,62,70
128.28,42.238,62,70
128.93,43.33,62,70
130.96,43.242,62,70
130.89,44.029,62,70
132.55,44.22,62,70
132.04,44.837,62,70
132.71,45.145,62,70
134.58,45.912,62,70
134.14,46.518,62,70
132.93,45.286,62,70
133.88,46.036,62,70
134.39,46.534,62,70
134.2,45.745,62,70
133.99,47.148,62,70
131.62,45.55,62,70
130.55,46.777,62,70
129.47,47.317,62,70
127.06,46.03,62,70
124.72,45.756,62,70
124.31,47.209,62,70
120.4,47.203,62,70
118.19,47.948,62,70
114.6,46.408,62,70
111.43,47.511,62,70
108.02,47.641,62,70
103.55,48.221,62,70
99.872,48.451,62,70
95.15,49.153,62,70
90.794,47.754,62,70
86.597,48.292,62,70
81.94,49.493,62,70
77.344,49.518,62,70
74.527,49.751,62,70
69.081,50.209,62,70
65.214,50.265,62,70
63.028,51.213,62,70
58.016,51.808,62,70
55.714,51.367,62,70
54.07,51.611,62,70
52.993,53.145,62,70
51.104,52.923,62,70
50.039,52.486,62,70
47.698,51.882,62,70
47.435,52.823,62,70
47.753,53.279,62,70
48.385,53.349,62,70
48.047,51.842,62,70
49.324,53.362,62,70
49.266,53.171,62,70
49.193,53.5,62,70
50.195,52.815,62,70
51.9,52.452,62,70
54.379,53.946,62,70
55.093,53.922,62,70
57.413,55.018,62,70
60.57,53.793,62,70
61.86,54.166,62,70
65.536,54.801,62,70
66.779,54.351,62,70
69.724,55.151,62,70
72.901,55.828,62,70
77.192,55.758,62,70
80.662,57.177,62,70
82.703,57.276,62,70
87.318,56.597,62,70
90.454,57.29,62,70
94.481,58.693,62,70
96.97,58.238,62,70
100.68,59.083,62,70
103.06,59.355,62,70
105.48,58.156,62,70
108.57,60.342,62,70
111.96,60.782,62,70
112.44,61.126,62,70
114.14,61.906,62,70
117.28,61.458,62,70
119.99,62.028,62,70
119.95,61.832,62,70
121.78,62.072,62,70
121.36,61.417,62,70
121.93,61.431,62,70
122.26,62.912,62,70
123.68,63.05,62,70
124.85,62.776,62,70
123.13,63.193,62,70
123.19,63.364,62,70
122.89,63.57,62,70
120.54,63.854,62,70
122.27,63.311,62,70
121.5,63.832,62,70
120.04,62.673,62,70
120.08,63.897,62,70
118.07,64.788,62,70
117.04,63.561,62,70
118.57,65.249,62,70
117.39,64.433,62,70
117.3,66.381,62,70
117.63,66.289,62,70
118.4,67.815,62,70
117.5,68.654,62,70
118.6,67.66,62,70
119.36,68.226,62,70
118.94,66.938,62,70
120,67.029,62,70
121.36,66.925,62,70
123.35,68.132,62,70
124.41,66.876,62,70
124.82,66.19,62,70
127.22,67.145,62,70
130.48,67.287,62,70
134.14,65.008,62,70
134.23,65.605,62,70
137.19,65.749,62,70
141.34,64.387,62,70
143.91,65.098,62,70
147.42,64.056,62,70
151.39,63.325,62,70
155.04,64.885,62,70
158.95,65.175,62,70
162.53,65.422,62,70
165.94,64.36,62,70
169.98,63.805,62,70
174.09,63.689,62,70
175.37,64.829,62,70
180.08,64.358,62,70
182.61,63.835,62,70
185,63.718,62,70
187.49,64.521,62,70
190.54,64.089,62,70
192.26,64.212,62,70
194.77,63.76,62,70
196.55,64.136,62,70
199.18,63.68,62,70
200.68,62.767,62,70
201.38,64.544,62,70
203.59,62.534,62,70
203.33,63.678,62,70
204.02,64.272,62,70
203.46,63.71,62,70
204.05,64.065,62,70
204.21,63.205,62,70
203.45,63.734,62,70
203.73,64.311,62,70
202.65,63.246,62,70
202.39,63.513,62,70
201.1,63.308,62,70
199.87,62.928,62,70
199.5,63.43,62,70
197.15,61.669,62,70
195.03,62.181,62,70
194.12,60.566,62,70
190.68,60.219,62,70
188.64,60.307,62,70
186.44,59.031,62,70
183.39,58.171,62,70
180.34,58.039,62,70
177.52,56.864,62,70
174.87,55.811,62,70
171.36,54.931,62,70
168.61,55.16,62,70
165.21,54.667,62,70
162.57,53.741,62,70
161.36,54.545,62,70
158.82,54.657,62,70
156.78,54.359,62,70
154.37,53.661,62,70
152.39,53.49,62,70
150.69,53.729,62,70
149.79,54.06,62,70
148.06,53.497,62,70
146.91,53.514,62,70
145.68,53.614,62,70
145.45,53.61,62,70
144,53.348,62,70
143.91,53.616,62,70
144.08,52.785,62,70
144.32,53.825,62,70
143.73,53.534,62,70
144.92,54.281,62,70
145.65,53.934,62,70
145.57,53.935,62,70
147.03,52.958,62,70
147.69,53.34,62,70
149.7,52.927,62,70
148.73,51.545,62,70
151.12,51.441,62,70
152.8,51.959,62,70
153.67,50.758,62,70
156.1,49.59,62,70
156.91,49.237,62,70
159.77,47.876,62,70
161.61,47.692,62,70
164.32,46.189,62,70
165.58,44.347,62,70
168.79,44.377,62,70
170.72,43.487,62,70
172.04,44.056,62,70
173.14,43.448,62,70
176.53,42.658,62,70
176.64,42.203,62,70
180.02,42.113,62,70
181.58,41.999,62,70
182.23,41.472,62,70
183.53,41.108,62,70
184.78,40.366,62,70
186.26,41.9,62,70
187.12,39.975,62,70
188.49,41.255,62,70
189.3,38.945,62,70
187.53,38.839,62,70
188.92,40.04,62,70
187.79,38.27,62,70
189.02,37.822,62,70
188.4,37.855,62,70
187.74,38.104,62,70
184.86,38.376,62,70
184.09,37.023,62,70
181.51,37.989,62,70
179.14,38.452,62,70
177.11,37.232,62,70
174.78,37.862,62,70
171.87,36.752,62,70
168.23,38.001,62,70
164.7,35.872,62,70
161.95,35.023,62,70
156.18,34.202,62,70
153.92,34.892,62,70
150.13,34.721,62,70
147.32,35.163,62,70
141.96,33.753,62,70
139.52,34.225,62,70
136.36,33.796,62,70
134.4,33.191,62,70
130.68,32.083,62,70
130.74,34.623,62,70
127.03,34.625,62,70
125.48,34.489,62,70
123.32,34.173,62,70
122.92,35.519,62,70
121.88,33.952,62,70
121.62,34.992,62,70
120.18,36.692,62,70
121.11,36.136,62,70
121.4,38.473,62,70
120.44,38.236,62,70
122.39,39.849,62,70
123.46,41.129,62,70
123.65,42.409,62,70
124.75,42.986,62,70
124.37,46.148,62,70
124.4,46.317,62,70
125.33,46.954,62,70
126.79,48.27,62,70
127.34,46.34,62,70
126.61,46.841,62,70
127.24,46.021,62,70
125.47,47.177,62,70
125.51,47.063,62,70
123.11,47.709,62,70
123.65,48.088,62,70
123.36,47.569,62,70
121.11,47.423,62,70
120.23,47.179,62,70
119.02,47.632,62,70
116.84,47.893,62,70
115.96,46.479,62,70
113.91,49.191,62,70
111.48,48.944,62,70
108.49,50.158,62,70
107.11,49.924,62,70
104.52,50.22,62,70
102.63,51.972,62,70
99.641,51.465,62,70
96.747,52.048,62,70
93.355,52.557,62,70
90.175,53.619,62,70
88.432,54.29,62,70
85.756,54.894,62,70
82.553,54.89,62,70
80.844,55.309,62,70
78.295,56.755,62,70
76.938,58.016,62,70
74.959,56.922,62,70
74.195,58.084,62,70
71.093,57.264,62,70
71.019,57.489,62,70
70.557,57.004,62,70
69.476,56.872,62,70
67.819,57.163,62,70
67.733,56.271,62,70
68.049,56.755,62,70
67.701,56.481,62,70
68.344,57.233,62,70
68.761,56.396,62,70
69.276,57.091,62,70
70.029,56.364,62,70
71.93,55.411,62,70
72.525,56.217,62,70
74.516,56.761,62,70
76.671,56.357,62,70
78.6,55.532,62,70
80.37,56.07,62,70
84.146,56.651,62,70
86.75,56.144,62,70
90.622,57.717,62,70
94.572,57.697,62,70
97.843,57.322,62,70
101.7,57.94,62,70
106.7,57.282,62,70
110.24,57.977,62,70
113.8,58.216,62,70
118.38,59.049,62,70
121.58,59.077,62,70
126.67,57.94,62,70
131.07,59.185,62,70
134.19,59.713,62,70
137.26,57.678,62,70
141.11,59.38,62,70
144.02,58.943,62,70
147.01,60.099,62,70
149.53,60.08,62,70
152.41,61.373,62,70
153.96,60.757,62,70
157.36,60.163,62,70
158.74,61.149,62,70
160.79,61.378,62,70
162.2,61.354,62,70
164.24,62.085,62,70
166.57,61.118,62,70
167.25,60.64,62,70
168.55,61.079,62,70
170.3,61.46,62,70
170.88,60.662,62,70
172.79,61.335,62,70
173.43,61.416,62,70
173.44,60.369,62,70
174.34,60.822,62,70
176.2,61.327,62,70
176.14,62.849,62,70
175.94,61.175,62,70
177.21,62.344,62,70
177.19,61.898,62,70
176.73,61.732,62,70
176.7,60.827,62,70
177.51,60.781,62,70
176.98,61.676,62,70
176.99,60.69,62,70
176.68,61.297,62,70
175.26,58.99,62,70
174.53,60.484,62,70
173.88,57.085,62,70
172.51,57.467,62,70
171.95,58.132,62,70
171.16,57.51,62,70
169.41,56.674,62,70
167.58,55.828,62,70
166.2,54.974,62,70
164.62,55.061,62,70
162.98,55.729,62,70
161.52,55.014,62,70
160.64,54.597,62,70
160.08,53.515,62,70
158.8,53.542,62,70
156.58,52.782,62,70
157.19,53.268,62,70
156.25,53.66,62,70
157.33,53.345,62,70
154.65,53.11,62,70
154.11,52.623,62,70
155.45,53.167,62,70
155.09,52.02,62,70
155.08,53.026,62,70
154.53,52.45,62,70
155.2,53.187,62,70
156.19,51.105,62,70
156.61,51.986,62,70
157.44,51.643,62,70
159.52,52.122,62,70
158.83,51.493,62,70
161.13,51.534,62,70
163.65,51.352,62,70
164.63,49.416,62,70
166.17,49.667,62,70
167.99,49.18,62,70
170.4,48.58,62,70
172.68,48.274,62,70
175.27,47.499,62,70
178.69,46.919,62,70
180.05,45.991,62,70
183.38,45.09,62,70
186.33,44.211,62,70
189.23,43.201,62,70
191.75,43.566,62,70
194.29,40.992,62,70
196.66,41.847,62,70
199.31,41.376,62,70
202.22,40.853,62,70
205.22,40.224,62,70
207.59,40.303,62,70
209.6,41.191,62,70
211.59,39.938,62,70
213.83,39.018,62,70
214.79,39.107,62,70
216.46,39.482,62,70
217.21,40.55,62,70
215.45,38.246,62,70
217.13,38.812,62,70
215.47,39.267,62,70
216.45,38.944,62,70
214.04,39.12,62,70
212.81,39.792,62,70
210.39,39.962,62,70
208.14,40.085,62,70
207.36,39.972,62,70
204.16,40.114,62,70
202.12,41.108,62,70
200.69,41.349,62,70
198.22,40.89,62,70
193.88,42.601,62,70
190.51,41.736,62,70
188.61,40.618,62,70
184.81,41.481,62,70
183.22,41.946,62,70
179.23,41.654,62,70
174.04,39.348,62,70
171.07,41.823,62,70
166.94,40.967,62,70
160.06,39.939,62,70
155.84,40.639,62,70
152.16,41.592,62,70
149.35,40.608,62,70
143.63,39.575,62,70
140.66,38.326,62,70
135.63,39.931,62,70
130.24,40.265,62,70
126.54,42.04,62,70
123.29,41.657,62,70
119.35,44.127,62,70
113.67,44.874,62,70
111.08,47.091,62,70
107.69,46.528,62,70
104.36,49.636,62,70
102.19,48.406,62,70
98.802,49.719,62,70
97.259,50.76,62,70
94.505,50.389,62,70
93.212,48.239,62,70
90.928,50.922,62,70
90.484,50.49,62,70
90.796,50.248,62,70
91.011,52.207,62,70
89.994,51.977,62,70
90.306,52.445,62,70
89.593,54.292,62,70
91.739,52.821,62,70
91.079,52.731,62,70
92.642,55.295,62,70
94.189,54.299,62,70
93.947,56.25,62,70
95.12,57.622,62,70
97.555,56.733,62,70
96.639,56.352,62,70
100.08,59.048,62,70
100.39,56.948,62,70
100.92,58.364,62,70
101.35,60.051,62,70
100.66,57.1,62,70
100.66,57.386,62,70
101.77,57.128,62,70
101.69,57.84,62,70
99.587,56.292,62,70
99.202,54.836,62,70
98.564,55.378,62,70
100.99,55.46,62,70
97.476,55.271,62,70
96.082,56.136,62,70
95.908,56.73,62,70
93.278,57.083,62,70
91.422,55.913,62,70
88.503,55.705,62,70
85.753,56.378,62,70
84.175,56.958,62,70
79.401,57.113,62,70
77.273,57.095,62,70
71.891,58.988,62,70
70.286,59.265,62,70
66.445,59.159,62,70
64.147,59.69,62,70
60.173,60.693,62,70
57.555,61.643,62,70
53.17,61.793,62,70
50.519,62.286,62,70
49.465,64.313,62,70
47.672,63.302,62,70
46.257,64.492,62,70
44.503,63.555,62,70
41.636,62.159,62,70
42.728,64.175,62,70
42.475,64.025,62,70
43.843,62.983,62,70
43.3,60.986,62,70
42.869,62.6,62,70
44.878,62.02,62,70
44.281,62.502,62,70
45.542,61.145,62,70
48.186,61.256,62,70
50.127,61.101,62,70
50.564,61.223,62,70
55.545,61.672,62,70
57.65,62.632,62,70
59.038,62.596,62,70
65.046,62.139,62,70
69.523,61.286,62,70
72.01,63.142,62,70
75.421,62.466,62,70
80.028,62.146,62,70
85.899,64.332,62,70
91.593,63.114,62,70
94.45,64.029,62,70
99.737,63.37,62,70
105.23,62.362,62,70
109.55,62.859,62,70
112.46,65.546,62,70
115.28,64.766,62,70
118.97,64.412,62,70
121.52,64.992,62,70
124.3,63.498,62,70
127.83,65.475,62,70
129.93,64.119,62,70
129.61,66.15,62,70
133.28,63.409,62,70
134.13,64.379,62,70
134.7,66.359,62,70
134.19,66.495,62,70
135.24,65.646,62,70
135.68,65.267,62,70
135.34,64.7,62,70
133.63,65.112,62,70
132.48,65.234,62,70
132.43,64.83,62,70
131.7,64.789,62,70
128.02,64.265,62,70
127.04,64.383,62,70
125.12,62.724,62,70
120.61,62.553,62,70
118.27,63.161,62,70
115.55,61.103,62,70
110.77,62.189,62,70
108.11,60.732,62,70
102.99,59.758,62,70
99.359,59.65,62,70
93.578,58.923,62,70
90.672,56.591,62,70
87.626,58.297,62,70
82.981,56.57,62,70
78.312,54.856,62,70
74.871,56.126,62,70
70.932,56.202,62,70
65.668,56.529,62,70
63.573,55.052,62,70
59.553,54.747,62,70
56.471,55.538,62,70
53.407,55.035,62,70
52.381,54.221,62,70
49.938,54.496,62,70
47.765,53.496,62,70
46.533,52.914,62,70
44.597,52.911,62,70
44.775,53.297,62,70
44.059,54.19,62,70
43.807,52.954,62,70
42.918,54.27,62,70
43.962,53.382,62,70
45.295,53.1,62,70
46.214,54.188,62,70
45.431,53.313,62,70
46.215,54.216,62,70
48.106,53.078,62,70
48.351,53.871,62,70
49.94,52.051,62,70
52.619,54.238,62,70
54.196,52.362,62,70
55.77,52.032,62,70
58.614,50.458,62,70
61.356,49.006,62,70
65.851,48.372,62,70
67.536,46.476,62,70
70.538,47.917,62,70
74.58,47.392,62,70
78.228,45.016,62,70
81.614,45.968,62,70
84.383,45.754,62,70
89.141,45.879,62,70
91.862,46.248,62,70
95.152,45.821,62,70
97.208,46.45,62,70
101.36,45.639,62,70
103.5,47.234,62,70
107.68,47.864,62,70
109.88,46.1,62,70
112.03,46.937,62,70
115.63,48.596,62,70
116.81,45.927,62,70
118.94,46.555,62,70
122.06,47.12,62,70
124.1,46.267,62,70
125.82,47.585,62,70
126.36,47.066,62,70
128.22,45.855,62,70
129.37,45.174,62,70
130.65,44.689,62,70
130.9,44.691,62,70
132.39,44.989,62,70
130,44.611,62,70
130.87,44.79,62,70
131.34,43.315,62,70
129.27,42.221,62,70
129.5,40.968,62,70
128.8,41.588,62,70
127.94,39.204,62,70
127.21,40.465,62,70
126.89,40.776,62,70
125.97,39.915,62,70
124.75,40.128,62,70
124.73,41.5,62,70
124.65,41.006,62,70
125.74,41.349,62,70
122.6,41.728,62,70
123.59,40.33,62,70
123.81,40.293,62,70
124.66,40.977,62,70
124.1,39.601,62,70
125.43,38.707,62,70
127.78,39.257,62,70
127.89,37.839,62,70
129.67,37.926,62,70
132.23,36.606,62,70
134.88,37.05,62,70
137.69,38.407,62,70
140.16,37.817,62,70
142.89,37.391,62,70
147.34,38.139,62,70
150.57,39.285,62,70
155.06,38.122,62,70
158.58,37.578,62,70
160.84,39.349,62,70
163.85,38.335,62,70
167.28,38.86,62,70
170.81,39.556,62,70
171.87,38.777,62,70
174.73,38.431,62,70
175.67,37.176,62,70
178.17,38.263,62,70
180.71,38.963,62,70
181.91,40.042,62,70
182.16,40.737,62,70
184.14,40.859,62,70
184.46,39.914,62,70
184.25,39.536,62,70
185.65,40.226,62,70
186.48,40.17,62,70
185.74,38.8,62,70
186.34,40.328,62,70
185.81,40.556,62,70
186.46,41.559,62,70
187.42,41.582,62,70
186.71,41.221,62,70
185.81,41.641,62,70
185.9,44.268,62,70
185.75,44,62,70
187.18,45.554,62,70
185.32,47.331,62,70
186.94,47.586,62,70
186.68,47.651,62,70
188.31,50.218,62,70
187.44,50.376,62,70
186.47,52.678,62,70
187.38,53.541,62,70
186.34,54.288,62,70
188.45,54.747,62,70
187.73,55.492,62,70
188.71,55.734,62,70
190.76,54.499,62,70
191.94,53.738,62,70
193.01,54.46,62,70
193.61,54.809,62,70
195.86,56.476,62,70
198.82,56.246,62,70
199.33,57.664,62,70
202.48,57.447,62,70
203.92,59.063,62,70
205.4,60.16,62,70
208.83,60.436,62,70
210.69,61.228,62,70
212.95,60.923,62,70
213.79,61.248,62,70
215.43,61.345,62,70
217.68,63.52,62,70
217.56,64.002,62,70
219.55,64.41,62,70
220.97,65.107,62,70
218.51,66.608,62,70
220.09,67.28,62,70
216.71,66.986,62,70
219.9,65.437,62,70
216.88,64.764,62,70
214.77,66.346,62,70
214.81,66.847,62,70
211.19,66.173,62,70
208.98,66.494,62,70
204.69,67.638,62,70
201.98,66.4,62,70
197.74,66.67,62,70
194.09,65.718,62,70
188,67.068,62,70
183.07,66.936,62,70
178.27,66.872,62,70
173.77,65.743,62,70
168.94,66.975,62,70
163.13,66.249,62,70
157.29,65.872,62,70
153.31,65.05,62,70
147.68,66.246,62,70
144.9,65.464,62,70
141.76,62.257,62,70
137.09,64.712,62,70
133.35,62.2,62,70
131.09,63.518,62,70
125.11,61.037,62,70
121.46,61.086,62,70
119.28,60.786,62,70
115.53,60.972,62,70
113.1,61.444,62,70
109.99,60.627,62,70
108.03,60.381,62,70
104.91,59.448,62,70
101.72,59.251,62,70
99.354,59.221,62,70
98.219,58.553,62,70
96.833,57.715,62,70
95.884,56.482,62,70
91.523,55.14,62,70
91.241,54.571,62,70
89.99,54.973,62,70
86.921,53.532,62,70
84.41,53.534,62,70
81.343,53.768,62,70
80.531,53.815,62,70
78.965,53.074,62,70
77.104,51.932,62,70
74.104,49.298,62,70
72.075,49.016,62,70
70.884,48.282,62,70
67.964,48.45,62,70
63.035,49.52,62,70
60.778,48.554,62,70
58.746,47.934,62,70
57.889,47.009,62,70
55.695,46.07,62,70
50.842,46.047,62,70
48.559,46.51,62,70
46.234,47.518,62,70
45.439,48.921,62,70
43.129,49.939,62,70
39.831,51.63,62,70
36.786,52.81,62,70
31.533,52.67,62,70
31.654,56.004,62,70
28.87,56.721,62,70
27.817,57.839,62,70
25.37,59.261,62,70
21.909,59.202,62,70
19.859,58.274,62,70
15.947,60.117,62,70
14.9,60.611,62,70
