213,121,21,95
213.31,119.22,21,95
212.04,117.56,21,95
209.73,112.76,21,95
208.43,114.92,21,95
207.95,111.66,21,95
207.84,110.24,21,95
208.02,110.41,21,95
209.24,105.99,21,95
210.37,110.11,21,95
211.56,108.71,21,95
215.42,108.8,21,95
217.74,108.26,21,95
219.29,109.51,21,95
220,107.66,21,95
218.98,104.06,21,95
218.35,108.41,21,95
217.13,104.93,21,95
214.83,102.14,21,95
213.94,102.86,21,95
213.8,102.72,21,95
213.9,99.327,21,95
215.64,100.88,21,95
216.1,101.56,21,95
218.15,97.884,21,95
219.7,96.544,21,95
219.26,95.449,21,95
220.21,93.362,21,95
218.96,92.52,21,95
218.49,92.74,21,95
219.53,93.911,21,95
220.94,88.493,21,95
220.87,95.137,21,95
223.24,93.714,21,95
223.14,92.18,21,95
223.99,95.043,21,95
223.47,93.138,21,95
222.91,89.003,21,95
223.36,93.029,21,95
224.21,90.314,21,95
224.22,95.126,21,95
223.98,94.911,21,95
223.47,100.49,21,95
223.52,101.22,21,95
224.2,102.45,21,95
224.18,106.38,21,95
224.01,108.72,21,95
224.24,107.01,21,95
222.31,106.93,21,95
218.77,108.48,21,95
216.1,104.84,21,95
212.11,102.99,21,95
208.07,101.09,21,95
203.76,102.05,21,95
200.96,101.21,21,95
200.09,99.954,21,95
198.33,97.021,21,95
198.18,97.125,21,95
199.21,101.41,21,95
199.34,101.18,21,95
200.41,102.33,21,95
202.36,102.78,21,95
203.82,108.27,21,95
204.72,108.33,21,95
205.49,103.59,21,95
204.51,104.94,21,95
202.01,105.59,21,95
204.05,104.29,21,95
206.36,104.88,21,95
208.59,103.59,21,95
217.63,102.82,21,95
222.1,102.51,21,95
224.29,100.49,21,95
223.55,94.624,21,95
221,95.895,21,95
216.76,94.98,21,95
209.12,93.634,21,95
202.61,93.719,21,95
198.28,89.996,21,95
196.68,90.902,21,95
193.71,86.209,21,95
196.6,78.199,21,95
201.16,73.937,21,95
202.61,67.245,21,95
204.48,64.45,21,95
205.09,62.953,21,95
207.58,60.852,21,95
208.1,62.713,21,95
207.51,64.327,21,95
206.89,71.196,21,95
206.66,75.812,21,95
208.35,78.915,21,95
206.84,85.674,21,95
206.99,88.985,21,95
210.63,91.064,21,95
208.79,95.818,21,95
212.45,97.642,21,95
212.43,102.01,21,95
210.99,110.29,21,95
207.46,117.2,21,95
207.33,117.85,21,95
206.19,121.33,21,95
208.45,121.12,21,95
209.36,122.15,21,95
209.48,119.07,21,95
209.34,118.99,21,95
208.36,121.34,21,95
208.38,116.91,21,95
208.88,117.71,21,95
209.61,116.53,21,95
212.05,113.17,21,95
211.59,108.49,21,95
211.01,109.52,21,95
210.59,105.01,21,95
210.79,105.58,21,95
209.75,103.42,21,95
211.16,104.75,21,95
214.52,104.13,21,95
214.56,104.18,21,95
214.37,107.31,21,95
214.56,109.72,21,95
215.68,110.15,21,95
215.43,109.96,21,95
215.68,110.52,21,95
216.52,111.32,21,95
219.31,112.42,21,95
219.88,112.36,21,95
221.57,112.49,21,95
224.34,112.33,21,95
224.58,114.12,21,95
226.97,112.65,21,95
227.69,115.77,21,95
229.85,118.07,21,95
230.98,117.85,21,95
230.6,118.33,21,95
232.09,119.35,21,95
233.15,120.53,21,95
233.66,119.99,21,95
235.22,116.98,21,95
236.13,117.49,21,95
237.86,115.1,21,95
236.99,116.18,21,95
235.29,115.72,21,95
238.02,112.55,21,95
237.3,113.54,21,95
238.13,112.29,21,95
237.25,111.26,21,95
236.84,111.37,21,95
236.97,111.67,21,95
236.19,109.55,21,95
236.16,110.52,21,95
236.44,108.45,21,95
236.67,102.65,21,95
237.38,98.036,21,95
235.78,100.73,21,95
236.86,102.11,21,95
237.58,98.809,21,95
238.2,98.387,21,95
236.45,99.957,21,95
237.15,98.616,21,95
236.97,98.658,21,95
235.68,101.44,21,95
239.09,97.875,21,95
240.32,98.544,21,95
242.91,95.922,21,95
241.59,95.539,21,95
240.47,101.45,21,95
240.54,96.567,21,95
241.02,98.133,21,95
239.55,97.136,21,95
238.26,99.209,21,95
236.93,96.577,21,95
234.65,97.434,21,95
231.83,98.312,21,95
229.62,98.029,21,95
230.49,96.883,21,95
227.3,96.524,21,95
226.97,95.792,21,95
225.69,97.171,21,95
224.74,96.873,21,95
223.82,94.622,21,95
222.1,93.416,21,95
220.62,92.262,21,95
220.54,94.281,21,95
219.96,93.088,21,95
219.99,91.864,21,95
219.06,95.142,21,95
219.85,95.569,21,95
219.8,95.497,21,95
220.37,94.58,21,95
219.98,97.421,21,95
219.95,100.23,21,95
221.17,98.802,21,95
219.46,100.45,21,95
219.71,99.07,21,95
218.18,100.32,21,95
219.82,98.326,21,95
218.78,98.476,21,95
221.46,95.963,21,95
221.27,94.896,21,95
219.72,96.881,21,95
217.87,96.878,21,95
217.34,98.702,21,95
214.77,100.01,21,95
214.52,100.9,21,95
212.64,100.63,21,95
211.4,101.36,21,95
211.27,100.19,21,95
211.28,100.8,21,95
211.76,97.165,21,95
210.93,101.56,21,95
210.62,104.26,21,95
211.86,107.03,21,95
211.95,112.07,21,95
212.11,113.53,21,95
211.88,117.09,21,95
212.4,118.63,21,95
210.62,123.42,21,95
209.39,124.68,21,95
210.63,122.68,21,95
210.77,123.92,21,95
212.11,124.47,21,95
211.32,123.73,21,95
212.62,125.07,21,95
212.13,126.59,21,95
211.97,130.41,21,95
211.85,129.24,21,95
212.33,129.41,21,95
210.89,128.65,21,95
209.99,126.14,21,95
210.55,126.89,21,95
208.59,125.31,21,95
208.48,125.73,21,95
206.45,127.53,21,95
204.72,124.32,21,95
200.82,125.04,21,95
199.85,124.49,21,95
197.36,126.23,21,95
195.04,126.29,21,95
197.96,125.99,21,95
197.61,125.57,21,95
197.32,126.25,21,95
198.9,123.98,21,95
198.47,128.39,21,95
200.89,127.6,21,95
207.06,126.46,21,95
208.23,128.12,21,95
210.06,126.71,21,95
213.81,126.2,21,95
215.49,125.55,21,95
216.71,125.27,21,95
216.68,126.87,21,95
217.51,125.73,21,95
217.12,125.66,21,95
217.05,122.2,21,95
217.71,117.17,21,95
217.51,113.29,21,95
217.13,111.32,21,95
218.67,109.75,21,95
216.85,111.44,21,95
216.74,108.63,21,95
215.98,110.53,21,95
215.36,112.09,21,95
214.71,111.11,21,95
212.33,112.34,21,95
210.67,113.91,21,95
208.94,113.75,21,95
208.62,111.55,21,95
208.87,110.64,21,95
210.65,110.63,21,95
208.08,112.13,21,95
207.62,111.46,21,95
206.65,112.41,21,95
206.09,112.09,21,95
203.92,112.17,21,95
200.94,113.79,21,95
198.42,112.86,21,95
197.79,107.44,21,95
196.61,108.79,21,95
193.84,105.99,21,95
192.55,103.09,21,95
192.18,101.11,21,95
189.83,103.07,21,95
188.26,100.47,21,95
185.94,99.566,21,95
184.4,95.983,21,95
183.91,95.67,21,95
183.84,91.947,21,95
181.65,96.185,21,95
177.84,91.865,21,95
174.92,92.304,21,95
174.33,91.968,21,95
176.01,85.99,21,95
177.14,80.107,21,95
175.74,77.991,21,95
175.21,80.71,21,95
176.05,79.064,21,95
174.6,77.128,21,95
172.08,77.543,21,95
169.43,75.375,21,95
167.62,76.479,21,95
165.68,78.067,21,95
163.48,74.925,21,95
163.02,76.975,21,95
162.34,73.267,21,95
161.37,71.532,21,95
159.76,73.212,21,95
157.23,73.219,21,95
155.65,73.662,21,95
154.33,78.275,21,95
153.57,77.629,21,95
151.2,75.55,21,95
149.61,84.425,21,95
148.43,80.827,21,95
147.84,84.082,21,95
147.38,78.999,21,95
148.22,78.636,21,95
147.71,73.355,21,95
146.74,77.838,21,95
146.51,79.014,21,95
144.67,80.733,21,95
144.45,79.991,21,95
142.86,77.685,21,95
140.79,81.111,21,95
139.92,79.59,21,95
139.96,77.787,21,95
140.47,78.387,21,95
141.15,74.324,21,95
140.14,78.489,21,95
142.07,77.855,21,95
142.02,78.444,21,95
141.98,82.6,21,95
142.35,87.545,21,95
144.32,87.606,21,95
144.24,93.124,21,95
145.63,95.491,21,95
147.12,98.414,21,95
149.79,96.457,21,95
156.06,95.908,21,95
165.91,96.703,21,95
174.23,93.598,21,95
174.99,91.924,21,95
175.28,95.191,21,95
175.59,93.173,21,95
176.28,95.201,21,95
175.01,94.368,21,95
170.79,93.268,21,95
166.58,93.494,21,95
161.9,94.55,21,95
159.17,94.202,21,95
156.42,95.553,21,95
154.18,93.427,21,95
153.97,94.559,21,95
153.87,89.329,21,95
154.19,93.01,21,95
153.32,93.155,21,95
147.74,94.874,21,95
148.05,93.676,21,95
148.42,94.274,21,95
148.01,94.603,21,95
145.46,95.068,21,95
144.1,91.759,21,95
144.83,88.149,21,95
148.36,81.124,21,95
146.45,83.903,21,95
147.57,82.765,21,95
149.83,81.265,21,95
157.74,86.462,21,95
163.8,87.813,21,95
164.63,88.633,21,95
167.27,92.38,21,95
169.64,92.655,21,95
169.89,99.025,21,95
168.81,102.13,21,95
169.14,105.52,21,95
170.84,103.79,21,95
170.66,107.93,21,95
171.13,107.86,21,95
171.38,107.15,21,95
170.5,109.41,21,95
165.97,112.69,21,95
166.3,114.79,21,95
163.11,115.03,21,95
161,112.38,21,95
158.57,115,21,95
160.13,110.24,21,95
159.5,107.51,21,95
159.26,99.732,21,95
159.84,98.495,21,95
161.78,94.577,21,95
164.66,89.228,21,95
167.15,82.285,21,95
171.55,77.067,21,95
174.57,80.356,21,95
175.74,79.178,21,95
175.56,82.047,21,95
176.39,81.512,21,95
175.95,81.36,21,95
174.66,82.876,21,95
172.34,86.034,21,95
168.16,89.412,21,95
164.71,91.063,21,95
161.89,93.905,21,95
157.52,96.116,21,95
152.68,102.53,21,95
149.15,106.47,21,95
145.87,112.95,21,95
143.21,114.61,21,95
143.91,115.95,21,95
145.02,114.58,21,95
145.7,111.89,21,95
150.35,109.93,21,95
151.17,110.39,21,95
153.52,107.85,21,95
153.83,104.46,21,95
156.53,104.5,21,95
160.01,97.577,21,95
160.87,93.407,21,95
161.86,95.03,21,95
163.4,93.112,21,95
164.71,88.7,21,95
164.98,87.641,21,95
165.04,85.798,21,95
166.4,82.256,21,95
167,81.741,21,95
165.96,83.621,21,95
165.41,81.549,21,95
163.76,81.535,21,95
161.36,83.417,21,95
160.18,83.457,21,95
158.15,84.589,21,95
157.02,85.042,21,95
152.38,84.377,21,95
151.91,79.704,21,95
151.83,82.242,21,95
147.5,77.931,21,95
147.4,80.513,21,95
146.45,79.47,21,95
148.89,77.851,21,95
146.86,77.901,21,95
147.78,74.26,21,95
150.82,72.048,21,95
151.66,68.887,21,95
151.42,68.317,21,95
152.27,64.903,21,95
154.49,66.235,21,95
154.74,63.156,21,95
156.75,66.949,21,95
160.45,64.656,21,95
166,67.287,21,95
168.4,70.559,21,95
169.41,74.447,21,95
170.87,80.337,21,95
169.59,81.708,21,95
168.97,87.778,21,95
169.35,87.993,21,95
170.55,89.926,21,95
170.67,91.304,21,95
170.31,89.821,21,95
170.38,92.605,21,95
169.81,96.72,21,95
168.5,99.31,21,95
168,99.039,21,95
166.32,99.323,21,95
165.35,103.17,21,95
162.99,105.88,21,95
162.37,107.14,21,95
160.07,107.24,21,95
158.89,107.24,21,95
156.61,109.31,21,95
156.78,112.65,21,95
156,109.36,21,95
156.66,110.87,21,95
157.1,109.58,21,95
158.49,107.64,21,95
158.66,108.74,21,95
158.57,106.12,21,95
159.44,103.63,21,95
158.23,110.34,21,95
157.96,106.11,21,95
157.84,102.53,21,95
157.99,98.294,21,95
157.32,97.414,21,95
158.34,97.696,21,95
157.73,95.681,21,95
157.22,95.416,21,95
157.17,94.715,21,95
158.11,93.191,21,95
163.16,88.906,21,95
166.34,82.926,21,95
166.67,81.362,21,95
167.77,79.99,21,95
169.14,79.862,21,95
168.79,75.509,21,95
168.49,76.418,21,95
168.76,77.024,21,95
169.35,79.668,21,95
168.02,78.339,21,95
168.95,78.154,21,95
170.21,76.954,21,95
171.18,76.314,21,95
171.21,77.769,21,95
171.7,78.376,21,95
172.31,78.328,21,95
172.04,79.803,21,95
171.1,75.269,21,95
171.49,73.972,21,95
171.12,73.487,21,95
169.62,71.537,21,95
167.78,73.523,21,95
167.89,76.697,21,95
165.4,72.242,21,95
162.62,75.269,21,95
161.06,76.349,21,95
158.49,75.01,21,95
155.25,75.077,21,95
152.77,73.099,21,95
148.99,71.177,21,95
146.33,69.727,21,95
143.47,69.24,21,95
142.37,71.097,21,95
141.38,68.616,21,95
141.19,71.963,21,95
140.71,73.017,21,95
139.64,69.509,21,95
137.92,71.166,21,95
136.86,70.292,21,95
135.99,70.263,21,95
134.75,73.971,21,95
133.9,68.082,21,95
134.47,68.808,21,95
134.37,71.755,21,95
134.82,71.574,21,95
136.07,81.021,21,95
139.63,85.586,21,95
141.46,89.271,21,95
143.54,99.112,21,95
150.1,100.29,21,95
155.66,105.27,21,95
157.43,104.99,21,95
158.02,105.4,21,95
158.48,105.36,21,95
156.04,102.84,21,95
154.74,98.211,21,95
154.71,93.114,21,95
155.2,88.632,21,95
155.9,86.634,21,95
155.46,80.547,21,95
156.06,83.188,21,95
155.93,74.16,21,95
153.05,73.398,21,95
152.61,73.844,21,95
151.42,71.485,21,95
148.8,67.9,21,95
141.36,70.343,21,95
135.53,70.936,21,95
132.31,68.006,21,95
126.7,63.693,21,95
121.17,59.714,21,95
121.56,51.876,21,95
137.26,44.47,21,95
158.45,42.78,21,95
159.53,29.886,21,95
170.71,34.046,21,95
199.06,40.779,21,95
209.47,27.809,21,95
200.9,32.133,21,95
218.65,38.731,21,95
228.23,47.787,21,95
227.06,49.514,21,95
221.33,54.359,21,95
224.48,54.098,21,95
217.36,62.853,21,95
230.63,51.015,21,95
240.11,49.197,21,95
254.16,51.458,21,95
245.13,62.506,21,95
236.52,63.481,21,95
234.6,63.262,21,95
226.38,69.143,21,95
224.79,72.711,21,95
220.71,73.548,21,95
211.99,73.083,21,95
207.34,72.671,21,95
208.47,70.514,21,95
196.41,80.673,21,95
198.55,77.967,21,95
201.89,75.885,21,95
208.45,75.301,21,95
212.02,76.526,21,95
211.37,75.1,21,95
210.99,79.487,21,95
210.81,88.08,21,95
201.26,92.235,21,95
199.99,94.012,21,95
199.32,97.593,21,95
198.16,98.363,21,95
