405,256,122,148
407.14,255.45,122,148
408.43,255.17,122,148
410.81,252.44,122,148
414.23,247.6,122,148
419.19,245.58,122,148
422.79,243.92,122,148
422.91,237.01,122,148
423.98,233.88,122,148
417.29,230.29,122,148
407.96,222.64,122,148
401.33,217.68,122,148
393.49,209.49,122,148
387.75,200.94,122,148
375.83,194.14,122,148
364.68,195.13,122,148
356.05,191.12,122,148
347.54,191.54,122,148
341.57,189.87,122,148
337.5,189.66,122,148
334.52,190.07,122,148
327.13,190.11,122,148
325.5,189.62,122,148
320.96,189.32,122,148
314.94,187.07,122,148
309.52,183.96,122,148
303.32,180.91,122,148
295.73,176.62,122,148
286.08,170.64,122,148
274.26,163.01,122,148
272.4,156.93,122,148
269.05,144.9,122,148
268.95,132.81,122,148
270.1,123.46,122,148
271.62,106.34,122,148
277.02,94.652,122,148
283.05,86.37,122,148
288.24,80.162,122,148
296.41,68.19,122,148
305,57.714,122,148
309.4,51.314,122,148
306.34,53.493,122,148
304.39,55.043,122,148
303.89,58.573,122,148
301.95,61.423,122,148
299.17,65.706,122,148
293.43,69.708,122,148
287.59,73.699,122,148
283.2,80.035,122,148
278.83,85.634,122,148
269.92,88.81,122,148
261.64,91.898,122,148
258.64,95.176,122,148
252.15,98.895,122,148
252.5,100.94,122,148
250.68,102.21,122,148
252.46,105.07,122,148
249.51,106.24,122,148
249.54,103.44,122,148
248.86,104.73,122,148
245.92,103.81,122,148
244.12,104.91,122,148
245.49,106.5,122,148
245.74,104.45,122,148
244.97,103.73,122,148
245.89,99.577,122,148
250.07,99.374,122,148
251.09,95.819,122,148
250.87,91.365,122,148
248.5,90.139,122,148
247.88,87.082,122,148
250.51,86.146,122,148
249.64,85.194,122,148
250.67,84.485,122,148
251.13,81.282,122,148
250.9,84.665,122,148
250.33,83.543,122,148
253.09,82.468,122,148
254.14,80.554,122,148
253.77,82.612,122,148
257.69,82.665,122,148
259.87,82.149,122,148
264.06,82.804,122,148
268.49,82.413,122,148
272.58,81.028,122,148
281.85,82.168,122,148
285.84,80.097,122,148
292.05,82.349,122,148
297.2,81.891,122,148
301.08,77.776,122,148
303.56,79.202,122,148
306.61,74.136,122,148
309.53,69.694,122,148
311.27,67.032,122,148
309.65,66.588,122,148
311.11,65.728,122,148
314.78,63.244,122,148
318.98,64.848,122,148
320.95,66.081,122,148
319.34,68.743,122,148
320.32,72.551,122,148
315.78,76.629,122,148
317.56,81.698,122,148
314.07,88.393,122,148
309.73,95.028,122,148
305.82,105.8,122,148
295.18,119.06,122,148
289.17,132.49,122,148
286.5,142.01,122,148
279.87,149.64,122,148
274.12,161.4,122,148
267.75,169.43,122,148
264.38,179.65,122,148
256.51,187.06,122,148
246.75,194.14,122,148
240.56,202.58,122,148
231.69,210.95,122,148
226.6,214.18,122,148
219.61,222.11,122,148
215.6,229.23,122,148
213.17,234.51,122,148
212.16,234.67,122,148
212.95,235.45,122,148
214.4,236.47,122,148
221.47,234.3,122,148
227.45,233.4,122,148
228.94,234.27,122,148
235.82,238.3,122,148
243.23,239.27,122,148
252.26,241.46,122,148
260.63,247.36,122,148
269.17,247.23,122,148
278.86,252.61,122,148
288.05,255.39,122,148
298.5,254.03,122,148
305.06,252.49,122,148
312.07,245.62,122,148
320.16,242.57,122,148
321.51,233.4,122,148
326.18,224.92,122,148
323.29,221.23,122,148
321.58,216.04,122,148
315.98,209.99,122,148
307.69,204.48,122,148
293.22,203.64,122,148
281.64,201.73,122,148
273.29,194.9,122,148
260.03,192.86,122,148
242.34,188.44,122,148
228.21,189.12,122,148
215.22,184.02,122,148
206.99,178.37,122,148
188.82,177.51,122,148
177.93,170.47,122,148
167.96,164.79,122,148
165.63,159.16,122,148
166.22,150.81,122,148
168.49,146.05,122,148
169.38,142.84,122,148
171.03,142.01,122,148
175.97,138.58,122,148
176.99,134.07,122,148
183.53,135.69,122,148
185.32,131.29,122,148
192.34,128.69,122,148
192.47,125.5,122,148
191.69,123.91,122,148
192.78,123.78,122,148
195.98,122.56,122,148
195.9,126.38,122,148
196.42,125.05,122,148
201.17,124.45,122,148
209.54,131.81,122,148
213.39,136.72,122,148
220.31,141.8,122,148
225.67,146.67,122,148
232.1,150.04,122,148
238.47,148.02,122,148
238.33,144.75,122,148
245.58,142.44,122,148
241.1,142.23,122,148
240.26,134.54,122,148
241.49,128.71,122,148
239.69,120.79,122,148
235.81,112.35,122,148
236.77,100.28,122,148
238.66,87.661,122,148
241.72,78.956,122,148
238.7,67.848,122,148
235.23,54.395,122,148
237.59,43.456,122,148
240.49,36.084,122,148
245.66,30.558,122,148
257.94,24.63,122,148
270.49,28.663,122,148
284.22,33.361,122,148
297.42,38.37,122,148
311.61,47.311,122,148
321.9,52.203,122,148
331.1,53.657,122,148
343.71,62.813,122,148
350.77,67.984,122,148
358.31,73.35,122,148
366.41,75.624,122,148
368.39,81.605,122,148
374.78,88.67,122,148
374.52,96.168,122,148
371.72,99.336,122,148
363.68,112.1,122,148
358.41,118.59,122,148
346.2,125.39,122,148
336.82,126.48,122,148
326.65,127.69,122,148
319.03,130.12,122,148
312.17,131.1,122,148
303.81,132.57,122,148
294.59,135.98,122,148
288.46,141.05,122,148
276.19,140.84,122,148
260,144.87,122,148
253.88,145.04,122,148
243.16,142.28,122,148
233.65,145.13,122,148
221.82,152.85,122,148
212.89,154.74,122,148
199.77,164.2,122,148
188.43,173.7,122,148
178.4,178.17,122,148
172.7,183.25,122,148
162.77,190.74,122,148
151.38,202.7,122,148
140.58,210.28,122,148
130.86,210.77,122,148
127.04,214.7,122,148
117.85,212.39,122,148
116.12,213.53,122,148
112.93,217.89,122,148
111.08,214.66,122,148
108.66,211.84,122,148
110.09,204.7,122,148
113.12,200.62,122,148
113.97,199.44,122,148
117.01,200.83,122,148
122.77,201.96,122,148
128.28,204.78,122,148
137.85,202.93,122,148
139.46,202.77,122,148
144.59,206.27,122,148
151.12,201.65,122,148
152.85,208.05,122,148
159.09,210.48,122,148
159.35,213.08,122,148
158.63,215.47,122,148
158.97,215.41,122,148
158.17,223.41,122,148
158.05,223.57,122,148
159.16,218.58,122,148
158.86,220.24,122,148
158.89,220,122,148
156.6,220.19,122,148
158.18,223.03,122,148
157.83,222.33,122,148
161.2,220.09,122,148
164.26,218.28,122,148
163.02,218.07,122,148
168.07,215.37,122,148
167.56,212.12,122,148
170.73,207.6,122,148
168.35,204.16,122,148
172.53,200.48,122,148
176.92,192.82,122,148
179.53,189.73,122,148
181.08,177.72,122,148
185.4,175.85,122,148
192.59,170.17,122,148
203.11,158.99,122,148
206.07,155.08,122,148
210.38,154.78,122,148
215.62,150.49,122,148
221.2,147.43,122,148
225.67,146.97,122,148
227.86,143.02,122,148
233.32,144.73,122,148
232.11,141.76,122,148
233.37,145.08,122,148
232.35,142.1,122,148
234.94,137.01,122,148
236.88,136.96,122,148
235.95,139.1,122,148
238.96,139.49,122,148
236.91,139.52,122,148
241.35,140.34,122,148
239.94,141.76,122,148
237.83,140.7,122,148
233.9,141.07,122,148
228.19,143.89,122,148
227.59,142.46,122,148
223.54,142.77,122,148
224.38,144.1,122,148
228.25,148.67,122,148
227.2,152.2,122,148
227.12,157.41,122,148
230.44,162.66,122,148
230.92,164.59,122,148
237.45,169.46,122,148
237.73,172.57,122,148
242.11,177.68,122,148
243.83,180.12,122,148
243.19,182.95,122,148
243.88,181.86,122,148
245.1,181.36,122,148
248.54,176.1,122,148
244.62,180.96,122,148
244.68,177.87,122,148
241.35,175.69,122,148
241.89,170.44,122,148
253.24,169.4,122,148
258.1,168.43,122,148
262.59,167.64,122,148
261.49,170.53,122,148
273.1,177.22,122,148
280.88,176.45,122,148
287.74,185.1,122,148
285.03,194.45,122,148
287.2,196.83,122,148
286.97,201.15,122,148
290.22,202.8,122,148
286.36,207.43,122,148
280.9,205.38,122,148
274.22,208.21,122,148
271.61,209.19,122,148
271.04,211.47,122,148
265.22,210.69,122,148
267.11,207.05,122,148
269.74,206.86,122,148
272.31,198.87,122,148
274.5,191.02,122,148
279.91,186.99,122,148
278.02,181.41,122,148
280.47,176.08,122,148
282.49,173.99,122,148
280.54,166.67,122,148
282.71,160.24,122,148
278.67,156.13,122,148
274.59,152.75,122,148
269.71,146.57,122,148
262.29,141.55,122,148
263.43,136.36,122,148
267.31,129.33,122,148
268.66,126.67,122,148
269,129.9,122,148
272.04,125.65,122,148
276.9,129.29,122,148
276.85,135.3,122,148
278.74,141.64,122,148
277.83,147.45,122,148
277.46,158.43,122,148
278.35,166.83,122,148
271.76,171.19,122,148
265.14,177.47,122,148
252.65,182.32,122,148
232.34,183.03,122,148
208.88,186.59,122,148
190.19,184.42,122,148
179.27,187.34,122,148
169.03,183.25,122,148
155.75,183.34,122,148
148.44,180.27,122,148
144.47,177.9,122,148
142.21,170,122,148
138.14,170.07,122,148
130.99,167.92,122,148
132.44,163.94,122,148
132.36,164.79,122,148
124.32,159.19,122,148
122.72,156.19,122,148
118.66,150.77,122,148
116.49,146.91,122,148
114.45,142.58,122,148
113.81,142.08,122,148
112.63,138.87,122,148
107.83,134.19,122,148
112.18,131.46,122,148
115.83,129.49,122,148
124.63,125.4,122,148
125.61,125.4,122,148
138.78,125.55,122,148
151.62,128.35,122,148
163.71,132.05,122,148
175.71,134.27,122,148
187.3,139.79,122,148
199.49,140.05,122,148
210.85,143.58,122,148
218.29,140.63,122,148
226.32,145.24,122,148
238.32,147.09,122,148
244.84,142.73,122,148
251.42,145.15,122,148
259.67,141.05,122,148
261.18,141.38,122,148
275.65,143.39,122,148
287.79,144.58,122,148
298.47,146.26,122,148
312.28,143.45,122,148
320.74,145.41,122,148
330.12,145.46,122,148
340.91,142.74,122,148
350.88,140.68,122,148
364.34,135.7,122,148
376.87,132.43,122,148
386.26,132.62,122,148
392.08,132.98,122,148
400.23,130.4,122,148
404.32,134.76,122,148
406.61,129.93,122,148
406.59,133.61,122,148
408.06,134.73,122,148
408.2,131.75,122,148
408.73,130.49,122,148
403.29,132.43,122,148
401.12,137.73,122,148
397.63,134.89,122,148
390.19,138.26,122,148
386.97,139.25,122,148
380.81,135.71,122,148
377.05,138.57,122,148
369.27,138.32,122,148
359.33,138.65,122,148
359.63,141.14,122,148
348.16,140.97,122,148
346.24,144.76,122,148
344.06,145.31,122,148
340.47,147.89,122,148
336.96,149.11,122,148
333.35,147.53,122,148
332.3,149.08,122,148
323.56,148.34,122,148
320.59,143.06,122,148
313.1,145.41,122,148
309.6,137.64,122,148
301.83,136.03,122,148
301.78,129.99,122,148
297.91,125.28,122,148
293.24,122.07,122,148
293.65,117.45,122,148
290.12,111.68,122,148
292.37,107.66,122,148
287.39,109.81,122,148
286.17,109.78,122,148
287.08,107.52,122,148
290.58,110.22,122,148
291.23,107.24,122,148
296.27,107.76,122,148
299.96,113.71,122,148
305.53,113.43,122,148
304.26,114.55,122,148
303.49,116.13,122,148
304.73,114.66,122,148
308.78,111.66,122,148
315.09,112.6,122,148
315.82,108.92,122,148
316.92,111.08,122,148
316.13,110.26,122,148
312.24,112.84,122,148
309.58,111.71,122,148
309.94,112.81,122,148
302.62,113.93,122,148
298.64,116.99,122,148
296.5,117.62,122,148
289.7,117.51,122,148
280.22,118.7,122,148
277.83,121.22,122,148
277.15,119.83,122,148
273.41,117.35,122,148
268.47,116.4,122,148
265.54,119.32,122,148
265.1,122.14,122,148
267.23,124.74,122,148
266.6,123.5,122,148
269.1,126.39,122,148
274.46,127.78,122,148
277.74,129.78,122,148
280.77,129.68,122,148
286.73,127.14,122,148
290.52,128.79,122,148
294.47,126.58,122,148
298.1,125.7,122,148
302.87,122,122,148
307.54,116.23,122,148
309.06,115.1,122,148
312.27,117.95,122,148
308.31,117.5,122,148
308.2,117.82,122,148
308.57,119.02,122,148
303.04,123.78,122,148
296.35,128.89,122,148
288.08,130.26,122,148
280.19,135.43,122,148
271.46,137.98,122,148
268.05,140.97,122,148
265.32,144.65,122,148
261.59,148.28,122,148
256.43,149.77,122,148
255.28,150.61,122,148
253.38,157.25,122,148
248.65,159.92,122,148
248.93,159.86,122,148
249.96,159.63,122,148
249.3,158.2,122,148
248.22,158.34,122,148
246.39,159.5,122,148
245.04,160.68,122,148
245.52,164.43,122,148
240.85,163.31,122,148
234.44,160.73,122,148
235.43,162.49,122,148
234.35,161.26,122,148
230.92,164.59,122,148
230.87,165.78,122,148
227.1,169.49,122,148
229.56,165.37,122,148
229.02,171.59,122,148
231.65,173.5,122,148
231.02,173.52,122,148
232.91,170.52,122,148
235.71,173.25,122,148
237.58,172.76,122,148
236.09,176.03,122,148
239,176.03,122,148
244.85,172.69,122,148
243.6,174.14,122,148
244.73,173.61,122,148
246.03,174.68,122,148
245.47,172.77,122,148
244.05,173.49,122,148
247.2,174.21,122,148
246.19,174.08,122,148
242.55,174.47,122,148
240.1,178.51,122,148
241.56,174.44,122,148
239.41,172.51,122,148
233.86,174.29,122,148
234.72,175.68,122,148
235.17,172.09,122,148
237.41,174.81,122,148
239.07,178.09,122,148
237.5,175.28,122,148
235.13,169.61,122,148
241.51,173.94,122,148
239.44,173.15,122,148
239.34,170.07,122,148
240.26,172.05,122,148
243.27,170.84,122,148
241.77,166.9,122,148
243.69,165.45,122,148
237.44,163.49,122,148
240.18,162.86,122,148
238.98,159.53,122,148
237.85,162.53,122,148
236.77,159.66,122,148
237.07,158.33,122,148
237.95,159.51,122,148
236.75,160.97,122,148
239.21,164.38,122,148
239.46,164.93,122,148
238.86,168.82,122,148
241.98,174.33,122,148
247.03,176.11,122,148
248.48,175.92,122,148
251.24,179.13,122,148
256.06,179.18,122,148
254.11,180.29,122,148
254.57,180.56,122,148
254.05,176.79,122,148
256.27,177.35,122,148
253.76,181.1,122,148
252.08,180.78,122,148
249.86,187.4,122,148
252.1,186.94,122,148
250.81,187.7,122,148
247.55,186.65,122,148
246.55,187.84,122,148
245.5,189.81,122,148
245.3,189.67,122,148
241.71,191.64,122,148
242.96,188.93,122,148
239.1,188.18,122,148
241.85,187.96,122,148
237.67,187.51,122,148
236.45,187.71,122,148
236.58,184.13,122,148
232.1,185.3,122,148
232.01,186.55,122,148
231.11,184.71,122,148
228.91,185.12,122,148
224.39,182.12,122,148
224.19,183.29,122,148
217.8,180.8,122,148
219.74,184.54,122,148
216.55,185.44,122,148
214.84,187.57,122,148
209.14,186.59,122,148
204.1,186.33,122,148
207.16,190.33,122,148
213.41,192.47,122,148
226.16,196.07,122,148
236,195.58,122,148
242.56,195.56,122,148
250.1,196.32,122,148
257.25,198.98,122,148
265.16,203.48,122,148
274.62,206.47,122,148
277.19,209.43,122,148
273.31,206.34,122,148
267.29,206.16,122,148
257.62,208.5,122,148
253.19,205.05,122,148
247.05,194.1,122,148
238.19,189.92,122,148
232.54,193.95,122,148
230.26,194.72,122,148
237.16,194.17,122,148
242.49,195.82,122,148
251.66,195.05,122,148
259.89,199.7,122,148
274.55,204.7,122,148
280.67,217.44,122,148
284.41,226.68,122,148
289.94,231.97,122,148
290.05,236.88,122,148
291.64,239.76,122,148
285.16,242.67,122,148
287.89,243.78,122,148
279.29,234.44,122,148
276.27,217.61,122,148
257.36,201.74,122,148
250.59,191.18,122,148
247.03,178.39,122,148
237.59,170.94,122,148
226.36,164.71,122,148
219.91,157.54,122,148
218.37,157.67,122,148
217.77,153.95,122,148
217.08,152.75,122,148
220.96,157.87,122,148
217.05,159.14,122,148
225.07,168.16,122,148
231.78,170.27,122,148
240.1,170.51,122,148
241.39,172.32,122,148
252.2,170.12,122,148
257.35,166.73,122,148
262.1,159.55,122,148
263.64,156.2,122,148
271.47,147.41,122,148
277.5,146.89,122,148
284.84,139.59,122,148
296.58,142.57,122,148
303.34,150.15,122,148
310.06,153.62,122,148
313.2,161.89,122,148
312.92,170.35,122,148
302.04,176.7,122,148
290.23,185.63,122,148
274.39,192.1,122,148
266.92,191.05,122,148
264.14,184.92,122,148
258.88,179.76,122,148
248.38,177.53,122,148
250.38,182.15,122,148
251.42,192.1,122,148
262.92,203.94,122,148
266.22,216.14,122,148
265.26,226.35,122,148
262.53,230.18,122,148
258.79,232.29,122,148
259.14,230.98,122,148
262.42,230.8,122,148
262.17,228.57,122,148
261.16,225.55,122,148
257.59,224,122,148
252.69,215.25,122,148
252.47,202.51,122,148
251.89,194.77,122,148
251.83,184.28,122,148
249.32,174.96,122,148
247.81,170.75,122,148
240.63,157.78,122,148
241.38,143.82,122,148
247.83,137.09,122,148
253.19,131.73,122,148
254.79,131.53,122,148
255.93,135.41,122,148
257.34,140.98,122,148
256.22,150.38,122,148
257.5,152.3,122,148
263.94,156.68,122,148
272.89,156.02,122,148
280.15,154.03,122,148
287.12,154.09,122,148
290.59,153.52,122,148
291.75,149.51,122,148
280.8,151.91,122,148
278.07,153.73,122,148
274.76,150.36,122,148
275.37,150.85,122,148
267.71,146.77,122,148
