298,160,48,80
298,164,48,80
298,164,48,80
298,168,48,80
302,172,48,80
302,176,48,80
306,180,48,80
310,180,48,80
314,184,48,80
314,184,48,80
318,184,48,80
318,184,48,80
318,184,48,80
318,184,48,80
318,184,48,80
314,184,48,80
314,184,48,80
310,184,48,80
310,184,48,80
310,184,48,80
306,184,48,80
306,184,48,80
302,184,48,80
298,184,48,80
294,184,48,80
294,188,48,80
294,188,48,80
302,192,48,80
310,196,48,80
314,196,48,80
322,200,48,80
334,208,48,80
338,212,48,80
346,216,48,80
350,224,48,80
346,228,48,80
338,232,48,80
326,232,48,80
314,232,48,80
302,232,48,80
286,228,48,80
274,228,48,80
262,220,48,80
254,212,48,80
246,204,48,80
242,196,48,80
242,188,48,80
250,180,48,80
258,176,48,80
270,176,48,80
282,176,48,80
298,176,48,80
310,176,48,80
322,176,48,80
334,176,48,80
346,172,48,80
358,172,48,80
370,172,48,80
386,176,48,80
402,180,48,80
418,184,48,80
430,192,48,80
442,200,48,80
446,204,48,80
442,208,48,80
434,216,48,80
418,216,48,80
402,216,48,80
382,212,48,80
366,212,48,80
350,212,48,80
338,212,48,80
330,212,48,80
318,208,48,80
310,204,48,80
302,200,48,80
294,196,48,80
286,192,48,80
282,188,48,80
274,188,48,80
270,188,48,80
266,184,48,80
262,184,48,80
258,184,48,80
258,188,48,80
254,188,48,80
250,184,48,80
250,184,48,80
246,184,48,80
246,180,48,80
242,180,48,80
238,176,48,80
234,176,48,80
230,176,48,80
230,172,48,80
226,172,48,80
226,172,48,80
226,172,48,80
222,172,48,80
222,172,48,80
222,172,48,80
222,172,48,80
222,172,48,80
218,172,48,80
218,172,48,80
222,172,48,80
222,176,48,80
226,176,48,80
230,176,48,80
238,176,48,80
242,176,48,80
250,176,48,80
254,176,48,80
258,176,48,80
262,176,48,80
266,176,48,80
270,172,48,80
274,172,48,80
274,172,48,80
278,172,48,80
278,172,48,80
282,172,48,80
282,168,48,80
282,168,48,80
282,164,48,80
286,164,48,80
286,164,48,80
286,160,48,80
286,156,48,80
286,152,48,80
286,148,48,80
282,144,48,80
282,140,48,80
286,140,48,80
286,136,48,80
286,136,48,80
286,136,48,80
290,136,48,80
290,136,48,80
294,136,48,80
294,136,48,80
294,136,48,80
294,136,48,80
294,136,48,80
294,136,48,80
290,136,48,80
286,136,48,80
282,136,48,80
278,140,48,80
278,140,48,80
274,144,48,80
270,144,48,80
270,148,48,80
266,152,48,80
266,152,48,80
266,156,48,80
266,160,48,80
270,164,48,80
278,168,48,80
282,172,48,80
290,180,48,80
298,184,48,80
306,192,48,80
318,196,48,80
330,200,48,80
338,204,48,80
350,204,48,80
358,200,48,80
366,192,48,80
370,184,48,80
370,172,48,80
366,160,48,80
358,152,48,80
346,144,48,80
330,140,48,80
314,140,48,80
298,144,48,80
286,152,48,80
274,164,48,80
266,180,48,80
262,192,48,80
262,204,48,80
266,212,48,80
270,220,48,80
278,228,48,80
286,232,48,80
298,240,48,80
306,240,48,80
318,240,48,80
334,240,48,80
350,240,48,80
358,232,48,80
366,224,48,80
370,216,48,80
366,208,48,80
354,200,48,80
346,196,48,80
334,188,48,80
322,184,48,80
306,180,48,80
294,176,48,80
282,176,48,80
266,172,48,80
254,172,48,80
242,176,48,80
230,176,48,80
222,176,48,80
214,176,48,80
206,176,48,80
202,176,48,80
202,180,48,80
202,180,48,80
206,184,48,80
214,192,48,80
230,196,48,80
242,204,48,80
262,208,48,80
278,212,48,80
290,212,48,80
306,208,48,80
314,204,48,80
322,200,48,80
322,192,48,80
322,184,48,80
314,180,48,80
310,180,48,80
302,176,48,80
298,176,48,80
290,176,48,80
290,176,48,80
286,176,48,80
290,176,48,80
294,176,48,80
298,176,48,80
302,176,48,80
310,176,48,80
314,172,48,80
318,168,48,80
322,164,48,80
326,160,48,80
326,156,48,80
326,148,48,80
326,144,48,80
326,140,48,80
326,140,48,80
326,144,48,80
326,152,48,80
330,160,48,80
326,168,48,80
322,180,48,80
318,192,48,80
314,208,48,80
314,224,48,80
314,240,48,80
310,256,48,80
310,264,48,80
310,264,48,80
310,264,48,80
310,260,48,80
310,260,48,80
310,260,48,80
310,260,48,80
310,260,48,80
310,260,48,80
310,260,48,80
310,260,48,80
310,260,48,80
310,260,48,80
310,260,48,80
310,260,48,80
310,260,48,80
310,260,48,80
310,260,48,80
310,260,48,80
310,260,48,80
310,260,48,80
310,260,48,80
310,260,48,80
310,260,48,80
310,260,48,80
310,260,48,80
310,260,48,80
310,260,48,80
310,260,48,80
310,260,48,80
310,260,48,80
310,260,48,80
310,260,48,80
310,260,48,80
310,260,48,80
310,260,48,80
