129,80,64,78
121,80,64,78
113,76,64,78
109,72,64,78
101,68,64,78
97,64,64,78
97,60,64,78
93,64,64,78
93,68,64,78
93,76,64,78
89,80,64,78
89,84,64,78
81,84,64,78
73,84,64,78
69,84,64,78
65,76,64,78
65,72,64,78
65,68,64,78
65,68,64,78
73,68,64,78
77,72,64,78
77,76,64,78
81,80,64,78
85,80,64,78
89,84,64,78
93,84,64,78
97,80,64,78
101,76,64,78
105,68,64,78
113,60,64,78
125,56,64,78
129,56,64,78
137,60,64,78
137,64,64,78
141,68,64,78
141,68,64,78
145,72,64,78
145,72,64,78
141,68,64,78
145,68,64,78
145,64,64,78
145,64,64,78
145,64,64,78
145,64,64,78
145,68,64,78
145,68,64,78
141,68,64,78
141,68,64,78
141,68,64,78
145,68,64,78
145,64,64,78
149,60,64,78
153,56,64,78
157,56,64,78
161,60,64,78
161,68,64,78
157,76,64,78
157,80,64,78
157,80,64,78
153,76,64,78
153,72,64,78
157,64,64,78
161,60,64,78
169,64,64,78
165,64,64,78
165,72,64,78
161,72,64,78
153,76,64,78
149,72,64,78
141,72,64,78
133,68,64,78
129,64,64,78
129,60,64,78
133,56,64,78
133,60,64,78
133,60,64,78
133,64,64,78
133,68,64,78
129,68,64,78
129,68,64,78
125,68,64,78
121,68,64,78
125,64,64,78
129,60,64,78
133,60,64,78
141,64,64,78
149,68,64,78
153,68,64,78
161,64,64,78
165,64,64,78
169,60,64,78
169,60,64,78
173,60,64,78
173,56,64,78
173,52,64,78
173,52,64,78
173,48,64,78
173,52,64,78
173,60,64,78
173,64,64,78
169,68,64,78
165,72,64,78
157,72,64,78
153,68,64,78
153,64,64,78
157,56,64,78
157,56,64,78
161,60,64,78
161,60,64,78
161,64,64,78
161,68,64,78
161,68,64,78
161,72,64,78
161,72,64,78
161,76,64,78
165,68,64,78
161,68,64,78
165,64,64,78
169,68,64,78
165,72,64,78
165,76,64,78
161,76,64,78
157,80,64,78
153,76,64,78
153,76,64,78
149,72,64,78
145,72,64,78
141,68,64,78
137,68,64,78
137,64,64,78
137,56,64,78
133,56,64,78
129,60,64,78
129,64,64,78
129,64,64,78
129,68,64,78
125,72,64,78
125,72,64,78
125,72,64,78
129,72,64,78
133,72,64,78
141,72,64,78
149,72,64,78
153,72,64,78
157,72,64,78
157,72,64,78
157,76,64,78
157,72,64,78
161,72,64,78
157,68,64,78
157,68,64,78
153,68,64,78
145,64,64,78
149,64,64,78
149,68,64,78
149,72,64,78
149,76,64,78
145,76,64,78
149,76,64,78
153,76,64,78
153,76,64,78
153,76,64,78
157,76,64,78
153,76,64,78
153,76,64,78
153,76,64,78
153,76,64,78
149,76,64,78
145,76,64,78
145,76,64,78
137,76,64,78
133,72,64,78
129,72,64,78
129,72,64,78
129,72,64,78
125,72,64,78
125,72,64,78
125,68,64,78
129,68,64,78
133,68,64,78
133,68,64,78
137,68,64,78
137,68,64,78
137,68,64,78
133,68,64,78
133,68,64,78
133,68,64,78
133,68,64,78
133,64,64,78
133,64,64,78
133,64,64,78
137,64,64,78
137,60,64,78
137,60,64,78
133,56,64,78
133,56,64,78
129,60,64,78
125,60,64,78
125,60,64,78
121,60,64,78
125,60,64,78
125,60,64,78
129,60,64,78
133,56,64,78
137,52,64,78
141,52,64,78
145,56,64,78
149,56,64,78
153,56,64,78
157,56,64,78
157,52,64,78
157,48,64,78
157,48,64,78
161,48,64,78
161,52,64,78
161,56,64,78
157,60,64,78
149,64,64,78
141,68,64,78
137,68,64,78
129,64,64,78
129,68,64,78
125,64,64,78
125,60,64,78
129,60,64,78
129,60,64,78
133,64,64,78
137,64,64,78
141,68,64,78
141,72,64,78
145,76,64,78
149,76,64,78
153,76,64,78
153,68,64,78
153,68,64,78
153,64,64,78
157,68,64,78
157,68,64,78
157,68,64,78
157,68,64,78
157,64,64,78
153,60,64,78
153,56,64,78
153,52,64,78
149,48,64,78
145,48,64,78
141,52,64,78
137,52,64,78
133,52,64,78
133,52,64,78
133,52,64,78
133,56,64,78
129,56,64,78
129,52,64,78
129,52,64,78
133,52,64,78
133,56,64,78
137,60,64,78
137,64,64,78
137,68,64,78
137,72,64,78
133,72,64,78
133,64,64,78
137,56,64,78
141,52,64,78
145,56,64,78
145,60,64,78
145,64,64,78
145,68,64,78
145,68,64,78
141,68,64,78
141,72,64,78
141,68,64,78
145,68,64,78
145,68,64,78
141,68,64,78
133,68,64,78
133,68,64,78
129,68,64,78
121,68,64,78
117,64,64,78
113,64,64,78
109,64,64,78
113,64,64,78
113,60,64,78
113,56,64,78
117,56,64,78
121,60,64,78
125,64,64,78
129,72,64,78
133,72,64,78
141,68,64,78
145,64,64,78
149,60,64,78
149,56,64,78
153,52,64,78
157,52,64,78
157,52,64,78
157,56,64,78
157,56,64,78
157,60,64,78
153,60,64,78
149,60,64,78
149,60,64,78
145,60,64,78
145,60,64,78
145,60,64,78
145,60,64,78
145,60,64,78
145,64,64,78
145,64,64,78
145,64,64,78
149,64,64,78
149,64,64,78
149,64,64,78
149,68,64,78
149,68,64,78
145,72,64,78
145,80,64,78
145,80,64,78
145,84,64,78
141,88,64,78
137,84,64,78
137,84,64,78
141,80,64,78
137,80,64,78
141,76,64,78
141,76,64,78
145,76,64,78
149,76,64,78
153,76,64,78
153,76,64,78
157,76,64,78
157,76,64,78
157,72,64,78
157,68,64,78
153,68,64,78
149,64,64,78
145,64,64,78
141,68,64,78
137,72,64,78
133,72,64,78
129,76,64,78
125,76,64,78
121,76,64,78
117,76,64,78
117,72,64,78
117,68,64,78
117,68,64,78
121,68,64,78
125,72,64,78
125,76,64,78
133,80,64,78
137,84,64,78
141,84,64,78
145,84,64,78
153,80,64,78
161,76,64,78
161,80,64,78
165,80,64,78
169,84,64,78
169,88,64,78
165,88,64,78
161,88,64,78
157,84,64,78
157,84,64,78
153,84,64,78
149,84,64,78
149,80,64,78
149,80,64,78
149,80,64,78
145,84,64,78
145,84,64,78
141,84,64,78
141,84,64,78
141,84,64,78
137,84,64,78
137,80,64,78
141,76,64,78
141,76,64,78
145,76,64,78
149,80,64,78
153,80,64,78
157,84,64,78
161,88,64,78
161,88,64,78
165,88,64,78
165,88,64,78
169,84,64,78
169,84,64,78
169,80,64,78
169,80,64,78
169,80,64,78
169,76,64,78
173,72,64,78
177,76,64,78
177,76,64,78
177,80,64,78
181,80,64,78
181,80,64,78
181,80,64,78
177,84,64,78
177,80,64,78
173,80,64,78
169,80,64,78
165,80,64,78
165,80,64,78
165,80,64,78
165,80,64,78
165,80,64,78
161,80,64,78
157,76,64,78
157,72,64,78
157,68,64,78
153,68,64,78
157,68,64,78
161,68,64,78
165,72,64,78
169,72,64,78
173,76,64,78
173,76,64,78
177,76,64,78
177,76,64,78
173,76,64,78
169,72,64,78
169,68,64,78
169,72,64,78
165,72,64,78
165,76,64,78
161,80,64,78
161,80,64,78
157,80,64,78
149,76,64,78
149,76,64,78
145,72,64,78
141,72,64,78
141,72,64,78
137,72,64,78
137,72,64,78
137,76,64,78
137,76,64,78
141,76,64,78
145,76,64,78
149,76,64,78
157,76,64,78
161,72,64,78
161,72,64,78
165,72,64,78
169,72,64,78
169,76,64,78
169,76,64,78
169,80,64,78
165,84,64,78
165,84,64,78
165,88,64,78
161,88,64,78
157,84,64,78
157,80,64,78
153,76,64,78
149,80,64,78
145,80,64,78
141,84,64,78
141,84,64,78
137,80,64,78
137,80,64,78
137,80,64,78
133,80,64,78
129,80,64,78
129,80,64,78
125,80,64,78
125,80,64,78
