82.5,199.5,35,131
82.5,199.5,35,131
86.5,195.5,35,131
90.5,195.5,35,131
94.5,199.5,35,131
102.5,199.5,35,131
106.5,199.5,35,131
106.5,199.5,35,131
110.5,199.5,35,131
114.5,203.5,35,131
114.5,203.5,35,131
118.5,199.5,35,131
118.5,199.5,35,131
122.5,199.5,35,131
126.5,203.5,35,131
126.5,203.5,35,131
134.5,203.5,35,131
138.5,203.5,35,131
142.5,199.5,35,131
146.5,199.5,35,131
150.5,199.5,35,131
154.5,199.5,35,131
154.5,199.5,35,131
158.5,199.5,35,131
162.5,199.5,35,131
166.5,199.5,35,131
166.5,199.5,35,131
170.5,199.5,35,131
174.5,199.5,35,131
178.5,199.5,35,131
182.5,199.5,35,131
186.5,195.5,35,131
186.5,195.5,35,131
190.5,195.5,35,131
194.5,195.5,35,131
198.5,195.5,35,131
202.5,195.5,35,131
206.5,195.5,35,131
210.5,191.5,35,131
214.5,191.5,35,131
222.5,191.5,35,131
226.5,191.5,35,131
230.5,191.5,35,131
234.5,191.5,35,131
234.5,191.5,35,131
238.5,191.5,35,131
242.5,191.5,35,131
246.5,191.5,35,131
250.5,191.5,35,131
258.5,191.5,35,131
262.5,191.5,35,131
266.5,191.5,35,131
270.5,191.5,35,131
278.5,191.5,35,131
282.5,191.5,35,131
286.5,191.5,35,131
290.5,191.5,35,131
294.5,191.5,35,131
302.5,191.5,35,131
306.5,191.5,35,131
310.5,191.5,35,131
318.5,195.5,35,131
322.5,195.5,35,131
326.5,195.5,35,131
330.5,195.5,35,131
334.5,191.5,35,131
338.5,195.5,35,131
342.5,195.5,35,131
346.5,195.5,35,131
350.5,195.5,35,131
358.5,195.5,35,131
362.5,199.5,35,131
366.5,199.5,35,131
370.5,199.5,35,131
370.5,199.5,35,131
374.5,199.5,35,131
378.5,199.5,35,131
382.5,199.5,35,131
386.5,199.5,35,131
390.5,199.5,35,131
394.5,199.5,35,131
394.5,199.5,35,131
394.5,199.5,35,131
394.5,195.5,35,131
394.5,195.5,35,131
390.5,195.5,35,131
386.5,195.5,35,131
386.5,199.5,35,131
382.5,199.5,35,131
382.5,199.5,35,131
378.5,195.5,35,131
378.5,195.5,35,131
374.5,199.5,35,131
370.5,199.5,35,131
370.5,199.5,35,131
366.5,203.5,35,131
366.5,203.5,35,131
362.5,203.5,35,131
362.5,203.5,35,131
366.5,203.5,35,131
366.5,203.5,35,131
366.5,203.5,35,131
366.5,203.5,35,131
366.5,203.5,35,131
366.5,203.5,35,131
366.5,203.5,35,131
366.5,207.5,35,131
366.5,207.5,35,131
366.5,207.5,35,131
366.5,211.5,35,131
366.5,211.5,35,131
366.5,207.5,35,131
366.5,207.5,35,131
370.5,207.5,35,131
370.5,207.5,35,131
370.5,207.5,35,131
370.5,207.5,35,131
370.5,207.5,35,131
374.5,207.5,35,131
374.5,211.5,35,131
374.5,211.5,35,131
374.5,211.5,35,131
378.5,215.5,35,131
378.5,215.5,35,131
382.5,215.5,35,131
386.5,215.5,35,131
390.5,211.5,35,131
398.5,211.5,35,131
406.5,211.5,35,131
414.5,211.5,35,131
422.5,211.5,35,131
430.5,211.5,35,131
442.5,211.5,35,131
450.5,211.5,35,131
458.5,211.5,35,131
462.5,207.5,35,131
466.5,207.5,35,131
470.5,207.5,35,131
474.5,207.5,35,131
478.5,207.5,35,131
482.5,207.5,35,131
486.5,211.5,35,131
490.5,211.5,35,131
494.5,211.5,35,131
498.5,211.5,35,131
506.5,211.5,35,131
510.5,211.5,35,131
514.5,211.5,35,131
518.5,211.5,35,131
522.5,211.5,35,131
522.5,211.5,35,131
522.5,211.5,35,131
518.5,211.5,35,131
514.5,211.5,35,131
506.5,211.5,35,131
498.5,207.5,35,131
490.5,207.5,35,131
482.5,207.5,35,131
474.5,207.5,35,131
470.5,207.5,35,131
462.5,207.5,35,131
458.5,207.5,35,131
454.5,207.5,35,131
454.5,207.5,35,131
450.5,207.5,35,131
450.5,207.5,35,131
450.5,207.5,35,131
450.5,203.5,35,131
450.5,203.5,35,131
450.5,203.5,35,131
450.5,203.5,35,131
446.5,203.5,35,131
442.5,203.5,35,131
442.5,203.5,35,131
438.5,203.5,35,131
438.5,199.5,35,131
438.5,199.5,35,131
434.5,199.5,35,131
434.5,199.5,35,131
430.5,199.5,35,131
426.5,199.5,35,131
422.5,199.5,35,131
418.5,199.5,35,131
414.5,199.5,35,131
410.5,199.5,35,131
410.5,199.5,35,131
406.5,199.5,35,131
406.5,203.5,35,131
406.5,199.5,35,131
402.5,199.5,35,131
398.5,199.5,35,131
394.5,199.5,35,131
390.5,195.5,35,131
390.5,195.5,35,131
386.5,195.5,35,131
382.5,195.5,35,131
382.5,195.5,35,131
378.5,199.5,35,131
378.5,199.5,35,131
378.5,199.5,35,131
374.5,199.5,35,131
370.5,199.5,35,131
370.5,195.5,35,131
366.5,195.5,35,131
362.5,195.5,35,131
362.5,195.5,35,131
362.5,195.5,35,131
362.5,199.5,35,131
362.5,199.5,35,131
362.5,199.5,35,131
362.5,199.5,35,131
358.5,199.5,35,131
358.5,199.5,35,131
358.5,199.5,35,131
354.5,195.5,35,131
354.5,195.5,35,131
354.5,195.5,35,131
350.5,195.5,35,131
350.5,195.5,35,131
346.5,195.5,35,131
346.5,195.5,35,131
342.5,195.5,35,131
342.5,195.5,35,131
342.5,191.5,35,131
338.5,191.5,35,131
338.5,191.5,35,131
338.5,191.5,35,131
334.5,195.5,35,131
330.5,195.5,35,131
326.5,195.5,35,131
326.5,195.5,35,131
326.5,195.5,35,131
322.5,195.5,35,131
322.5,195.5,35,131
318.5,195.5,35,131
318.5,191.5,35,131
318.5,191.5,35,131
318.5,191.5,35,131
318.5,191.5,35,131
314.5,187.5,35,131
314.5,187.5,35,131
310.5,187.5,35,131
306.5,183.5,35,131
306.5,183.5,35,131
306.5,179.5,35,131
302.5,179.5,35,131
298.5,179.5,35,131
294.5,183.5,35,131
290.5,183.5,35,131
286.5,183.5,35,131
282.5,187.5,35,131
278.5,183.5,35,131
