309.5,102,39,50
309.5,102,39,50
305.5,98,39,50
305.5,98,39,50
305.5,98,39,50
301.5,94,39,50
301.5,94,39,50
301.5,94,39,50
297.5,90,39,50
297.5,90,39,50
297.5,90,39,50
293.5,90,39,50
293.5,90,39,50
293.5,86,39,50
293.5,86,39,50
293.5,86,39,50
289.5,86,39,50
289.5,82,39,50
289.5,82,39,50
289.5,82,39,50
285.5,82,39,50
285.5,82,39,50
285.5,82,39,50
285.5,82,39,50
281.5,82,39,50
281.5,82,39,50
281.5,82,39,50
277.5,82,39,50
277.5,82,39,50
277.5,82,39,50
273.5,82,39,50
273.5,82,39,50
269.5,82,39,50
269.5,82,39,50
269.5,82,39,50
265.5,82,39,50
265.5,82,39,50
261.5,82,39,50
261.5,82,39,50
261.5,82,39,50
257.5,82,39,50
257.5,82,39,50
253.5,82,39,50
253.5,82,39,50
253.5,86,39,50
249.5,86,39,50
249.5,86,39,50
249.5,86,39,50
249.5,86,39,50
249.5,86,39,50
249.5,82,39,50
249.5,82,39,50
249.5,82,39,50
253.5,78,39,50
253.5,78,39,50
257.5,74,39,50
257.5,74,39,50
261.5,70,39,50
265.5,66,39,50
269.5,66,39,50
273.5,62,39,50
277.5,58,39,50
281.5,54,39,50
285.5,54,39,50
285.5,54,39,50
289.5,50,39,50
293.5,50,39,50
297.5,50,39,50
301.5,46,39,50
301.5,46,39,50
305.5,46,39,50
309.5,46,39,50
309.5,42,39,50
313.5,42,39,50
313.5,42,39,50
317.5,42,39,50
317.5,38,39,50
317.5,38,39,50
321.5,38,39,50
321.5,34,39,50
321.5,34,39,50
321.5,30,39,50
321.5,30,39,50
321.5,30,39,50
321.5,26,39,50
321.5,26,39,50
321.5,26,39,50
321.5,26,39,50
321.5,26,39,50
321.5,26,39,50
321.5,26,39,50
321.5,26,39,50
317.5,26,39,50
317.5,26,39,50
317.5,30,39,50
317.5,30,39,50
317.5,30,39,50
317.5,30,39,50
317.5,30,39,50
317.5,34,39,50
313.5,34,39,50
313.5,34,39,50
313.5,34,39,50
313.5,34,39,50
313.5,38,39,50
313.5,38,39,50
313.5,38,39,50
313.5,38,39,50
313.5,38,39,50
313.5,38,39,50
313.5,38,39,50
313.5,38,39,50
313.5,38,39,50
317.5,38,39,50
317.5,38,39,50
317.5,38,39,50
317.5,38,39,50
321.5,38,39,50
321.5,38,39,50
321.5,38,39,50
325.5,38,39,50
325.5,38,39,50
325.5,38,39,50
329.5,42,39,50
329.5,42,39,50
329.5,42,39,50
333.5,46,39,50
333.5,46,39,50
333.5,46,39,50
333.5,50,39,50
333.5,50,39,50
333.5,50,39,50
333.5,50,39,50
333.5,50,39,50
329.5,50,39,50
329.5,50,39,50
329.5,54,39,50
325.5,54,39,50
325.5,54,39,50
325.5,54,39,50
321.5,54,39,50
321.5,54,39,50
317.5,54,39,50
317.5,54,39,50
313.5,54,39,50
313.5,50,39,50
309.5,50,39,50
309.5,50,39,50
309.5,50,39,50
309.5,50,39,50
305.5,50,39,50
305.5,46,39,50
305.5,50,39,50
305.5,50,39,50
305.5,50,39,50
305.5,50,39,50
305.5,50,39,50
305.5,50,39,50
301.5,46,39,50
301.5,46,39,50
301.5,46,39,50
297.5,46,39,50
297.5,46,39,50
297.5,46,39,50
297.5,46,39,50
297.5,46,39,50
293.5,46,39,50
293.5,46,39,50
293.5,46,39,50
293.5,46,39,50
293.5,50,39,50
293.5,50,39,50
293.5,50,39,50
293.5,50,39,50
293.5,50,39,50
293.5,50,39,50
293.5,50,39,50
293.5,50,39,50
293.5,50,39,50
293.5,50,39,50
297.5,50,39,50
297.5,50,39,50
297.5,50,39,50
297.5,50,39,50
301.5,50,39,50
301.5,50,39,50
305.5,50,39,50
305.5,50,39,50
309.5,50,39,50
309.5,50,39,50
313.5,50,39,50
313.5,54,39,50
317.5,54,39,50
317.5,54,39,50
317.5,54,39,50
321.5,54,39,50
321.5,58,39,50
325.5,58,39,50
325.5,58,39,50
329.5,58,39,50
329.5,58,39,50
329.5,62,39,50
329.5,62,39,50
333.5,62,39,50
333.5,62,39,50
333.5,62,39,50
337.5,62,39,50
337.5,66,39,50
337.5,66,39,50
337.5,66,39,50
337.5,66,39,50
337.5,66,39,50
337.5,70,39,50
333.5,70,39,50
333.5,70,39,50
333.5,70,39,50
333.5,70,39,50
333.5,70,39,50
333.5,70,39,50
333.5,70,39,50
333.5,70,39,50
333.5,70,39,50
333.5,70,39,50
333.5,70,39,50
333.5,70,39,50
333.5,70,39,50
333.5,66,39,50
333.5,66,39,50
333.5,66,39,50
333.5,70,39,50
329.5,70,39,50
329.5,70,39,50
329.5,70,39,50
329.5,70,39,50
329.5,70,39,50
329.5,70,39,50
329.5,70,39,50
325.5,70,39,50
325.5,70,39,50
325.5,74,39,50
325.5,74,39,50
325.5,74,39,50
321.5,74,39,50
321.5,74,39,50
321.5,74,39,50
317.5,74,39,50
317.5,74,39,50
317.5,74,39,50
313.5,78,39,50
313.5,78,39,50
313.5,78,39,50
309.5,78,39,50
309.5,78,39,50
305.5,78,39,50
305.5,78,39,50
301.5,78,39,50
301.5,78,39,50
301.5,78,39,50
297.5,78,39,50
297.5,82,39,50
297.5,82,39,50
293.5,82,39,50
293.5,82,39,50
293.5,82,39,50
293.5,86,39,50
293.5,86,39,50
293.5,86,39,50
293.5,90,39,50
293.5,90,39,50
293.5,90,39,50
293.5,94,39,50
293.5,98,39,50
293.5,102,39,50
293.5,102,39,50
293.5,106,39,50
293.5,110,39,50
293.5,114,39,50
293.5,114,39,50
293.5,118,39,50
293.5,118,39,50
293.5,118,39,50
293.5,122,39,50
293.5,122,39,50
289.5,122,39,50
289.5,122,39,50
297.5,130,39,50
297.5,130,39,50
293.5,130,39,50
289.5,130,39,50
289.5,130,39,50
285.5,126,39,50
281.5,126,39,50
281.5,122,39,50
277.5,122,39,50
277.5,118,39,50
273.5,114,39,50
273.5,114,39,50
273.5,110,39,50
269.5,110,39,50
269.5,110,39,50
269.5,106,39,50
269.5,106,39,50
265.5,106,39,50
265.5,102,39,50
265.5,102,39,50
261.5,98,39,50
261.5,98,39,50
257.5,94,39,50
257.5,94,39,50
257.5,94,39,50
257.5,90,39,50
257.5,90,39,50
253.5,86,39,50
253.5,86,39,50
253.5,82,39,50
253.5,82,39,50
253.5,78,39,50
253.5,78,39,50
253.5,74,39,50
253.5,74,39,50
253.5,70,39,50
253.5,70,39,50
253.5,70,39,50
253.5,66,39,50
249.5,66,39,50
249.5,66,39,50
249.5,66,39,50
249.5,66,39,50
249.5,66,39,50
249.5,66,39,50
249.5,66,39,50
249.5,66,39,50
249.5,66,39,50
249.5,66,39,50
249.5,66,39,50
249.5,66,39,50
249.5,66,39,50
249.5,66,39,50
249.5,66,39,50
249.5,70,39,50
249.5,70,39,50
245.5,70,39,50
245.5,74,39,50
245.5,74,39,50
245.5,74,39,50
245.5,78,39,50
245.5,78,39,50
245.5,78,39,50
241.5,82,39,50
241.5,86,39,50
241.5,86,39,50
241.5,86,39,50
241.5,90,39,50
237.5,90,39,50
237.5,90,39,50
237.5,94,39,50
237.5,94,39,50
233.5,98,39,50
233.5,102,39,50
233.5,102,39,50
229.5,102,39,50
229.5,106,39,50
