153,104.5,26,43
153,96.5,26,43
153,92.5,26,43
153,84.5,26,43
153,80.5,26,43
153,72.5,26,43
153,72.5,26,43
149,68.5,26,43
145,68.5,26,43
141,64.5,26,43
137,64.5,26,43
133,64.5,26,43
125,64.5,26,43
117,60.5,26,43
113,60.5,26,43
109,60.5,26,43
109,56.5,26,43
109,56.5,26,43
109,52.5,26,43
105,52.5,26,43
101,48.5,26,43
93,44.5,26,43
89,40.5,26,43
85,40.5,26,43
77,36.5,26,43
73,36.5,26,43
73,36.5,26,43
73,36.5,26,43
77,36.5,26,43
85,40.5,26,43
89,40.5,26,43
93,44.5,26,43
97,48.5,26,43
97,52.5,26,43
101,60.5,26,43
105,64.5,26,43
109,68.5,26,43
113,68.5,26,43
117,68.5,26,43
121,64.5,26,43
129,56.5,26,43
133,52.5,26,43
137,48.5,26,43
141,44.5,26,43
145,40.5,26,43
149,40.5,26,43
153,40.5,26,43
157,40.5,26,43
161,40.5,26,43
161,40.5,26,43
165,40.5,26,43
165,36.5,26,43
169,36.5,26,43
177,40.5,26,43
185,40.5,26,43
193,44.5,26,43
201,48.5,26,43
209,52.5,26,43
213,60.5,26,43
221,64.5,26,43
229,68.5,26,43
233,72.5,26,43
241,76.5,26,43
245,80.5,26,43
253,84.5,26,43
257,92.5,26,43
257,96.5,26,43
257,96.5,26,43
257,96.5,26,43
257,100.5,26,43
253,104.5,26,43
253,96.5,26,43
253,92.5,26,43
245,92.5,26,43
