252.5,66,23,28
252.5,66,23,28
248.5,66,23,28
244.5,66,23,28
240.5,70,23,28
240.5,70,23,28
236.5,70,23,28
236.5,70,23,28
236.5,70,23,28
232.5,66,23,28
232.5,66,23,28
232.5,66,23,28
232.5,66,23,28
232.5,66,23,28
232.5,66,23,28
228.5,66,23,28
228.5,66,23,28
228.5,66,23,28
228.5,66,23,28
228.5,66,23,28
228.5,66,23,28
228.5,66,23,28
228.5,66,23,28
228.5,66,23,28
228.5,62,23,28
228.5,62,23,28
224.5,62,23,28
224.5,58,23,28
220.5,58,23,28
220.5,58,23,28
220.5,58,23,28
216.5,58,23,28
212.5,58,23,28
212.5,58,23,28
212.5,58,23,28
208.5,58,23,28
208.5,58,23,28
208.5,58,23,28
204.5,62,23,28
204.5,62,23,28
204.5,62,23,28
200.5,62,23,28
200.5,58,23,28
196.5,58,23,28
196.5,58,23,28
196.5,58,23,28
196.5,54,23,28
196.5,54,23,28
196.5,54,23,28
196.5,50,23,28
196.5,50,23,28
196.5,50,23,28
196.5,50,23,28
196.5,50,23,28
196.5,50,23,28
196.5,54,23,28
196.5,54,23,28
196.5,54,23,28
196.5,54,23,28
200.5,58,23,28
200.5,58,23,28
200.5,58,23,28
200.5,58,23,28
200.5,58,23,28
200.5,58,23,28
200.5,58,23,28
200.5,54,23,28
200.5,54,23,28
200.5,54,23,28
196.5,54,23,28
196.5,54,23,28
192.5,54,23,28
192.5,54,23,28
188.5,54,23,28
188.5,54,23,28
188.5,54,23,28
184.5,54,23,28
184.5,54,23,28
180.5,54,23,28
180.5,54,23,28
180.5,54,23,28
176.5,50,23,28
172.5,50,23,28
172.5,50,23,28
172.5,50,23,28
168.5,50,23,28
164.5,50,23,28
160.5,50,23,28
156.5,50,23,28
148.5,50,23,28
144.5,54,23,28
140.5,58,23,28
136.5,58,23,28
132.5,62,23,28
124.5,62,23,28
120.5,66,23,28
112.5,66,23,28
108.5,66,23,28
100.5,66,23,28
92.5,66,23,28
88.5,66,23,28
84.5,66,23,28
80.5,66,23,28
80.5,66,23,28
76.5,66,23,28
76.5,70,23,28
72.5,70,23,28
72.5,74,23,28
68.5,74,23,28
68.5,74,23,28
68.5,78,23,28
68.5,82,23,28
68.5,82,23,28
72.5,86,23,28
72.5,86,23,28
72.5,86,23,28
76.5,86,23,28
76.5,86,23,28
80.5,86,23,28
84.5,86,23,28
84.5,82,23,28
88.5,82,23,28
88.5,82,23,28
88.5,82,23,28
88.5,82,23,28
92.5,82,23,28
92.5,82,23,28
92.5,82,23,28
96.5,86,23,28
96.5,86,23,28
96.5,86,23,28
100.5,86,23,28
100.5,86,23,28
100.5,86,23,28
100.5,86,23,28
100.5,82,23,28
100.5,78,23,28
96.5,74,23,28
96.5,74,23,28
96.5,70,23,28
96.5,70,23,28
92.5,70,23,28
92.5,70,23,28
92.5,70,23,28
92.5,70,23,28
88.5,70,23,28
88.5,70,23,28
84.5,70,23,28
80.5,70,23,28
76.5,70,23,28
68.5,70,23,28
64.5,74,23,28
60.5,74,23,28
56.5,78,23,28
52.5,78,23,28
52.5,78,23,28
52.5,78,23,28
52.5,78,23,28
56.5,82,23,28
60.5,82,23,28
64.5,82,23,28
68.5,82,23,28
72.5,82,23,28
76.5,82,23,28
80.5,82,23,28
84.5,82,23,28
88.5,82,23,28
92.5,82,23,28
96.5,78,23,28
100.5,78,23,28
104.5,78,23,28
108.5,74,23,28
112.5,74,23,28
112.5,74,23,28
116.5,74,23,28
120.5,74,23,28
120.5,74,23,28
124.5,74,23,28
124.5,74,23,28
128.5,74,23,28
132.5,78,23,28
132.5,78,23,28
124.5,86,23,28
120.5,90,23,28
116.5,94,23,28
112.5,102,23,28
104.5,110,23,28
100.5,106,23,28
96.5,110,23,28
92.5,110,23,28
88.5,110,23,28
80.5,106,23,28
72.5,106,23,28
68.5,106,23,28
60.5,106,23,28
56.5,110,23,28
48.5,110,23,28
40.5,114,23,28
32.5,118,23,28
24.5,122,23,28
16.5,122,23,28
28.5,126,23,28
24.5,134,23,28
24.5,138,23,28
28.5,142,23,28
24.5,142,23,28
24.5,138,23,28
24.5,142,23,28
20.5,138,23,28
28.5,142,23,28
28.5,138,23,28
28.5,138,23,28
32.5,134,23,28
36.5,134,23,28
36.5,138,23,28
36.5,142,23,28
36.5,142,23,28
36.5,142,23,28
36.5,138,23,28
36.5,138,23,28
36.5,134,23,28
40.5,126,23,28
40.5,126,23,28
40.5,126,23,28
40.5,126,23,28
44.5,126,23,28
36.5,126,23,28
40.5,122,23,28
40.5,122,23,28
40.5,122,23,28
40.5,114,23,28
36.5,114,23,28
36.5,110,23,28
36.5,110,23,28
36.5,106,23,28
40.5,110,23,28
36.5,106,23,28
36.5,106,23,28
40.5,106,23,28
44.5,110,23,28
40.5,110,23,28
40.5,110,23,28
40.5,114,23,28
40.5,114,23,28
36.5,114,23,28
36.5,114,23,28
36.5,106,23,28
36.5,110,23,28
40.5,106,23,28
40.5,106,23,28
40.5,106,23,28
40.5,106,23,28
40.5,106,23,28
36.5,106,23,28
36.5,106,23,28
32.5,106,23,28
28.5,106,23,28
28.5,106,23,28
24.5,106,23,28
24.5,106,23,28
20.5,106,23,28
20.5,106,23,28
20.5,106,23,28
20.5,106,23,28
16.5,106,23,28
16.5,106,23,28
16.5,106,23,28
16.5,106,23,28
16.5,106,23,28
16.5,106,23,28
16.5,106,23,28
16.5,106,23,28
16.5,106,23,28
16.5,106,23,28
16.5,106,23,28
16.5,106,23,28
16.5,106,23,28
16.5,106,23,28
16.5,106,23,28
16.5,106,23,28
16.5,106,23,28
12.5,106,23,28
12.5,106,23,28
12.5,106,23,28
12.5,106,23,28
12.5,106,23,28
12.5,106,23,28
12.5,106,23,28
12.5,106,23,28
12.5,106,23,28
8.5,106,23,28
8.5,106,23,28
8.5,106,23,28
8.5,106,23,28
8.5,106,23,28
8.5,106,23,28
8.5,106,23,28
8.5,106,23,28
8.5,106,23,28
8.5,106,23,28
8.5,106,23,28
12.5,106,23,28
12.5,106,23,28
12.5,106,23,28
12.5,106,23,28
16.5,106,23,28
16.5,106,23,28
16.5,106,23,28
16.5,106,23,28
16.5,106,23,28
16.5,106,23,28
20.5,106,23,28
20.5,106,23,28
20.5,106,23,28
20.5,106,23,28
20.5,106,23,28
20.5,106,23,28
24.5,106,23,28
24.5,106,23,28
24.5,106,23,28
24.5,106,23,28
24.5,106,23,28
24.5,106,23,28
24.5,106,23,28
24.5,106,23,28
24.5,106,23,28
