245,63.5,12,13
245,63.5,12,13
245,63.5,12,13
245,63.5,12,13
245,63.5,12,13
245,63.5,12,13
245,63.5,12,13
245,63.5,12,13
245,63.5,12,13
245,63.5,12,13
245,63.5,12,13
245,63.5,12,13
245,63.5,12,13
245,63.5,12,13
245,63.5,12,13
245,63.5,12,13
245,63.5,12,13
245,63.5,12,13
245,63.5,12,13
245,63.5,12,13
245,63.5,12,13
245,63.5,12,13
245,63.5,12,13
245,63.5,12,13
245,63.5,12,13
245,63.5,12,13
245,63.5,12,13
241,63.5,12,13
241,63.5,12,13
241,63.5,12,13
241,63.5,12,13
241,63.5,12,13
237,63.5,12,13
237,63.5,12,13
237,63.5,12,13
233,63.5,12,13
233,63.5,12,13
233,63.5,12,13
229,63.5,12,13
229,63.5,12,13
225,63.5,12,13
225,63.5,12,13
221,63.5,12,13
221,63.5,12,13
217,63.5,12,13
217,63.5,12,13
217,63.5,12,13
213,63.5,12,13
213,63.5,12,13
209,63.5,12,13
209,63.5,12,13
205,63.5,12,13
205,63.5,12,13
205,63.5,12,13
201,63.5,12,13
201,63.5,12,13
197,63.5,12,13
197,63.5,12,13
193,63.5,12,13
193,63.5,12,13
193,63.5,12,13
189,63.5,12,13
189,63.5,12,13
185,63.5,12,13
185,63.5,12,13
181,63.5,12,13
181,63.5,12,13
181,63.5,12,13
177,63.5,12,13
177,63.5,12,13
173,63.5,12,13
173,63.5,12,13
169,63.5,12,13
169,63.5,12,13
165,63.5,12,13
165,63.5,12,13
165,63.5,12,13
161,63.5,12,13
161,63.5,12,13
157,63.5,12,13
157,63.5,12,13
157,63.5,12,13
153,63.5,12,13
153,63.5,12,13
153,63.5,12,13
153,63.5,12,13
153,63.5,12,13
153,63.5,12,13
153,63.5,12,13
153,63.5,12,13
153,63.5,12,13
153,63.5,12,13
153,63.5,12,13
153,63.5,12,13
153,63.5,12,13
153,63.5,12,13
153,63.5,12,13
153,63.5,12,13
153,63.5,12,13
153,63.5,12,13
153,63.5,12,13
153,63.5,12,13
153,63.5,12,13
153,63.5,12,13
153,63.5,12,13
153,63.5,12,13
153,63.5,12,13
153,63.5,12,13
153,63.5,12,13
153,63.5,12,13
153,63.5,12,13
153,63.5,12,13
153,63.5,12,13
153,63.5,12,13
153,63.5,12,13
153,63.5,12,13
153,63.5,12,13
157,67.5,12,13
157,67.5,12,13
157,67.5,12,13
157,67.5,12,13
157,67.5,12,13
157,67.5,12,13
157,67.5,12,13
157,67.5,12,13
157,67.5,12,13
157,67.5,12,13
157,67.5,12,13
157,67.5,12,13
157,67.5,12,13
157,67.5,12,13
157,67.5,12,13
153,63.5,12,13
153,63.5,12,13
153,63.5,12,13
149,63.5,12,13
149,63.5,12,13
149,63.5,12,13
149,63.5,12,13
149,63.5,12,13
149,63.5,12,13
149,63.5,12,13
149,63.5,12,13
149,63.5,12,13
149,63.5,12,13
149,63.5,12,13
149,63.5,12,13
149,63.5,12,13
145,63.5,12,13
145,63.5,12,13
145,63.5,12,13
145,63.5,12,13
141,63.5,12,13
141,63.5,12,13
141,63.5,12,13
137,63.5,12,13
137,63.5,12,13
133,63.5,12,13
133,63.5,12,13
129,63.5,12,13
129,63.5,12,13
129,63.5,12,13
125,63.5,12,13
125,63.5,12,13
121,63.5,12,13
121,63.5,12,13
121,63.5,12,13
117,59.5,12,13
117,59.5,12,13
117,59.5,12,13
113,59.5,12,13
113,59.5,12,13
113,59.5,12,13
109,59.5,12,13
109,59.5,12,13
109,59.5,12,13
109,59.5,12,13
105,59.5,12,13
105,59.5,12,13
105,59.5,12,13
105,59.5,12,13
105,59.5,12,13
105,59.5,12,13
105,59.5,12,13
105,59.5,12,13
105,59.5,12,13
105,59.5,12,13
101,59.5,12,13
101,59.5,12,13
101,59.5,12,13
101,59.5,12,13
97,59.5,12,13
97,59.5,12,13
97,59.5,12,13
97,59.5,12,13
93,59.5,12,13
93,59.5,12,13
93,59.5,12,13
89,59.5,12,13
89,59.5,12,13
85,59.5,12,13
85,59.5,12,13
85,59.5,12,13
85,59.5,12,13
81,59.5,12,13
81,59.5,12,13
81,59.5,12,13
81,59.5,12,13
81,59.5,12,13
81,59.5,12,13
81,59.5,12,13
81,59.5,12,13
81,59.5,12,13
81,59.5,12,13
81,59.5,12,13
81,59.5,12,13
85,59.5,12,13
85,59.5,12,13
85,59.5,12,13
85,59.5,12,13
85,59.5,12,13
89,59.5,12,13
89,59.5,12,13
89,59.5,12,13
89,59.5,12,13
89,59.5,12,13
89,59.5,12,13
89,59.5,12,13
93,59.5,12,13
93,59.5,12,13
93,59.5,12,13
93,59.5,12,13
93,59.5,12,13
93,59.5,12,13
93,59.5,12,13
93,59.5,12,13
93,59.5,12,13
93,59.5,12,13
93,59.5,12,13
93,59.5,12,13
97,59.5,12,13
97,59.5,12,13
97,59.5,12,13
97,55.5,12,13
97,55.5,12,13
97,55.5,12,13
97,55.5,12,13
97,55.5,12,13
97,55.5,12,13
97,55.5,12,13
101,55.5,12,13
101,55.5,12,13
101,55.5,12,13
105,55.5,12,13
109,55.5,12,13
109,59.5,12,13
113,59.5,12,13
117,59.5,12,13
121,59.5,12,13
121,59.5,12,13
125,59.5,12,13
129,59.5,12,13
133,59.5,12,13
137,59.5,12,13
141,59.5,12,13
141,59.5,12,13
141,59.5,12,13
145,55.5,12,13
145,55.5,12,13
145,55.5,12,13
149,55.5,12,13
149,55.5,12,13
149,55.5,12,13
153,55.5,12,13
157,55.5,12,13
161,55.5,12,13
165,55.5,12,13
169,55.5,12,13
173,55.5,12,13
177,55.5,12,13
181,55.5,12,13
185,55.5,12,13
189,59.5,12,13
193,59.5,12,13
197,59.5,12,13
201,59.5,12,13
205,59.5,12,13
209,63.5,12,13
213,63.5,12,13
217,63.5,12,13
221,63.5,12,13
221,63.5,12,13
225,63.5,12,13
229,59.5,12,13
233,59.5,12,13
237,59.5,12,13
237,59.5,12,13
241,59.5,12,13
241,59.5,12,13
245,59.5,12,13
249,59.5,12,13
253,59.5,12,13
253,63.5,12,13
257,63.5,12,13
257,63.5,12,13
261,63.5,12,13
265,63.5,12,13
265,63.5,12,13
269,63.5,12,13
269,63.5,12,13
273,63.5,12,13
273,63.5,12,13
277,63.5,12,13
277,63.5,12,13
277,63.5,12,13
281,63.5,12,13
281,63.5,12,13
285,63.5,12,13
285,63.5,12,13
289,63.5,12,13
289,63.5,12,13
293,63.5,12,13
293,63.5,12,13
297,63.5,12,13
297,63.5,12,13
297,63.5,12,13
301,63.5,12,13
301,63.5,12,13
301,59.5,12,13
301,59.5,12,13
301,59.5,12,13
301,55.5,12,13
301,55.5,12,13
301,55.5,12,13
301,51.5,12,13
301,51.5,12,13
301,51.5,12,13
305,51.5,12,13
305,51.5,12,13
305,55.5,12,13
309,55.5,12,13
309,55.5,12,13
313,55.5,12,13
313,55.5,12,13
313,55.5,12,13
317,55.5,12,13
321,55.5,12,13
321,55.5,12,13
325,55.5,12,13
325,51.5,12,13
325,51.5,12,13
325,51.5,12,13
325,51.5,12,13
325,51.5,12,13
325,51.5,12,13
325,51.5,12,13
325,51.5,12,13
325,51.5,12,13
325,51.5,12,13
321,51.5,12,13
317,51.5,12,13
317,55.5,12,13
313,55.5,12,13
309,55.5,12,13
305,59.5,12,13
301,59.5,12,13
301,59.5,12,13
297,59.5,12,13
293,59.5,12,13
293,59.5,12,13
293,59.5,12,13
293,59.5,12,13
293,59.5,12,13
289,59.5,12,13
289,59.5,12,13
285,59.5,12,13
281,59.5,12,13
277,59.5,12,13
277,59.5,12,13
273,59.5,12,13
269,59.5,12,13
269,59.5,12,13
265,59.5,12,13
265,59.5,12,13
261,59.5,12,13
261,59.5,12,13
257,59.5,12,13
253,59.5,12,13
253,59.5,12,13
249,63.5,12,13
249,63.5,12,13
245,63.5,12,13
245,63.5,12,13
241,63.5,12,13
241,63.5,12,13
241,63.5,12,13
241,63.5,12,13
241,63.5,12,13
241,63.5,12,13
241,59.5,12,13
241,59.5,12,13
241,59.5,12,13
241,55.5,12,13
241,51.5,12,13
241,51.5,12,13
241,51.5,12,13
245,47.5,12,13
245,47.5,12,13
245,47.5,12,13
245,47.5,12,13
245,43.5,12,13
245,43.5,12,13
245,43.5,12,13
241,43.5,12,13
237,43.5,12,13
233,43.5,12,13
229,39.5,12,13
225,39.5,12,13
225,39.5,12,13
225,43.5,12,13
229,47.5,12,13
229,47.5,12,13
229,47.5,12,13
229,47.5,12,13
229,47.5,12,13
229,47.5,12,13
229,47.5,12,13
229,47.5,12,13
229,47.5,12,13
229,47.5,12,13
229,47.5,12,13
229,47.5,12,13
229,47.5,12,13
229,47.5,12,13
229,47.5,12,13
229,47.5,12,13
229,47.5,12,13
229,47.5,12,13
229,47.5,12,13
229,51.5,12,13
229,51.5,12,13
229,51.5,12,13
229,51.5,12,13
229,51.5,12,13
229,51.5,12,13
229,51.5,12,13
229,51.5,12,13
229,51.5,12,13
229,51.5,12,13
229,51.5,12,13
229,47.5,12,13
229,47.5,12,13
229,47.5,12,13
229,47.5,12,13
229,47.5,12,13
229,47.5,12,13
229,47.5,12,13
229,47.5,12,13
229,47.5,12,13
229,47.5,12,13
