179.5,79,37,114
179.5,83,37,114
179.5,87,37,114
179.5,91,37,114
175.5,91,37,114
175.5,91,37,114
175.5,95,37,114
175.5,95,37,114
171.5,95,37,114
167.5,95,37,114
167.5,99,37,114
163.5,103,37,114
163.5,103,37,114
159.5,103,37,114
159.5,99,37,114
159.5,99,37,114
159.5,95,37,114
155.5,91,37,114
159.5,91,37,114
159.5,95,37,114
163.5,95,37,114
163.5,99,37,114
167.5,99,37,114
163.5,95,37,114
167.5,95,37,114
167.5,95,37,114
167.5,95,37,114
167.5,95,37,114
171.5,91,37,114
171.5,91,37,114
171.5,91,37,114
171.5,91,37,114
171.5,91,37,114
171.5,91,37,114
171.5,87,37,114
171.5,87,37,114
167.5,87,37,114
167.5,87,37,114
167.5,87,37,114
167.5,87,37,114
167.5,91,37,114
163.5,87,37,114
159.5,87,37,114
159.5,87,37,114
155.5,87,37,114
151.5,83,37,114
147.5,87,37,114
143.5,87,37,114
139.5,83,37,114
131.5,83,37,114
127.5,87,37,114
123.5,87,37,114
119.5,87,37,114
119.5,87,37,114
115.5,83,37,114
111.5,79,37,114
111.5,83,37,114
115.5,79,37,114
115.5,75,37,114
115.5,71,37,114
115.5,71,37,114
115.5,71,37,114
111.5,71,37,114
107.5,67,37,114
107.5,67,37,114
107.5,63,37,114
103.5,59,37,114
103.5,63,37,114
99.5,59,37,114
95.5,59,37,114
95.5,59,37,114
91.5,55,37,114
87.5,55,37,114
83.5,55,37,114
83.5,55,37,114
79.5,55,37,114
75.5,55,37,114
67.5,55,37,114
51.5,55,37,114
47.5,55,37,114
43.5,55,37,114
39.5,51,37,114
35.5,47,37,114
31.5,43,37,114
31.5,43,37,114
27.5,39,37,114
27.5,39,37,114
23.5,35,37,114
23.5,35,37,114
23.5,31,37,114
23.5,31,37,114
23.5,31,37,114
19.5,31,37,114
19.5,31,37,114
15.5,31,37,114
15.5,31,37,114
7.5,31,37,114
3.5,27,37,114
-0.5,27,37,114
-4.5,27,37,114
-8.5,23,37,114
-12.5,19,37,114
-16.5,19,37,114
-24.5,15,37,114
-28.5,15,37,114
-32.5,11,37,114
-12.5,11,37,114
-12.5,27,37,114
-12.5,43,37,114
-12.5,3,37,114
-16.5,7,37,114
-0.5,15,37,114
3.5,15,37,114
7.5,15,37,114
7.5,19,37,114
11.5,27,37,114
7.5,27,37,114
3.5,27,37,114
-0.5,31,37,114
-4.5,31,37,114
-4.5,31,37,114
-4.5,31,37,114
-4.5,27,37,114
-4.5,27,37,114
-4.5,27,37,114
-4.5,27,37,114
-8.5,27,37,114
-8.5,31,37,114
-8.5,27,37,114
-4.5,31,37,114
-4.5,31,37,114
-4.5,35,37,114
-4.5,35,37,114
-4.5,35,37,114
-4.5,39,37,114
-4.5,43,37,114
-4.5,47,37,114
-4.5,47,37,114
-4.5,47,37,114
-4.5,51,37,114
-4.5,55,37,114
-0.5,55,37,114
-0.5,55,37,114
-4.5,51,37,114
-4.5,51,37,114
-4.5,51,37,114
-4.5,51,37,114
-4.5,47,37,114
-4.5,47,37,114
-4.5,47,37,114
-4.5,43,37,114
-4.5,39,37,114
-4.5,35,37,114
-4.5,35,37,114
-4.5,35,37,114
-4.5,35,37,114
-4.5,31,37,114
-4.5,27,37,114
-4.5,27,37,114
-4.5,31,37,114
-4.5,31,37,114
-4.5,31,37,114
-4.5,31,37,114
-4.5,31,37,114
-4.5,31,37,114
-4.5,31,37,114
-4.5,31,37,114
-4.5,31,37,114
-4.5,31,37,114
-4.5,31,37,114
-4.5,35,37,114
-4.5,35,37,114
-4.5,35,37,114
-4.5,35,37,114
-4.5,35,37,114
-4.5,39,37,114
-4.5,39,37,114
-4.5,39,37,114
-4.5,39,37,114
-4.5,43,37,114
-4.5,43,37,114
-4.5,39,37,114
-4.5,39,37,114
-4.5,39,37,114
-4.5,43,37,114
-4.5,43,37,114
-4.5,43,37,114
-4.5,39,37,114
-4.5,39,37,114
-4.5,39,37,114
-4.5,35,37,114
-4.5,31,37,114
-4.5,31,37,114
-4.5,31,37,114
-4.5,31,37,114
-4.5,31,37,114
-4.5,31,37,114
-4.5,27,37,114
-4.5,27,37,114
-4.5,27,37,114
-4.5,27,37,114
-4.5,31,37,114
-4.5,31,37,114
-4.5,31,37,114
-4.5,35,37,114
-4.5,35,37,114
-4.5,35,37,114
-4.5,35,37,114
-4.5,39,37,114
-4.5,43,37,114
-4.5,43,37,114
-4.5,43,37,114
-4.5,47,37,114
-4.5,47,37,114
-4.5,51,37,114
-4.5,55,37,114
-4.5,63,37,114
-4.5,63,37,114
-4.5,67,37,114
-4.5,71,37,114
-4.5,71,37,114
-4.5,71,37,114
-4.5,67,37,114
-4.5,63,37,114
-4.5,63,37,114
-4.5,59,37,114
-4.5,55,37,114
-4.5,51,37,114
-4.5,51,37,114
-4.5,51,37,114
-4.5,51,37,114
-4.5,55,37,114
-4.5,55,37,114
-4.5,51,37,114
-4.5,51,37,114
-4.5,47,37,114
-4.5,43,37,114
-0.5,39,37,114
-4.5,35,37,114
-4.5,35,37,114
-4.5,39,37,114
-4.5,43,37,114
-4.5,43,37,114
-4.5,43,37,114
-4.5,43,37,114
-4.5,43,37,114
-4.5,39,37,114
-4.5,43,37,114
-4.5,43,37,114
-4.5,47,37,114
-4.5,51,37,114
-4.5,51,37,114
-4.5,55,37,114
-4.5,55,37,114
-4.5,55,37,114
-4.5,55,37,114
-4.5,55,37,114
-4.5,59,37,114
-4.5,59,37,114
-4.5,59,37,114
-4.5,63,37,114
-4.5,63,37,114
-4.5,67,37,114
-4.5,67,37,114
-4.5,75,37,114
-4.5,79,37,114
-4.5,79,37,114
-4.5,79,37,114
-4.5,79,37,114
-4.5,75,37,114
-4.5,75,37,114
-4.5,75,37,114
-4.5,71,37,114
-4.5,67,37,114
-4.5,71,37,114
-4.5,71,37,114
-4.5,71,37,114
-4.5,75,37,114
-4.5,75,37,114
-4.5,75,37,114
-4.5,75,37,114
-4.5,75,37,114
-4.5,79,37,114
-4.5,79,37,114
-4.5,79,37,114
-4.5,79,37,114
-4.5,79,37,114
-4.5,83,37,114
-4.5,83,37,114
-4.5,83,37,114
-4.5,83,37,114
-4.5,83,37,114
-4.5,83,37,114
-4.5,87,37,114
-4.5,91,37,114
-8.5,91,37,114
-8.5,95,37,114
-8.5,91,37,114
-8.5,91,37,114
-4.5,91,37,114
-4.5,91,37,114
-4.5,87,37,114
-4.5,83,37,114
-4.5,83,37,114
-4.5,83,37,114
-4.5,79,37,114
-4.5,79,37,114
