39.5,198.5,61,103
39.5,198.5,61,103
39.5,198.5,61,103
39.5,198.5,61,103
39.5,198.5,61,103
39.5,194.5,61,103
39.5,194.5,61,103
39.5,194.5,61,103
35.5,194.5,61,103
35.5,194.5,61,103
35.5,190.5,61,103
35.5,190.5,61,103
35.5,186.5,61,103
35.5,182.5,61,103
35.5,178.5,61,103
35.5,170.5,61,103
35.5,166.5,61,103
35.5,158.5,61,103
39.5,150.5,61,103
39.5,142.5,61,103
39.5,138.5,61,103
43.5,130.5,61,103
47.5,126.5,61,103
47.5,122.5,61,103
51.5,114.5,61,103
55.5,110.5,61,103
63.5,102.5,61,103
67.5,98.5,61,103
75.5,94.5,61,103
83.5,90.5,61,103
87.5,86.5,61,103
95.5,82.5,61,103
103.5,78.5,61,103
115.5,70.5,61,103
123.5,70.5,61,103
131.5,66.5,61,103
143.5,62.5,61,103
151.5,62.5,61,103
163.5,58.5,61,103
171.5,58.5,61,103
183.5,54.5,61,103
191.5,54.5,61,103
199.5,50.5,61,103
211.5,50.5,61,103
219.5,50.5,61,103
223.5,50.5,61,103
231.5,54.5,61,103
239.5,54.5,61,103
243.5,54.5,61,103
251.5,54.5,61,103
255.5,58.5,61,103
259.5,58.5,61,103
263.5,62.5,61,103
267.5,66.5,61,103
271.5,66.5,61,103
275.5,70.5,61,103
279.5,74.5,61,103
283.5,74.5,61,103
287.5,78.5,61,103
291.5,82.5,61,103
295.5,90.5,61,103
299.5,94.5,61,103
303.5,98.5,61,103
307.5,102.5,61,103
311.5,106.5,61,103
315.5,110.5,61,103
323.5,114.5,61,103
327.5,122.5,61,103
331.5,126.5,61,103
335.5,134.5,61,103
339.5,138.5,61,103
343.5,146.5,61,103
347.5,150.5,61,103
351.5,158.5,61,103
355.5,162.5,61,103
359.5,170.5,61,103
363.5,174.5,61,103
363.5,182.5,61,103
367.5,186.5,61,103
367.5,194.5,61,103
367.5,198.5,61,103
367.5,202.5,61,103
367.5,206.5,61,103
367.5,210.5,61,103
367.5,210.5,61,103
367.5,210.5,61,103
363.5,210.5,61,103
363.5,210.5,61,103
363.5,210.5,61,103
363.5,210.5,61,103
363.5,206.5,61,103
363.5,202.5,61,103
363.5,202.5,61,103
363.5,198.5,61,103
363.5,194.5,61,103
367.5,190.5,61,103
367.5,186.5,61,103
367.5,182.5,61,103
371.5,178.5,61,103
371.5,174.5,61,103
371.5,170.5,61,103
371.5,166.5,61,103
371.5,158.5,61,103
371.5,154.5,61,103
367.5,150.5,61,103
367.5,146.5,61,103
363.5,142.5,61,103
359.5,138.5,61,103
355.5,134.5,61,103
351.5,130.5,61,103
347.5,130.5,61,103
339.5,130.5,61,103
335.5,130.5,61,103
327.5,130.5,61,103
319.5,130.5,61,103
311.5,130.5,61,103
307.5,130.5,61,103
299.5,130.5,61,103
291.5,130.5,61,103
283.5,130.5,61,103
279.5,130.5,61,103
271.5,130.5,61,103
267.5,130.5,61,103
259.5,134.5,61,103
255.5,134.5,61,103
251.5,138.5,61,103
247.5,142.5,61,103
243.5,142.5,61,103
239.5,146.5,61,103
235.5,150.5,61,103
231.5,150.5,61,103
231.5,154.5,61,103
231.5,154.5,61,103
231.5,158.5,61,103
231.5,162.5,61,103
231.5,166.5,61,103
231.5,170.5,61,103
231.5,174.5,61,103
235.5,174.5,61,103
239.5,174.5,61,103
243.5,174.5,61,103
247.5,174.5,61,103
251.5,174.5,61,103
255.5,174.5,61,103
259.5,174.5,61,103
267.5,170.5,61,103
271.5,170.5,61,103
275.5,170.5,61,103
283.5,170.5,61,103
287.5,170.5,61,103
291.5,170.5,61,103
295.5,170.5,61,103
299.5,170.5,61,103
303.5,174.5,61,103
307.5,174.5,61,103
311.5,174.5,61,103
315.5,174.5,61,103
315.5,178.5,61,103
319.5,178.5,61,103
319.5,178.5,61,103
323.5,182.5,61,103
323.5,182.5,61,103
323.5,182.5,61,103
327.5,182.5,61,103
327.5,182.5,61,103
331.5,178.5,61,103
331.5,178.5,61,103
335.5,178.5,61,103
339.5,178.5,61,103
339.5,174.5,61,103
343.5,174.5,61,103
347.5,174.5,61,103
351.5,174.5,61,103
355.5,170.5,61,103
359.5,170.5,61,103
363.5,170.5,61,103
367.5,170.5,61,103
371.5,170.5,61,103
375.5,170.5,61,103
379.5,170.5,61,103
383.5,166.5,61,103
387.5,166.5,61,103
391.5,166.5,61,103
395.5,162.5,61,103
399.5,162.5,61,103
403.5,158.5,61,103
407.5,158.5,61,103
411.5,154.5,61,103
415.5,150.5,61,103
419.5,150.5,61,103
419.5,146.5,61,103
423.5,146.5,61,103
427.5,142.5,61,103
427.5,142.5,61,103
431.5,142.5,61,103
435.5,142.5,61,103
435.5,142.5,61,103
439.5,142.5,61,103
439.5,142.5,61,103
443.5,146.5,61,103
443.5,146.5,61,103
443.5,146.5,61,103
447.5,146.5,61,103
447.5,146.5,61,103
451.5,142.5,61,103
451.5,142.5,61,103
451.5,134.5,61,103
451.5,130.5,61,103
451.5,126.5,61,103
451.5,122.5,61,103
451.5,118.5,61,103
447.5,114.5,61,103
447.5,106.5,61,103
443.5,98.5,61,103
439.5,94.5,61,103
431.5,86.5,61,103
423.5,82.5,61,103
415.5,78.5,61,103
407.5,74.5,61,103
395.5,70.5,61,103
383.5,66.5,61,103
371.5,58.5,61,103
355.5,54.5,61,103
339.5,50.5,61,103
323.5,50.5,61,103
307.5,46.5,61,103
287.5,46.5,61,103
271.5,42.5,61,103
255.5,38.5,61,103
239.5,38.5,61,103
219.5,34.5,61,103
203.5,30.5,61,103
187.5,30.5,61,103
175.5,30.5,61,103
159.5,26.5,61,103
147.5,26.5,61,103
135.5,22.5,61,103
123.5,22.5,61,103
111.5,22.5,61,103
103.5,26.5,61,103
91.5,30.5,61,103
83.5,30.5,61,103
75.5,34.5,61,103
67.5,42.5,61,103
59.5,46.5,61,103
55.5,54.5,61,103
47.5,58.5,61,103
43.5,66.5,61,103
39.5,70.5,61,103
35.5,78.5,61,103
31.5,86.5,61,103
31.5,94.5,61,103
27.5,98.5,61,103
23.5,106.5,61,103
19.5,110.5,61,103
19.5,118.5,61,103
15.5,122.5,61,103
15.5,126.5,61,103
11.5,130.5,61,103
11.5,134.5,61,103
11.5,138.5,61,103
11.5,142.5,61,103
11.5,142.5,61,103
11.5,146.5,61,103
11.5,150.5,61,103
11.5,154.5,61,103
11.5,154.5,61,103
11.5,158.5,61,103
15.5,162.5,61,103
15.5,166.5,61,103
15.5,170.5,61,103
19.5,174.5,61,103
19.5,178.5,61,103
23.5,182.5,61,103
23.5,186.5,61,103
27.5,194.5,61,103
27.5,194.5,61,103
31.5,198.5,61,103
31.5,202.5,61,103
35.5,206.5,61,103
35.5,210.5,61,103
39.5,210.5,61,103
39.5,214.5,61,103
39.5,214.5,61,103
43.5,218.5,61,103
43.5,218.5,61,103
43.5,222.5,61,103
47.5,226.5,61,103
47.5,226.5,61,103
47.5,230.5,61,103
47.5,230.5,61,103
47.5,230.5,61,103
51.5,230.5,61,103
51.5,230.5,61,103
51.5,230.5,61,103
51.5,230.5,61,103
51.5,234.5,61,103
55.5,234.5,61,103
55.5,234.5,61,103
55.5,234.5,61,103
55.5,234.5,61,103
59.5,238.5,61,103
59.5,238.5,61,103
59.5,238.5,61,103
59.5,238.5,61,103
59.5,242.5,61,103
59.5,242.5,61,103
59.5,242.5,61,103
59.5,242.5,61,103
63.5,246.5,61,103
63.5,246.5,61,103
63.5,250.5,61,103
63.5,250.5,61,103
63.5,254.5,61,103
63.5,254.5,61,103
63.5,258.5,61,103
63.5,258.5,61,103
63.5,258.5,61,103
63.5,258.5,61,103
63.5,258.5,61,103
63.5,258.5,61,103
63.5,258.5,61,103
63.5,258.5,61,103
63.5,262.5,61,103
63.5,262.5,61,103
67.5,262.5,61,103
67.5,262.5,61,103
67.5,262.5,61,103
67.5,266.5,61,103
71.5,266.5,61,103
71.5,266.5,61,103
75.5,270.5,61,103
75.5,270.5,61,103
79.5,270.5,61,103
79.5,270.5,61,103
79.5,270.5,61,103
79.5,270.5,61,103
79.5,270.5,61,103
79.5,270.5,61,103
79.5,270.5,61,103
79.5,270.5,61,103
79.5,270.5,61,103
79.5,270.5,61,103
79.5,270.5,61,103
79.5,270.5,61,103
79.5,270.5,61,103
79.5,270.5,61,103
79.5,270.5,61,103
79.5,270.5,61,103
79.5,270.5,61,103
79.5,270.5,61,103
79.5,270.5,61,103
79.5,270.5,61,103
79.5,270.5,61,103
79.5,270.5,61,103
79.5,270.5,61,103
79.5,270.5,61,103
79.5,270.5,61,103
79.5,270.5,61,103
79.5,270.5,61,103
79.5,270.5,61,103
79.5,270.5,61,103
79.5,270.5,61,103
79.5,270.5,61,103
79.5,270.5,61,103
79.5,270.5,61,103
79.5,270.5,61,103
79.5,270.5,61,103
79.5,270.5,61,103
79.5,270.5,61,103
79.5,270.5,61,103
79.5,270.5,61,103
79.5,270.5,61,103
79.5,270.5,61,103
79.5,270.5,61,103
79.5,270.5,61,103
79.5,270.5,61,103
79.5,270.5,61,103
79.5,270.5,61,103
79.5,270.5,61,103
79.5,270.5,61,103
79.5,270.5,61,103
79.5,270.5,61,103
79.5,270.5,61,103
79.5,270.5,61,103
79.5,270.5,61,103
79.5,270.5,61,103
79.5,270.5,61,103
79.5,270.5,61,103
79.5,270.5,61,103
79.5,270.5,61,103
79.5,270.5,61,103
79.5,270.5,61,103
79.5,270.5,61,103
79.5,270.5,61,103
79.5,270.5,61,103
79.5,270.5,61,103
79.5,270.5,61,103
79.5,270.5,61,103
79.5,270.5,61,103
79.5,270.5,61,103
79.5,270.5,61,103
79.5,270.5,61,103
79.5,270.5,61,103
79.5,270.5,61,103
79.5,270.5,61,103
79.5,270.5,61,103
79.5,270.5,61,103
79.5,270.5,61,103
79.5,270.5,61,103
79.5,270.5,61,103
79.5,270.5,61,103
79.5,270.5,61,103
79.5,270.5,61,103
79.5,270.5,61,103
79.5,270.5,61,103
79.5,270.5,61,103
79.5,270.5,61,103
79.5,270.5,61,103
79.5,270.5,61,103
79.5,270.5,61,103
79.5,270.5,61,103
79.5,270.5,61,103
79.5,270.5,61,103
79.5,270.5,61,103
79.5,270.5,61,103
79.5,270.5,61,103
79.5,270.5,61,103
79.5,270.5,61,103
79.5,270.5,61,103
79.5,270.5,61,103
79.5,270.5,61,103
79.5,270.5,61,103
79.5,270.5,61,103
79.5,270.5,61,103
79.5,270.5,61,103
79.5,270.5,61,103
79.5,270.5,61,103
79.5,270.5,61,103
79.5,270.5,61,103
79.5,270.5,61,103
79.5,270.5,61,103
79.5,270.5,61,103
79.5,270.5,61,103
79.5,270.5,61,103
79.5,270.5,61,103
79.5,270.5,61,103
79.5,270.5,61,103
79.5,270.5,61,103
79.5,270.5,61,103
79.5,270.5,61,103
79.5,270.5,61,103
79.5,270.5,61,103
79.5,270.5,61,103
79.5,270.5,61,103
79.5,270.5,61,103
79.5,270.5,61,103
79.5,270.5,61,103
79.5,270.5,61,103
79.5,270.5,61,103
79.5,270.5,61,103
79.5,270.5,61,103
79.5,270.5,61,103
79.5,270.5,61,103
79.5,270.5,61,103
79.5,270.5,61,103
79.5,270.5,61,103
79.5,270.5,61,103
79.5,270.5,61,103
79.5,270.5,61,103
79.5,270.5,61,103
79.5,270.5,61,103
79.5,270.5,61,103
79.5,270.5,61,103
79.5,270.5,61,103
79.5,270.5,61,103
79.5,270.5,61,103
79.5,270.5,61,103
79.5,270.5,61,103
79.5,270.5,61,103
79.5,270.5,61,103
79.5,270.5,61,103
79.5,270.5,61,103
79.5,270.5,61,103
79.5,270.5,61,103
79.5,270.5,61,103
79.5,270.5,61,103
79.5,270.5,61,103
79.5,270.5,61,103
79.5,270.5,61,103
79.5,270.5,61,103
79.5,270.5,61,103
79.5,270.5,61,103
79.5,270.5,61,103
79.5,270.5,61,103
79.5,270.5,61,103
79.5,270.5,61,103
79.5,270.5,61,103
79.5,270.5,61,103
79.5,270.5,61,103
79.5,270.5,61,103
79.5,270.5,61,103
79.5,270.5,61,103
79.5,270.5,61,103
79.5,270.5,61,103
79.5,270.5,61,103
79.5,270.5,61,103
79.5,270.5,61,103
79.5,270.5,61,103
79.5,270.5,61,103
79.5,270.5,61,103
79.5,270.5,61,103
79.5,270.5,61,103
79.5,270.5,61,103
79.5,270.5,61,103
79.5,270.5,61,103
79.5,270.5,61,103
79.5,270.5,61,103
79.5,270.5,61,103
79.5,270.5,61,103
79.5,270.5,61,103
79.5,270.5,61,103
79.5,270.5,61,103
79.5,270.5,61,103
79.5,270.5,61,103
79.5,270.5,61,103
79.5,270.5,61,103
79.5,270.5,61,103
79.5,270.5,61,103
79.5,270.5,61,103
79.5,270.5,61,103
79.5,270.5,61,103
79.5,270.5,61,103
79.5,270.5,61,103
79.5,270.5,61,103
79.5,270.5,61,103
79.5,270.5,61,103
79.5,270.5,61,103
79.5,270.5,61,103
79.5,270.5,61,103
79.5,270.5,61,103
79.5,270.5,61,103
79.5,270.5,61,103
79.5,270.5,61,103
79.5,270.5,61,103
79.5,270.5,61,103
79.5,270.5,61,103
79.5,270.5,61,103
79.5,270.5,61,103
79.5,270.5,61,103
79.5,270.5,61,103
79.5,270.5,61,103
79.5,270.5,61,103
79.5,270.5,61,103
79.5,270.5,61,103
79.5,270.5,61,103
79.5,270.5,61,103
79.5,270.5,61,103
79.5,270.5,61,103
79.5,270.5,61,103
79.5,270.5,61,103
79.5,270.5,61,103
79.5,270.5,61,103
79.5,270.5,61,103
79.5,270.5,61,103
79.5,270.5,61,103
79.5,270.5,61,103
79.5,270.5,61,103
79.5,270.5,61,103
79.5,270.5,61,103
79.5,270.5,61,103
79.5,270.5,61,103
79.5,270.5,61,103
79.5,270.5,61,103
79.5,270.5,61,103
79.5,270.5,61,103
79.5,270.5,61,103
79.5,270.5,61,103
79.5,270.5,61,103
79.5,270.5,61,103
79.5,270.5,61,103
79.5,270.5,61,103
79.5,270.5,61,103
79.5,270.5,61,103
79.5,270.5,61,103
79.5,270.5,61,103
79.5,270.5,61,103
79.5,270.5,61,103
79.5,270.5,61,103
79.5,270.5,61,103
79.5,270.5,61,103
79.5,270.5,61,103
79.5,270.5,61,103
79.5,270.5,61,103
79.5,270.5,61,103
79.5,270.5,61,103
79.5,270.5,61,103
79.5,270.5,61,103
79.5,270.5,61,103
79.5,270.5,61,103
79.5,270.5,61,103
79.5,270.5,61,103
79.5,270.5,61,103
79.5,270.5,61,103
79.5,270.5,61,103
79.5,270.5,61,103
79.5,270.5,61,103
79.5,270.5,61,103
79.5,270.5,61,103
79.5,270.5,61,103
79.5,270.5,61,103
79.5,270.5,61,103
79.5,270.5,61,103
79.5,270.5,61,103
79.5,270.5,61,103
79.5,270.5,61,103
79.5,270.5,61,103
79.5,270.5,61,103
79.5,270.5,61,103
79.5,270.5,61,103
79.5,270.5,61,103
79.5,270.5,61,103
79.5,270.5,61,103
79.5,270.5,61,103
79.5,270.5,61,103
79.5,270.5,61,103
79.5,270.5,61,103
79.5,270.5,61,103
79.5,270.5,61,103
79.5,270.5,61,103
79.5,270.5,61,103
79.5,270.5,61,103
79.5,270.5,61,103
79.5,270.5,61,103
79.5,270.5,61,103
79.5,270.5,61,103
79.5,270.5,61,103
79.5,270.5,61,103
79.5,270.5,61,103
79.5,270.5,61,103
79.5,270.5,61,103
79.5,270.5,61,103
79.5,270.5,61,103
79.5,270.5,61,103
79.5,270.5,61,103
79.5,270.5,61,103
79.5,270.5,61,103
79.5,270.5,61,103
79.5,270.5,61,103
79.5,270.5,61,103
79.5,270.5,61,103
79.5,270.5,61,103
79.5,270.5,61,103
79.5,270.5,61,103
79.5,270.5,61,103
79.5,270.5,61,103
79.5,270.5,61,103
79.5,270.5,61,103
79.5,270.5,61,103
79.5,270.5,61,103
79.5,270.5,61,103
79.5,270.5,61,103
79.5,270.5,61,103
79.5,270.5,61,103
79.5,270.5,61,103
79.5,270.5,61,103
79.5,270.5,61,103
79.5,270.5,61,103
79.5,270.5,61,103
79.5,270.5,61,103
79.5,270.5,61,103
79.5,270.5,61,103
79.5,270.5,61,103
79.5,270.5,61,103
79.5,270.5,61,103
79.5,270.5,61,103
79.5,270.5,61,103
79.5,270.5,61,103
79.5,270.5,61,103
79.5,270.5,61,103
79.5,270.5,61,103
79.5,270.5,61,103
79.5,270.5,61,103
79.5,270.5,61,103
79.5,270.5,61,103
79.5,270.5,61,103
79.5,270.5,61,103
79.5,270.5,61,103
79.5,270.5,61,103
79.5,270.5,61,103
79.5,270.5,61,103
79.5,270.5,61,103
79.5,270.5,61,103
79.5,270.5,61,103
79.5,270.5,61,103
79.5,270.5,61,103
79.5,270.5,61,103
79.5,270.5,61,103
79.5,270.5,61,103
79.5,270.5,61,103
79.5,270.5,61,103
79.5,270.5,61,103
79.5,270.5,61,103
79.5,270.5,61,103
79.5,270.5,61,103
79.5,270.5,61,103
79.5,270.5,61,103
79.5,270.5,61,103
79.5,270.5,61,103
79.5,270.5,61,103
79.5,270.5,61,103
79.5,270.5,61,103
79.5,270.5,61,103
79.5,270.5,61,103
79.5,270.5,61,103
79.5,270.5,61,103
79.5,270.5,61,103
79.5,270.5,61,103
79.5,270.5,61,103
79.5,270.5,61,103
79.5,270.5,61,103
79.5,270.5,61,103
79.5,270.5,61,103
79.5,270.5,61,103
79.5,270.5,61,103
79.5,270.5,61,103
79.5,270.5,61,103
79.5,270.5,61,103
79.5,270.5,61,103
79.5,270.5,61,103
79.5,270.5,61,103
79.5,270.5,61,103
79.5,270.5,61,103
79.5,270.5,61,103
79.5,270.5,61,103
79.5,270.5,61,103
79.5,270.5,61,103
79.5,270.5,61,103
79.5,270.5,61,103
79.5,270.5,61,103
79.5,270.5,61,103
79.5,270.5,61,103
79.5,270.5,61,103
79.5,270.5,61,103
79.5,270.5,61,103
79.5,270.5,61,103
79.5,270.5,61,103
79.5,270.5,61,103
79.5,270.5,61,103
79.5,270.5,61,103
79.5,270.5,61,103
79.5,270.5,61,103
79.5,270.5,61,103
79.5,270.5,61,103
79.5,270.5,61,103
79.5,270.5,61,103
79.5,270.5,61,103
79.5,270.5,61,103
79.5,270.5,61,103
79.5,270.5,61,103
79.5,270.5,61,103
79.5,270.5,61,103
79.5,270.5,61,103
79.5,270.5,61,103
79.5,270.5,61,103
79.5,270.5,61,103
79.5,270.5,61,103
79.5,270.5,61,103
79.5,270.5,61,103
79.5,270.5,61,103
79.5,270.5,61,103
79.5,270.5,61,103
79.5,270.5,61,103
79.5,270.5,61,103
79.5,270.5,61,103
79.5,270.5,61,103
79.5,270.5,61,103
79.5,270.5,61,103
79.5,270.5,61,103
79.5,270.5,61,103
79.5,270.5,61,103
79.5,270.5,61,103
79.5,270.5,61,103
79.5,270.5,61,103
79.5,270.5,61,103
79.5,270.5,61,103
79.5,270.5,61,103
79.5,270.5,61,103
79.5,270.5,61,103
79.5,270.5,61,103
79.5,270.5,61,103
79.5,270.5,61,103
79.5,270.5,61,103
79.5,270.5,61,103
79.5,270.5,61,103
79.5,270.5,61,103
79.5,270.5,61,103
79.5,270.5,61,103
79.5,270.5,61,103
79.5,270.5,61,103
79.5,270.5,61,103
79.5,270.5,61,103
79.5,270.5,61,103
79.5,270.5,61,103
79.5,270.5,61,103
79.5,270.5,61,103
79.5,270.5,61,103
79.5,270.5,61,103
79.5,270.5,61,103
79.5,270.5,61,103
79.5,270.5,61,103
79.5,270.5,61,103
79.5,270.5,61,103
79.5,270.5,61,103
79.5,270.5,61,103
79.5,270.5,61,103
79.5,270.5,61,103
79.5,270.5,61,103
79.5,270.5,61,103
79.5,270.5,61,103
79.5,270.5,61,103
79.5,270.5,61,103
79.5,270.5,61,103
79.5,270.5,61,103
79.5,270.5,61,103
79.5,270.5,61,103
79.5,270.5,61,103
79.5,270.5,61,103
79.5,270.5,61,103
79.5,270.5,61,103
79.5,270.5,61,103
79.5,270.5,61,103
79.5,270.5,61,103
79.5,270.5,61,103
79.5,270.5,61,103
79.5,270.5,61,103
79.5,270.5,61,103
79.5,270.5,61,103
79.5,270.5,61,103
79.5,270.5,61,103
79.5,270.5,61,103
79.5,270.5,61,103
79.5,270.5,61,103
79.5,270.5,61,103
79.5,270.5,61,103
79.5,270.5,61,103
79.5,270.5,61,103
79.5,270.5,61,103
79.5,270.5,61,103
79.5,270.5,61,103
79.5,270.5,61,103
79.5,270.5,61,103
79.5,270.5,61,103
79.5,270.5,61,103
79.5,270.5,61,103
79.5,270.5,61,103
79.5,270.5,61,103
79.5,270.5,61,103
79.5,270.5,61,103
79.5,270.5,61,103
79.5,270.5,61,103
79.5,270.5,61,103
79.5,270.5,61,103
79.5,270.5,61,103
79.5,270.5,61,103
79.5,270.5,61,103
79.5,270.5,61,103
79.5,270.5,61,103
79.5,270.5,61,103
79.5,270.5,61,103
79.5,270.5,61,103
79.5,270.5,61,103
79.5,270.5,61,103
79.5,270.5,61,103
79.5,270.5,61,103
79.5,270.5,61,103
79.5,270.5,61,103
79.5,270.5,61,103
79.5,270.5,61,103
79.5,270.5,61,103
79.5,270.5,61,103
79.5,270.5,61,103
79.5,270.5,61,103
83.5,270.5,61,103
83.5,270.5,61,103
83.5,270.5,61,103
83.5,270.5,61,103
87.5,270.5,61,103
87.5,266.5,61,103
91.5,266.5,61,103
99.5,262.5,61,103
103.5,262.5,61,103
107.5,258.5,61,103
111.5,258.5,61,103
115.5,258.5,61,103
119.5,258.5,61,103
123.5,258.5,61,103
127.5,258.5,61,103
135.5,258.5,61,103
139.5,258.5,61,103
147.5,258.5,61,103
151.5,258.5,61,103
159.5,258.5,61,103
163.5,258.5,61,103
171.5,258.5,61,103
179.5,258.5,61,103
183.5,258.5,61,103
191.5,254.5,61,103
195.5,254.5,61,103
203.5,250.5,61,103
207.5,246.5,61,103
211.5,246.5,61,103
219.5,242.5,61,103
223.5,238.5,61,103
227.5,234.5,61,103
231.5,234.5,61,103
235.5,230.5,61,103
239.5,226.5,61,103
243.5,226.5,61,103
251.5,222.5,61,103
255.5,222.5,61,103
259.5,218.5,61,103
263.5,218.5,61,103
267.5,218.5,61,103
271.5,214.5,61,103
275.5,214.5,61,103
279.5,214.5,61,103
283.5,210.5,61,103
287.5,210.5,61,103
287.5,210.5,61,103
287.5,210.5,61,103
291.5,210.5,61,103
291.5,210.5,61,103
291.5,206.5,61,103
291.5,206.5,61,103
291.5,206.5,61,103
291.5,206.5,61,103
291.5,202.5,61,103
287.5,202.5,61,103
287.5,202.5,61,103
287.5,198.5,61,103
287.5,198.5,61,103
287.5,194.5,61,103
287.5,194.5,61,103
283.5,190.5,61,103
283.5,190.5,61,103
283.5,186.5,61,103
283.5,186.5,61,103
283.5,182.5,61,103
283.5,182.5,61,103
287.5,178.5,61,103
287.5,174.5,61,103
287.5,174.5,61,103
291.5,170.5,61,103
295.5,166.5,61,103
295.5,166.5,61,103
299.5,162.5,61,103
303.5,162.5,61,103
303.5,162.5,61,103
307.5,162.5,61,103
311.5,158.5,61,103
311.5,158.5,61,103
315.5,158.5,61,103
315.5,158.5,61,103
319.5,158.5,61,103
319.5,158.5,61,103
319.5,158.5,61,103
323.5,154.5,61,103
323.5,154.5,61,103
323.5,154.5,61,103
323.5,150.5,61,103
323.5,150.5,61,103
323.5,146.5,61,103
323.5,146.5,61,103
323.5,142.5,61,103
323.5,142.5,61,103
323.5,138.5,61,103
323.5,134.5,61,103
323.5,134.5,61,103
323.5,134.5,61,103
323.5,130.5,61,103
323.5,130.5,61,103
323.5,130.5,61,103
323.5,130.5,61,103
323.5,130.5,61,103
319.5,130.5,61,103
319.5,126.5,61,103
319.5,126.5,61,103
319.5,126.5,61,103
319.5,126.5,61,103
319.5,126.5,61,103
319.5,126.5,61,103
319.5,126.5,61,103
319.5,122.5,61,103
319.5,122.5,61,103
319.5,122.5,61,103
319.5,122.5,61,103
319.5,122.5,61,103
323.5,122.5,61,103
323.5,122.5,61,103
323.5,122.5,61,103
323.5,122.5,61,103
327.5,122.5,61,103
327.5,122.5,61,103
327.5,122.5,61,103
327.5,126.5,61,103
327.5,126.5,61,103
331.5,134.5,61,103
331.5,138.5,61,103
331.5,142.5,61,103
331.5,146.5,61,103
331.5,150.5,61,103
331.5,154.5,61,103
335.5,158.5,61,103
335.5,162.5,61,103
339.5,166.5,61,103
339.5,170.5,61,103
343.5,174.5,61,103
343.5,174.5,61,103
347.5,178.5,61,103
351.5,182.5,61,103
355.5,182.5,61,103
359.5,186.5,61,103
363.5,186.5,61,103
367.5,190.5,61,103
375.5,190.5,61,103
383.5,190.5,61,103
391.5,190.5,61,103
399.5,190.5,61,103
407.5,190.5,61,103
419.5,190.5,61,103
431.5,190.5,61,103
443.5,190.5,61,103
451.5,190.5,61,103
463.5,186.5,61,103
471.5,186.5,61,103
483.5,182.5,61,103
491.5,182.5,61,103
495.5,178.5,61,103
503.5,174.5,61,103
503.5,174.5,61,103
503.5,170.5,61,103
503.5,170.5,61,103
503.5,166.5,61,103
499.5,166.5,61,103
491.5,162.5,61,103
479.5,158.5,61,103
471.5,158.5,61,103
459.5,154.5,61,103
451.5,150.5,61,103
439.5,150.5,61,103
427.5,146.5,61,103
419.5,146.5,61,103
407.5,142.5,61,103
399.5,138.5,61,103
391.5,138.5,61,103
383.5,134.5,61,103
379.5,130.5,61,103
375.5,130.5,61,103
371.5,126.5,61,103
367.5,126.5,61,103
367.5,126.5,61,103
367.5,122.5,61,103
367.5,122.5,61,103
367.5,122.5,61,103
367.5,122.5,61,103
367.5,122.5,61,103
367.5,122.5,61,103
367.5,126.5,61,103
367.5,126.5,61,103
367.5,126.5,61,103
363.5,130.5,61,103
359.5,134.5,61,103
355.5,142.5,61,103
351.5,146.5,61,103
343.5,154.5,61,103
339.5,158.5,61,103
335.5,166.5,61,103
327.5,174.5,61,103
319.5,182.5,61,103
311.5,186.5,61,103
303.5,190.5,61,103
295.5,190.5,61,103
299.5,182.5,61,103
295.5,178.5,61,103
291.5,174.5,61,103
287.5,166.5,61,103
283.5,158.5,61,103
279.5,150.5,61,103
279.5,146.5,61,103
275.5,138.5,61,103
275.5,134.5,61,103
275.5,126.5,61,103
275.5,122.5,61,103
275.5,114.5,61,103
279.5,106.5,61,103
279.5,102.5,61,103
279.5,94.5,61,103
279.5,90.5,61,103
279.5,82.5,61,103
279.5,78.5,61,103
275.5,78.5,61,103
271.5,78.5,61,103
267.5,78.5,61,103
263.5,78.5,61,103
259.5,78.5,61,103
251.5,82.5,61,103
247.5,82.5,61,103
239.5,82.5,61,103
231.5,82.5,61,103
223.5,82.5,61,103
215.5,82.5,61,103
207.5,82.5,61,103
203.5,82.5,61,103
195.5,78.5,61,103
187.5,78.5,61,103
183.5,78.5,61,103
179.5,74.5,61,103
175.5,74.5,61,103
171.5,70.5,61,103
167.5,70.5,61,103
167.5,70.5,61,103
167.5,66.5,61,103
167.5,66.5,61,103
167.5,62.5,61,103
167.5,62.5,61,103
167.5,62.5,61,103
167.5,58.5,61,103
171.5,58.5,61,103
171.5,58.5,61,103
171.5,58.5,61,103
175.5,58.5,61,103
175.5,58.5,61,103
175.5,58.5,61,103
175.5,58.5,61,103
175.5,62.5,61,103
175.5,62.5,61,103
175.5,66.5,61,103
175.5,66.5,61,103
175.5,66.5,61,103
175.5,66.5,61,103
175.5,66.5,61,103
175.5,66.5,61,103
171.5,70.5,61,103
171.5,70.5,61,103
171.5,70.5,61,103
171.5,70.5,61,103
167.5,70.5,61,103
167.5,74.5,61,103
167.5,78.5,61,103
167.5,78.5,61,103
163.5,82.5,61,103
163.5,86.5,61,103
163.5,86.5,61,103
163.5,90.5,61,103
163.5,90.5,61,103
159.5,90.5,61,103
159.5,90.5,61,103
159.5,90.5,61,103
159.5,94.5,61,103
159.5,94.5,61,103
159.5,94.5,61,103
159.5,94.5,61,103
159.5,94.5,61,103
159.5,94.5,61,103
159.5,94.5,61,103
159.5,90.5,61,103
159.5,90.5,61,103
159.5,90.5,61,103
159.5,90.5,61,103
159.5,90.5,61,103
159.5,90.5,61,103
159.5,86.5,61,103
163.5,86.5,61,103
163.5,86.5,61,103
163.5,86.5,61,103
163.5,86.5,61,103
163.5,86.5,61,103
167.5,86.5,61,103
167.5,86.5,61,103
167.5,82.5,61,103
171.5,82.5,61,103
171.5,82.5,61,103
171.5,82.5,61,103
175.5,82.5,61,103
179.5,78.5,61,103
179.5,78.5,61,103
183.5,78.5,61,103
187.5,78.5,61,103
187.5,74.5,61,103
191.5,74.5,61,103
191.5,74.5,61,103
195.5,74.5,61,103
195.5,70.5,61,103
195.5,70.5,61,103
199.5,66.5,61,103
199.5,66.5,61,103
199.5,66.5,61,103
199.5,62.5,61,103
203.5,62.5,61,103
203.5,62.5,61,103
203.5,62.5,61,103
203.5,58.5,61,103
203.5,58.5,61,103
203.5,58.5,61,103
203.5,58.5,61,103
203.5,54.5,61,103
203.5,54.5,61,103
203.5,54.5,61,103
207.5,50.5,61,103
207.5,50.5,61,103
207.5,50.5,61,103
211.5,50.5,61,103
211.5,50.5,61,103
211.5,50.5,61,103
215.5,50.5,61,103
215.5,50.5,61,103
219.5,50.5,61,103
219.5,50.5,61,103
219.5,54.5,61,103
219.5,54.5,61,103
223.5,54.5,61,103
223.5,54.5,61,103
223.5,54.5,61,103
223.5,54.5,61,103
223.5,54.5,61,103
223.5,54.5,61,103
227.5,50.5,61,103
227.5,50.5,61,103
227.5,50.5,61,103
227.5,50.5,61,103
227.5,50.5,61,103
227.5,50.5,61,103
227.5,50.5,61,103
227.5,50.5,61,103
227.5,50.5,61,103
227.5,50.5,61,103
227.5,50.5,61,103
227.5,50.5,61,103
227.5,50.5,61,103
227.5,50.5,61,103
227.5,54.5,61,103
223.5,54.5,61,103
223.5,54.5,61,103
223.5,54.5,61,103
223.5,54.5,61,103
223.5,54.5,61,103
223.5,54.5,61,103
223.5,54.5,61,103
223.5,54.5,61,103
223.5,54.5,61,103
223.5,54.5,61,103
223.5,54.5,61,103
223.5,54.5,61,103
223.5,54.5,61,103
227.5,54.5,61,103
227.5,54.5,61,103
227.5,50.5,61,103
227.5,50.5,61,103
231.5,50.5,61,103
231.5,50.5,61,103
231.5,50.5,61,103
231.5,50.5,61,103
235.5,50.5,61,103
235.5,50.5,61,103
235.5,50.5,61,103
239.5,50.5,61,103
239.5,50.5,61,103
243.5,50.5,61,103
243.5,50.5,61,103
247.5,50.5,61,103
247.5,50.5,61,103
247.5,54.5,61,103
251.5,54.5,61,103
255.5,54.5,61,103
255.5,58.5,61,103
259.5,62.5,61,103
259.5,66.5,61,103
263.5,66.5,61,103
267.5,70.5,61,103
271.5,74.5,61,103
275.5,74.5,61,103
279.5,78.5,61,103
283.5,82.5,61,103
287.5,90.5,61,103
291.5,94.5,61,103
299.5,102.5,61,103
303.5,106.5,61,103
307.5,114.5,61,103
315.5,118.5,61,103
319.5,126.5,61,103
323.5,134.5,61,103
327.5,142.5,61,103
331.5,146.5,61,103
335.5,150.5,61,103
339.5,158.5,61,103
339.5,162.5,61,103
343.5,166.5,61,103
343.5,170.5,61,103
343.5,174.5,61,103
343.5,178.5,61,103
343.5,178.5,61,103
343.5,182.5,61,103
339.5,186.5,61,103
339.5,186.5,61,103
339.5,190.5,61,103
335.5,194.5,61,103
335.5,194.5,61,103
335.5,198.5,61,103
335.5,202.5,61,103
331.5,206.5,61,103
335.5,206.5,61,103
335.5,210.5,61,103
335.5,214.5,61,103
335.5,214.5,61,103
339.5,218.5,61,103
339.5,222.5,61,103
343.5,226.5,61,103
347.5,226.5,61,103
347.5,230.5,61,103
351.5,230.5,61,103
355.5,234.5,61,103
359.5,234.5,61,103
363.5,238.5,61,103
363.5,238.5,61,103
367.5,238.5,61,103
371.5,238.5,61,103
371.5,238.5,61,103
371.5,238.5,61,103
375.5,238.5,61,103
375.5,238.5,61,103
375.5,238.5,61,103
371.5,238.5,61,103
371.5,238.5,61,103
371.5,238.5,61,103
367.5,238.5,61,103
