331,39,38,42
327,39,38,42
331,27,38,42
335,19,38,42
335,15,38,42
339,15,38,42
343,19,38,42
351,27,38,42
355,35,38,42
359,47,38,42
363,55,38,42
363,63,38,42
363,67,38,42
355,67,38,42
359,63,38,42
363,63,38,42
363,55,38,42
363,47,38,42
367,47,38,42
367,47,38,42
367,47,38,42
375,47,38,42
379,51,38,42
387,47,38,42
387,47,38,42
387,47,38,42
387,47,38,42
387,47,38,42
391,47,38,42
391,47,38,42
387,43,38,42
387,43,38,42
383,51,38,42
379,47,38,42
379,55,38,42
383,47,38,42
383,47,38,42
383,51,38,42
387,47,38,42
391,39,38,42
395,31,38,42
395,31,38,42
391,31,38,42
395,31,38,42
391,35,38,42
391,39,38,42
391,27,38,42
391,19,38,42
391,23,38,42
391,23,38,42
395,39,38,42
395,39,38,42
391,35,38,42
395,39,38,42
395,39,38,42
391,43,38,42
395,43,38,42
395,43,38,42
391,43,38,42
391,39,38,42
391,43,38,42
391,43,38,42
391,43,38,42
391,43,38,42
387,43,38,42
387,43,38,42
383,35,38,42
379,43,38,42
379,51,38,42
383,47,38,42
383,51,38,42
375,55,38,42
379,51,38,42
379,51,38,42
379,51,38,42
383,59,38,42
391,71,38,42
391,71,38,42
387,71,38,42
387,79,38,42
391,75,38,42
399,83,38,42
395,75,38,42
387,79,38,42
387,79,38,42
387,75,38,42
383,79,38,42
383,79,38,42
379,79,38,42
379,79,38,42
383,83,38,42
379,83,38,42
387,95,38,42
391,103,38,42
391,103,38,42
391,95,38,42
395,103,38,42
399,111,38,42
403,115,38,42
403,123,38,42
