121.5,50.5,51,61
121.5,50.5,51,61
121.5,50.5,51,61
121.5,50.5,51,61
121.5,54.5,51,61
121.5,54.5,51,61
121.5,54.5,51,61
121.5,54.5,51,61
121.5,58.5,51,61
121.5,58.5,51,61
121.5,58.5,51,61
121.5,58.5,51,61
121.5,58.5,51,61
121.5,58.5,51,61
121.5,58.5,51,61
121.5,58.5,51,61
121.5,58.5,51,61
121.5,58.5,51,61
121.5,58.5,51,61
121.5,58.5,51,61
121.5,58.5,51,61
117.5,58.5,51,61
117.5,62.5,51,61
117.5,62.5,51,61
117.5,62.5,51,61
117.5,62.5,51,61
117.5,62.5,51,61
117.5,62.5,51,61
117.5,62.5,51,61
117.5,62.5,51,61
117.5,62.5,51,61
117.5,62.5,51,61
113.5,62.5,51,61
113.5,58.5,51,61
109.5,58.5,51,61
109.5,58.5,51,61
105.5,58.5,51,61
105.5,58.5,51,61
105.5,58.5,51,61
105.5,58.5,51,61
105.5,58.5,51,61
105.5,58.5,51,61
105.5,54.5,51,61
105.5,54.5,51,61
109.5,54.5,51,61
109.5,54.5,51,61
109.5,50.5,51,61
109.5,50.5,51,61
113.5,50.5,51,61
113.5,50.5,51,61
113.5,54.5,51,61
113.5,54.5,51,61
113.5,54.5,51,61
113.5,58.5,51,61
113.5,58.5,51,61
113.5,62.5,51,61
113.5,66.5,51,61
113.5,66.5,51,61
113.5,70.5,51,61
113.5,70.5,51,61
113.5,74.5,51,61
113.5,74.5,51,61
113.5,78.5,51,61
113.5,78.5,51,61
113.5,82.5,51,61
113.5,82.5,51,61
113.5,82.5,51,61
117.5,82.5,51,61
117.5,82.5,51,61
117.5,82.5,51,61
121.5,86.5,51,61
121.5,86.5,51,61
125.5,86.5,51,61
125.5,82.5,51,61
125.5,82.5,51,61
125.5,82.5,51,61
125.5,78.5,51,61
125.5,78.5,51,61
125.5,74.5,51,61
125.5,74.5,51,61
125.5,70.5,51,61
121.5,70.5,51,61
121.5,66.5,51,61
121.5,66.5,51,61
121.5,66.5,51,61
121.5,66.5,51,61
121.5,66.5,51,61
121.5,66.5,51,61
121.5,62.5,51,61
121.5,62.5,51,61
121.5,62.5,51,61
121.5,62.5,51,61
117.5,58.5,51,61
117.5,58.5,51,61
117.5,58.5,51,61
113.5,54.5,51,61
109.5,54.5,51,61
109.5,54.5,51,61
105.5,54.5,51,61
105.5,54.5,51,61
105.5,54.5,51,61
105.5,54.5,51,61
101.5,54.5,51,61
101.5,54.5,51,61
101.5,54.5,51,61
101.5,54.5,51,61
101.5,54.5,51,61
101.5,54.5,51,61
101.5,54.5,51,61
101.5,54.5,51,61
105.5,54.5,51,61
105.5,54.5,51,61
105.5,54.5,51,61
105.5,54.5,51,61
105.5,54.5,51,61
109.5,58.5,51,61
109.5,58.5,51,61
109.5,58.5,51,61
109.5,58.5,51,61
109.5,62.5,51,61
109.5,62.5,51,61
109.5,62.5,51,61
109.5,62.5,51,61
109.5,62.5,51,61
113.5,66.5,51,61
113.5,66.5,51,61
113.5,66.5,51,61
113.5,66.5,51,61
113.5,66.5,51,61
113.5,66.5,51,61
113.5,66.5,51,61
113.5,66.5,51,61
113.5,66.5,51,61
113.5,66.5,51,61
113.5,66.5,51,61
113.5,66.5,51,61
113.5,66.5,51,61
113.5,66.5,51,61
113.5,66.5,51,61
113.5,66.5,51,61
109.5,66.5,51,61
109.5,66.5,51,61
109.5,66.5,51,61
109.5,66.5,51,61
105.5,66.5,51,61
105.5,66.5,51,61
101.5,66.5,51,61
101.5,66.5,51,61
101.5,66.5,51,61
101.5,66.5,51,61
101.5,66.5,51,61
101.5,66.5,51,61
101.5,66.5,51,61
105.5,66.5,51,61
105.5,66.5,51,61
105.5,66.5,51,61
105.5,66.5,51,61
105.5,66.5,51,61
105.5,66.5,51,61
105.5,66.5,51,61
105.5,66.5,51,61
105.5,66.5,51,61
105.5,66.5,51,61
105.5,66.5,51,61
105.5,66.5,51,61
105.5,66.5,51,61
105.5,66.5,51,61
105.5,66.5,51,61
105.5,66.5,51,61
105.5,66.5,51,61
105.5,66.5,51,61
105.5,66.5,51,61
105.5,66.5,51,61
105.5,66.5,51,61
105.5,66.5,51,61
105.5,66.5,51,61
105.5,66.5,51,61
101.5,66.5,51,61
101.5,62.5,51,61
101.5,62.5,51,61
101.5,62.5,51,61
101.5,62.5,51,61
101.5,62.5,51,61
101.5,62.5,51,61
101.5,62.5,51,61
101.5,62.5,51,61
101.5,66.5,51,61
101.5,66.5,51,61
101.5,66.5,51,61
101.5,66.5,51,61
101.5,66.5,51,61
101.5,66.5,51,61
101.5,66.5,51,61
101.5,66.5,51,61
101.5,66.5,51,61
101.5,66.5,51,61
101.5,66.5,51,61
101.5,66.5,51,61
101.5,66.5,51,61
105.5,66.5,51,61
105.5,66.5,51,61
105.5,66.5,51,61
105.5,66.5,51,61
105.5,70.5,51,61
105.5,70.5,51,61
105.5,70.5,51,61
105.5,70.5,51,61
105.5,70.5,51,61
105.5,70.5,51,61
105.5,70.5,51,61
105.5,70.5,51,61
105.5,70.5,51,61
105.5,70.5,51,61
105.5,70.5,51,61
105.5,70.5,51,61
105.5,70.5,51,61
101.5,70.5,51,61
101.5,70.5,51,61
101.5,70.5,51,61
101.5,70.5,51,61
101.5,70.5,51,61
101.5,70.5,51,61
101.5,70.5,51,61
101.5,70.5,51,61
101.5,70.5,51,61
101.5,70.5,51,61
101.5,70.5,51,61
101.5,70.5,51,61
101.5,70.5,51,61
101.5,70.5,51,61
101.5,70.5,51,61
101.5,70.5,51,61
101.5,70.5,51,61
101.5,70.5,51,61
101.5,70.5,51,61
101.5,70.5,51,61
101.5,70.5,51,61
101.5,70.5,51,61
101.5,70.5,51,61
101.5,70.5,51,61
101.5,70.5,51,61
101.5,70.5,51,61
101.5,70.5,51,61
101.5,70.5,51,61
101.5,70.5,51,61
101.5,70.5,51,61
101.5,70.5,51,61
101.5,70.5,51,61
101.5,70.5,51,61
101.5,70.5,51,61
101.5,70.5,51,61
101.5,70.5,51,61
101.5,70.5,51,61
101.5,70.5,51,61
101.5,66.5,51,61
101.5,66.5,51,61
101.5,62.5,51,61
101.5,62.5,51,61
101.5,62.5,51,61
101.5,58.5,51,61
101.5,58.5,51,61
101.5,54.5,51,61
101.5,54.5,51,61
97.5,50.5,51,61
97.5,50.5,51,61
97.5,46.5,51,61
97.5,46.5,51,61
97.5,46.5,51,61
97.5,42.5,51,61
97.5,42.5,51,61
97.5,42.5,51,61
97.5,42.5,51,61
97.5,42.5,51,61
101.5,42.5,51,61
101.5,42.5,51,61
101.5,42.5,51,61
101.5,46.5,51,61
105.5,46.5,51,61
105.5,46.5,51,61
105.5,50.5,51,61
109.5,50.5,51,61
109.5,50.5,51,61
109.5,50.5,51,61
109.5,50.5,51,61
113.5,54.5,51,61
113.5,54.5,51,61
113.5,54.5,51,61
113.5,54.5,51,61
113.5,54.5,51,61
113.5,54.5,51,61
113.5,54.5,51,61
113.5,58.5,51,61
117.5,58.5,51,61
117.5,58.5,51,61
117.5,62.5,51,61
117.5,62.5,51,61
117.5,62.5,51,61
117.5,62.5,51,61
117.5,66.5,51,61
117.5,66.5,51,61
117.5,70.5,51,61
117.5,70.5,51,61
117.5,70.5,51,61
117.5,74.5,51,61
117.5,74.5,51,61
117.5,74.5,51,61
117.5,74.5,51,61
113.5,74.5,51,61
113.5,74.5,51,61
113.5,74.5,51,61
113.5,74.5,51,61
113.5,74.5,51,61
113.5,74.5,51,61
113.5,74.5,51,61
113.5,74.5,51,61
109.5,74.5,51,61
109.5,74.5,51,61
109.5,74.5,51,61
105.5,74.5,51,61
105.5,74.5,51,61
105.5,70.5,51,61
101.5,70.5,51,61
101.5,70.5,51,61
101.5,70.5,51,61
97.5,70.5,51,61
97.5,70.5,51,61
97.5,70.5,51,61
93.5,66.5,51,61
93.5,66.5,51,61
93.5,66.5,51,61
89.5,66.5,51,61
89.5,66.5,51,61
89.5,66.5,51,61
85.5,66.5,51,61
85.5,66.5,51,61
85.5,66.5,51,61
81.5,66.5,51,61
81.5,66.5,51,61
77.5,66.5,51,61
77.5,66.5,51,61
77.5,66.5,51,61
73.5,66.5,51,61
73.5,66.5,51,61
73.5,66.5,51,61
69.5,66.5,51,61
69.5,66.5,51,61
69.5,66.5,51,61
65.5,66.5,51,61
65.5,66.5,51,61
65.5,66.5,51,61
61.5,66.5,51,61
61.5,66.5,51,61
57.5,66.5,51,61
57.5,66.5,51,61
57.5,66.5,51,61
53.5,66.5,51,61
53.5,66.5,51,61
53.5,66.5,51,61
53.5,66.5,51,61
53.5,66.5,51,61
53.5,66.5,51,61
53.5,66.5,51,61
53.5,66.5,51,61
53.5,66.5,51,61
53.5,62.5,51,61
57.5,62.5,51,61
57.5,62.5,51,61
57.5,62.5,51,61
61.5,58.5,51,61
61.5,58.5,51,61
61.5,58.5,51,61
65.5,54.5,51,61
65.5,54.5,51,61
65.5,50.5,51,61
65.5,50.5,51,61
69.5,50.5,51,61
69.5,46.5,51,61
69.5,46.5,51,61
73.5,46.5,51,61
73.5,42.5,51,61
77.5,42.5,51,61
77.5,42.5,51,61
81.5,42.5,51,61
81.5,38.5,51,61
85.5,38.5,51,61
85.5,38.5,51,61
89.5,38.5,51,61
89.5,38.5,51,61
93.5,42.5,51,61
93.5,42.5,51,61
97.5,42.5,51,61
97.5,42.5,51,61
101.5,46.5,51,61
101.5,46.5,51,61
101.5,46.5,51,61
101.5,50.5,51,61
101.5,50.5,51,61
105.5,54.5,51,61
105.5,54.5,51,61
105.5,58.5,51,61
105.5,58.5,51,61
105.5,62.5,51,61
105.5,62.5,51,61
105.5,66.5,51,61
105.5,66.5,51,61
105.5,70.5,51,61
105.5,70.5,51,61
105.5,74.5,51,61
105.5,74.5,51,61
105.5,78.5,51,61
105.5,82.5,51,61
105.5,82.5,51,61
105.5,86.5,51,61
109.5,90.5,51,61
109.5,90.5,51,61
109.5,94.5,51,61
109.5,98.5,51,61
109.5,98.5,51,61
109.5,102.5,51,61
109.5,102.5,51,61
105.5,106.5,51,61
105.5,110.5,51,61
105.5,110.5,51,61
105.5,114.5,51,61
105.5,114.5,51,61
105.5,118.5,51,61
105.5,122.5,51,61
105.5,122.5,51,61
105.5,126.5,51,61
105.5,126.5,51,61
105.5,130.5,51,61
105.5,130.5,51,61
105.5,134.5,51,61
105.5,134.5,51,61
101.5,138.5,51,61
101.5,138.5,51,61
101.5,142.5,51,61
101.5,142.5,51,61
101.5,142.5,51,61
101.5,146.5,51,61
101.5,146.5,51,61
101.5,146.5,51,61
97.5,150.5,51,61
97.5,150.5,51,61
97.5,150.5,51,61
97.5,154.5,51,61
97.5,154.5,51,61
93.5,154.5,51,61
93.5,154.5,51,61
93.5,154.5,51,61
93.5,154.5,51,61
89.5,154.5,51,61
89.5,158.5,51,61
89.5,158.5,51,61
89.5,158.5,51,61
89.5,158.5,51,61
85.5,154.5,51,61
85.5,154.5,51,61
85.5,150.5,51,61
85.5,146.5,51,61
85.5,146.5,51,61
85.5,142.5,51,61
85.5,138.5,51,61
85.5,134.5,51,61
85.5,130.5,51,61
85.5,126.5,51,61
85.5,122.5,51,61
85.5,118.5,51,61
85.5,114.5,51,61
85.5,110.5,51,61
89.5,106.5,51,61
89.5,106.5,51,61
89.5,102.5,51,61
93.5,98.5,51,61
93.5,98.5,51,61
93.5,98.5,51,61
97.5,98.5,51,61
97.5,94.5,51,61
101.5,94.5,51,61
101.5,90.5,51,61
101.5,90.5,51,61
105.5,90.5,51,61
105.5,90.5,51,61
109.5,90.5,51,61
109.5,90.5,51,61
113.5,90.5,51,61
113.5,90.5,51,61
113.5,90.5,51,61
117.5,90.5,51,61
117.5,90.5,51,61
117.5,90.5,51,61
121.5,90.5,51,61
121.5,90.5,51,61
125.5,86.5,51,61
125.5,86.5,51,61
129.5,86.5,51,61
129.5,86.5,51,61
133.5,86.5,51,61
133.5,86.5,51,61
137.5,86.5,51,61
141.5,86.5,51,61
141.5,86.5,51,61
145.5,86.5,51,61
149.5,86.5,51,61
149.5,86.5,51,61
153.5,86.5,51,61
153.5,86.5,51,61
157.5,86.5,51,61
157.5,90.5,51,61
161.5,90.5,51,61
161.5,94.5,51,61
161.5,94.5,51,61
161.5,98.5,51,61
165.5,102.5,51,61
165.5,102.5,51,61
165.5,106.5,51,61
165.5,106.5,51,61
165.5,110.5,51,61
169.5,110.5,51,61
169.5,110.5,51,61
173.5,110.5,51,61
173.5,106.5,51,61
177.5,106.5,51,61
177.5,102.5,51,61
177.5,98.5,51,61
177.5,94.5,51,61
181.5,90.5,51,61
181.5,86.5,51,61
181.5,82.5,51,61
181.5,82.5,51,61
181.5,78.5,51,61
181.5,74.5,51,61
181.5,74.5,51,61
181.5,70.5,51,61
181.5,70.5,51,61
181.5,66.5,51,61
181.5,62.5,51,61
181.5,58.5,51,61
181.5,58.5,51,61
181.5,54.5,51,61
181.5,50.5,51,61
181.5,50.5,51,61
181.5,50.5,51,61
181.5,46.5,51,61
181.5,46.5,51,61
181.5,46.5,51,61
177.5,46.5,51,61
177.5,50.5,51,61
177.5,50.5,51,61
173.5,50.5,51,61
173.5,54.5,51,61
169.5,54.5,51,61
169.5,54.5,51,61
165.5,58.5,51,61
165.5,58.5,51,61
161.5,62.5,51,61
157.5,62.5,51,61
157.5,62.5,51,61
153.5,62.5,51,61
149.5,62.5,51,61
149.5,66.5,51,61
145.5,66.5,51,61
141.5,66.5,51,61
137.5,66.5,51,61
137.5,66.5,51,61
133.5,66.5,51,61
129.5,70.5,51,61
125.5,70.5,51,61
125.5,70.5,51,61
125.5,74.5,51,61
125.5,70.5,51,61
125.5,70.5,51,61
129.5,70.5,51,61
133.5,70.5,51,61
141.5,66.5,51,61
145.5,66.5,51,61
149.5,66.5,51,61
153.5,66.5,51,61
153.5,66.5,51,61
157.5,66.5,51,61
157.5,66.5,51,61
157.5,66.5,51,61
157.5,66.5,51,61
153.5,66.5,51,61
153.5,66.5,51,61
149.5,66.5,51,61
145.5,70.5,51,61
145.5,70.5,51,61
141.5,74.5,51,61
137.5,74.5,51,61
133.5,78.5,51,61
129.5,78.5,51,61
125.5,78.5,51,61
121.5,82.5,51,61
117.5,82.5,51,61
117.5,82.5,51,61
113.5,86.5,51,61
109.5,90.5,51,61
109.5,90.5,51,61
109.5,94.5,51,61
109.5,98.5,51,61
109.5,98.5,51,61
109.5,102.5,51,61
109.5,106.5,51,61
109.5,110.5,51,61
113.5,110.5,51,61
113.5,114.5,51,61
113.5,118.5,51,61
113.5,118.5,51,61
113.5,118.5,51,61
113.5,118.5,51,61
113.5,122.5,51,61
109.5,122.5,51,61
109.5,122.5,51,61
109.5,122.5,51,61
109.5,122.5,51,61
109.5,122.5,51,61
105.5,122.5,51,61
105.5,122.5,51,61
105.5,122.5,51,61
105.5,118.5,51,61
105.5,118.5,51,61
105.5,114.5,51,61
105.5,110.5,51,61
101.5,110.5,51,61
101.5,106.5,51,61
101.5,102.5,51,61
101.5,102.5,51,61
101.5,98.5,51,61
101.5,98.5,51,61
101.5,94.5,51,61
101.5,94.5,51,61
101.5,90.5,51,61
101.5,90.5,51,61
101.5,86.5,51,61
101.5,82.5,51,61
101.5,82.5,51,61
101.5,78.5,51,61
101.5,78.5,51,61
101.5,74.5,51,61
101.5,70.5,51,61
101.5,70.5,51,61
101.5,66.5,51,61
101.5,66.5,51,61
101.5,62.5,51,61
101.5,62.5,51,61
101.5,58.5,51,61
97.5,58.5,51,61
97.5,58.5,51,61
93.5,58.5,51,61
89.5,58.5,51,61
89.5,58.5,51,61
85.5,58.5,51,61
85.5,58.5,51,61
85.5,54.5,51,61
81.5,54.5,51,61
81.5,54.5,51,61
81.5,54.5,51,61
81.5,54.5,51,61
81.5,54.5,51,61
81.5,58.5,51,61
81.5,58.5,51,61
77.5,62.5,51,61
77.5,62.5,51,61
77.5,62.5,51,61
77.5,66.5,51,61
77.5,66.5,51,61
77.5,66.5,51,61
77.5,66.5,51,61
73.5,70.5,51,61
73.5,70.5,51,61
73.5,74.5,51,61
73.5,74.5,51,61
69.5,78.5,51,61
69.5,78.5,51,61
73.5,78.5,51,61
73.5,82.5,51,61
73.5,86.5,51,61
73.5,86.5,51,61
73.5,86.5,51,61
77.5,86.5,51,61
77.5,82.5,51,61
81.5,82.5,51,61
81.5,78.5,51,61
81.5,74.5,51,61
85.5,70.5,51,61
85.5,70.5,51,61
85.5,66.5,51,61
89.5,66.5,51,61
93.5,62.5,51,61
97.5,62.5,51,61
97.5,58.5,51,61
101.5,58.5,51,61
101.5,54.5,51,61
101.5,54.5,51,61
101.5,54.5,51,61
101.5,54.5,51,61
101.5,54.5,51,61
101.5,50.5,51,61
101.5,50.5,51,61
101.5,50.5,51,61
101.5,50.5,51,61
101.5,50.5,51,61
101.5,46.5,51,61
101.5,46.5,51,61
101.5,46.5,51,61
97.5,42.5,51,61
97.5,42.5,51,61
97.5,42.5,51,61
97.5,42.5,51,61
93.5,42.5,51,61
93.5,42.5,51,61
89.5,42.5,51,61
89.5,42.5,51,61
89.5,42.5,51,61
85.5,42.5,51,61
85.5,42.5,51,61
81.5,42.5,51,61
81.5,38.5,51,61
81.5,38.5,51,61
77.5,34.5,51,61
77.5,34.5,51,61
77.5,34.5,51,61
73.5,30.5,51,61
73.5,30.5,51,61
73.5,26.5,51,61
69.5,26.5,51,61
69.5,26.5,51,61
69.5,26.5,51,61
69.5,26.5,51,61
69.5,26.5,51,61
69.5,26.5,51,61
69.5,30.5,51,61
69.5,30.5,51,61
69.5,34.5,51,61
73.5,34.5,51,61
73.5,38.5,51,61
73.5,38.5,51,61
77.5,42.5,51,61
77.5,42.5,51,61
77.5,46.5,51,61
77.5,46.5,51,61
81.5,50.5,51,61
81.5,50.5,51,61
81.5,50.5,51,61
85.5,50.5,51,61
85.5,50.5,51,61
89.5,50.5,51,61
89.5,50.5,51,61
93.5,46.5,51,61
97.5,46.5,51,61
97.5,46.5,51,61
101.5,42.5,51,61
101.5,42.5,51,61
105.5,38.5,51,61
109.5,38.5,51,61
109.5,34.5,51,61
113.5,34.5,51,61
117.5,34.5,51,61
117.5,34.5,51,61
121.5,30.5,51,61
121.5,30.5,51,61
125.5,30.5,51,61
125.5,30.5,51,61
129.5,30.5,51,61
133.5,30.5,51,61
133.5,30.5,51,61
137.5,30.5,51,61
137.5,30.5,51,61
141.5,30.5,51,61
141.5,30.5,51,61
145.5,30.5,51,61
145.5,30.5,51,61
149.5,30.5,51,61
149.5,30.5,51,61
149.5,30.5,51,61
153.5,30.5,51,61
153.5,30.5,51,61
157.5,30.5,51,61
157.5,34.5,51,61
157.5,34.5,51,61
161.5,34.5,51,61
161.5,38.5,51,61
161.5,38.5,51,61
161.5,38.5,51,61
165.5,42.5,51,61
165.5,42.5,51,61
169.5,46.5,51,61
169.5,46.5,51,61
169.5,50.5,51,61
169.5,50.5,51,61
169.5,50.5,51,61
169.5,54.5,51,61
169.5,54.5,51,61
169.5,54.5,51,61
169.5,58.5,51,61
169.5,58.5,51,61
169.5,58.5,51,61
169.5,58.5,51,61
165.5,58.5,51,61
165.5,58.5,51,61
165.5,58.5,51,61
161.5,58.5,51,61
161.5,58.5,51,61
161.5,58.5,51,61
161.5,58.5,51,61
161.5,58.5,51,61
157.5,58.5,51,61
153.5,58.5,51,61
153.5,58.5,51,61
149.5,58.5,51,61
145.5,58.5,51,61
141.5,58.5,51,61
137.5,58.5,51,61
133.5,62.5,51,61
129.5,62.5,51,61
125.5,62.5,51,61
121.5,62.5,51,61
117.5,66.5,51,61
113.5,66.5,51,61
109.5,66.5,51,61
109.5,66.5,51,61
105.5,66.5,51,61
105.5,66.5,51,61
101.5,70.5,51,61
101.5,70.5,51,61
97.5,74.5,51,61
93.5,74.5,51,61
93.5,74.5,51,61
89.5,74.5,51,61
89.5,74.5,51,61
89.5,74.5,51,61
89.5,74.5,51,61
89.5,78.5,51,61
89.5,78.5,51,61
89.5,82.5,51,61
93.5,82.5,51,61
93.5,86.5,51,61
93.5,90.5,51,61
93.5,98.5,51,61
93.5,102.5,51,61
93.5,106.5,51,61
93.5,110.5,51,61
93.5,110.5,51,61
93.5,114.5,51,61
93.5,118.5,51,61
93.5,122.5,51,61
93.5,126.5,51,61
93.5,126.5,51,61
93.5,130.5,51,61
93.5,130.5,51,61
93.5,130.5,51,61
93.5,126.5,51,61
93.5,122.5,51,61
93.5,118.5,51,61
93.5,114.5,51,61
93.5,106.5,51,61
89.5,102.5,51,61
89.5,94.5,51,61
89.5,90.5,51,61
89.5,86.5,51,61
89.5,82.5,51,61
89.5,78.5,51,61
89.5,74.5,51,61
89.5,70.5,51,61
89.5,70.5,51,61
93.5,66.5,51,61
97.5,66.5,51,61
97.5,66.5,51,61
101.5,66.5,51,61
105.5,62.5,51,61
109.5,62.5,51,61
113.5,62.5,51,61
113.5,66.5,51,61
117.5,66.5,51,61
121.5,66.5,51,61
121.5,66.5,51,61
125.5,66.5,51,61
129.5,66.5,51,61
129.5,66.5,51,61
129.5,66.5,51,61
129.5,66.5,51,61
129.5,66.5,51,61
129.5,66.5,51,61
125.5,66.5,51,61
125.5,66.5,51,61
121.5,66.5,51,61
121.5,66.5,51,61
117.5,66.5,51,61
113.5,66.5,51,61
113.5,66.5,51,61
109.5,66.5,51,61
105.5,66.5,51,61
101.5,70.5,51,61
101.5,70.5,51,61
97.5,70.5,51,61
93.5,70.5,51,61
93.5,74.5,51,61
89.5,74.5,51,61
89.5,74.5,51,61
85.5,78.5,51,61
85.5,78.5,51,61
85.5,78.5,51,61
85.5,82.5,51,61
85.5,82.5,51,61
85.5,86.5,51,61
85.5,90.5,51,61
85.5,94.5,51,61
85.5,98.5,51,61
85.5,102.5,51,61
89.5,106.5,51,61
89.5,110.5,51,61
89.5,114.5,51,61
89.5,118.5,51,61
89.5,118.5,51,61
93.5,118.5,51,61
93.5,118.5,51,61
93.5,122.5,51,61
97.5,122.5,51,61
97.5,122.5,51,61
101.5,122.5,51,61
105.5,122.5,51,61
109.5,118.5,51,61
113.5,114.5,51,61
113.5,110.5,51,61
113.5,106.5,51,61
113.5,102.5,51,61
113.5,98.5,51,61
113.5,94.5,51,61
113.5,90.5,51,61
113.5,86.5,51,61
109.5,86.5,51,61
109.5,82.5,51,61
109.5,82.5,51,61
105.5,78.5,51,61
105.5,78.5,51,61
101.5,74.5,51,61
101.5,74.5,51,61
97.5,74.5,51,61
97.5,74.5,51,61
93.5,70.5,51,61
93.5,70.5,51,61
89.5,66.5,51,61
89.5,66.5,51,61
89.5,66.5,51,61
89.5,62.5,51,61
93.5,62.5,51,61
93.5,58.5,51,61
93.5,58.5,51,61
97.5,58.5,51,61
97.5,58.5,51,61
101.5,58.5,51,61
101.5,58.5,51,61
105.5,58.5,51,61
105.5,58.5,51,61
105.5,58.5,51,61
105.5,58.5,51,61
109.5,58.5,51,61
109.5,58.5,51,61
109.5,58.5,51,61
113.5,58.5,51,61
117.5,58.5,51,61
117.5,58.5,51,61
117.5,58.5,51,61
121.5,58.5,51,61
121.5,58.5,51,61
125.5,58.5,51,61
125.5,58.5,51,61
125.5,58.5,51,61
129.5,58.5,51,61
129.5,58.5,51,61
129.5,58.5,51,61
129.5,58.5,51,61
129.5,58.5,51,61
129.5,58.5,51,61
129.5,58.5,51,61
133.5,58.5,51,61
133.5,58.5,51,61
133.5,58.5,51,61
133.5,58.5,51,61
133.5,58.5,51,61
133.5,58.5,51,61
133.5,58.5,51,61
137.5,58.5,51,61
137.5,58.5,51,61
137.5,62.5,51,61
137.5,66.5,51,61
137.5,70.5,51,61
137.5,74.5,51,61
137.5,78.5,51,61
137.5,82.5,51,61
137.5,82.5,51,61
137.5,86.5,51,61
137.5,86.5,51,61
137.5,90.5,51,61
133.5,90.5,51,61
133.5,94.5,51,61
133.5,94.5,51,61
133.5,98.5,51,61
133.5,98.5,51,61
133.5,98.5,51,61
133.5,98.5,51,61
133.5,98.5,51,61
133.5,94.5,51,61
133.5,90.5,51,61
133.5,90.5,51,61
133.5,86.5,51,61
133.5,82.5,51,61
129.5,82.5,51,61
129.5,78.5,51,61
129.5,74.5,51,61
129.5,70.5,51,61
129.5,70.5,51,61
129.5,66.5,51,61
125.5,62.5,51,61
125.5,62.5,51,61
125.5,58.5,51,61
121.5,58.5,51,61
121.5,58.5,51,61
117.5,58.5,51,61
113.5,58.5,51,61
113.5,54.5,51,61
109.5,54.5,51,61
105.5,54.5,51,61
101.5,54.5,51,61
101.5,54.5,51,61
97.5,54.5,51,61
93.5,54.5,51,61
89.5,54.5,51,61
85.5,54.5,51,61
85.5,54.5,51,61
81.5,54.5,51,61
77.5,54.5,51,61
77.5,54.5,51,61
73.5,54.5,51,61
73.5,54.5,51,61
69.5,54.5,51,61
69.5,54.5,51,61
69.5,54.5,51,61
69.5,54.5,51,61
69.5,54.5,51,61
69.5,58.5,51,61
69.5,58.5,51,61
69.5,58.5,51,61
73.5,58.5,51,61
77.5,58.5,51,61
81.5,58.5,51,61
85.5,62.5,51,61
89.5,62.5,51,61
93.5,62.5,51,61
97.5,62.5,51,61
101.5,66.5,51,61
105.5,66.5,51,61
109.5,66.5,51,61
113.5,66.5,51,61
117.5,66.5,51,61
121.5,66.5,51,61
125.5,66.5,51,61
129.5,66.5,51,61
133.5,66.5,51,61
137.5,66.5,51,61
141.5,66.5,51,61
145.5,66.5,51,61
149.5,66.5,51,61
153.5,66.5,51,61
157.5,66.5,51,61
161.5,66.5,51,61
161.5,70.5,51,61
165.5,70.5,51,61
169.5,74.5,51,61
169.5,78.5,51,61
169.5,82.5,51,61
173.5,82.5,51,61
173.5,86.5,51,61
173.5,90.5,51,61
173.5,94.5,51,61
173.5,98.5,51,61
173.5,102.5,51,61
173.5,106.5,51,61
173.5,110.5,51,61
173.5,114.5,51,61
173.5,118.5,51,61
173.5,122.5,51,61
173.5,126.5,51,61
173.5,130.5,51,61
173.5,134.5,51,61
173.5,142.5,51,61
173.5,146.5,51,61
173.5,146.5,51,61
173.5,146.5,51,61
173.5,146.5,51,61
173.5,146.5,51,61
173.5,142.5,51,61
173.5,142.5,51,61
173.5,142.5,51,61
173.5,142.5,51,61
173.5,142.5,51,61
173.5,138.5,51,61
173.5,138.5,51,61
169.5,130.5,51,61
169.5,126.5,51,61
169.5,122.5,51,61
165.5,114.5,51,61
165.5,110.5,51,61
165.5,106.5,51,61
161.5,102.5,51,61
161.5,98.5,51,61
161.5,94.5,51,61
157.5,94.5,51,61
157.5,90.5,51,61
153.5,86.5,51,61
153.5,86.5,51,61
149.5,82.5,51,61
149.5,82.5,51,61
145.5,82.5,51,61
141.5,82.5,51,61
141.5,82.5,51,61
137.5,82.5,51,61
137.5,82.5,51,61
133.5,82.5,51,61
129.5,86.5,51,61
125.5,86.5,51,61
121.5,86.5,51,61
117.5,90.5,51,61
113.5,90.5,51,61
113.5,90.5,51,61
121.5,90.5,51,61
121.5,94.5,51,61
117.5,98.5,51,61
117.5,102.5,51,61
117.5,102.5,51,61
117.5,106.5,51,61
117.5,106.5,51,61
117.5,106.5,51,61
117.5,106.5,51,61
117.5,106.5,51,61
117.5,106.5,51,61
117.5,106.5,51,61
117.5,106.5,51,61
117.5,106.5,51,61
117.5,106.5,51,61
117.5,106.5,51,61
117.5,106.5,51,61
117.5,106.5,51,61
117.5,106.5,51,61
117.5,106.5,51,61
117.5,106.5,51,61
117.5,106.5,51,61
117.5,106.5,51,61
117.5,106.5,51,61
117.5,106.5,51,61
117.5,106.5,51,61
117.5,106.5,51,61
117.5,106.5,51,61
117.5,106.5,51,61
117.5,106.5,51,61
117.5,106.5,51,61
117.5,106.5,51,61
117.5,106.5,51,61
117.5,106.5,51,61
117.5,106.5,51,61
117.5,106.5,51,61
117.5,106.5,51,61
117.5,106.5,51,61
117.5,106.5,51,61
117.5,106.5,51,61
117.5,106.5,51,61
117.5,106.5,51,61
117.5,106.5,51,61
117.5,106.5,51,61
117.5,106.5,51,61
117.5,106.5,51,61
117.5,106.5,51,61
117.5,106.5,51,61
117.5,106.5,51,61
117.5,106.5,51,61
117.5,106.5,51,61
117.5,106.5,51,61
117.5,106.5,51,61
117.5,106.5,51,61
117.5,106.5,51,61
117.5,106.5,51,61
117.5,106.5,51,61
117.5,106.5,51,61
117.5,106.5,51,61
117.5,106.5,51,61
117.5,106.5,51,61
117.5,106.5,51,61
117.5,106.5,51,61
117.5,106.5,51,61
117.5,106.5,51,61
117.5,106.5,51,61
117.5,106.5,51,61
117.5,106.5,51,61
117.5,106.5,51,61
117.5,106.5,51,61
117.5,106.5,51,61
117.5,106.5,51,61
117.5,106.5,51,61
117.5,106.5,51,61
117.5,106.5,51,61
117.5,106.5,51,61
117.5,106.5,51,61
117.5,106.5,51,61
117.5,106.5,51,61
117.5,106.5,51,61
117.5,106.5,51,61
117.5,106.5,51,61
117.5,106.5,51,61
117.5,106.5,51,61
117.5,106.5,51,61
117.5,106.5,51,61
117.5,106.5,51,61
117.5,106.5,51,61
117.5,106.5,51,61
117.5,106.5,51,61
117.5,106.5,51,61
117.5,106.5,51,61
117.5,106.5,51,61
117.5,106.5,51,61
117.5,106.5,51,61
117.5,106.5,51,61
117.5,106.5,51,61
117.5,106.5,51,61
117.5,106.5,51,61
117.5,106.5,51,61
117.5,106.5,51,61
117.5,106.5,51,61
117.5,106.5,51,61
117.5,106.5,51,61
117.5,106.5,51,61
117.5,106.5,51,61
117.5,106.5,51,61
117.5,106.5,51,61
117.5,106.5,51,61
117.5,106.5,51,61
117.5,106.5,51,61
117.5,106.5,51,61
117.5,106.5,51,61
117.5,106.5,51,61
117.5,106.5,51,61
117.5,106.5,51,61
117.5,106.5,51,61
117.5,106.5,51,61
117.5,106.5,51,61
117.5,106.5,51,61
117.5,106.5,51,61
117.5,106.5,51,61
117.5,106.5,51,61
117.5,106.5,51,61
117.5,106.5,51,61
117.5,106.5,51,61
117.5,106.5,51,61
117.5,106.5,51,61
117.5,106.5,51,61
117.5,106.5,51,61
117.5,106.5,51,61
117.5,106.5,51,61
117.5,106.5,51,61
117.5,106.5,51,61
117.5,106.5,51,61
117.5,106.5,51,61
117.5,106.5,51,61
117.5,106.5,51,61
117.5,106.5,51,61
117.5,106.5,51,61
117.5,106.5,51,61
117.5,106.5,51,61
117.5,106.5,51,61
117.5,106.5,51,61
117.5,106.5,51,61
117.5,106.5,51,61
117.5,106.5,51,61
117.5,106.5,51,61
117.5,106.5,51,61
117.5,106.5,51,61
117.5,106.5,51,61
117.5,106.5,51,61
117.5,106.5,51,61
117.5,106.5,51,61
117.5,106.5,51,61
117.5,106.5,51,61
117.5,106.5,51,61
117.5,106.5,51,61
117.5,106.5,51,61
117.5,106.5,51,61
117.5,106.5,51,61
117.5,106.5,51,61
117.5,106.5,51,61
117.5,106.5,51,61
117.5,106.5,51,61
117.5,106.5,51,61
117.5,106.5,51,61
117.5,106.5,51,61
117.5,106.5,51,61
117.5,106.5,51,61
117.5,106.5,51,61
117.5,106.5,51,61
117.5,106.5,51,61
117.5,106.5,51,61
117.5,106.5,51,61
117.5,106.5,51,61
117.5,106.5,51,61
117.5,106.5,51,61
117.5,106.5,51,61
117.5,106.5,51,61
117.5,106.5,51,61
117.5,106.5,51,61
117.5,106.5,51,61
117.5,106.5,51,61
117.5,106.5,51,61
117.5,106.5,51,61
117.5,106.5,51,61
117.5,106.5,51,61
117.5,106.5,51,61
117.5,106.5,51,61
117.5,106.5,51,61
117.5,106.5,51,61
117.5,106.5,51,61
117.5,106.5,51,61
117.5,106.5,51,61
117.5,106.5,51,61
117.5,106.5,51,61
117.5,106.5,51,61
117.5,106.5,51,61
117.5,106.5,51,61
117.5,106.5,51,61
117.5,106.5,51,61
117.5,106.5,51,61
117.5,106.5,51,61
117.5,106.5,51,61
117.5,106.5,51,61
117.5,106.5,51,61
117.5,106.5,51,61
117.5,106.5,51,61
117.5,106.5,51,61
117.5,106.5,51,61
117.5,106.5,51,61
117.5,106.5,51,61
117.5,106.5,51,61
117.5,106.5,51,61
117.5,106.5,51,61
117.5,106.5,51,61
117.5,106.5,51,61
117.5,106.5,51,61
