212.5,120.5,21,95
212.5,120.5,21,95
212.5,116.5,21,95
208.5,116.5,21,95
208.5,112.5,21,95
208.5,112.5,21,95
208.5,112.5,21,95
208.5,112.5,21,95
208.5,108.5,21,95
208.5,108.5,21,95
208.5,108.5,21,95
212.5,108.5,21,95
216.5,108.5,21,95
216.5,108.5,21,95
216.5,108.5,21,95
216.5,108.5,21,95
216.5,108.5,21,95
216.5,108.5,21,95
212.5,108.5,21,95
212.5,104.5,21,95
212.5,104.5,21,95
212.5,104.5,21,95
212.5,104.5,21,95
216.5,100.5,21,95
216.5,100.5,21,95
216.5,100.5,21,95
216.5,104.5,21,95
216.5,100.5,21,95
216.5,100.5,21,95
216.5,100.5,21,95
216.5,96.5,21,95
216.5,96.5,21,95
216.5,96.5,21,95
220.5,96.5,21,95
220.5,96.5,21,95
220.5,96.5,21,95
220.5,96.5,21,95
220.5,96.5,21,95
220.5,96.5,21,95
220.5,96.5,21,95
220.5,96.5,21,95
220.5,100.5,21,95
220.5,104.5,21,95
220.5,104.5,21,95
224.5,108.5,21,95
224.5,108.5,21,95
220.5,108.5,21,95
220.5,112.5,21,95
220.5,112.5,21,95
216.5,112.5,21,95
216.5,112.5,21,95
212.5,112.5,21,95
208.5,108.5,21,95
204.5,108.5,21,95
200.5,104.5,21,95
196.5,104.5,21,95
196.5,100.5,21,95
196.5,100.5,21,95
196.5,104.5,21,95
196.5,108.5,21,95
200.5,108.5,21,95
200.5,108.5,21,95
200.5,112.5,21,95
204.5,112.5,21,95
204.5,112.5,21,95
204.5,112.5,21,95
200.5,108.5,21,95
200.5,108.5,21,95
204.5,108.5,21,95
204.5,108.5,21,95
212.5,108.5,21,95
220.5,104.5,21,95
224.5,100.5,21,95
224.5,100.5,21,95
220.5,100.5,21,95
216.5,96.5,21,95
212.5,96.5,21,95
204.5,100.5,21,95
200.5,96.5,21,95
196.5,96.5,21,95
196.5,88.5,21,95
196.5,84.5,21,95
196.5,76.5,21,95
200.5,72.5,21,95
200.5,72.5,21,95
200.5,68.5,21,95
204.5,68.5,21,95
204.5,68.5,21,95
204.5,72.5,21,95
204.5,76.5,21,95
204.5,84.5,21,95
204.5,88.5,21,95
204.5,92.5,21,95
204.5,96.5,21,95
204.5,100.5,21,95
208.5,100.5,21,95
208.5,104.5,21,95
208.5,108.5,21,95
208.5,116.5,21,95
208.5,120.5,21,95
204.5,120.5,21,95
204.5,124.5,21,95
204.5,128.5,21,95
204.5,128.5,21,95
204.5,128.5,21,95
204.5,128.5,21,95
204.5,128.5,21,95
204.5,128.5,21,95
204.5,124.5,21,95
204.5,124.5,21,95
204.5,120.5,21,95
204.5,120.5,21,95
204.5,116.5,21,95
204.5,116.5,21,95
204.5,112.5,21,95
204.5,112.5,21,95
208.5,112.5,21,95
208.5,112.5,21,95
208.5,112.5,21,95
208.5,116.5,21,95
208.5,116.5,21,95
208.5,116.5,21,95
208.5,116.5,21,95
208.5,120.5,21,95
212.5,120.5,21,95
212.5,120.5,21,95
212.5,120.5,21,95
216.5,120.5,21,95
216.5,120.5,21,95
220.5,120.5,21,95
220.5,124.5,21,95
224.5,124.5,21,95
224.5,124.5,21,95
224.5,124.5,21,95
224.5,128.5,21,95
224.5,128.5,21,95
224.5,128.5,21,95
228.5,128.5,21,95
228.5,128.5,21,95
232.5,124.5,21,95
232.5,124.5,21,95
232.5,124.5,21,95
232.5,120.5,21,95
232.5,120.5,21,95
232.5,120.5,21,95
232.5,120.5,21,95
232.5,116.5,21,95
232.5,116.5,21,95
232.5,116.5,21,95
232.5,116.5,21,95
232.5,112.5,21,95
232.5,112.5,21,95
232.5,112.5,21,95
232.5,108.5,21,95
232.5,108.5,21,95
232.5,108.5,21,95
232.5,108.5,21,95
232.5,108.5,21,95
232.5,108.5,21,95
232.5,108.5,21,95
232.5,108.5,21,95
232.5,108.5,21,95
236.5,104.5,21,95
236.5,104.5,21,95
236.5,104.5,21,95
236.5,104.5,21,95
236.5,104.5,21,95
236.5,104.5,21,95
236.5,104.5,21,95
236.5,104.5,21,95
236.5,104.5,21,95
232.5,104.5,21,95
232.5,104.5,21,95
228.5,104.5,21,95
228.5,104.5,21,95
224.5,104.5,21,95
224.5,104.5,21,95
220.5,104.5,21,95
220.5,104.5,21,95
220.5,104.5,21,95
220.5,100.5,21,95
220.5,100.5,21,95
216.5,100.5,21,95
216.5,100.5,21,95
216.5,100.5,21,95
216.5,100.5,21,95
216.5,100.5,21,95
216.5,100.5,21,95
216.5,100.5,21,95
216.5,100.5,21,95
216.5,104.5,21,95
216.5,104.5,21,95
216.5,104.5,21,95
216.5,108.5,21,95
216.5,104.5,21,95
216.5,104.5,21,95
216.5,104.5,21,95
216.5,104.5,21,95
216.5,104.5,21,95
216.5,104.5,21,95
216.5,104.5,21,95
216.5,104.5,21,95
216.5,104.5,21,95
212.5,104.5,21,95
212.5,104.5,21,95
212.5,104.5,21,95
208.5,108.5,21,95
208.5,108.5,21,95
208.5,108.5,21,95
208.5,108.5,21,95
208.5,108.5,21,95
208.5,112.5,21,95
208.5,116.5,21,95
208.5,120.5,21,95
208.5,124.5,21,95
208.5,128.5,21,95
208.5,128.5,21,95
208.5,132.5,21,95
208.5,132.5,21,95
208.5,132.5,21,95
208.5,132.5,21,95
208.5,132.5,21,95
208.5,136.5,21,95
208.5,136.5,21,95
208.5,136.5,21,95
208.5,136.5,21,95
208.5,136.5,21,95
208.5,136.5,21,95
208.5,136.5,21,95
208.5,136.5,21,95
208.5,136.5,21,95
204.5,136.5,21,95
204.5,136.5,21,95
204.5,132.5,21,95
200.5,132.5,21,95
200.5,132.5,21,95
196.5,132.5,21,95
196.5,132.5,21,95
196.5,132.5,21,95
196.5,132.5,21,95
196.5,132.5,21,95
196.5,132.5,21,95
196.5,132.5,21,95
196.5,132.5,21,95
200.5,132.5,21,95
200.5,132.5,21,95
204.5,132.5,21,95
208.5,132.5,21,95
208.5,132.5,21,95
212.5,132.5,21,95
212.5,132.5,21,95
212.5,132.5,21,95
212.5,132.5,21,95
212.5,128.5,21,95
212.5,128.5,21,95
212.5,124.5,21,95
212.5,124.5,21,95
212.5,120.5,21,95
212.5,120.5,21,95
212.5,120.5,21,95
212.5,120.5,21,95
212.5,120.5,21,95
212.5,120.5,21,95
212.5,120.5,21,95
212.5,116.5,21,95
208.5,116.5,21,95
208.5,120.5,21,95
208.5,120.5,21,95
208.5,120.5,21,95
204.5,120.5,21,95
204.5,120.5,21,95
204.5,120.5,21,95
204.5,120.5,21,95
204.5,120.5,21,95
200.5,120.5,21,95
200.5,120.5,21,95
196.5,120.5,21,95
192.5,120.5,21,95
192.5,120.5,21,95
192.5,116.5,21,95
188.5,116.5,21,95
188.5,116.5,21,95
188.5,112.5,21,95
184.5,112.5,21,95
184.5,108.5,21,95
180.5,108.5,21,95
180.5,104.5,21,95
180.5,104.5,21,95
180.5,104.5,21,95
176.5,104.5,21,95
172.5,100.5,21,95
172.5,100.5,21,95
172.5,96.5,21,95
172.5,92.5,21,95
172.5,92.5,21,95
172.5,92.5,21,95
172.5,88.5,21,95
168.5,88.5,21,95
168.5,88.5,21,95
164.5,88.5,21,95
164.5,88.5,21,95
160.5,88.5,21,95
160.5,88.5,21,95
160.5,84.5,21,95
160.5,84.5,21,95
156.5,84.5,21,95
156.5,84.5,21,95
156.5,84.5,21,95
156.5,84.5,21,95
152.5,84.5,21,95
152.5,88.5,21,95
148.5,88.5,21,95
148.5,88.5,21,95
144.5,92.5,21,95
144.5,88.5,21,95
144.5,88.5,21,95
144.5,88.5,21,95
144.5,88.5,21,95
144.5,88.5,21,95
144.5,88.5,21,95
140.5,88.5,21,95
140.5,88.5,21,95
140.5,88.5,21,95
140.5,88.5,21,95
136.5,88.5,21,95
136.5,88.5,21,95
136.5,88.5,21,95
136.5,88.5,21,95
136.5,88.5,21,95
136.5,88.5,21,95
136.5,88.5,21,95
140.5,88.5,21,95
140.5,92.5,21,95
140.5,96.5,21,95
140.5,100.5,21,95
144.5,104.5,21,95
144.5,104.5,21,95
148.5,104.5,21,95
152.5,104.5,21,95
160.5,104.5,21,95
168.5,100.5,21,95
172.5,100.5,21,95
172.5,100.5,21,95
172.5,100.5,21,95
172.5,100.5,21,95
168.5,100.5,21,95
168.5,100.5,21,95
164.5,100.5,21,95
160.5,100.5,21,95
156.5,104.5,21,95
152.5,104.5,21,95
152.5,100.5,21,95
148.5,100.5,21,95
148.5,100.5,21,95
148.5,100.5,21,95
148.5,100.5,21,95
148.5,100.5,21,95
148.5,100.5,21,95
148.5,100.5,21,95
148.5,100.5,21,95
144.5,100.5,21,95
144.5,96.5,21,95
144.5,96.5,21,95
144.5,92.5,21,95
144.5,88.5,21,95
144.5,88.5,21,95
148.5,88.5,21,95
152.5,92.5,21,95
156.5,92.5,21,95
160.5,96.5,21,95
164.5,100.5,21,95
164.5,104.5,21,95
164.5,108.5,21,95
164.5,112.5,21,95
164.5,112.5,21,95
164.5,116.5,21,95
164.5,116.5,21,95
164.5,116.5,21,95
164.5,120.5,21,95
164.5,120.5,21,95
164.5,120.5,21,95
164.5,120.5,21,95
160.5,124.5,21,95
156.5,124.5,21,95
156.5,120.5,21,95
156.5,120.5,21,95
156.5,116.5,21,95
156.5,108.5,21,95
156.5,104.5,21,95
156.5,100.5,21,95
160.5,96.5,21,95
164.5,92.5,21,95
164.5,88.5,21,95
168.5,84.5,21,95
172.5,84.5,21,95
172.5,84.5,21,95
172.5,88.5,21,95
172.5,88.5,21,95
172.5,88.5,21,95
168.5,92.5,21,95
164.5,100.5,21,95
160.5,100.5,21,95
156.5,104.5,21,95
152.5,108.5,21,95
148.5,112.5,21,95
144.5,116.5,21,95
144.5,120.5,21,95
140.5,120.5,21,95
140.5,120.5,21,95
140.5,120.5,21,95
144.5,120.5,21,95
144.5,116.5,21,95
148.5,116.5,21,95
148.5,116.5,21,95
148.5,112.5,21,95
152.5,108.5,21,95
156.5,108.5,21,95
156.5,104.5,21,95
156.5,104.5,21,95
160.5,100.5,21,95
160.5,100.5,21,95
160.5,96.5,21,95
160.5,96.5,21,95
160.5,92.5,21,95
160.5,92.5,21,95
160.5,92.5,21,95
160.5,92.5,21,95
160.5,88.5,21,95
160.5,92.5,21,95
156.5,92.5,21,95
156.5,92.5,21,95
152.5,92.5,21,95
152.5,92.5,21,95
148.5,92.5,21,95
148.5,88.5,21,95
144.5,88.5,21,95
144.5,88.5,21,95
144.5,88.5,21,95
144.5,88.5,21,95
144.5,84.5,21,95
144.5,84.5,21,95
144.5,80.5,21,95
144.5,76.5,21,95
148.5,76.5,21,95
148.5,76.5,21,95
148.5,76.5,21,95
148.5,76.5,21,95
152.5,76.5,21,95
156.5,76.5,21,95
160.5,76.5,21,95
164.5,80.5,21,95
164.5,84.5,21,95
164.5,88.5,21,95
164.5,92.5,21,95
164.5,96.5,21,95
164.5,100.5,21,95
164.5,100.5,21,95
164.5,100.5,21,95
164.5,100.5,21,95
164.5,100.5,21,95
164.5,104.5,21,95
164.5,104.5,21,95
164.5,104.5,21,95
164.5,108.5,21,95
160.5,112.5,21,95
160.5,112.5,21,95
156.5,116.5,21,95
156.5,116.5,21,95
156.5,116.5,21,95
152.5,120.5,21,95
152.5,120.5,21,95
152.5,120.5,21,95
152.5,120.5,21,95
152.5,120.5,21,95
152.5,120.5,21,95
152.5,120.5,21,95
152.5,120.5,21,95
152.5,120.5,21,95
152.5,120.5,21,95
152.5,120.5,21,95
152.5,116.5,21,95
152.5,112.5,21,95
152.5,112.5,21,95
152.5,112.5,21,95
152.5,108.5,21,95
152.5,104.5,21,95
152.5,104.5,21,95
156.5,100.5,21,95
156.5,100.5,21,95
160.5,96.5,21,95
164.5,96.5,21,95
164.5,92.5,21,95
164.5,92.5,21,95
164.5,88.5,21,95
164.5,88.5,21,95
164.5,88.5,21,95
164.5,88.5,21,95
164.5,88.5,21,95
164.5,88.5,21,95
164.5,88.5,21,95
164.5,88.5,21,95
164.5,88.5,21,95
164.5,88.5,21,95
168.5,88.5,21,95
168.5,88.5,21,95
168.5,88.5,21,95
168.5,84.5,21,95
168.5,84.5,21,95
164.5,84.5,21,95
164.5,84.5,21,95
164.5,84.5,21,95
160.5,84.5,21,95
160.5,84.5,21,95
156.5,84.5,21,95
156.5,84.5,21,95
152.5,84.5,21,95
148.5,84.5,21,95
144.5,84.5,21,95
144.5,84.5,21,95
140.5,84.5,21,95
140.5,80.5,21,95
136.5,80.5,21,95
136.5,80.5,21,95
136.5,80.5,21,95
136.5,80.5,21,95
132.5,80.5,21,95
132.5,80.5,21,95
132.5,80.5,21,95
132.5,80.5,21,95
132.5,80.5,21,95
132.5,80.5,21,95
132.5,80.5,21,95
132.5,84.5,21,95
132.5,88.5,21,95
136.5,92.5,21,95
136.5,100.5,21,95
140.5,104.5,21,95
144.5,108.5,21,95
152.5,112.5,21,95
156.5,116.5,21,95
156.5,116.5,21,95
156.5,116.5,21,95
156.5,112.5,21,95
152.5,108.5,21,95
152.5,104.5,21,95
152.5,100.5,21,95
152.5,96.5,21,95
152.5,92.5,21,95
152.5,88.5,21,95
152.5,88.5,21,95
148.5,84.5,21,95
148.5,84.5,21,95
148.5,84.5,21,95
144.5,80.5,21,95
140.5,80.5,21,95
132.5,76.5,21,95
128.5,76.5,21,95
124.5,72.5,21,95
120.5,68.5,21,95
116.5,64.5,21,95
112.5,92.5,21,95
112.5,92.5,21,95
112.5,104.5,21,95
112.5,88.5,21,95
112.5,72.5,21,95
108.5,72.5,21,95
108.5,72.5,21,95
108.5,84.5,21,95
108.5,56.5,21,95
108.5,80.5,21,95
108.5,68.5,21,95
108.5,68.5,21,95
108.5,72.5,21,95
108.5,52.5,21,95
112.5,56.5,21,95
112.5,64.5,21,95
112.5,76.5,21,95
112.5,88.5,21,95
112.5,100.5,21,95
112.5,104.5,21,95
108.5,108.5,21,95
108.5,108.5,21,95
108.5,108.5,21,95
108.5,104.5,21,95
108.5,104.5,21,95
108.5,100.5,21,95
108.5,96.5,21,95
112.5,92.5,21,95
108.5,96.5,21,95
112.5,100.5,21,95
112.5,100.5,21,95
112.5,104.5,21,95
112.5,112.5,21,95
112.5,116.5,21,95
112.5,116.5,21,95
112.5,120.5,21,95
112.5,124.5,21,95
