69.5,50.5,107,87
70,52,106,86
70,51.5,106,87
70,51.5,106,87
68,52,106,86
67,52,106,86
67,52,106,86
66,52,106,86
65.5,52.5,107,87
66,53,106,86
66,53,106,86
65.5,51.5,107,87
65.5,51.5,107,87
65.5,51.5,107,87
65,51.5,106,87
65,51.5,106,87
64,53,106,86
63,52,106,86
63,52,106,86
63,52,106,86
61.5,53.5,105,85
63,52,106,86
62.5,53.5,105,85
63.5,53.5,105,85
64,53.5,104,85
62.5,54,103,84
61.5,53,103,84
62,54.5,102,83
62,54.5,102,83
61,53.5,102,83
61,53.5,102,83
60,51.5,102,83
61,52.5,102,83
61,52.5,102,83
63,52.5,102,83
63,52.5,102,83
62.5,53,101,82
62.5,52,101,82
63,53.5,100,81
62.5,53,101,82
62.5,53,101,82
63,53,100,82
64,52.5,100,81
63,53.5,100,81
63.5,53.5,99,81
64.5,54,99,80
66,56,98,80
67,56.5,98,79
67,55,98,80
66,54.5,98,79
67.5,54.5,97,79
68,56,96,78
67.5,56.5,97,79
67.5,57.5,97,79
68.5,57.5,97,79
68.5,58.5,97,79
69.5,59.5,97,79
68,59,96,78
70,60,96,78
69.5,58.5,97,79
69.5,58.5,97,79
69.5,58.5,97,79
70.5,59.5,97,79
69.5,58.5,97,79
69.5,57.5,97,79
72,59,96,78
71.5,58.5,95,77
71.5,58.5,95,77
70,59,96,78
70.5,57.5,95,77
71.5,58.5,95,77
72,57.5,94,77
71,56.5,94,77
70.5,56.5,95,77
70.5,54.5,95,77
70.5,55.5,95,77
70.5,55.5,95,77
70,55.5,94,77
68,56.5,94,77
69.5,57.5,95,77
68.5,56.5,95,77
69,57.5,94,77
70,57.5,94,77
69,59,94,76
69.5,59,93,76
70.5,59,93,76
69.5,60.5,93,75
70.5,60.5,93,75
70,60.5,92,75
70,59.5,92,75
69.5,61,91,74
69.5,61,91,74
69.5,61,91,74
69.5,61,91,74
69.5,60,91,74
69.5,60,91,74
71.5,60,91,74
70.5,59,91,74
71,60.5,90,73
71.5,60,91,74
71.5,59,91,74
72.5,60,91,74
72.5,58,91,74
72.5,57,91,74
75,57.5,90,73
74,57.5,90,73
75,57.5,90,73
75,57.5,90,73
75,57.5,90,73
76,57.5,90,73
76,57.5,90,73
76,57.5,90,73
76.5,59,89,72
77.5,59,89,72
77.5,59,89,72
78.5,59,89,72
78.5,60,89,72
78.5,60,89,72
79.5,62,89,72
79.5,63,89,72
79.5,63,89,72
82,64,88,72
81.5,64,89,72
81.5,63,89,72
81.5,64,89,72
81.5,64,89,72
81.5,65,89,72
82.5,64.5,89,73
83,65.5,90,73
82.5,66.5,89,73
82.5,66.5,89,73
83.5,67,89,72
85.5,66,89,72
85,65,88,72
87.5,66.5,87,71
87.5,64.5,87,71
89.5,64,87,70
89,64,86,70
90,63,86,70
91.5,62.5,85,69
91.5,61.5,85,69
91.5,61.5,85,69
91.5,59.5,85,69
92.5,59.5,85,69
93,58.5,84,69
94,58.5,84,69
94,58,84,68
96.5,57.5,83,67
96.5,57.5,83,67
96.5,56.5,83,67
98.5,56,83,68
98.5,56,83,68
98.5,56,83,68
100.5,57.5,83,67
102,58.5,82,67
103,59.5,82,67
103,59.5,82,67
104.5,62,81,66
104.5,62,81,66
105.5,62,81,66
105.5,62,81,66
106,63.5,80,65
107,63.5,80,65
109,64.5,80,65
107,63.5,80,65
108.5,64,81,66
110,64.5,80,65
110.5,65,79,64
111.5,66,79,64
111.5,66,79,64
111.5,66,79,64
114.5,66.5,77,63
114.5,67.5,77,63
114.5,67.5,77,63
115,68.5,78,63
115,68.5,78,63
116.5,68.5,77,63
116.5,65.5,77,63
116.5,64.5,77,63
117.5,64,77,62
120,65,76,62
120,64.5,76,61
120,64.5,76,61
121,64,76,62
122,63,76,62
122.5,64.5,75,61
123.5,63.5,75,61
123.5,63.5,75,61
125,63,74,60
125,64,74,60
126.5,62,73,60
127.5,62,73,60
128.5,62.5,73,59
129,60.5,72,59
131,61.5,72,59
131,61.5,72,59
131,62,72,58
131.5,63,71,58
132.5,63,71,58
134,63.5,70,57
135.5,64,69,56
135.5,64,69,56
136.5,66,69,56
139,66.5,68,55
139,66.5,68,55
141,66.5,68,55
143,67.5,68,55
143,67.5,68,55
144.5,67.5,67,55
145.5,67.5,67,55
145.5,67.5,67,55
145.5,67.5,67,55
147,69,66,54
148,68,66,54
148,68,66,54
150.5,69,67,54
149.5,68,67,54
150.5,68,67,54
153,68,66,54
153,67,66,54
154,69.5,66,53
156.5,68.5,65,53
156.5,68.5,65,53
157.5,68.5,65,53
159.5,69.5,65,53
157.5,69,65,52
161,69,64,52
161,69,64,52
161,68,64,52
163,68,64,52
163.5,68.5,63,51
165,68,64,52
165,68,64,52
166.5,69.5,63,51
166,68,64,52
166.5,69,65,52
166.5,69,65,52
166.5,69,65,52
168.5,68.5,65,53
169.5,68.5,65,53
170.5,69,65,52
170.5,69,65,52
170.5,68.5,65,53
170.5,68.5,65,53
172.5,68.5,65,53
173.5,67.5,65,53
173.5,69.5,65,53
176,69,64,52
176,69,64,52
176,69,64,52
177,69,64,52
177,67,64,52
177,67,64,52
179.5,65,63,52
180.5,65.5,63,51
182,65,62,50
182.5,66,61,50
183,65,62,50
183,65,62,50
185,64.5,62,51
184,65,62,50
183.5,64.5,63,51
186.5,64.5,63,51
186.5,64.5,63,51
186.5,65.5,63,51
187,65.5,62,51
187.5,64.5,63,51
189,66,62,50
190.5,67,61,50
189,68,62,50
189.5,68.5,63,51
189.5,68.5,63,51
193,71.5,62,51
192,71,62,50
192.5,70,61,50
193,69,62,50
193,69,62,50
194.5,66,61,50
194.5,66,61,50
195.5,65,61,50
195.5,64,61,50
196.5,65,61,50
196.5,65,61,50
196,66,62,50
197,67,62,50
197.5,68.5,61,49
196.5,67,61,50
197.5,67,61,50
198,66.5,60,49
198,66.5,60,49
198,65.5,60,49
200,65.5,60,49
199,64.5,60,49
200,64.5,60,49
201,65.5,60,49
201,66.5,60,49
201,68,60,48
201,68,60,48
202.5,69,59,48
202.5,69,59,48
202,68.5,60,49
203,68.5,60,49
203,68.5,60,49
203,66.5,60,49
202,67.5,60,49
205.5,68,59,48
206,69.5,58,47
206,69.5,58,47
206,69.5,58,47
208.5,70.5,57,47
208.5,70.5,57,47
208.5,70.5,57,47
209,70.5,58,47
207,71.5,58,47
209,71,58,48
209.5,72,59,48
210,69.5,60,49
210,69.5,60,49
211,69,60,48
210,67.5,60,49
212,68.5,60,49
212,68.5,60,49
212,68.5,60,49
212,70,60,48
212,70.5,60,49
214,70.5,60,49
213,71,60,48
214,69.5,60,49
214,70.5,60,49
215,70.5,60,49
215,70.5,60,49
215,70.5,60,49
215,70.5,60,49
217,69.5,60,49
216.5,68,61,50
216.5,68.5,61,49
218,69.5,60,49
216.5,68.5,61,49
217,69.5,60,49
219.5,71,59,48
219.5,71,59,48
217.5,70,59,48
220.5,70,59,48
220.5,70,59,48
221.5,68,59,48
221.5,68,59,48
221.5,68,59,48
221,68.5,60,49
221.5,74,59,48
222.5,77,59,48
222.5,78,59,48
222.5,77,59,48
223.5,77,59,48
225,75.5,58,47
225,73.5,58,47
226,68.5,58,47
227,62.5,58,47
226,59,58,48
228,57.5,58,47
228,59.5,58,47
228,59,58,48
226.5,61,59,48
226.5,63,59,48
226.5,67,59,48
226,67.5,60,49
228.5,70,59,48
227.5,71,59,48
229.5,71,59,48
229.5,71,59,48
229.5,71,59,48
229,69.5,60,49
231.5,69,59,48
228.5,69,59,48
230.5,69,59,48
230.5,68,59,48
230.5,68,59,48
230.5,68,59,48
231.5,68,59,48
230,66.5,60,49
230.5,68,59,48
231,67.5,60,49
231.5,68,59,48
230,68.5,60,49
231.5,70,59,48
229.5,72,59,48
231.5,74,59,48
230,72.5,60,49
231,72.5,60,49
232.5,76,59,48
231.5,77,59,48
231.5,75,59,48
233,76,58,48
231.5,73,59,48
233.5,70,59,48
231.5,70,59,48
231.5,69,59,48
230.5,71,59,48
230.5,74,59,48
230.5,74,59,48
230,75.5,60,49
232.5,75,59,48
231.5,74,59,48
232.5,72,59,48
231.5,71,59,48
230.5,70,59,48
229.5,68,59,48
232,67,60,48
230.5,67,59,48
229.5,66,59,48
233,66,58,48
233,66.5,58,47
233.5,67.5,57,47
233.5,67.5,57,47
233,68.5,58,47
233,69.5,58,47
232,70.5,58,47
231,68,58,48
230.5,70,59,48
228,67.5,60,49
229,66.5,60,49
229,66.5,60,49
230,66.5,60,49
230,66.5,60,49
229.5,67.5,61,49
226,68,62,50
226,68,62,50
226,68,62,50
226.5,68.5,61,49
223.5,69,59,48
224.5,69,59,48
226.5,69,59,48
227.5,68,59,48
227.5,69,59,48
226.5,69,59,48
224.5,69,59,48
224.5,69,59,48
223,69,60,48
224,68.5,60,49
221.5,69,61,50
219.5,68,61,50
219.5,68,61,50
218.5,69,61,50
221,68.5,60,49
218,69.5,60,49
218,69.5,60,49
217,69.5,60,49
217,68.5,60,49
217.5,70,59,48
218.5,71,59,48
218.5,70,59,48
217,69.5,60,49
216,70.5,60,49
216,68.5,60,49
216,69.5,60,49
216,69.5,60,49
214,69.5,60,49
214,69.5,60,49
212.5,69,61,50
211.5,68,61,50
212.5,68,61,50
212.5,68,61,50
211.5,68,61,50
211.5,68,61,50
212.5,68.5,61,49
213,68.5,60,49
211,68,60,48
213,68.5,60,49
210.5,67.5,61,49
212,67.5,60,49
211.5,68.5,61,49
211.5,68.5,61,49
211.5,68.5,61,49
212.5,69,61,50
211.5,68,61,50
211,69,62,50
211,69.5,62,51
212,68.5,62,51
210,69,62,50
210,69,62,50
212,68.5,62,51
210,69,62,50
207,68.5,62,51
208.5,68.5,63,51
209,67,64,52
208.5,67,63,52
208.5,67,63,52
208.5,67,63,52
207,67,64,52
209,67,64,52
208,66,64,52
208,68,64,52
208.5,67,63,52
208,68,64,52
208,68,64,52
208,68,64,52
206,68,64,52
206.5,69.5,63,51
207.5,68,63,52
207.5,68.5,63,51
208,68,64,52
206,68,64,52
206,69,64,52
203,68,64,52
205,68,64,52
204,68,64,52
204,68,64,52
204,68,64,52
201.5,65.5,65,53
205,65,64,52
203.5,63.5,65,53
203.5,63.5,65,53
203.5,63.5,65,53
203.5,63.5,65,53
203.5,63.5,65,53
201.5,64.5,65,53
203.5,64.5,65,53
204,65,64,52
203.5,64.5,65,53
203.5,64.5,65,53
203.5,63.5,65,53
203.5,66.5,65,53
203,64,66,54
203,65.5,66,53
203.5,65.5,65,53
203.5,64.5,65,53
203.5,65,65,52
203.5,63.5,65,53
202.5,65,67,54
202.5,65,67,54
203,66,66,54
200.5,66,67,54
204.5,66,67,54
202.5,67,67,54
203.5,66,67,54
202,65.5,68,55
202,65.5,68,55
203,65.5,68,55
203,65.5,68,55
205,67.5,68,55
203,66.5,68,55
205,67.5,68,55
204.5,66.5,67,55
204.5,66.5,67,55
204.5,66.5,67,55
206,67.5,68,55
206,67.5,68,55
205.5,66,69,56
203.5,66,69,56
205.5,66,69,56
206,65.5,70,57
205,65.5,70,57
207,64.5,70,57
207,64.5,70,57
207,64.5,70,57
205.5,63.5,71,57
207.5,64.5,71,57
207,63.5,70,57
209,63.5,70,57
209,63.5,70,57
210,63.5,70,57
209.5,63.5,71,57
210.5,62,71,58
210.5,63,71,58
210,62,72,58
211.5,62,71,58
211.5,61,71,58
211.5,61,71,58
212.5,61,71,58
214,60.5,72,59
214,61.5,72,59
215.5,63,71,58
217.5,63,71,58
216.5,64,71,58
218,64,72,58
217.5,63,71,58
219,64.5,70,57
219.5,64,71,58
219.5,64,71,58
220,64,72,58
222,62.5,72,59
221.5,63.5,73,59
221.5,62,73,60
223.5,62.5,73,59
223.5,64,73,60
224,64,74,60
224,64,74,60
227,65,74,60
227,65,74,60
227,66,74,60
228.5,66.5,75,61
228.5,66.5,75,61
228.5,64.5,75,61
231,65,74,60
232,65,74,60
231.5,63.5,75,61
233,64,76,62
234,64,76,62
235,64,76,62
236,65,76,62
236.5,64.5,77,63
238.5,64.5,77,63
239,64.5,78,63
239.5,64,79,64
239.5,64,79,64
240.5,63,79,64
240.5,63,79,64
241.5,61.5,79,65
240.5,61,79,64
244,61.5,80,65
246,60.5,80,65
246,61.5,80,65
248,60.5,80,65
246.5,59,81,66
248.5,58,81,66
248.5,58,81,66
250,60,82,66
250,60,82,66
251.5,61,81,66
252.5,62,81,66
253.5,61,81,66
253.5,61,81,66
254.5,62,81,66
255.5,62,81,66
257,61.5,82,67
257.5,62.5,83,67
257.5,62.5,83,67
257,64,84,68
258.5,62.5,85,69
259,64.5,84,69
260,65,84,68
261,61.5,84,69
262.5,64.5,85,69
262,64,84,68
266.5,65,83,68
262,65,84,68
266,64,84,68
266,64,84,68
267,63,84,68
270,64,84,68
270.5,62,83,68
271.5,62,83,68
271.5,63,83,68
272,63,84,68
269,62,84,68
274,62.5,84,69
274,61.5,84,69
275.5,61.5,85,69
272,61,86,70
273.5,60.5,85,69
274,61,86,70
274,60,86,70
274,60,86,70
273.5,62,87,70
273.5,62,87,70
274,62,86,70
274,63,86,70
273.5,63.5,87,71
274,64,86,70
274,63,86,70
