123,87,132,176
123,87,132,176
123,87,132,176
123,87,132,176
123,87,132,176
125,88,132,176
125,87,132,176
127.5,86.5,133,177
127.5,86.5,133,177
128.5,86.5,133,177
130.5,86.5,133,177
130.5,86.5,133,177
134.5,85.5,133,177
134.5,85.5,133,177
135.5,85,133,178
139.5,85,133,178
139.5,85,133,178
139.5,85,133,178
139.5,85,133,178
142.5,84.5,133,177
141.5,84.5,133,177
141.5,84.5,133,177
141.5,84.5,133,177
141.5,83.5,133,177
137.5,82.5,133,177
134.5,82.5,133,177
134.5,82.5,133,177
132.5,82,133,178
130.5,81,133,178
130.5,81,133,178
130.5,81,133,178
130.5,81,133,178
131,81,134,178
133,82,134,178
134,83,134,178
135,82.5,134,179
135,82.5,134,179
135,82.5,134,179
135.5,83.5,135,179
134,83.5,134,179
134,83.5,134,179
134,83.5,134,179
134,83.5,134,179
134,83.5,134,179
134,83.5,134,179
137.5,85,135,180
138.5,83,135,180
137.5,83.5,135,181
137.5,83.5,135,181
139.5,82.5,135,181
140.5,82,135,180
142,83.5,136,181
142,83.5,136,181
143,82.5,136,181
146,82.5,136,181
146,82.5,136,181
146,82.5,136,181
146,81.5,136,181
146,81.5,136,181
146,81.5,136,181
146,81.5,136,181
147,81.5,136,181
146,80.5,136,181
143,81,136,182
141.5,80,137,182
141,81,136,182
141,81,136,182
140,80,136,182
140,81.5,136,181
140,81,136,182
140,81,136,182
137.5,81,137,182
139,80,136,182
139.5,80,137,182
139.5,78.5,137,183
138.5,78.5,137,183
138.5,79.5,137,183
138,82,138,184
137.5,79.5,139,185
138.5,79.5,139,185
137.5,80,139,186
138.5,82,139,186
140.5,81,139,186
140,83,140,186
140.5,84,139,186
143.5,84,139,186
143.5,84,139,186
142,86,140,186
145,86,140,186
145.5,86.5,139,185
146.5,86.5,139,185
146.5,86.5,139,185
146.5,86.5,139,185
146.5,86.5,139,185
148.5,86.5,139,185
150,89.5,138,185
149,89,138,184
148,89,138,184
148,89,138,184
149,89,138,184
149,89,138,184
149,89,138,184
149,89,138,184
149,89,138,184
149,88,138,184
149,83.5,138,185
149.5,85.5,139,185
149.5,83.5,139,185
149.5,83.5,139,185
151.5,83.5,139,185
151.5,80,139,186
152.5,82,139,186
152.5,81.5,139,185
155.5,81.5,139,185
159.5,80.5,139,185
159.5,81,139,186
165.5,80,139,186
168.5,79,139,186
171,77,140,186
174,78,140,186
174,78,140,186
180.5,76,139,186
181.5,76,139,186
185.5,73.5,139,185
189.5,72.5,139,185
192.5,72.5,139,185
197.5,68.5,139,185
200.5,66.5,139,185
203.5,68.5,139,185
208.5,66.5,139,185
213.5,64.5,139,185
216.5,64.5,139,185
220.5,63.5,139,185
225.5,62.5,139,185
228.5,61.5,139,185
234.5,61.5,139,185
234.5,61.5,139,185
239.5,63.5,139,185
240,64,138,184
248,65,138,184
248,65,138,184
252,66,138,184
256,65.5,138,185
259,65.5,138,185
264,67,138,184
270.5,68.5,139,185
273.5,69.5,139,185
278.5,69.5,139,185
284.5,72.5,139,185
289.5,72.5,139,185
294.5,73.5,139,185
299.5,72.5,139,185
306.5,73.5,139,185
314.5,72.5,139,185
320.5,72.5,139,185
331.5,73.5,139,185
335.5,71.5,139,185
342,71,140,186
349,70,140,186
354.5,69,139,186
359.5,69.5,139,185
366.5,69.5,139,185
369.5,68.5,139,185
375.5,68,139,186
382.5,67,139,186
386.5,67,139,186
390.5,67,139,186
392.5,66,139,186
395,69,140,186
400,67.5,140,187
400,67.5,140,187
397,69.5,140,187
403.5,72,141,188
405.5,73,141,188
405,75.5,140,187
405,76.5,140,187
405,76.5,140,187
402.5,77,141,188
405.5,78.5,141,187
402,78.5,140,187
401.5,80.5,141,187
399.5,80.5,141,187
397.5,80,141,188
397.5,80,141,188
393.5,81.5,141,187
390.5,80,141,188
390.5,80,141,188
389.5,80,141,188
387.5,79,141,188
383.5,79,141,188
384,78.5,142,189
380,78.5,142,189
379,79.5,142,189
379,79.5,142,189
378,80.5,142,189
378,80.5,142,189
375,81.5,142,189
377.5,83,141,188
375,83.5,142,189
375,83.5,142,189
373.5,86,141,188
374.5,90,141,188
372.5,94,141,188
368.5,97,141,188
364.5,102,141,188
357.5,109,141,188
371.5,107,141,188
362.5,113,141,188
357.5,120,141,188
354.5,115,141,188
346.5,120,141,188
345.5,129,141,188
342.5,129,141,188
342.5,128,141,188
345,129.5,142,189
342,129.5,142,189
344,132.5,142,189
340.5,137,141,188
339.5,137,141,188
340,138.5,140,187
338,139.5,140,187
338,141.5,140,187
338,141.5,140,187
339,143.5,140,187
338,146,140,186
336,147.5,140,187
339,149.5,140,187
340,152.5,140,187
339,153.5,140,187
339,153.5,140,187
339.5,156,141,188
339.5,158,141,188
339.5,158,141,188
340.5,160.5,141,187
340.5,160.5,141,187
340.5,160.5,141,187
340.5,160.5,141,187
340.5,160.5,141,187
340.5,161.5,141,187
340.5,161.5,141,187
338.5,163,141,188
338.5,163,141,188
338.5,163,141,188
336,163.5,140,187
334,162.5,140,187
335,163,140,186
335,161,140,186
333.5,159,139,186
333.5,159,139,186
333,156,140,186
333,156,140,186
331.5,153,139,186
330.5,153,139,186
330.5,152,139,186
328.5,150.5,139,185
328.5,150.5,139,185
325.5,148.5,139,185
324.5,149.5,139,185
322.5,149.5,139,185
320.5,149.5,139,185
317.5,149,139,186
313.5,149.5,139,185
312.5,154.5,139,185
309.5,154.5,139,185
305.5,156.5,139,185
300.5,157.5,139,185
297.5,160,139,186
294,161,140,186
291,163,140,186
288,164.5,140,187
284,166,140,186
282,167.5,140,187
280,164.5,140,187
276,164,140,186
271,164,140,186
265,161,140,186
261,161.5,140,187
255,158.5,140,187
248.5,157.5,141,187
241.5,154,141,188
239.5,154,141,188
232.5,149,141,188
231.5,148,141,188
225,145.5,142,189
223.5,144,141,188
218.5,141.5,141,187
214.5,138,141,188
212.5,135.5,141,189
208,130.5,142,189
205.5,125.5,141,189
203.5,124.5,141,189
201,122.5,142,189
196,118.5,142,189
196,115.5,142,189
195,114.5,142,189
194,113,142,190
194,111,142,190
191,110,142,190
186.5,110,143,190
186.5,110,143,190
184.5,111,143,190
184,108,142,190
181,110,142,190
178,108,142,190
176.5,108,143,190
175.5,108,143,190
172.5,107,143,190
171,106.5,142,189
171,106.5,142,189
169,106,142,190
166,103,142,190
164.5,105,143,190
163.5,104.5,143,191
162.5,100.5,143,191
161,100,144,192
156.5,98.5,145,193
158,97,144,192
157,97.5,144,193
153.5,96.5,145,193
154.5,94.5,145,193
151.5,93.5,145,193
150,94,144,192
150,93,144,192
150,93,144,192
147.5,91.5,143,191
149.5,91.5,143,191
147.5,90.5,143,191
144.5,87.5,143,191
145.5,86,143,190
143.5,84.5,143,191
144.5,81.5,143,191
142.5,82.5,143,191
142,81,144,192
143,81,144,192
141.5,81.5,145,193
141.5,81.5,145,193
140,85.5,144,193
140,85.5,144,193
136.5,88.5,145,193
138.5,88.5,145,193
138.5,88.5,145,193
139.5,90.5,145,193
139.5,90.5,145,193
139.5,90.5,145,193
138.5,92.5,145,193
141.5,93.5,145,193
142.5,94.5,145,193
145.5,94.5,145,193
146.5,96.5,145,193
148.5,96.5,145,193
150.5,98.5,145,193
155.5,98.5,145,193
155.5,100.5,145,193
157.5,99,145,194
159.5,100.5,145,193
166,101,146,194
164,103,146,194
165.5,103,145,194
165.5,103,145,194
163.5,106.5,145,193
160.5,109.5,145,193
164,106.5,144,193
165,101.5,144,193
164.5,100.5,145,193
165,102.5,144,193
161,105,144,192
160,104.5,144,191
162,101,144,192
161.5,100.5,143,191
160.5,100.5,143,191
159.5,99.5,143,191
158.5,96.5,143,191
157,94,144,192
156,93,144,192
155,90.5,144,191
160.5,89.5,143,191
158,87.5,144,191
160,87,144,192
162,86,144,192
165,86,144,192
169,86,144,192
174.5,86.5,143,191
182.5,85.5,143,191
184.5,87.5,143,191
185.5,87.5,143,191
190.5,88.5,143,191
187.5,91.5,143,191
188.5,91.5,143,191
186.5,91.5,143,191
187.5,91.5,143,191
192.5,91.5,143,191
196.5,91.5,143,191
196.5,91.5,143,191
196.5,92.5,143,191
196.5,92.5,143,191
196.5,92.5,143,191
197.5,93.5,143,191
197.5,93.5,143,191
195.5,94.5,143,191
195.5,95,143,190
195.5,95,143,190
193.5,95,143,190
194,95,142,190
194,96.5,142,189
193,95.5,142,189
190.5,96.5,141,189
191.5,97,141,188
191.5,96,141,188
191.5,96,141,188
191.5,97,141,188
191.5,97,141,188
190.5,96,141,188
190.5,96,141,188
191.5,95,141,188
191.5,95,141,188
191.5,94.5,141,187
191.5,94.5,141,187
191.5,94.5,141,187
191,93.5,140,187
191,93.5,140,187
192,92.5,140,187
192,92.5,140,187
192.5,96,139,186
193.5,95.5,139,185
193.5,95.5,139,185
193.5,95.5,139,185
191.5,94.5,139,185
191.5,96.5,139,185
192.5,95.5,139,185
192,96,138,184
192,96,138,184
192,96,138,184
193,97,138,184
193,97,138,184
193,97,138,184
194,97,138,184
194,97,138,184
195,98,138,184
195,98,138,184
195,98,138,184
194,98.5,138,185
194,98.5,138,185
194,98.5,138,185
194,98,138,184
193,100,138,184
194,100,138,184
194,100,138,184
193,101,138,184
193,101.5,138,183
195.5,102.5,137,183
195.5,102.5,137,183
195.5,102.5,137,183
195.5,102,137,182
195.5,102,137,182
195.5,102,137,182
196.5,102,137,182
196,103,136,182
196,103,136,182
197,104.5,136,181
197,104.5,136,181
196,105.5,136,181
196,105.5,136,181
196,105.5,136,181
198,105.5,136,181
197.5,107.5,135,181
198.5,106,135,180
198.5,106,135,180
198.5,106,135,180
197.5,106,135,180
198.5,106,135,180
198.5,106,135,180
199.5,106,135,180
200.5,107.5,135,179
200.5,107.5,135,179
201.5,109,135,180
202.5,109,135,180
202.5,109,135,180
203.5,110,135,180
203.5,109,135,180
204.5,110.5,135,179
204.5,110.5,135,179
204.5,110.5,135,179
207,109.5,134,179
208,110,134,178
208,110,134,178
212,108.5,134,179
212,111,134,178
215,111,134,178
217,110.5,134,179
221,111,134,178
224,111.5,134,179
225,112,134,178
226,113,134,178
229,111,134,178
232,112.5,134,179
235,111.5,134,179
236,110.5,134,179
239,109.5,134,179
239,112,134,178
242,114,134,178
243,112.5,134,179
244,113,134,178
246,113.5,134,179
247,114,134,178
249,112.5,134,179
251,114,134,178
251,113,134,178
253,113,134,178
256,114,134,178
258,113.5,134,179
258,113.5,134,179
261,111,134,178
263,110.5,134,179
263.5,109,133,178
269,108,134,178
269,108,134,178
269.5,107,133,178
271.5,106,133,178
274,107,134,178
276,104,134,178
279,104,134,178
279,104,134,178
281.5,104,133,178
283,101,134,178
286.5,101,133,178
289.5,100,133,178
291.5,100,133,178
295.5,97,133,178
296,96,134,178
298,95,134,178
304,92.5,134,179
304,92.5,134,179
307.5,91,135,180
308.5,92,135,180
308.5,92,135,180
313.5,90,135,180
313.5,90,135,180
314.5,91.5,135,181
317,89.5,136,181
316,86.5,136,181
318,89,136,182
318,88,136,182
318,88,136,182
314.5,88,137,182
315.5,85.5,137,183
311.5,87.5,137,183
308.5,89.5,137,183
304.5,91.5,137,183
301.5,95.5,137,183
300,99,138,184
293,101,138,184
292.5,101.5,139,185
289.5,99.5,139,185
286.5,100.5,139,185
279.5,101,139,186
273,105,140,186
271,107,140,186
266,111,140,186
263,112,140,186
260,117.5,140,187
257.5,120.5,141,187
255.5,122,141,188
249.5,124,141,188
243.5,120.5,141,189
246.5,117,141,188
243.5,110.5,141,189
242,100.5,142,189
238.5,91,141,188
236,78.5,142,189
237.5,65,141,188
235.5,52,141,188
230.5,36,141,188
230.5,24,141,188
226.5,12,141,188
226.5,4.5,141,189
225,-0.5,142,189
223.5,-0.5,141,189
222.5,0,141,188
220.5,0,141,188
217.5,0.5,141,187
216,-0.5,140,187
215,0,140,186
214,-0.5,140,187
213,8,140,186
211,7.5,140,187
208,14,140,186
207,14,140,186
204,18,140,186
204.5,15.5,139,185
203.5,22.5,139,185
202.5,19,139,186
200,20,140,186
196,21.5,140,187
196,21.5,140,187
195,21.5,140,187
191,22.5,140,187
191,22.5,140,187
189,23,140,186
187,23.5,140,187
182,27.5,140,187
178,24.5,140,187
178,29.5,140,187
173,30.5,140,187
169.5,38.5,141,187
167.5,40.5,141,187
165.5,38,141,188
163.5,39.5,141,187
164,44.5,140,187
163,43.5,140,187
160,42.5,140,187
159,45.5,140,187
160,49.5,140,187
163,53.5,140,187
161,58.5,140,187
157,59.5,140,187
158.5,65.5,141,187
153,68.5,140,187
151,74.5,140,187
150.5,77.5,141,187
151,79.5,140,187
150,80.5,140,187
150.5,86,141,188
150.5,86,141,188
152.5,88,141,188
154.5,89,141,188
158.5,89,141,188
159,89.5,140,187
161,91,140,186
165.5,94,139,186
168,93,140,186
172.5,98,139,186
172.5,100,139,186
177,98,140,186
175,103,140,186
175,95,140,186
172,92.5,140,187
174,94.5,140,187
171,89,140,186
168,89,140,186
166.5,83,139,186
167.5,78,139,186
163.5,76.5,139,185
163.5,73.5,139,185
162,71,138,184
156,74,138,184
156,74,138,184
153,73,138,184
151,76,138,184
151,77,138,184
152,78,138,184
152,78,138,184
155,81,138,184
155,81,138,184
160,83,138,184
162,82,138,184
169.5,81.5,137,183
174.5,80.5,137,183
178.5,80.5,137,183
180.5,79.5,137,183
180,81,138,184
180,80.5,138,183
182,78,138,184
182,77,138,184
182,76,138,184
182,76,138,184
177,71,138,184
177,71,138,184
176,70,138,184
172,72,138,184
169.5,70.5,137,183
171.5,72.5,137,183
165,73,138,184
169,72,138,184
162.5,74.5,137,183
162.5,74.5,137,183
167.5,76.5,137,183
169.5,74,137,182
169.5,74,137,182
175.5,70.5,137,183
181.5,68.5,137,183
185.5,67.5,137,183
188.5,67,137,182
196,65,136,182
201,64,136,182
201,67,136,182
204,69,136,182
236,66,136,182
205,70,136,182
200,69,136,182
194,68,136,182
188,62,136,182
213.5,56,137,182
225.5,0,137,182
227,0,136,182
217,59,136,182
175,58.5,136,181
189.5,59,137,182
193,65,136,182
195,65,136,182
191,72,136,182
191.5,75,137,182
163.5,76,137,182
160,75,136,182
188,73,136,182
169,79.5,136,181
164,81.5,136,181
172,82.5,136,181
182,88.5,136,181
197,87.5,136,181
206,87.5,136,181
212,87.5,136,181
228.5,89,135,180
234,87.5,136,181
240,86.5,136,181
246,84.5,136,181
253,83.5,136,181
259.5,81,137,182
263,74,136,182
267,70,136,182
265,68,136,182
265,65.5,136,181
265,65.5,136,181
281,68.5,136,181
278,73.5,136,181
266,80.5,136,181
265,84.5,136,181
264,90.5,136,181
261,93,136,182
257.5,99,137,182
255,99,136,182
254,103.5,136,181
254,108,136,182
251,110.5,136,181
250,112,136,182
251,113.5,136,181
254,115.5,136,181
260,118.5,136,181
265.5,118,135,180
270.5,120,135,180
280.5,122,135,180
288,125.5,134,179
297,125.5,134,179
306,129.5,134,179
317,133.5,134,179
327.5,133.5,135,179
340,137.5,134,179
344.5,139,135,180
358,141.5,134,179
360,144.5,134,179
371.5,147.5,135,179
363,152.5,134,179
371,152.5,134,179
374,157.5,134,179
383,159,134,178
385.5,161.5,133,177
391.5,162,133,178
397.5,163.5,133,177
398.5,163.5,133,177
405,169,132,176
406,173,132,176
406,174,132,176
408,174,132,176
408,174,132,176
411.5,176.5,131,175
413.5,178.5,131,175
415.5,185,131,174
415.5,185,131,174
412.5,184.5,131,175
412.5,184.5,131,175
412.5,184.5,131,175
406.5,179.5,131,175
405.5,179.5,131,175
405.5,179.5,131,175
400.5,179.5,131,175
399.5,180.5,131,175
396.5,178.5,131,175
390,179.5,132,175
388.5,179.5,131,175
388.5,179.5,131,175
381,180,132,176
383,178.5,132,175
380.5,177.5,131,175
383.5,178.5,131,175
379.5,179.5,131,175
378.5,178.5,131,175
378.5,178.5,131,175
378.5,178.5,131,175
380.5,181.5,131,175
377,181,130,174
374.5,182,131,174
374.5,182,131,174
374,183,130,174
374,182.5,130,173
368,183.5,130,173
367,183.5,130,173
363,184.5,130,173
363,184.5,130,173
358,183,130,174
358,183,130,174
358,183,130,174
353,181,130,174
349.5,181,131,174
349.5,181,131,174
345.5,181,131,174
347.5,179.5,131,175
345.5,179,131,174
343,178,130,174
342.5,178,131,174
340,176,130,174
340,180,130,174
338,174,130,174
335.5,176,131,174
335.5,176,131,174
334.5,175,131,174
337,176,130,174
334,176,130,174
337,176,130,174
336,176,130,174
336,176,130,174
334,175.5,130,173
333,176.5,130,173
334,178.5,130,173
334,178.5,130,173
334,178.5,130,173
332,181.5,130,173
333,180.5,130,173
331.5,179.5,129,173
328.5,180,129,172
327.5,178,129,172
323.5,176,129,172
318,175.5,128,171
319,173.5,128,171
311,171.5,128,171
306.5,172,127,170
300.5,172,127,170
294,172,128,170
286.5,172,127,170
284.5,172,127,170
275.5,171.5,127,169
272.5,174.5,127,169
270.5,175,127,170
264.5,175,127,170
260.5,176,127,170
259.5,174,127,170
254.5,173,127,170
254.5,173.5,127,169
249.5,172.5,127,169
249,170,126,168
246.5,170.5,127,169
249,170.5,126,169
249,170.5,126,169
251.5,165.5,127,169
251.5,165.5,127,169
249,163.5,126,169
248.5,157.5,127,169
250,153.5,126,169
251,151.5,126,169
248,149,126,168
246,147,126,168
242,145,126,168
238,144,126,168
241,141,126,168
232,138.5,126,167
227.5,133.5,125,167
225.5,133.5,125,167
221.5,131,125,166
217.5,127,125,166
215,127,124,166
209,125,124,166
209,124.5,124,165
208,125.5,124,165
207,127.5,124,165
201,131.5,124,165
201,131,124,166
200,132.5,124,165
200,132.5,124,165
196,129,124,166
192,126.5,124,165
192,128,124,166
186,122.5,124,165
184,119.5,124,165
180,118.5,124,165
179,113.5,124,165
173,111,124,166
170.5,109,125,166
170,107,124,166
173.5,105,125,166
175.5,103,125,166
177.5,101.5,125,167
184.5,100,125,166
191.5,100,125,166
200.5,100,125,166
210.5,101,125,166
223.5,98,125,166
231.5,96,125,166
243.5,91,125,166
251.5,86.5,125,167
254.5,87.5,125,167
244.5,80.5,125,167
261.5,78.5,125,167
259.5,78.5,125,167
257.5,74.5,125,167
259.5,75.5,125,167
255.5,73.5,125,167
224.5,75.5,125,167
212,73.5,126,167
196,76,126,168
170.5,80.5,125,167
172,80,126,168
209,73,126,168
205.5,76.5,125,167
205.5,78.5,125,167
207.5,81.5,125,167
206,82.5,126,167
211,84.5,126,167
198,90.5,126,167
202.5,95.5,125,167
216.5,93.5,125,167
211.5,98.5,125,167
208.5,100.5,125,167
208,99,126,168
212,92,126,168
205,92,126,168
205,89.5,126,169
205,89.5,126,169
201.5,90.5,127,169
195.5,93.5,127,169
206.5,89.5,127,169
195.5,91.5,127,169
197,91.5,126,169
195,91,126,168
196,92,126,168
199,93,126,168
201.5,95.5,127,169
206.5,92.5,127,169
211.5,98.5,127,169
221.5,99.5,127,169
225.5,106.5,127,169
238.5,109.5,127,169
249.5,117.5,127,169
254.5,126.5,127,169
268.5,134.5,127,169
286.5,142.5,127,169
309.5,147.5,127,169
317.5,153.5,127,169
334.5,158,127,170
346.5,164.5,127,169
362,166.5,126,169
372,171,126,168
383.5,170.5,127,169
389.5,175.5,127,169
394.5,178.5,127,169
407.5,179.5,127,169
408.5,186.5,127,169
416.5,189.5,127,169
419.5,192.5,127,169
456.5,206.5,127,169
424,203,126,168
465,216,126,168
426.5,216.5,127,169
414.5,236.5,127,169
421,229,126,168
416,234,126,168
411,239.5,126,169
401,249,126,168
394,256,126,168
388,264,126,168
381,269,126,168
373,282,126,168
369,290,126,168
361,298,126,168
353,303,126,168
352,311,126,168
351,312,126,168
352,312,126,168
354,312,126,168
363,311,126,168
366.5,312.5,125,167
369.5,312.5,125,167
370,314,124,166
370,314.5,124,165
371,315.5,124,165
414.5,307,123,164
416,296.5,122,163
418.5,296,123,164
369.5,316,123,164
374,317.5,122,163
379.5,318,121,162
383,316,122,162
386,307,122,162
387,300,122,162
390,291,122,162
387,288,122,162
388,283,122,162
385,280,122,162
387,276,122,162
385.5,271,121,162
385.5,269.5,121,161
390,266.5,120,161
386,265,120,160
384.5,265.5,119,159
385,263,120,160
387,263.5,120,159
387.5,265.5,119,159
387.5,265.5,119,159
389.5,264.5,119,159
389.5,264.5,119,159
387.5,263.5,119,159
387.5,263.5,119,159
387.5,263.5,119,159
387.5,259.5,119,159
386.5,257.5,119,159
387.5,255.5,119,159
385,252.5,120,159
383,248.5,120,159
384.5,247.5,119,159
379,245.5,120,159
378.5,245.5,119,159
375.5,245,119,158
393.5,235.5,119,159
387.5,232,119,158
385.5,231,119,158
385.5,231,119,158
380.5,229,119,158
380.5,229,119,158
373.5,226.5,119,159
375.5,224.5,119,159
372.5,223.5,119,159
341.5,231.5,119,159
368.5,222,119,158
364,220,118,158
364,218,118,158
365,217,118,158
364,215,118,158
365,213.5,118,157
365,213.5,118,157
365,211,118,158
367.5,211.5,117,157
368.5,209.5,117,157
368,207.5,118,157
368,205.5,118,157
351,213.5,118,157
368,200.5,118,157
370.5,199.5,117,157
370.5,197.5,117,157
370,195.5,118,157
372.5,194,117,156
369.5,193,117,156
369.5,193,117,156
367.5,189.5,117,157
365,188.5,118,157
365,188.5,118,157
359,181.5,118,157
360,183.5,118,157
359,183.5,118,157
358,182.5,118,157
355,175.5,118,157
354.5,173.5,117,157
354.5,170.5,117,157
351.5,170,117,156
349,166.5,118,157
349,166.5,118,157
351,168.5,118,157
349,162.5,118,157
346.5,161,117,156
346.5,161,117,156
343,160.5,118,157
342.5,160,117,156
341.5,159,117,156
338.5,160,117,156
337.5,161,117,156
334.5,158,117,156
329.5,155,117,156
328.5,158,117,156
324.5,154,117,156
320.5,154,117,156
320.5,158,117,156
314.5,158,117,156
309.5,155,117,156
309.5,155,117,156
303.5,153,117,156
300.5,151,117,156
299.5,152,117,156
297,151.5,116,155
290.5,146.5,117,155
287.5,144,117,156
283.5,145,117,156
279.5,144.5,117,155
277.5,151.5,117,155
274.5,143,117,156
273,149.5,116,155
271,150.5,116,155
265,152,116,154
239,158,116,154
235,159.5,116,155
235,159.5,116,155
232,157,116,154
225.5,161,115,154
227.5,161,115,154
221.5,155,115,154
221.5,159,115,154
221.5,159.5,115,153
216.5,158.5,115,153
218,157,114,152
218,153.5,114,153
218,153.5,114,153
218,153.5,114,153
218.5,153.5,115,153
217,152,114,152
218,149,114,152
215,150,114,152
214,147,114,152
212,147,114,152
220,147,114,152
224,143,114,152
224,141,114,152
223,146,114,152
223,146,114,152
225,148,114,152
226,147,114,152
232,147,114,152
232,147,114,152
236,148.5,114,151
237.5,146.5,113,151
239.5,146.5,113,151
240.5,149.5,113,151
241.5,146.5,113,151
241.5,146.5,113,151
240.5,146.5,113,151
240.5,146.5,113,151
240.5,146.5,113,151
240.5,147.5,113,151
240.5,147.5,113,151
240.5,147.5,113,151
238,144,114,152
235,140,114,152
233,136,114,152
230.5,129.5,115,153
226,126.5,114,153
220.5,121.5,115,153
219,119,114,152
214,119,114,152
208,120,114,152
204,118,114,152
214,123,114,152
