118,69,114,162
118,69,114,162
118,66,114,162
118,66,114,162
118,66,114,162
118,66,114,162
117,65,114,162
117,65,114,162
117,64,114,162
116,66,114,162
116,66,114,162
116,65,114,162
114,68,114,162
114,68,114,162
113,70,114,162
111,71.5,114,161
109.5,71.5,113,161
106,71,114,162
104,75,114,162
101.5,75.5,113,161
97,74.5,114,161
94,74,114,162
93,75,114,162
91,73,114,162
90,72,114,162
90,72,114,162
90,72,114,162
90,72,114,162
90,72,114,162
90.5,69.5,113,161
90.5,66.5,113,161
89,67.5,114,161
88,64.5,114,161
88.5,63.5,113,161
89.5,63.5,113,161
89.5,63.5,113,161
89.5,63.5,113,161
91.5,63.5,113,161
91.5,63.5,113,161
91.5,63.5,113,161
95.5,62.5,113,161
95.5,62.5,113,161
95.5,62.5,113,161
101.5,62.5,113,161
102,63,114,162
104,63,114,162
107.5,63.5,113,161
108.5,63.5,113,161
111.5,63.5,113,161
115.5,63.5,113,161
115.5,63.5,113,161
117.5,63.5,113,161
121.5,65.5,113,161
123.5,65.5,113,161
123.5,64,113,160
125.5,65.5,113,161
127.5,67,113,160
129.5,68,113,160
130,69,112,160
130,69,112,160
130,72.5,112,159
131,75,112,160
131.5,76,113,160
131.5,76,113,160
131.5,76,113,160
131.5,76,113,160
132.5,78,113,160
132.5,78,113,160
132.5,78.5,113,161
134.5,79,113,160
134.5,77.5,113,161
135.5,78.5,113,161
135.5,78.5,113,161
135.5,78.5,113,161
134.5,74.5,113,161
136,76.5,114,161
136,75.5,114,161
134,76,114,162
134,76,114,162
133,74,114,162
131.5,76.5,113,161
131.5,76.5,113,161
131.5,76.5,113,161
130,76.5,114,161
130,76.5,114,161
127.5,75.5,113,161
127,75,114,162
127,75,114,162
127,75,114,162
125.5,75.5,113,161
123,75,114,162
121,77,114,162
121,77,114,162
118,76,114,162
118,78,114,162
118,78,114,162
116,76,114,162
116,81.5,114,161
116,81.5,114,161
114.5,79.5,113,161
113.5,75.5,113,161
112.5,79,113,160
114,80,112,160
113,79.5,112,159
113,81.5,112,159
113,80.5,112,159
113,80.5,112,159
113,80.5,112,159
113,82.5,112,159
113,82.5,112,159
113,82.5,112,159
113,82.5,112,159
113,82.5,112,159
113,82.5,112,159
113,82.5,112,159
113,82.5,112,159
112,83.5,112,159
112,82.5,112,159
112,82.5,112,159
112,82.5,112,159
111,81.5,112,159
111,81.5,112,159
111,81.5,112,159
111,81.5,112,159
111,81.5,112,159
113,82.5,112,159
111,80,112,160
111,80,112,160
111.5,83,113,160
111.5,83,113,160
109.5,80,113,160
113,83,112,160
112,82,112,160
112,82,112,160
111,80.5,112,159
111,80.5,112,159
111,79,112,160
111,79,112,160
111.5,80,113,160
110.5,78,113,160
110.5,77.5,113,161
110.5,77.5,113,161
109.5,77.5,113,161
109.5,77.5,113,161
107.5,75.5,113,161
107.5,75.5,113,161
107.5,75.5,113,161
107.5,75.5,113,161
106.5,74.5,113,161
106.5,74.5,113,161
106.5,74.5,113,161
104.5,72.5,113,161
105.5,74.5,113,161
105.5,74.5,113,161
103,73,114,162
103,73.5,114,161
104.5,74.5,113,161
104.5,74.5,113,161
104.5,74.5,113,161
104.5,74.5,113,161
103.5,74.5,113,161
103.5,74.5,113,161
103.5,74.5,113,161
103.5,74.5,113,161
103.5,74.5,113,161
103.5,74.5,113,161
103.5,73.5,113,161
104.5,74.5,113,161
103.5,71.5,113,161
104.5,75.5,113,161
103.5,74.5,113,161
103,72,114,162
104,75,114,162
103,74,114,162
105.5,75.5,113,161
105.5,75.5,113,161
102.5,77.5,113,161
102.5,77.5,113,161
102.5,77.5,113,161
102,79.5,114,161
102,79.5,114,161
102.5,83.5,113,161
104.5,82.5,113,161
101.5,81.5,113,161
102,85,114,162
100,84,114,162
100,84,114,162
100,84,114,162
102.5,83.5,113,161
101.5,84.5,113,161
104,86,114,162
104,86,114,162
103,86,114,162
103,86,114,162
104,86,114,162
104,86,114,162
104,86,114,162
104,87,114,162
104,87,114,162
104,87,114,162
104,87,114,162
104,87,114,162
104,87,114,162
104,87,114,162
104,87,114,162
104,87,114,162
104,87,114,162
102,89.5,114,161
102,89.5,114,161
102,89.5,114,161
103,90,114,162
102,88,114,162
102,92,114,162
102,92,114,162
102,92,114,162
102,92,114,162
102,92,114,162
102,92,114,162
101.5,93.5,113,161
103.5,93.5,113,161
103.5,93.5,113,161
100.5,89.5,113,161
100,84,114,162
101,80,114,162
101.5,77.5,113,161
102,70.5,114,161
102.5,69.5,113,161
103,64.5,114,161
105,64,114,162
105,59,114,162
105,56.5,114,161
104.5,53.5,113,161
104.5,53.5,113,161
104.5,50.5,113,161
105.5,52.5,113,161
105.5,52.5,113,161
105.5,52.5,113,161
105,54,114,162
105,53.5,114,161
105,53.5,114,161
106,54,114,162
106,54,114,162
106,54,114,162
107,56,114,162
108,56.5,114,163
108,56.5,114,163
108,56.5,114,163
110,58,114,162
110,58,114,162
110,58,114,162
112,62,114,162
112,62,114,162
112,63,114,162
112,63,114,162
113,66,114,162
112,66,114,162
111.5,66.5,115,163
111.5,66.5,115,163
111.5,66.5,115,163
109.5,68.5,115,163
109.5,68.5,115,163
108.5,70.5,115,163
109.5,71,115,164
109.5,71,115,164
109,72,116,164
109,72,116,164
109,72,116,164
108.5,70.5,115,163
108.5,72.5,115,163
109.5,73.5,115,163
109.5,73.5,115,163
109.5,73.5,115,163
109,74.5,114,163
108,73,114,162
108,74,114,162
107,75,114,162
107,75,114,162
105,76,114,162
106,73.5,114,163
105,78.5,114,163
104,77.5,114,163
104,77.5,114,163
103,78,114,162
103,78,114,162
99.5,77.5,115,163
101,77.5,114,163
101,77.5,114,163
98.5,78.5,115,163
98,77,114,162
98,77,114,162
98,80,114,162
98,80,114,162
98,80,114,162
95,81,114,162
95,81,114,162
97,82,114,162
97,82,114,162
94.5,80.5,115,163
94.5,80.5,115,163
94.5,80.5,115,163
94.5,80.5,115,163
94.5,80.5,115,163
94.5,80.5,115,163
94.5,80.5,115,163
94.5,80.5,115,163
94.5,80.5,115,163
94.5,80.5,115,163
94.5,80.5,115,163
94.5,80.5,115,163
94.5,80.5,115,163
94.5,80.5,115,163
94,81,114,162
94,81,114,162
97,82,114,162
97,79,114,162
97,79,114,162
96,80.5,114,161
97,76.5,114,161
97.5,77.5,113,161
96.5,77.5,113,161
96.5,77.5,113,161
98,76,114,162
98,76,114,162
97,77,114,162
97,77,114,162
97,77,114,162
97,76.5,114,161
97,76.5,114,161
97,76.5,114,161
95.5,74.5,113,161
95.5,75.5,113,161
94.5,73.5,113,161
93.5,74.5,113,161
93.5,74.5,113,161
92.5,75.5,113,161
91,74,114,162
91,74,114,162
89,74,114,162
89,74,114,162
89,74,114,162
88,74,114,162
85,75,114,162
85,75.5,114,163
82.5,75.5,115,163
80.5,77.5,115,163
76.5,76.5,115,163
76.5,76.5,115,163
74.5,77,115,164
73.5,77,115,164
71.5,77,115,164
71,76,116,164
71,76,116,164
70,73.5,116,165
70,73.5,116,165
69,72.5,116,165
69,73.5,116,165
69,75.5,116,165
69,75.5,116,165
68,75.5,116,165
68,75.5,116,165
68,76.5,116,165
67,75.5,116,165
67,75.5,116,165
67,75.5,116,165
67,75.5,116,165
69,75.5,116,165
71,74.5,116,165
71,74.5,116,165
71,77,116,164
72,75,116,164
74,77,116,164
74.5,76,115,164
73,75,116,164
75.5,77,115,164
76.5,78,115,164
77,78,116,164
77,74.5,116,165
78.5,75,115,164
78.5,75,115,164
80,78,116,164
81,76,116,164
81,76,116,164
82.5,74,115,164
82.5,71,115,164
82.5,71,115,164
81,69.5,116,165
84,69.5,116,165
85,70,116,164
86,68.5,116,165
87,70.5,116,165
87,70.5,116,165
87,69.5,116,165
86,67.5,116,165
86,67.5,116,165
86,67.5,116,165
89,69.5,116,165
87,66.5,116,165
87,66.5,116,165
91,67.5,116,165
88,66.5,116,165
91.5,67,115,164
91.5,67,115,164
91.5,67,115,164
91.5,67,115,164
92.5,66,115,164
94.5,69,115,164
93.5,67,115,164
95.5,69,115,164
94,66,116,164
93.5,68.5,115,163
95.5,69.5,115,163
94,67,116,164
94,68,116,164
94,68,116,164
93.5,67,115,164
93.5,70,115,164
93.5,70,115,164
93.5,70,115,164
93.5,70,115,164
93.5,72,115,164
91.5,73,115,164
93.5,75,115,164
92,77,116,164
91,79,116,164
91,79,116,164
91,79,116,164
91.5,79,115,164
91.5,79,115,164
91.5,79,115,164
92.5,79,115,164
92.5,79,115,164
92.5,79,115,164
92.5,79,115,164
92.5,79,115,164
92.5,79,115,164
92.5,79,115,164
91.5,79,115,164
91.5,79,115,164
92.5,80,115,164
91.5,81,115,164
91,79,116,164
91,79,116,164
93.5,78,115,164
94.5,77,115,164
94.5,77,115,164
92,80,116,164
91.5,79,115,164
92.5,80,115,164
92.5,78,115,164
93,78,116,164
93,78,116,164
93.5,82,115,164
92.5,79.5,115,163
92.5,80,115,164
94.5,82,115,164
93.5,80,115,164
94.5,80,115,164
94.5,80,115,164
93.5,83,115,164
93.5,83,115,164
93.5,83,115,164
92,83,116,164
91,84,116,164
91,84,116,164
91,84,116,164
91,84,116,164
91,84,116,164
91,84,116,164
91,84,116,164
91,84,116,164
91.5,84,115,164
91.5,84,115,164
91.5,84,115,164
91.5,84,115,164
91.5,84,115,164
90,84,116,164
91.5,84,115,164
89.5,84,115,164
89.5,84,115,164
89.5,84,115,164
89.5,84,115,164
90.5,84,115,164
90.5,84,115,164
90.5,84,115,164
90.5,84,115,164
90.5,84,115,164
90.5,84,115,164
90.5,84,115,164
90.5,85.5,115,163
90.5,85.5,115,163
90.5,85.5,115,163
90.5,85.5,115,163
89.5,85.5,115,163
90.5,83.5,115,163
90.5,83.5,115,163
90.5,83.5,115,163
91,84,114,162
91,84,114,162
91,84,114,162
91,84,114,162
91,84,114,162
91,84,114,162
91,84,114,162
91,84,114,162
90.5,87.5,115,163
91,86.5,114,163
91,86.5,114,163
91,86.5,114,163
91,86.5,114,163
91,86.5,114,163
90,86,114,162
93,88,114,162
92,87.5,114,161
92.5,86.5,113,161
94.5,87.5,113,161
93.5,88.5,113,161
92.5,84.5,113,161
94.5,87.5,113,161
94.5,84.5,113,161
94.5,84.5,113,161
96,83.5,114,161
96,83.5,114,161
96.5,83.5,113,161
95.5,83.5,113,161
97.5,84.5,113,161
93.5,80,113,160
96.5,86,113,160
96.5,86,113,160
98.5,84,113,160
98.5,83,113,160
98.5,83,113,160
98,83,112,160
98,83,112,160
98,83,112,160
98,83.5,112,159
98,83.5,112,159
97,87.5,112,159
99.5,84,111,158
95.5,85,111,158
95.5,85,111,158
95.5,85,111,158
95.5,85,111,158
95.5,85,111,158
95.5,85,111,158
95.5,85,111,158
95.5,85,111,158
95.5,85,111,158
95.5,85,111,158
95.5,85,111,158
95.5,85,111,158
95.5,85,111,158
94.5,85,111,158
94.5,85,111,158
94.5,89,111,158
94,89.5,110,157
94,89.5,110,157
94,89.5,110,157
94,89.5,110,157
94,85.5,110,157
93.5,86.5,111,157
93.5,86.5,111,157
93.5,88,111,158
93.5,89,111,158
93.5,89,111,158
93.5,91,111,158
94.5,91,111,158
94.5,91,111,158
94,91.5,112,159
94,91.5,112,159
93.5,88,111,158
95.5,88,111,158
95.5,88,111,158
94.5,93,111,158
94.5,88,111,158
94.5,93.5,111,157
94,91.5,110,157
94.5,89.5,111,157
94.5,93.5,111,157
94.5,92,111,158
95.5,89,111,158
95.5,92,111,158
93.5,92,111,158
93.5,89,111,158
95.5,90.5,111,157
94.5,89,111,158
94.5,89,111,158
94.5,89,111,158
96.5,90,111,158
96.5,90,111,158
97.5,89,111,158
97.5,89,111,158
97.5,90,111,158
97.5,90,111,158
98.5,90,111,158
98.5,90,111,158
98.5,90,111,158
98.5,90,111,158
99.5,90,111,158
100.5,90,111,158
100.5,89,111,158
100.5,89,111,158
102.5,90,111,158
102.5,90,111,158
102.5,91,111,158
102.5,90,111,158
102.5,90,111,158
102.5,90,111,158
102.5,91,111,158
102.5,91,111,158
103,90.5,112,159
103,90.5,112,159
103,90.5,112,159
103,90.5,112,159
103,89,112,160
102,90.5,112,159
102,90.5,112,159
102,90.5,112,159
102,87.5,112,159
103,88.5,112,159
102,87,112,160
102,88.5,112,159
102.5,88,111,158
102,86.5,112,159
101,86.5,112,159
101,86.5,112,159
101,86.5,112,159
102,86.5,112,159
101,85.5,112,159
101,85.5,112,159
100,84.5,112,159
102,84,112,158
102,84,112,158
99,88.5,112,159
99,88.5,112,159
99,88.5,112,159
100,88.5,112,159
100,88.5,112,159
100,87.5,112,159
100,87.5,112,159
100,87.5,112,159
100,87.5,112,159
100,87.5,112,159
100,87.5,112,159
100,88.5,112,159
100,88.5,112,159
100,88.5,112,159
100,88.5,112,159
100,88.5,112,159
100,88.5,112,159
100,88.5,112,159
100,88.5,112,159
101,88.5,112,159
101,88.5,112,159
101,88.5,112,159
101,88.5,112,159
101,88.5,112,159
101,88.5,112,159
101,88.5,112,159
100,83.5,112,159
99,85.5,112,159
99,85.5,112,159
99,85.5,112,159
100,85.5,112,159
100,85.5,112,159
100,85.5,112,159
100,85.5,112,159
101,87.5,112,159
101,87.5,112,159
101,87.5,112,159
102,84.5,112,159
102,84.5,112,159
101,85.5,112,159
101,85.5,112,159
96.5,87,113,160
95.5,85,113,160
95.5,85,113,160
92.5,87,113,160
92.5,87,113,160
89.5,87.5,113,161
89.5,87.5,113,161
87.5,87.5,113,161
84.5,86.5,113,161
83.5,84.5,113,161
82,86.5,114,161
81,85,114,162
79,85,114,162
78,83.5,114,163
76,85.5,114,163
74,83.5,114,163
74,81.5,114,163
72,84,114,162
71,84,114,162
69,83,114,162
71,84,114,162
71,83,114,162
70.5,84.5,113,161
70.5,84.5,113,161
68.5,82.5,113,161
67.5,83.5,113,161
67.5,83,113,160
67.5,84,113,160
67.5,84,113,160
67.5,84,113,160
67.5,84,113,160
68.5,82.5,113,161
67,81.5,114,161
66.5,81.5,113,161
66.5,81.5,113,161
66.5,81.5,113,161
66.5,81.5,113,161
66.5,81.5,113,161
66,79.5,114,161
66,79.5,114,161
66,79.5,114,161
66,79.5,114,161
66,79.5,114,161
66,79.5,114,161
66,79.5,114,161
66,79.5,114,161
67.5,79.5,113,161
67.5,79.5,113,161
67.5,79.5,113,161
67.5,79.5,113,161
67.5,79.5,113,161
67.5,79.5,113,161
69.5,80.5,113,161
69.5,79,113,160
72.5,78.5,113,161
72.5,78.5,113,161
73.5,78,113,160
74.5,77.5,113,161
75.5,80.5,113,161
76,76,114,162
78.5,75.5,113,161
79,76,114,162
84.5,77.5,113,161
83,78.5,114,161
85,75,114,162
86.5,75.5,113,161
86,75.5,114,161
86,75.5,114,161
88,76,114,162
88,73,114,162
88,75.5,114,163
89,73.5,114,163
89,73.5,114,163
89,74.5,114,163
90,73.5,114,163
91,72.5,114,163
89,69.5,114,163
90.5,70.5,115,163
90.5,67.5,115,163
91,67,114,162
91,67,114,162
91,67,114,162
91,67,114,162
92,65,114,162
92,65,114,162
92,65,114,162
92,65,114,162
93,67,114,162
92.5,66.5,115,163
92.5,66.5,115,163
93,64,114,162
93,64,114,162
92,64,114,162
90.5,62.5,115,163
90.5,63.5,115,163
90.5,63.5,115,163
92.5,61.5,115,163
92.5,61.5,115,163
91.5,62.5,115,163
92,63.5,114,163
93,62,114,162
93,65,114,162
92,62.5,114,163
92,62,114,162
92,64,114,162
93,65,114,162
93,65,114,162
93,65,114,162
92,66,114,162
92,66,114,162
92,66,114,162
92,66,114,162
92,66,114,162
92,66,114,162
92,66,114,162
92,66,114,162
94,65,114,162
94,65,114,162
94,65,114,162
94,65,114,162
93.5,65.5,115,163
93.5,65.5,115,163
94.5,64.5,115,163
94.5,64.5,115,163
96.5,65.5,115,163
96.5,66.5,115,163
98.5,66.5,115,163
99.5,67.5,115,163
99.5,67.5,115,163
101.5,68,115,164
101.5,67.5,115,163
102.5,66,115,164
102.5,67,115,164
102.5,67,115,164
104.5,66,115,164
104.5,67,115,164
104.5,67,115,164
104,69,116,164
106.5,68,115,164
106.5,68,115,164
108.5,68,115,164
109.5,71,115,164
111.5,71,115,164
115.5,69,115,164
118.5,68,115,164
118.5,71,115,164
120.5,72,115,164
124.5,70,115,164
125.5,69,115,164
127.5,71,115,164
127.5,71,115,164
129.5,71,115,164
129.5,71,115,164
130.5,69.5,115,163
132.5,69.5,115,163
132.5,73.5,115,163
134.5,68.5,115,163
134,71,114,162
136,69,114,162
136.5,72.5,113,161
137,70.5,114,161
138,73.5,114,161
138,69,114,162
140,71.5,114,163
141,72.5,114,163
141,72.5,114,163
141,72.5,114,163
141,72.5,114,163
140.5,72.5,115,163
140.5,72.5,115,163
140.5,72.5,115,163
140.5,72.5,115,163
140.5,72.5,115,163
140.5,72.5,115,163
141,74,114,162
140,72,114,162
140,72,114,162
140,73,114,162
140,73,114,162
138.5,73.5,113,161
138.5,70.5,113,161
137.5,75.5,113,161
135,71.5,114,161
134.5,75.5,113,161
135.5,70.5,113,161
131.5,71,113,160
130.5,71.5,113,161
129.5,74.5,113,161
127.5,70.5,113,161
127.5,70.5,113,161
126,70.5,114,161
124.5,70.5,113,161
124.5,70.5,113,161
124.5,69.5,113,161
123.5,70.5,113,161
123,73,114,162
123,73,114,162
121,68.5,114,161
119.5,69.5,113,161
118.5,69.5,113,161
116.5,69.5,113,161
116.5,69.5,113,161
112.5,67.5,113,161
112.5,67.5,113,161
105.5,64.5,113,161
105.5,64.5,113,161
102.5,61.5,113,161
104.5,60,113,160
102.5,63,113,160
102.5,63,113,160
102.5,66.5,113,161
102.5,66.5,113,161
103,68.5,114,161
103,72,114,162
104,72,114,162
105,72.5,114,161
103,74,114,162
104,72,114,162
104,72,114,162
