153,104.5,26,43
152,97,26,44
152.5,92,27,44
152.5,87,27,44
152.5,78.5,27,45
153.5,75,27,44
151.5,72,27,44
149.5,70,27,44
146,68.5,26,43
140,68.5,26,43
136,66.5,26,43
129,64.5,26,43
122,64.5,26,43
117,62.5,26,43
110,61.5,26,43
110,61.5,26,43
110,61.5,26,43
110,57.5,26,43
108.5,56,25,42
104.5,53,25,42
99.5,49,25,42
94.5,48,25,42
87.5,46,25,42
79.5,39.5,25,41
59.5,36,25,42
73.5,32,25,42
92.5,28,25,42
95,26.5,26,43
60,38.5,26,43
54,44.5,26,43
66,39.5,26,43
107,33.5,26,43
115,30.5,26,43
116,34,26,44
165,66.5,26,43
154,42.5,26,43
180,75.5,26,43
182.5,84,25,42
140.5,60.5,25,41
120.5,66.5,25,41
126.5,57.5,25,41
131.5,45.5,25,41
151,52,24,40
139,35,24,40
142.5,34.5,25,41
147.5,36.5,25,41
150.5,36.5,25,41
155.5,37.5,25,41
156.5,32.5,25,41
172.5,47.5,25,41
176.5,43.5,25,41
176.5,43.5,25,41
179.5,42.5,25,41
145.5,75.5,25,41
151.5,81.5,25,41
150.5,94.5,25,41
177.5,80.5,25,41
177.5,80.5,25,41
172.5,85.5,25,41
197.5,109.5,25,41
227.5,93.5,25,41
247.5,84.5,25,41
274.5,114.5,25,41
259.5,92.5,25,41
260.5,95.5,25,41
248.5,90,25,42
249.5,92,25,42
244.5,95,25,42
273,94,26,42
281,104.5,26,43
298,111.5,26,43
306,117.5,26,43
295.5,124,27,44
320,107,26,44
307,123.5,26,43
291,135.5,26,43
278,144,26,44
266,154.5,26,43
269,184.5,26,43
237,187.5,26,43
220,211.5,26,43
