124.5,86,15,16
124.5,86,15,16
125.5,85,15,16
127.5,84,15,16
130.5,81,15,16
130.5,82,15,16
112.5,91,15,16
116.5,91,15,16
119.5,92,15,16
115.5,149,15,16
115.5,149,15,16
115.5,149,15,16
115.5,149,15,16
115.5,149,15,16
115,149.5,14,15
116,148.5,14,15
115,149.5,14,15
115,149.5,14,15
135.5,90,15,16
151.5,78,15,16
153.5,77,15,16
153.5,77,15,16
154.5,75,15,16
155.5,74,15,16
155.5,74,15,16
158.5,73,15,16
158.5,73,15,16
157.5,74,15,16
160,73.5,14,15
160,73.5,14,15
154.5,86,15,16
163.5,73,15,16
163.5,73,15,16
156.5,85,15,16
195.5,110,15,16
165.5,72,15,16
154,87.5,16,17
154,87.5,16,17
158,86.5,16,17
166,73.5,16,17
166.5,76,15,16
152.5,109,15,16
161.5,90,15,16
168,75.5,16,17
165.5,89,15,16
162.5,92,15,16
162.5,92,15,16
166.5,89,15,16
188.5,98,15,16
167.5,97,15,16
165.5,95,15,16
169.5,88,15,16
169.5,88,15,16
174.5,76,15,16
176,77.5,16,17
176,77.5,16,17
170,91.5,16,17
177,80.5,16,17
177,80.5,16,17
178,81.5,16,17
181,111,16,18
183,118.5,16,17
180.5,84,17,18
180,124.5,16,17
179.5,123,17,18
206,112.5,16,17
217,138.5,16,17
181,116.5,16,17
179,119.5,16,17
179,119.5,16,17
179,119.5,16,17
177,120.5,16,17
177,120.5,16,17
177,120.5,16,17
177,120.5,16,17
188.5,76.5,15,17
188,74.5,16,17
188,73.5,16,17
187,71.5,16,17
186,70.5,16,17
187,68.5,16,17
187,68.5,16,17
187,68.5,16,17
184,70.5,16,17
184,70.5,16,17
184,70.5,16,17
181,72.5,16,17
181,70.5,16,17
179,71.5,16,17
175,73.5,16,17
172,76.5,16,17
170.5,77,15,16
167.5,78,15,16
166,77.5,16,17
163,76.5,16,17
160,76.5,16,17
160,76.5,16,17
159,75.5,16,17
159,75.5,16,17
158,75.5,16,17
157,74.5,16,17
156,73.5,16,17
156,73.5,16,17
156,73.5,16,17
155,72.5,16,17
154,72.5,16,17
154,72.5,16,17
154,72.5,16,17
154,72.5,16,17
152,72.5,16,17
150,72.5,16,17
150,72.5,16,17
146,74.5,16,17
145,75.5,16,17
145,76.5,16,17
143,77.5,16,17
141,80,16,18
139,81.5,16,17
137,85.5,16,17
135,88.5,16,17
133,90.5,16,17
134.5,96,15,16
131.5,99.5,15,17
128.5,102,15,16
155.5,114,15,16
154.5,110,15,16
126,112.5,16,17
122.5,115,15,16
124,118.5,16,17
122.5,118,15,16
121,119.5,16,17
118,120.5,16,17
118,120.5,16,17
118,119.5,16,17
117,116.5,16,17
118,113.5,16,17
113,107.5,16,17
114.5,104,15,16
112.5,98,15,16
113.5,91.5,15,17
109.5,87,15,16
94.5,113,15,16
105.5,100,15,16
92.5,115,15,16
105.5,95,15,16
105.5,95,15,16
106,94.5,14,15
103.5,95,15,16
106,92.5,14,15
101,95.5,14,15
100,94.5,14,15
97,94.5,14,15
96.5,94,15,16
90.5,96,15,16
87,95.5,16,17
87,95.5,16,17
85,95.5,16,17
83,94.5,16,17
80,93.5,16,17
110,87.5,16,17
77.5,96,17,18
92.5,63,17,18
92.5,64,17,18
92.5,64,17,18
92.5,64,17,18
79.5,94,17,18
94.5,66,17,18
99.5,65,17,18
99.5,65,17,18
101.5,66,17,18
102,64.5,18,19
105,64.5,18,19
106,62.5,18,19
110,62.5,18,19
110,62.5,18,19
115,61.5,18,19
117.5,63.5,17,19
120.5,63.5,17,19
123.5,66.5,17,19
127,69.5,18,19
129,71.5,18,19
134,76.5,18,19
136,80,18,20
139,84,18,20
142,89,18,20
138.5,97,19,20
147.5,97,19,20
107.5,118,19,20
98.5,133,19,20
94.5,107,19,20
94.5,107,19,20
57.5,148,19,20
57.5,148,19,20
94.5,139,19,20
100.5,135,19,20
100.5,135,19,20
99.5,135,19,20
158.5,103,19,20
147,108,18,20
142,102,18,20
139,96,18,20
137.5,90,19,20
128.5,85,19,20
124.5,79,19,20
120.5,74,19,20
98.5,108,19,20
119.5,69,19,20
117.5,66,19,20
115.5,64,19,20
108.5,62,19,20
110.5,63,19,20
108.5,61.5,19,21
108.5,61.5,19,21
106.5,61.5,19,21
104.5,59,19,20
104.5,59,19,20
104.5,59,19,20
101.5,58,19,20
101.5,58,19,20
102,57,18,20
101,57.5,18,19
98,57.5,18,19
95,58.5,18,19
95,58.5,18,19
94,60.5,18,19
91,64.5,18,19
89,65.5,18,19
87.5,70.5,17,19
83.5,74,17,18
81.5,77,17,18
76.5,82,17,18
76.5,84,17,18
71.5,88,17,18
71.5,90,17,18
66,93.5,16,17
65,95.5,16,17
64,100.5,16,17
62,102.5,16,17
36,97.5,16,17
18,97.5,16,17
10,98.5,16,17
10,98.5,16,17
11,111.5,16,17
47,143.5,16,17
56,192.5,16,17
69,222,16,18
69,222,16,18
70.5,221,17,18
70.5,221,17,18
69,222.5,16,17
69,222.5,16,17
68,222.5,16,17
69,222.5,16,17
66,223.5,16,17
69,222.5,16,17
69,222.5,16,17
67,223.5,16,17
68,223.5,16,17
50,181.5,16,17
43,185.5,16,17
53.5,164,15,16
26,155.5,16,17
25,156.5,16,17
36,182.5,16,17
15,148.5,16,17
21,145.5,16,17
30,138.5,16,17
34,136.5,16,17
15,143.5,16,17
11,143.5,16,17
37,136.5,16,17
38,136.5,16,17
72,109.5,16,17
100,107.5,16,17
114,145.5,16,17
115.5,144,17,18
117.5,144,17,18
117.5,144,17,18
117.5,144,17,18
117.5,144,17,18
117.5,144,17,18
117.5,144,17,18
117.5,144,17,18
117.5,144,17,18
117.5,144,17,18
115.5,144,17,18
115.5,144,17,18
115.5,144,17,18
115.5,144,17,18
116.5,143,17,18
116.5,143,17,18
116.5,143,17,18
116.5,143,17,18
116.5,143,17,18
116.5,143,17,18
117.5,143,17,18
117.5,143,17,18
