39.5,198.5,61,103
39.5,198.5,61,103
39.5,198.5,61,103
39.5,197.5,61,103
38,197,60,102
39,196,60,102
39,196,60,102
38,195.5,60,101
38,195.5,60,101
38,193,60,102
37,191,60,102
37,188,60,102
36.5,185,61,102
34.5,180.5,61,103
36.5,176,61,102
36,172,60,102
36,164.5,60,101
38,157,60,102
37.5,149,61,102
40,143,60,102
42,137,60,102
43,128.5,60,101
48,122.5,60,101
50,118,60,102
52.5,112,61,102
58.5,103.5,61,103
62.5,100,61,102
67.5,93.5,61,103
75.5,87,61,104
81,84,62,104
91,79,62,104
101,74,62,104
105,70,62,104
117,64,62,104
123,57.5,62,105
135.5,56,63,106
145.5,54,63,106
152,49.5,62,105
164.5,47,63,106
174.5,45,63,106
184.5,43,63,106
193.5,39.5,63,107
202.5,37.5,63,107
212.5,38,63,106
221,38.5,62,105
227.5,39,63,106
236.5,40,63,106
242.5,41,63,106
248.5,43,63,106
252.5,44.5,63,107
260.5,47,63,106
263.5,50,63,106
265.5,51,63,106
271.5,53.5,63,107
275.5,55.5,63,107
277.5,59.5,63,107
281,65.5,64,107
285,66.5,64,107
288.5,69.5,63,107
293.5,75,63,106
295.5,80,63,106
300,85.5,62,105
302.5,90,63,106
305.5,94,63,106
312.5,99,63,106
315.5,102,63,106
320.5,109,63,106
325.5,115.5,63,107
330.5,120,63,106
334.5,125,63,106
339.5,132.5,63,107
344.5,138.5,63,107
348,144.5,64,107
353.5,151.5,63,107
355.5,159.5,63,107
358.5,166.5,63,107
361.5,171.5,63,107
363.5,177.5,63,107
363,184.5,64,107
367,188,64,108
367,193,64,108
368,197,64,108
364.5,202.5,65,109
367,203.5,64,109
366,207.5,64,109
366,207.5,64,109
365,208.5,64,109
363,208.5,64,109
362.5,206.5,65,109
360.5,205,65,110
360.5,201.5,65,109
360.5,201.5,65,109
362.5,198.5,65,109
362,196,64,108
364,190,64,108
365,187,64,108
368,185,64,108
370,181,64,108
370,175,64,108
370,170,64,108
371,165,64,108
369.5,157.5,65,109
369,152.5,64,109
369.5,147.5,65,109
367.5,140.5,65,109
365.5,135.5,65,109
362,132.5,64,109
359,128.5,64,109
352,126.5,64,109
349.5,123.5,65,109
343,119.5,64,109
337.5,121.5,65,109
330.5,119,65,110
325,118.5,66,111
316,116.5,66,111
309,115.5,66,111
301,117.5,66,111
296,117.5,66,111
288,117.5,66,111
280,117,66,112
276,118,66,112
269.5,119,67,112
264,119,66,112
257,118,66,112
255.5,119,67,112
248.5,121.5,67,113
243.5,121.5,67,113
242.5,122.5,67,113
238.5,127,67,114
236,128,68,114
232,129.5,68,115
231.5,132,69,116
226.5,134,69,116
230.5,137,69,116
231.5,141,69,116
233.5,145.5,69,117
231.5,150.5,69,117
234.5,152.5,69,117
233.5,157.5,69,117
240.5,157.5,69,117
243,160,70,118
248,160,70,118
251,161,70,118
259,161,70,118
263,159,70,118
269,160,70,118
276,158,70,118
281,160.5,70,119
289,159.5,70,119
292,161.5,70,119
298,162,70,118
304,162,70,118
309,162.5,70,119
312,164.5,70,119
317,168,70,118
321,168,70,118
323.5,168.5,69,117
325.5,170.5,69,117
328,175.5,70,117
331.5,176.5,69,117
332.5,175.5,69,117
334,177.5,70,117
334,177.5,70,117
337,176,70,118
337,176,70,118
340.5,175.5,69,117
340.5,175,69,116
345.5,175,69,116
346.5,174,69,116
353,170.5,68,115
355,170,68,116
360,166.5,68,115
362,164.5,68,115
366,164.5,68,115
371,163.5,68,115
375,164.5,68,115
379,164.5,68,115
384,164,68,114
388,163,68,114
391,164,68,114
393.5,164,67,114
400.5,162.5,67,113
403.5,159.5,67,113
404.5,157.5,67,113
409.5,157.5,67,113
411.5,156.5,67,113
417,154,66,112
418.5,152,67,112
422,149,66,112
423,146,66,112
428,145.5,66,111
431.5,144,65,110
433.5,142,65,110
434.5,142,65,110
438.5,139,65,110
439.5,138.5,65,111
442,139.5,66,111
444.5,140.5,65,111
444.5,140.5,65,111
446.5,144,65,110
451.5,144.5,65,111
452.5,144,65,110
454.5,146,65,110
457.5,145.5,65,109
457.5,145.5,65,109
457,140.5,64,109
461,136,64,108
459,131,64,108
460.5,124,65,110
458,124,64,108
457,118,64,108
456,109.5,64,109
453,103.5,64,109
448,95,64,108
440,87,64,108
435.5,80.5,63,107
427,76.5,64,107
418,72,64,108
408,67.5,64,107
396,61.5,64,107
382.5,56.5,63,107
369.5,48,63,106
353.5,44.5,63,107
338,41.5,64,107
318,35.5,64,107
298,34,64,108
282,30,64,108
269,27,64,108
250,24,64,108
230,24.5,64,107
214,20,64,108
196,19,64,108
179,17,64,108
165,13,64,108
148,11.5,64,107
138,10,64,108
122,8,64,108
111,6,64,108
100,9,64,108
90,11.5,64,107
79.5,12.5,63,107
67.5,14.5,63,107
59.5,20.5,63,107
55,25.5,64,107
46.5,33.5,63,107
40,37,64,108
36,44,64,108
33,51,64,108
27,55,64,108
25,65.5,64,109
22,74.5,64,109
18.5,80.5,65,109
17,89,64,108
13,97,64,108
10,102,64,108
11,108.5,64,107
10,115.5,64,107
8.5,120.5,63,107
7.5,126.5,63,107
6,131.5,64,107
6,136.5,64,107
6.5,137.5,63,107
7.5,141,63,106
8.5,144.5,63,107
9.5,149.5,63,107
10.5,150.5,63,107
11.5,154.5,63,107
12.5,161,63,106
15,164.5,62,105
17,169.5,62,105
20,174.5,62,105
22,176.5,62,105
24,181.5,62,105
25,186,62,104
28,189,62,104
30,192,62,104
31.5,197,61,104
36.5,202,61,104
38.5,206,61,104
42.5,208.5,61,103
44.5,212.5,61,103
48.5,213.5,61,103
46.5,218,61,104
50.5,219.5,61,103
53.5,223,61,104
52.5,226.5,61,103
54.5,227.5,61,103
55.5,230.5,61,103
56.5,232.5,61,103
56.5,233.5,61,103
55.5,236.5,61,103
55.5,236.5,61,103
56.5,236.5,61,103
56.5,236.5,61,103
58.5,237.5,61,103
59.5,238.5,61,103
59.5,240,61,102
63.5,238.5,61,103
63,239,60,102
64,239,60,102
67,240,60,102
66,242,60,102
65,245,60,102
65,244,60,102
68,247,60,102
69,248,60,102
69,250,60,102
69,250,60,102
67,252,60,102
71,255.5,60,101
71,256,60,102
71,257,60,102
69,259,60,102
69,261.5,60,101
70,264,60,102
69,265,60,102
68.5,267,61,102
68,268,60,102
68,268,60,102
68,268,60,102
68,268,60,102
68,268.5,60,101
68,269.5,60,101
70,271.5,60,101
67,272.5,60,101
70,275.5,60,101
70,275.5,60,101
67,279,60,102
61,279,60,102
60,278,60,102
59,282.5,60,101
61,284.5,60,101
63,288,60,102
64,282,60,102
65.5,287,61,102
65.5,287,61,102
68,291,60,102
68,286,60,102
68,286,60,102
69,292.5,60,101
68,288.5,60,101
67,291.5,60,101
66.5,287,59,100
30.5,231,59,100
27.5,230,59,100
26.5,235.5,59,99
28.5,234,59,100
58.5,206,59,100
63.5,205,59,100
28.5,234,59,100
58.5,203,59,100
64,203.5,60,101
27.5,234,59,100
27.5,234,59,100
27.5,234,59,100
27.5,234,59,100
27.5,235,59,100
27.5,235,59,100
47,214,60,100
41.5,216,59,100
29,233.5,60,101
27,233.5,60,101
64,279.5,60,101
70,279,60,102
67,275,60,102
64,274,60,102
61,273,60,102
59,271,60,102
58,269.5,60,101
57.5,266,59,100
55.5,261,59,100
56,254.5,60,101
56.5,247,59,100
53,240.5,60,101
54,234.5,60,101
52,228.5,60,101
50,218.5,60,101
52,207.5,60,101
52,196.5,60,101
53.5,188,59,100
51.5,180,59,100
53.5,173,59,100
53.5,163,59,100
53.5,155,59,100
55.5,152,59,100
58.5,146,59,100
59,139.5,60,101
64,132,60,102
70,129,60,102
74,124,60,102
80,118,60,102
88,115,60,102
95.5,109.5,61,103
104.5,107.5,61,103
116.5,103,61,102
124.5,101,61,102
137.5,99,61,102
149.5,99.5,61,103
159.5,101,61,102
173.5,103,61,102
186,103,60,102
197,103,60,102
215,105.5,60,101
227,108.5,60,101
240,108.5,60,101
250,110.5,60,101
263,113,60,102
273,115.5,60,101
284.5,120,59,100
290,126.5,60,101
299,129,60,102
305,135,60,102
310,142,60,102
314,150.5,60,101
315,157.5,60,101
318,163,60,102
317,166,60,102
315,171,60,102
313,174,60,102
310,177.5,60,101
308,180.5,60,101
304.5,185,59,100
302.5,185,59,100
298.5,187.5,59,99
295.5,189,59,100
288.5,190,59,100
287.5,190,59,100
284.5,190,59,100
281.5,190,59,100
278.5,192,59,100
274.5,192,59,100
275.5,195.5,59,99
273,200,58,98
273,199,58,98
270,201.5,58,99
268.5,204.5,59,99
267.5,206.5,59,99
267.5,206.5,59,99
265.5,211.5,59,99
262.5,210.5,59,99
262.5,211.5,59,99
259.5,213,59,100
261.5,214,59,100
258.5,216.5,59,99
257.5,220.5,59,99
257.5,220.5,59,99
255,221.5,58,99
254,223,58,98
254,224,58,98
251,228,58,98
251,228,58,98
248,228,58,98
246,227.5,58,97
245,224.5,58,97
245,222,58,98
246.5,216.5,57,97
244.5,209.5,57,97
243.5,203,57,96
242.5,196,57,96
241.5,186,57,96
241.5,177,57,96
241.5,166,57,96
243.5,156.5,57,97
244,147.5,58,97
247,138.5,58,97
248,132,58,98
251,126,58,98
252,121,58,98
254,116.5,58,99
258,116,58,98
263,111.5,58,99
265.5,112.5,59,99
269.5,109.5,59,99
275.5,107.5,59,99
281.5,108,59,100
286,106.5,60,101
291,106.5,60,101
296,110,60,102
300,113,60,102
303,114.5,60,101
304,119,60,102
298,122,60,102
306,128.5,60,101
284,138.5,60,101
280,151.5,60,101
273.5,161,61,102
289.5,171,61,102
258.5,188,61,102
252.5,196,61,102
233.5,205.5,61,103
253.5,222.5,61,103
243.5,230,61,104
236.5,242.5,61,103
215.5,248,61,104
209,251,62,104
201,246,62,104
201,237.5,62,105
194.5,233,63,106
195.5,220,63,106
193,213.5,62,105
197.5,203,63,106
196.5,192.5,63,107
200.5,182.5,63,107
200.5,173.5,63,107
204.5,162.5,63,107
209.5,156,63,106
215.5,150.5,63,107
223.5,143.5,63,107
232.5,139.5,63,107
239,138.5,64,107
244,136,64,108
257,136,64,108
267,136,64,108
279,139.5,64,109
289.5,142.5,65,109
306.5,148,65,110
318.5,153,65,110
330.5,159,65,110
342.5,167,65,110
353,171.5,66,111
370,174.5,66,111
381.5,175,65,110
393.5,178.5,65,111
404.5,179,65,110
416,177.5,66,111
425,176.5,66,111
434.5,174,65,110
439,169.5,66,111
443,168,66,112
446,163.5,66,111
443,156.5,66,111
440,153.5,66,111
434,148.5,66,111
424,142.5,66,111
414,138,66,112
394.5,134.5,67,113
381.5,128.5,67,113
363.5,125,67,114
340.5,121,67,114
319.5,119.5,67,113
295.5,116,67,114
273,116,68,114
247,113.5,68,115
227,118,68,114
187,117.5,68,115
159,122,68,114
110,122,68,114
80,122.5,68,115
53.5,123,69,116
38.5,127,69,116
7,122.5,68,115
0,119.5,68,115
0,125.5,68,115
1,115,68,114
2.5,105,67,114
0.5,100,67,114
-0.5,98.5,67,113
-0.5,89.5,67,113
0.5,83,67,114
0.5,66,67,114
5.5,60,67,114
25,51,68,114
42,42.5,68,115
57,36.5,68,115
74,30.5,68,115
89,24.5,68,115
110.5,18,69,116
121.5,17,69,116
139.5,16,69,116
153.5,14,69,116
168.5,14.5,69,117
184.5,14.5,69,117
202.5,13.5,69,117
215.5,16,69,116
228.5,19,69,116
239.5,21.5,69,117
254.5,24,69,116
264,29.5,68,115
273,36.5,68,115
281,44.5,68,115
287,51.5,68,115
293,60.5,68,115
297,71.5,68,115
297,82.5,68,115
298.5,91,69,116
296.5,101,69,116
296.5,114,69,116
294.5,124,69,116
294,131.5,68,115
293,141.5,68,115
292,148.5,68,115
289,155.5,68,115
288,164.5,68,115
286,171.5,68,115
288,180.5,68,115
287,185.5,68,115
288,193.5,68,115
289,199.5,68,115
291,202.5,68,115
291,206.5,68,115
293,208.5,68,115
294,207.5,68,115
299,206.5,68,115
302,204,68,114
304,200.5,68,115
309,195.5,68,115
313,193.5,68,115
314,191,68,114
316.5,186,67,114
319,184,68,114
320,182,68,114
320,181.5,68,115
322,180.5,68,115
320.5,182,69,116
320.5,183,69,116
318.5,188.5,69,117
317.5,186.5,69,117
314.5,189.5,69,117
309.5,191.5,69,117
308.5,191.5,69,117
299,191.5,70,117
274,188,70,118
286.5,191.5,69,117
255.5,192.5,69,117
241.5,193,69,116
227,195.5,68,115
243,201.5,68,115
209,195.5,68,115
198,197.5,68,115
211,205.5,68,115
198,204.5,68,115
188,211.5,68,115
157,209.5,68,115
154,218.5,68,115
150.5,221,69,116
147,224.5,68,115
145,227.5,68,115
144,231,68,114
141,239,68,114
141,246,68,114
139,250.5,68,115
143,256,68,116
143.5,260,69,116
146.5,266.5,69,117
150.5,270.5,69,117
152,272,70,118
155,275,70,118
160,275.5,70,119
161,277,70,118
166,276.5,70,119
168,277,70,118
174,277,70,118
176,274,70,118
181.5,273.5,69,117
182,272,70,118
188.5,271.5,69,117
192.5,272.5,69,117
197.5,272.5,69,117
202.5,268.5,69,117
209,268,70,118
216,267,70,118
222,265.5,70,119
234.5,262.5,71,119
244.5,259,71,120
252.5,259.5,71,119
262.5,259.5,71,119
277.5,257,71,120
287.5,258,71,120
301,259.5,70,119
315,260.5,70,119
327.5,263.5,71,119
344.5,263.5,71,119
362.5,260,71,120
376.5,260.5,71,121
387.5,258,71,120
409.5,257,71,120
420.5,252,71,120
433,246.5,72,121
447,245.5,72,121
454.5,240,71,120
464.5,238,71,120
472.5,236,71,120
478.5,232,71,120
484.5,227.5,71,119
488,221,70,118
491,215.5,70,119
490.5,206.5,71,119
485.5,195.5,71,119
481.5,186,71,120
475.5,169,71,120
465.5,154,71,120
449.5,132,71,120
429.5,116,71,120
413.5,99,71,120
397,81.5,72,121
382.5,65,71,120
363.5,48,71,120
336.5,34,71,120
331.5,29,71,120
294.5,15,71,120
277.5,11,71,120
241.5,7,71,120
218.5,6,71,120
213.5,16,71,120
199.5,23,71,120
180.5,36,71,120
164.5,48.5,71,119
154.5,61.5,71,119
145,80.5,70,119
140.5,94.5,71,119
117.5,109.5,71,119
115.5,122.5,71,119
118.5,133,71,120
125.5,153,71,120
127.5,157,71,120
143.5,173,71,120
152.5,184,71,120
162.5,191,71,120
169.5,197,71,120
183,200.5,72,121
188,206.5,72,121
199,210.5,72,121
212,216,72,122
225,218,72,122
237,218,72,122
249,219,72,122
260.5,217.5,73,123
274.5,212,73,124
284,212.5,74,125
296,213.5,74,125
309,211.5,74,125
319,209,74,126
327.5,207,75,126
334.5,204.5,75,127
340.5,202,75,126
346.5,200,75,126
350,196,74,126
352,193,74,126
353,189.5,74,125
351,185.5,74,125
348,183.5,74,125
342,182.5,74,125
337,180.5,74,125
329,180.5,74,125
322,178.5,74,125
316,179,74,126
306,175.5,74,125
299,172.5,74,125
292,169.5,74,125
284,166.5,74,125
279,162,74,124
272.5,155,73,124
266.5,153.5,73,123
257.5,145,73,124
252.5,137,73,124
248.5,135.5,73,123
241.5,127.5,73,123
236.5,123.5,73,123
229.5,119.5,73,123
223.5,113.5,73,123
217.5,111,73,124
208.5,106,73,124
201.5,100,73,124
192.5,99,73,124
184.5,94.5,73,123
175.5,91.5,73,123
166.5,88.5,73,123
156.5,86.5,73,123
146.5,84.5,73,123
132.5,82.5,73,123
123.5,83.5,73,123
110.5,87.5,73,123
100.5,94.5,73,123
91,102,72,122
80,106,72,122
68,111,72,122
59,116,72,122
48,117.5,72,121
36,121.5,72,121
28,123,72,122
20,128,72,122
12.5,131.5,73,123
4.5,135.5,73,123
1,139,72,122
0,145,72,122
0,152,72,122
0,157.5,72,121
0,164.5,72,121
0.5,176,71,120
0.5,183,71,120
3.5,190,71,120
6.5,198,71,120
10.5,203,71,120
13.5,210,71,120
16.5,213,71,120
21.5,215,71,120
23.5,218,71,120
27.5,220,71,120
29.5,221,71,120
31.5,221,71,120
32.5,225.5,71,119
40,222.5,70,119
43,220,70,118
43,220,70,118
45,220,70,118
45.5,222.5,69,117
45.5,222.5,69,117
45.5,222.5,69,117
43.5,228,69,116
44.5,226,69,116
42,228.5,68,115
40.5,231,69,116
40.5,234,69,116
40,237.5,68,115
38,236,68,116
38,236,68,116
34,233.5,68,115
34,233.5,68,115
30,231.5,68,115
30,231.5,68,115
26,231.5,68,115
26,231.5,68,115
25,230.5,68,115
23,231,68,116
21,231,68,116
20,230.5,68,115
17.5,229,69,116
15.5,230,69,116
14.5,229,69,116
11.5,229,69,116
11.5,227,69,116
8.5,228,69,116
7.5,229,69,116
7,228.5,68,115
5,226.5,68,115
2,227,68,116
2,227,68,116
0,230.5,68,115
0,230.5,68,115
0,233,68,114
0.5,235.5,67,113
0.5,235.5,67,113
-0.5,236.5,67,113
0,239,66,112
-0.5,241,67,112
-0.5,243.5,67,113
1.5,244.5,67,113
1.5,244,67,114
2.5,247,67,114
3,249,68,114
4,250.5,68,115
7,252.5,68,115
7,254.5,68,115
9,257.5,68,115
10,257.5,68,115
12,259.5,68,115
12,259.5,68,115
12,259.5,68,115
12,259.5,68,115
15,262,68,114
14,263.5,68,115
13,264.5,68,115
14.5,266,69,116
15.5,267.5,69,117
15.5,269.5,69,117
15.5,269.5,69,117
18,271.5,70,117
18.5,271.5,69,117
18.5,271.5,69,117
16.5,273.5,69,117
21.5,275.5,69,117
21.5,275.5,69,117
23.5,277.5,69,117
23.5,277.5,69,117
26.5,278.5,69,117
28.5,278,69,116
30.5,277,69,116
30.5,277,69,116
35,276,68,116
36.5,276,69,116
38.5,274,69,116
40.5,274,69,116
40.5,270.5,69,117
42.5,269.5,69,117
45.5,268.5,69,117
48.5,265.5,69,117
52.5,266,69,116
56.5,263.5,69,117
58.5,258.5,69,117
61,257.5,70,117
62.5,255.5,69,117
67.5,254.5,69,117
69.5,251.5,69,117
74.5,249.5,69,117
77.5,247.5,69,117
82,248,70,118
86,247.5,70,117
90,247,70,118
95,245.5,70,119
101,245.5,70,119
106.5,245.5,71,119
110.5,245,71,120
117.5,244,71,120
126.5,244,71,120
133.5,246,71,120
140.5,246,71,120
148.5,245,71,120
151.5,243.5,71,121
158,241.5,72,121
162,240.5,72,121
165.5,238,71,120
175,234.5,72,121
180.5,231.5,71,121
186.5,226.5,71,121
189,223.5,72,121
197,218.5,72,121
202.5,216,71,120
205.5,214.5,71,119
210.5,213.5,71,119
215.5,209.5,71,119
219.5,208.5,71,119
225.5,206,71,120
229.5,201,71,120
231,201.5,72,121
237.5,199.5,71,121
241,199.5,72,121
243,198.5,72,121
247,198,72,122
251.5,198,71,120
252.5,199.5,71,121
253,198.5,72,121
253,198.5,72,121
255,197.5,72,121
256,196.5,72,121
253,194.5,72,121
253,194.5,72,121
252,192.5,72,121
251,190,72,122
252,188,72,122
248,187,72,122
247,187,72,122
246,183,72,122
245,180.5,72,121
244,177.5,72,121
243,174.5,72,121
238.5,171,71,120
235.5,169,71,120
233.5,167,71,120
233.5,163,71,120
231.5,163,71,120
231.5,160.5,71,119
231.5,158.5,71,119
233.5,152.5,71,119
229.5,149,71,120
228.5,147.5,71,119
225.5,144.5,71,119
225.5,140.5,71,119
225.5,140.5,71,119
228.5,140.5,71,119
237,143.5,70,119
240,145.5,70,119
240,147.5,70,119
241.5,146.5,71,119
244,145,70,118
243,143,70,118
247,144,70,118
248,140,70,118
219,142,70,118
221,140,70,118
225,141,70,118
225,141,70,118
225,141,70,118
225,141,70,118
225,141,70,118
225,141,70,118
225,141,70,118
225,141,70,118
225,141,70,118
225,141,70,118
225,141,70,118
225,139.5,70,119
223,140,70,118
223,141,70,118
225,140.5,70,119
225,140,70,118
225,140,70,118
225,140,70,118
225,139.5,70,119
225,139.5,70,119
325,129.5,70,119
330,132.5,70,119
329.5,130.5,71,119
327.5,133.5,71,119
327,130.5,70,119
325,130.5,70,119
325,130.5,70,119
325,130.5,70,119
323,126.5,70,119
322,121.5,70,119
322,122,70,118
322,122,70,118
322,122,70,118
325,122,70,118
325,122,70,118
325,122,70,118
299,113,70,118
300,109.5,70,117
301,115.5,70,117
295.5,120.5,69,117
294.5,122.5,69,117
293.5,125.5,69,117
292,131,70,118
294,136,70,118
301,141.5,70,117
303,145,70,118
305.5,152.5,69,117
310,156,70,118
311,160.5,70,119
314,166.5,70,119
319,168.5,70,119
324.5,172,71,120
329.5,175,71,120
338.5,177,71,120
345.5,178,71,120
351.5,178,71,120
360.5,181,71,120
373,177.5,72,121
384,179.5,72,121
396,179.5,72,121
407,180.5,72,121
418,178.5,72,121
427,179.5,72,121
440,181.5,72,121
449,178.5,72,121
464.5,176.5,71,121
474.5,169.5,71,121
477,162.5,72,121
505.5,161.5,71,121
492.5,155.5,71,121
497.5,152,71,120
500.5,149,71,120
526.5,144,71,120
502.5,144.5,71,119
523.5,148.5,71,119
490.5,155,71,120
482.5,156,71,120
472.5,150.5,71,119
463.5,144.5,71,119
453.5,145,71,120
439.5,144,71,120
431.5,142.5,71,121
378.5,117.5,71,121
374.5,117,71,120
364.5,113,71,120
358.5,115,71,120
348.5,112,71,120
310.5,140,71,120
310.5,151.5,71,119
303.5,144,71,120
301.5,144,71,120
299.5,145,71,120
295,145.5,70,119
295,145.5,70,119
293,135,70,118
294,138.5,70,119
291,142,70,118
290,139.5,70,119
288.5,139,71,120
340.5,107,71,120
361,98.5,72,121
361,98.5,72,121
360.5,103.5,71,121
355,107.5,72,121
356.5,114,71,120
352.5,123,71,120
344.5,131,71,120
333.5,137,71,120
326.5,146,71,120
315,156.5,72,121
305,165,72,122
297,170.5,72,121
288.5,171.5,71,121
280,171.5,72,121
270,168.5,72,121
264,165,72,122
250,160,72,122
244.5,150.5,73,123
241.5,144.5,73,123
240.5,134,73,124
236,125,74,124
231.5,117,73,124
230.5,107.5,73,123
228.5,101.5,73,123
228.5,92.5,73,123
227.5,84.5,73,123
225.5,78.5,73,123
223.5,68.5,73,123
222.5,64.5,73,123
220.5,57.5,73,123
219.5,51,73,122
216,48,72,122
250,10.5,72,121
304,4.5,72,121
337,8.5,72,121
342,12.5,72,121
340,13.5,72,121
340,10.5,72,121
340,10.5,72,121
341,10.5,72,121
340,12.5,72,121
340,12.5,72,121
340,12.5,72,121
340,12.5,72,121
340,12.5,72,121
340.5,9.5,71,121
342,12.5,72,121
342,12.5,72,121
275,9.5,72,121
278,12.5,72,121
278,12.5,72,121
282,11,72,122
278,11,72,122
278,11,72,122
280,11.5,72,121
281,8.5,72,121
277,9,72,122
280.5,11,73,122
279.5,10.5,73,123
279,10,72,122
276.5,11.5,73,123
340,9,72,122
340,9,72,122
340,11,72,122
339.5,11.5,73,123
339.5,11.5,73,123
339.5,11.5,73,123
341,12,72,122
341,12,72,122
341,12,72,122
341,12,72,122
342,12.5,72,121
341,9,72,122
341,9,72,122
342,13,72,122
340.5,8.5,73,123
340.5,8.5,73,123
275.5,11.5,73,123
280.5,11,73,122
273.5,10.5,73,123
282.5,7.5,73,123
280.5,8,73,124
276,7.5,74,125
277,10.5,74,125
277,9.5,74,125
277,9.5,74,125
277,9.5,74,125
275,9.5,74,125
275,10.5,74,125
275,10.5,74,125
278,9.5,74,125
283,9.5,74,125
277.5,10,73,124
277.5,10,73,124
278.5,10,73,124
280.5,8,73,124
276.5,10,73,124
280.5,10,73,124
280.5,10,73,124
277,10,74,124
279.5,9.5,73,123
277.5,10.5,73,123
277.5,10.5,73,123
270.5,11,73,124
280.5,8.5,73,123
277.5,11.5,73,123
277.5,11.5,73,123
277.5,10,73,124
277.5,10,73,124
280,9.5,74,125
276,10,74,124
276,10,74,124
279,11,74,124
270,10,74,124
283.5,10,73,124
277.5,11,73,124
277.5,9.5,73,123
280,9,72,122
279.5,9.5,73,123
280.5,10.5,73,123
276.5,11.5,73,123
280,10,72,122
278,14.5,72,121
280.5,11,71,120
277.5,12,71,120
277.5,12,71,120
278.5,12,71,120
280.5,8.5,71,119
278,13,70,118
278,13,70,118
280,13,70,118
280,10,70,118
283,12,70,118
277,13,70,118
281,12,70,118
281,12,70,118
278,13,70,118
278,13,70,118
278,13,70,118
278,13,70,118
278,13,70,118
278,13,70,118
280,13.5,70,117
280,13.5,70,117
279.5,12.5,69,117
282,13.5,70,117
277,12,70,118
280,13,70,118
279.5,12.5,71,119
279.5,12.5,71,119
279.5,12.5,71,119
278.5,8.5,71,119
277.5,13,71,120
277.5,12,71,120
279.5,12,71,120
280.5,12,71,120
280.5,12,71,120
280.5,12,71,120
278.5,12,71,120
278.5,12,71,120
281.5,9,71,120
336.5,7.5,71,119
338.5,9.5,71,119
338.5,10,71,120
341.5,13,71,120
341.5,13,71,120
341.5,13,71,120
341.5,13,71,120
340.5,11,71,120
340.5,11,71,120
340.5,11,71,120
340,9,72,122
340,9,72,122
340,9,72,122
340,9,72,122
341,13,72,122
340,9,72,122
340,9,72,122
341.5,11.5,73,123
341.5,9.5,73,123
341.5,11.5,73,123
341.5,11.5,73,123
341.5,11.5,73,123
341.5,11.5,73,123
341.5,11.5,73,123
341.5,11.5,73,123
341.5,11.5,73,123
341.5,11.5,73,123
341.5,11.5,73,123
341.5,11.5,73,123
341.5,11.5,73,123
339.5,10,73,124
340.5,12.5,73,123
340.5,12.5,73,123
340.5,12.5,73,123
340.5,12.5,73,123
340.5,12.5,73,123
340.5,12.5,73,123
340.5,12.5,73,123
340.5,9,73,124
339.5,10,73,124
340.5,8.5,73,123
340.5,8.5,73,123
341.5,12.5,73,123
339.5,11.5,73,123
339.5,11.5,73,123
339.5,11.5,73,123
339.5,11.5,73,123
339.5,11.5,73,123
299.5,13,73,124
340.5,8,73,124
339.5,8.5,73,123
339.5,8.5,73,123
339.5,8.5,73,123
339.5,8.5,73,123
339.5,8.5,73,123
339.5,8.5,73,123
339.5,8.5,73,123
339.5,9,73,124
340.5,11,73,124
340.5,11,73,124
341,7.5,74,125
334,4.5,74,125
338.5,4,73,124
341,11,74,124
342.5,12,73,124
342.5,12,73,124
342.5,12,73,124
342,8.5,74,125
342,8.5,74,125
342,8.5,74,125
342,8.5,74,125
342,8.5,74,125
279,9,74,124
279.5,10,73,124
279.5,9,73,124
276.5,11,73,124
276.5,11,73,124
277.5,8,73,124
279.5,8,73,124
279,10.5,74,125
276,10.5,74,125
279,10,74,124
279,10,74,124
282.5,6,73,124
280.5,11,73,124
280.5,11,73,124
280.5,11,73,124
280.5,11,73,124
276.5,10,73,124
278,10,74,124
271,9.5,74,125
284,14.5,74,125
341,19.5,74,125
338,11.5,74,125
339.5,9,75,126
339.5,9,75,126
342,11,74,126
343,8.5,74,125
344,9.5,74,125
345,8.5,74,125
341,11.5,74,125
309,7.5,74,125
276,8,74,124
275,11,74,124
277,12,74,124
277,12,74,124
