84,53,62,70
87,52,62,70
87,52,62,70
90,54,62,70
91,53,62,70
91.5,54.5,61,69
91.5,54.5,61,69
91,53,62,70
91,53,62,70
89.5,53.5,61,69
89.5,53.5,61,69
88,53,62,70
85,53,62,70
84,54,62,70
84,54.5,62,69
79,54,62,70
78,55,62,70
78,55,62,70
76,56,62,70
75,58,62,70
74,58,62,70
73,59,62,70
73,60,62,70
74,59,62,70
74,59,62,70
75.5,58.5,63,71
77.5,58.5,63,71
77.5,58.5,63,71
77.5,56.5,63,71
79.5,55.5,63,71
83.5,54.5,63,71
83.5,54.5,63,71
85.5,53,63,72
86.5,53,63,72
86.5,53.5,63,71
88.5,53.5,63,71
88.5,53.5,63,71
91,54,62,70
93,54,62,70
93,54,62,70
93,54,62,70
93,54,62,70
96,53,62,70
96,55,62,70
95.5,54.5,61,69
95.5,54.5,61,69
96.5,55.5,61,69
98.5,57.5,61,69
98.5,57.5,61,69
98.5,57.5,61,69
98.5,57.5,61,69
96,56,62,70
96,56,62,70
96,56,62,70
96,57,62,70
96,57,62,70
96,57,62,70
94,55,62,70
94,55,62,70
94,55,62,70
94,55,62,70
93,55,62,70
93,55,62,70
89,54,62,70
89,54,62,70
89,54,62,70
87,55,62,70
87,56,62,70
87,56,62,70
86,55,62,70
85,55,62,70
85,55,62,70
85,55,62,70
85,56.5,62,69
84.5,55.5,61,69
83.5,56.5,61,69
83,56,60,68
83,56,60,68
83,56,60,68
83,56,60,68
83,56,60,68
83,56,60,68
83,56,60,68
81.5,55.5,61,69
81.5,55.5,61,69
81.5,55.5,61,69
81.5,55.5,61,69
81.5,55.5,61,69
81.5,55.5,61,69
81.5,55.5,61,69
81.5,55.5,61,69
82,56,60,68
82,56,60,68
81,56.5,60,67
81,56.5,60,67
81,56,60,68
81,56,60,68
81,56,60,68
79,56.5,60,67
80,56.5,60,67
80,56.5,60,67
80,56.5,60,67
81,57.5,60,67
81,57.5,60,67
81,57.5,60,67
81,57.5,60,67
81,57.5,60,67
81,57.5,60,67
82.5,56.5,59,67
82,57.5,60,67
82,57.5,60,67
82,57.5,60,67
82,57.5,60,67
85,57.5,60,67
84,56,60,68
85,56.5,60,67
85,56.5,60,67
85,56.5,60,67
85,56.5,60,67
85,56.5,60,67
85,56.5,60,67
85,56.5,60,67
85,56.5,60,67
85,56.5,60,67
85,56.5,60,67
88.5,55.5,59,67
87.5,56.5,59,67
87.5,56.5,59,67
87.5,56.5,59,67
87.5,56.5,59,67
87.5,56.5,59,67
86.5,57.5,59,67
85.5,57.5,59,67
83.5,57.5,59,67
83.5,57.5,59,67
80.5,57.5,59,67
80.5,57.5,59,67
80.5,58.5,59,67
78.5,57.5,59,67
78.5,58.5,59,67
78.5,58.5,59,67
78.5,58.5,59,67
78.5,58.5,59,67
78.5,58.5,59,67
80,58,60,68
83,57.5,60,67
83,57.5,60,67
84,56,60,68
87,57,60,68
87,57,60,68
85,55,60,68
85,55,60,68
85,55,60,68
85,55,60,68
85,55,60,68
85,55,60,68
85,55,60,68
85,55,60,68
83,54.5,60,67
83,54.5,60,67
83,54.5,60,67
84.5,54.5,59,67
84.5,54.5,59,67
81.5,54.5,59,67
81.5,54.5,59,67
81.5,54.5,59,67
78,54.5,60,67
78,54.5,60,67
78,54.5,60,67
78,54.5,60,67
78,54.5,60,67
78,54.5,60,67
78,54.5,60,67
76,54,60,68
76,54,60,68
76,54,60,68
76,54,60,68
76,54,60,68
77,54,60,68
77,54,60,68
77,54,60,68
77,54,60,68
80,53,60,68
80,53,60,68
80,53,60,68
82,53.5,60,67
82,53.5,60,67
85,54.5,60,67
87,54.5,60,67
87,54.5,60,67
89,54,60,68
92,55,60,68
92,55,60,68
93,55,60,68
93,55,60,68
95,55,60,68
96,54,60,68
96,54,60,68
96,54,60,68
96,55,60,68
95.5,56,61,68
93.5,54.5,61,69
93.5,54.5,61,69
92.5,54,61,68
89.5,52.5,61,69
89.5,52.5,61,69
85.5,51.5,61,69
85.5,52.5,61,69
84.5,53,61,68
81.5,51.5,61,69
81.5,51.5,61,69
79.5,53,61,68
79.5,53,61,68
74.5,52,61,68
74.5,52,61,68
74.5,52,61,68
74.5,52,61,68
74.5,50.5,61,69
74.5,50.5,61,69
74.5,50.5,61,69
75.5,49.5,61,69
75.5,49.5,61,69
76.5,48.5,61,69
77,48,60,68
77.5,48,61,68
81.5,46.5,61,69
81.5,46.5,61,69
83.5,46.5,61,69
83.5,46.5,61,69
87.5,45.5,61,69
90.5,46.5,61,69
92,45,62,70
95,45,62,70
100,45,62,70
106,47,62,70
110,46.5,62,71
115.5,47.5,63,71
121,48,62,70
128.5,46.5,63,71
133.5,46.5,63,71
139.5,45.5,63,71
145.5,46.5,63,71
150.5,46.5,63,71
155.5,44.5,63,71
160.5,46.5,63,71
162.5,43.5,63,71
167.5,43.5,63,71
170.5,44.5,63,71
174,43,64,72
176.5,43,63,72
181.5,43.5,63,71
184.5,43.5,63,71
184.5,43.5,63,71
185.5,43.5,63,71
188,43,64,72
189,43,64,72
190,44,64,72
190,44,64,72
189.5,45,63,72
189.5,45,63,72
187.5,45,63,72
187.5,45,63,72
187.5,45,63,72
187,45,64,72
182.5,44.5,63,71
182.5,46.5,63,71
179.5,46,63,72
177.5,46.5,63,71
171.5,47.5,63,71
168.5,46.5,63,71
166.5,46.5,63,71
160.5,45.5,63,71
157.5,47.5,63,71
154,47.5,62,71
149.5,46.5,63,71
144.5,47.5,63,71
140.5,48.5,63,71
136.5,49.5,63,71
130.5,48.5,63,71
126.5,49.5,63,71
121.5,47.5,63,71
115.5,49.5,63,71
110.5,50.5,63,71
107.5,48.5,63,71
103.5,49.5,63,71
99.5,47.5,63,71
95.5,49.5,63,71
93.5,49.5,63,71
89.5,49.5,63,71
89.5,49.5,63,71
86.5,50.5,63,71
84.5,50.5,63,71
83.5,50.5,63,71
83.5,50.5,63,71
83,50,62,70
80,49.5,62,71
80,49.5,62,71
80,49.5,62,71
80,49.5,62,71
80,49.5,62,71
80,49.5,62,71
80,49.5,62,71
81,50,62,70
83,50,62,70
84,50,62,70
86,51,62,70
86,51,62,70
90.5,51.5,61,69
91.5,50.5,61,69
96.5,51.5,61,69
98.5,50.5,61,69
101.5,51.5,61,69
106.5,51.5,61,69
109.5,52.5,61,69
112.5,52.5,61,69
118.5,52.5,61,69
122,52.5,62,69
127.5,52.5,61,69
132.5,52.5,61,69
137.5,53.5,61,69
141,53.5,62,69
147,53,62,70
147,53,62,70
152.5,53.5,61,69
158,54,62,70
160,54,62,70
167,54,62,70
169,55,62,70
172.5,53.5,63,71
177,55,62,70
182,56,62,70
184,55,62,70
186,55,62,70
188,55,62,70
190.5,54.5,63,71
194,56,62,70
196.5,55.5,63,71
196.5,55.5,63,71
201,55.5,62,71
201,55.5,62,71
202,56,62,70
202,56,62,70
202,56,62,70
202,56,62,70
202,56,62,70
202,54.5,62,71
201.5,54.5,63,71
201.5,54.5,63,71
198.5,54.5,63,71
198.5,54.5,63,71
196.5,52.5,63,71
193,55,62,70
194,54,62,70
194,54,62,70
190,53,62,70
187,53,62,70
186,53,62,70
183,54,62,70
183.5,52.5,61,69
179,52,62,70
175,52,62,70
175,52,62,70
171,51,62,70
168,51,62,70
165,51,62,70
162,50,62,70
162,50,62,70
156.5,52.5,61,69
155,51,62,70
153,49,62,70
150,50,62,70
146,48,62,70
145,48.5,62,71
143,49,62,70
140,49.5,62,71
140,49.5,62,71
138.5,48.5,63,71
135.5,49.5,63,71
133.5,48.5,63,71
130.5,48.5,63,71
130.5,48.5,63,71
130.5,48.5,63,71
130,49,62,70
130,49,62,70
127.5,48.5,63,71
127.5,48.5,63,71
127.5,48.5,63,71
127.5,48.5,63,71
127.5,48.5,63,71
127.5,48.5,63,71
127.5,48.5,63,71
132.5,48.5,63,71
131.5,48.5,63,71
131.5,48.5,63,71
133.5,49.5,63,71
135,48,64,72
136.5,47,63,72
142,46,64,72
143,46,64,72
144,47,64,72
149.5,45.5,65,73
152.5,45.5,65,73
155.5,44.5,65,73
159.5,44,65,74
163.5,44,65,74
166.5,43,65,74
169,41,66,74
174.5,41,65,74
179,43,66,74
183.5,41,65,74
186.5,41,65,74
189.5,41.5,65,73
195.5,43.5,65,73
196.5,40,65,74
201.5,42.5,65,73
204.5,40.5,65,73
207.5,41,65,74
210,43,66,74
213.5,41,65,74
217,42,66,74
220,41,66,74
222,41,66,74
223,42,66,74
224,40.5,66,75
224,40.5,66,75
227,41,66,74
227,41,66,74
228,40.5,66,75
228,40.5,66,75
228,40.5,66,75
228,40.5,66,75
227,40.5,66,75
226,42,66,74
225,42,66,74
222,41,66,74
222,41,66,74
219,41,66,74
215,40,66,74
212,40.5,66,75
212,39.5,66,75
206,38.5,66,75
202.5,38.5,67,75
197.5,37.5,67,75
194.5,38.5,67,75
190,36.5,66,75
187.5,36.5,67,75
180,35.5,66,75
179,36,66,74
176,36.5,66,75
169.5,36.5,67,75
164,35.5,66,75
161.5,37.5,67,75
156.5,37.5,67,75
152.5,36.5,67,75
150.5,36.5,67,75
146.5,36.5,67,75
142.5,36.5,67,75
141.5,36,67,76
138.5,36,67,76
134.5,36,67,76
134.5,36,67,76
132.5,38,67,76
131.5,37,67,76
129.5,38,67,76
129.5,38,67,76
128.5,39,67,76
128.5,39,67,76
128.5,39,67,76
128.5,39,67,76
128.5,39,67,76
127.5,40,67,76
128.5,41,67,76
131.5,42,67,76
133.5,41,67,76
133.5,41,67,76
136.5,42.5,67,75
139,42.5,66,75
142,43.5,66,75
142,43.5,66,75
143,45.5,66,75
146,45.5,66,75
147,46.5,66,75
147,46.5,66,75
148,47.5,66,75
148,47.5,66,75
149,50,66,74
149,50,66,74
149,50,66,74
151,50,66,74
151,50,66,74
151,50,66,74
151,50,66,74
151,50,66,74
151,50,66,74
150,49.5,66,75
150,49.5,66,75
147,50.5,66,75
147,50.5,66,75
146,51,66,74
143,51,66,74
143,51,66,74
141,50,66,74
138,50.5,66,75
135,52,66,74
134,52,66,74
132,52.5,66,75
126.5,52.5,67,75
123.5,51,67,76
120.5,52,67,76
117.5,53,67,76
115.5,53,67,76
112.5,53.5,67,75
108,54.5,66,75
106,56.5,66,75
102,56.5,66,75
101,56,66,74
99,58,66,74
94.5,59,65,74
94.5,59,65,74
90,59,66,74
87.5,59,65,74
87.5,59,65,74
87.5,59,65,74
87.5,59,65,74
87.5,59.5,65,73
86.5,60.5,65,73
82.5,58.5,65,73
82.5,59.5,65,73
83.5,58.5,65,73
82,58.5,64,73
82,59,64,72
83,59.5,64,73
83,59.5,64,73
85,58,64,72
85,58,64,72
87,58,64,72
85.5,58,63,72
85.5,58,63,72
85.5,58,63,72
89.5,57.5,63,71
88.5,57.5,63,71
88.5,57.5,63,71
92.5,57.5,63,71
93.5,57.5,63,71
93.5,57.5,63,71
96.5,56.5,63,71
96.5,56.5,63,71
101,58,62,70
105.5,57.5,63,71
105.5,57.5,63,71
109,57,62,70
111,57,62,70
114,58,62,70
115,57,62,70
117,57,62,70
121,58,62,70
121,58,62,70
124,57,62,70
128,57,62,70
131,58,62,70
131,58,62,70
133,58,62,70
136.5,59.5,61,69
137.5,59.5,61,69
141.5,60.5,61,69
144.5,59,61,68
144.5,59.5,61,69
144.5,59.5,61,69
147.5,59.5,61,69
147,60,60,68
147,60,60,68
150,59,60,68
150,59,60,68
150,59,60,68
150,60,60,68
150,60,60,68
152,60,60,68
151,59,60,68
151,59,60,68
151,59,60,68
151,59,60,68
152,59,60,68
149,58,60,68
149,58,60,68
148,57,60,68
145,56.5,60,67
145,56.5,60,67
143.5,55.5,59,67
143.5,55.5,59,67
140.5,55.5,59,67
140.5,55.5,59,67
137.5,53.5,59,67
136.5,53.5,59,67
133.5,54.5,59,67
133.5,54.5,59,67
132.5,54.5,59,67
132.5,54.5,59,67
130.5,53.5,59,67
129.5,54.5,59,67
127.5,54,59,66
127.5,54,59,66
127.5,54,59,66
125.5,54,59,66
126,54,58,66
126,54,58,66
126,54,58,66
125.5,54,59,66
125.5,54,59,66
125.5,54,59,66
127.5,55,59,66
129.5,55,59,66
129.5,55,59,66
129.5,55,59,66
132.5,54.5,59,67
132.5,53.5,59,67
136.5,53.5,59,67
138.5,52.5,59,67
141.5,52.5,59,67
141.5,52.5,59,67
145,51,60,68
148,52.5,60,67
152,51.5,60,67
154,50.5,60,67
157,50.5,60,67
160,50.5,60,67
160,48,60,68
166,48,60,68
170,48,60,68
172,48.5,60,67
177,48.5,60,67
182.5,48.5,59,67
183.5,48.5,59,67
187.5,47.5,59,67
188.5,48,59,66
192.5,48,59,66
196.5,50,59,66
198.5,47,59,66
201.5,49.5,59,67
203.5,47.5,59,67
205.5,48.5,59,67
207.5,48.5,59,67
209,47.5,60,67
210,48.5,60,67
211,49.5,60,67
213,48.5,60,67
213,48.5,60,67
213,48.5,60,67
213,48.5,60,67
216,48.5,60,67
216,48,60,68
216,48,60,68
216,47,60,68
216,47,60,68
216,47,60,68
216,47,60,68
213,46,60,68
213,46,60,68
213,47,60,68
213,47,60,68
207.5,45,61,68
208.5,44.5,61,69
207.5,45.5,61,69
204.5,44.5,61,69
202.5,44.5,61,69
198.5,42.5,61,69
198.5,42.5,61,69
193.5,42.5,61,69
189.5,41.5,61,69
184,40.5,62,69
184,40.5,62,69
181,41,62,70
174,39,62,70
172,40,62,70
168,40,62,70
164,38.5,62,71
164,38.5,62,71
154,39,62,70
154,39,62,70
147.5,37.5,63,71
144.5,38.5,63,71
144.5,38.5,63,71
139.5,38.5,63,71
136.5,38.5,63,71
133,38,64,72
131,38,64,72
128,38,64,72
125.5,39,63,72
121,37,64,72
120,38,64,72
119,39,64,72
115,38,64,72
115,39,64,72
115,39,64,72
111,38,64,72
110,38,64,72
110,38,64,72
110,38,64,72
109,38,64,72
109,39,64,72
109,39,64,72
109,38.5,64,73
109,38.5,64,73
109,38.5,64,73
110,38,64,72
111.5,38.5,65,73
111.5,37.5,65,73
111.5,37.5,65,73
113.5,36,65,74
113.5,36,65,74
113.5,36,65,74
116.5,37,65,74
117.5,38,65,74
122.5,40.5,65,73
122.5,40.5,65,73
123.5,40.5,65,73
120.5,38,65,74
122,39,66,74
124,40,66,74
126.5,41,65,74
130,42,66,74
130,43,66,74
129,42,66,74
128,43,66,74
129,41.5,66,75
131.5,43.5,67,75
131.5,43.5,67,75
128.5,42.5,67,75
130,42.5,66,75
129.5,42.5,67,75
127.5,42.5,67,75
126.5,42.5,67,75
126.5,42.5,67,75
123.5,42.5,67,75
123.5,42.5,67,75
118.5,43.5,67,75
117.5,42,67,76
113.5,43.5,67,75
110,44.5,66,75
108,43.5,66,75
104,44.5,66,75
101.5,44,67,76
96.5,46.5,67,75
91.5,45.5,67,75
88.5,44.5,67,75
85.5,44,67,76
78.5,46.5,67,75
72.5,48,67,76
68.5,47,67,76
64.5,47,67,76
62.5,47,67,76
58.5,47,67,76
54.5,48,67,76
52.5,49,67,76
49.5,49,67,76
49.5,49,67,76
47.5,47.5,67,75
46.5,50.5,67,75
44.5,49.5,67,75
44.5,49.5,67,75
44.5,49.5,67,75
44.5,49.5,67,75
44.5,49.5,67,75
44,50.5,66,75
44,50.5,66,75
46,49.5,66,75
46,49.5,66,75
48,48.5,66,75
49.5,50.5,67,75
49.5,50.5,67,75
51.5,50,67,76
54.5,51.5,67,75
58,50.5,66,75
61.5,50.5,67,75
63,52.5,66,75
65,51.5,66,75
70.5,52.5,67,75
70.5,52.5,67,75
78,52.5,66,75
78,52.5,66,75
81,54.5,66,75
85,54,66,74
89,55,66,74
96,54.5,66,75
95.5,56,65,74
102.5,57.5,65,73
102.5,57.5,65,73
104.5,56.5,65,73
108.5,58.5,65,73
109.5,59.5,65,73
112.5,58.5,65,73
114.5,58.5,65,73
117,60.5,64,73
116,61,64,72
118,61.5,64,73
118.5,60.5,65,73
121,60.5,64,73
119,62,64,72
120,61,64,72
119,61,64,72
123.5,62,63,72
123.5,62,63,72
123.5,62.5,63,71
123.5,62.5,63,71
121.5,62,63,72
121.5,63,63,72
121.5,63,63,72
121.5,63,63,72
119.5,64,63,72
119.5,64,63,72
117.5,64.5,63,71
116.5,65.5,63,71
116.5,66.5,63,71
116.5,66.5,63,71
116.5,66.5,63,71
116.5,67.5,63,71
116.5,67.5,63,71
119.5,67.5,63,71
119.5,67.5,63,71
119.5,67.5,63,71
121.5,66.5,63,71
121.5,66.5,63,71
123,67,62,70
127,67,62,70
127,67,62,70
131.5,66.5,61,69
132,67,62,70
137,66,62,70
138.5,65.5,61,69
141.5,65.5,61,69
146.5,65.5,61,69
147.5,64.5,61,69
151.5,65.5,61,69
157.5,66,61,68
157.5,66,61,68
161.5,65,61,68
167,65,60,68
169,64,60,68
172,65,60,68
177.5,65.5,59,67
180.5,65.5,59,67
184.5,65.5,59,67
184.5,65.5,59,67
188.5,65.5,59,67
191.5,65,59,66
191.5,65,59,66
195.5,65,59,66
197.5,65,59,66
197.5,65,59,66
199,63,58,66
200,65,58,66
204.5,65,59,66
204.5,65,59,66
204.5,65,59,66
204.5,65,59,66
204.5,65,59,66
204.5,65,59,66
204.5,65,59,66
204.5,65,59,66
204.5,65,59,66
201,63,58,66
201,63,58,66
201,63,58,66
200,64,58,66
198,63,58,66
196,62,58,66
193,61.5,58,65
190,60,58,66
189,59,58,66
188,60,58,66
181,58.5,58,65
181,58.5,58,65
178.5,58.5,57,65
174.5,57.5,57,65
172,56.5,58,65
169,55.5,58,65
166.5,55.5,57,65
166.5,55.5,57,65
160.5,55.5,57,65
160.5,55.5,57,65
157.5,56.5,57,65
156,55.5,58,65
152,54.5,58,65
150,54,58,66
150,54,58,66
150,54,58,66
148,55.5,58,65
145,55,58,66
145,55,58,66
145.5,55,59,66
145.5,55,59,66
145.5,55,59,66
143.5,55,59,66
143.5,55,59,66
143.5,55,59,66
144.5,55.5,59,67
145.5,55.5,59,67
145.5,55.5,59,67
148.5,55.5,59,67
148,53.5,60,67
148,53.5,60,67
148,52,60,68
152,52,60,68
155,52,60,68
156,52,60,68
157,50,60,68
158,49,60,68
158,49,60,68
161,48,60,68
163.5,46.5,61,69
166.5,46.5,61,69
170,45,62,70
170,45,62,70
172,44,62,70
173,44,62,70
174,42,62,70
176.5,42.5,63,71
176.5,42.5,63,71
179.5,43.5,63,71
180.5,42.5,63,71
182.5,41.5,63,71
182.5,41.5,63,71
183.5,40.5,63,71
184.5,40.5,63,71
187,39,64,72
183,39,64,72
185,39,64,72
184.5,37.5,65,73
185.5,39,65,74
184.5,38,65,74
180,36,66,74
183,37,66,74
181,37,66,74
176,38,66,74
177,38,66,74
173,36.5,66,75
165,36.5,66,75
168,35.5,66,75
165.5,35,67,76
160.5,32,67,76
157.5,34,67,76
146.5,32,67,76
149,33,68,76
143,31.5,68,77
140,32.5,68,77
135.5,33,69,78
131.5,31,69,78
131.5,31,69,78
125.5,31,69,78
125.5,31,69,78
124.5,32,69,78
122.5,32,69,78
119.5,32,69,78
117.5,32,69,78
117.5,33,69,78
113,31.5,70,79
115,34,70,78
113.5,34,69,78
114,35.5,70,79
111,36.5,70,79
113,37,70,80
113,37,70,80
113,38.5,70,79
116,40,70,80
115.5,42,71,80
115.5,42,71,80
117.5,43,71,80
118,43,70,80
118.5,44,71,80
118.5,44,71,80
118.5,44,71,80
118.5,44,71,80
118.5,44,71,80
116,43.5,70,79
116,43.5,70,79
116,43.5,70,79
116,43.5,70,79
113.5,41,71,80
113.5,41,71,80
111.5,41,71,80
111.5,41,71,80
108,43,70,80
108,43,70,80
103,43.5,70,79
103,43.5,70,79
99,45.5,70,79
98,44.5,70,79
95,45.5,70,79
92,47,70,80
91,46.5,70,79
86.5,47,71,80
85,46.5,70,79
79,48.5,70,79
80,49.5,70,79
79,51,70,78
75,51,70,78
74.5,51,69,78
71.5,52,69,78
69.5,53,69,78
68.5,52,69,78
67,52.5,70,79
67,51.5,70,79
65,52.5,70,79
65,52.5,70,79
65.5,52,69,78
63.5,51,69,78
65.5,52,69,78
62.5,53,69,78
62.5,53,69,78
62.5,53,69,78
64,50.5,68,77
65,52.5,68,77
68,52.5,68,77
68.5,53,67,76
72.5,52,67,76
72.5,53,67,76
73.5,52,67,76
75.5,53,67,76
82.5,52,67,76
83.5,52,67,76
87.5,53,67,76
90.5,54,67,76
93,55,68,76
99.5,54,67,76
101,54,68,76
108.5,57,67,76
111.5,55,67,76
115.5,54,67,76
120.5,56,67,76
120.5,56.5,67,75
128.5,56.5,67,75
128,55.5,66,75
134,56.5,66,75
140,56.5,66,75
142,56.5,66,75
143,58.5,66,75
145,57,66,74
150.5,57,65,74
150.5,58.5,65,73
153.5,57.5,65,73
156.5,56.5,65,73
158.5,57.5,65,73
160.5,57.5,65,73
161.5,58.5,65,73
163.5,57.5,65,73
167,59,64,72
167,59,64,72
169,57.5,64,73
170,59,64,72
170,59,64,72
170,59,64,72
173,59,64,72
173,59,64,72
173,59,64,72
173,59,64,72
173,59,64,72
175,60,64,72
175,60,64,72
175,60,64,72
175,60,64,72
175,60,64,72
175.5,59.5,63,71
175.5,59.5,63,71
173.5,58.5,63,71
173.5,58.5,63,71
173.5,58.5,63,71
170.5,57.5,63,71
171,58,62,70
168,56,62,70
166,55,62,70
166,55,62,70
164,55,62,70
164,55,62,70
163,54.5,62,69
159.5,53.5,61,69
160.5,53.5,61,69
158.5,52.5,61,69
158.5,52.5,61,69
157.5,53.5,61,69
155.5,52.5,61,69
155.5,52.5,61,69
155.5,52.5,61,69
154.5,51.5,61,69
154.5,51.5,61,69
154.5,50.5,61,69
154.5,51.5,61,69
154.5,51.5,61,69
154.5,51.5,61,69
154.5,51.5,61,69
154.5,51.5,61,69
154.5,51.5,61,69
157.5,51.5,61,69
157.5,51.5,61,69
157.5,50.5,61,69
159.5,50.5,61,69
159.5,50.5,61,69
160.5,49.5,61,69
166.5,50.5,61,69
165.5,49.5,61,69
170.5,48.5,61,69
170.5,47.5,61,69
173.5,48,61,68
176,48,60,68
178,46,60,68
182,45,60,68
182,45,60,68
188,45,60,68
189,43,60,68
193,44,60,68
193.5,42,61,68
197.5,42,61,68
197.5,40,61,68
203,42,60,68
202.5,38.5,61,69
206.5,38.5,61,69
209.5,40.5,61,69
211,40,62,70
215,41,62,70
217,42,62,70
217,43,62,70
219,41,62,70
219,41,62,70
218.5,41.5,63,71
218.5,40.5,63,71
218.5,40.5,63,71
218.5,40.5,63,71
217.5,43.5,63,71
201.5,38.5,63,71
198.5,39.5,63,71
197.5,39.5,63,71
195.5,42,63,72
192.5,42,63,72
190,42,64,72
187,42,64,72
182,41,64,72
181,43,64,72
175,40,64,72
187,44.5,64,73
183,43.5,64,73
179,43.5,64,73
177,41.5,64,73
169.5,41.5,65,73
165.5,43.5,65,73
159.5,42.5,65,73
154.5,39,65,74
145,39,66,74
143,38,66,74
138,40,66,74
133,37,66,74
129,40,66,74
126,39,66,74
120,39,66,74
118,41,66,74
113,43,66,74
110,43,66,74
107,43,66,74
102,46,66,74
102,45.5,66,75
96,47.5,66,75
94,46.5,66,75
93,48.5,66,75
92,49,66,74
89,48,66,74
108,70,66,74
87.5,48,65,74
87,48,66,74
86,49,66,74
85,49.5,66,75
85,49.5,66,75
85,49.5,66,75
85,49.5,66,75
85,49.5,66,75
57,71.5,66,75
57,71.5,66,75
59.5,75.5,67,75
59.5,75.5,67,75
61.5,77,67,76
62,74,68,76
64,75.5,68,77
65.5,79,67,76
66.5,77,67,76
67.5,79,67,76
68.5,78.5,67,75
68.5,78.5,67,75
68.5,78.5,67,75
71.5,77.5,67,75
71.5,77.5,67,75
70.5,76.5,67,75
70.5,76.5,67,75
67.5,76.5,67,75
68.5,78,67,76
67.5,76,67,76
89.5,55,67,76
64,77,68,76
65,76.5,68,77
62,77.5,68,77
57,77.5,68,77
55.5,78.5,69,77
55,78.5,68,77
49,77.5,68,77
48,78.5,68,77
44,78.5,68,77
40,77.5,68,77
36,77.5,68,77
33.5,79.5,69,77
31,77.5,68,77
27,78.5,68,77
28,80.5,68,77
23.5,78,69,78
22.5,79,69,78
22,81.5,68,77
38.5,60.5,69,77
40,61.5,68,77
40,61.5,68,77
16,78.5,68,77
39,61.5,68,77
39,61.5,68,77
39,60.5,68,77
42,59.5,68,77
42,60.5,68,77
43,61.5,68,77
44,59.5,68,77
47.5,61,69,78
48.5,59,69,78
52.5,58,69,78
70.5,70,69,78
71.5,69.5,69,77
77,69.5,68,77
81,70.5,68,77
83.5,70.5,69,77
90,70.5,68,77
77,62.5,68,77
97,71.5,68,77
99.5,71.5,69,77
107,72.5,68,77
96,63.5,68,77
117,71.5,68,77
121,72,68,76
127,73.5,68,77
130,70.5,68,77
133,72.5,68,77
119,63.5,68,77
123,63.5,68,77
139,70.5,68,77
144,73,68,76
127.5,67,67,76
130,64,68,76
132,62,68,76
132,62.5,68,77
132,62.5,68,77
134,63.5,68,77
135,63.5,68,77
135,63.5,68,77
131,67.5,68,77
132,63.5,68,77
132,63.5,68,77
130,63.5,68,77
129,62.5,68,77
125,63,68,76
122,62,68,76
120.5,62,67,76
117.5,60,67,76
113.5,61,67,76
109.5,61.5,67,75
106.5,59.5,67,75
102.5,58.5,67,75
97.5,57.5,67,75
93.5,56.5,67,75
91,55.5,66,75
86,55.5,66,75
78,54,66,74
74,54,66,74
72,55,66,74
67,55,66,74
63.5,53,65,74
59.5,54,65,74
56.5,54,65,74
52.5,52,65,74
51.5,52.5,65,73
48.5,51.5,65,73
45.5,51.5,65,73
43.5,52.5,65,73
41.5,50.5,65,73
41.5,50.5,65,73
41,51.5,64,73
38.5,49.5,65,73
39.5,50.5,65,73
41,50.5,64,73
41,50.5,64,73
41,50.5,64,73
42,51,64,72
43,51,64,72
44.5,50.5,63,71
47.5,51.5,63,71
47.5,50.5,63,71
50.5,50.5,63,71
51.5,50,63,72
53,51,64,72
57,50,64,72
55,48,64,72
60,47,64,72
65,46.5,64,73
65,46.5,64,73
71,45.5,64,73
76,44.5,64,73
77,45.5,64,73
80,45,64,72
82,44.5,64,73
88,45,64,72
91,42.5,64,73
94,44,64,72
97,44.5,64,73
99.5,43.5,65,73
102.5,44.5,65,73
109,46,64,72
109,46,64,72
112,46,64,72
114,46,64,72
113,45.5,64,73
117.5,46.5,65,73
117.5,45.5,65,73
117.5,45.5,65,73
120.5,45,65,74
119,44,66,74
124,43,66,74
124,43,66,74
127,43.5,66,75
127,43.5,66,75
127,42.5,66,75
128,43.5,66,75
128,43.5,66,75
128,43.5,66,75
130,41,66,74
130,41,66,74
127.5,40.5,67,75
125.5,40,67,76
125.5,40,67,76
122,40,68,76
122.5,40,67,76
126,39.5,68,77
125,39.5,68,77
125,39.5,68,77
125,39.5,68,77
124,40.5,68,77
125,39.5,68,77
124,39.5,68,77
125,38.5,68,77
123.5,37,69,78
127.5,38.5,69,77
126.5,38,69,78
126.5,38,69,78
130.5,36,69,78
130.5,36,69,78
133.5,35,69,78
132.5,35,69,78
133.5,35,69,78
141.5,35,69,78
141.5,35,69,78
146.5,36,69,78
149.5,36,69,78
153.5,36,69,78
153.5,36,69,78
158.5,37,69,78
162.5,36,69,78
162.5,36,69,78
166.5,37,69,78
169.5,37,69,78
168.5,37,69,78
175.5,37,69,78
177,37.5,70,79
176.5,39,69,78
179.5,39,69,78
179.5,39,69,78
179,39.5,70,79
176.5,38,71,80
176.5,38,71,80
176.5,38,71,80
180.5,37,71,80
176.5,36,71,80
177.5,36,71,80
177.5,36,71,80
177.5,38,71,80
176,38.5,70,79
176,38.5,70,79
180,39,70,80
177.5,40,71,80
180,42,70,80
180,42,70,80
180,42,70,80
178.5,44,71,80
178.5,45,71,80
178.5,45,71,80
181.5,47,71,80
182,48,70,80
182.5,50,71,80
182.5,50,71,80
183.5,51,71,80
183.5,51,71,80
181,50.5,70,79
184,48.5,70,79
185,49.5,70,79
188.5,48,69,78
189.5,51,69,78
190.5,49.5,69,77
191,51.5,68,77
191,51.5,68,77
193,54.5,68,77
196,54.5,68,77
197,55.5,68,77
199,56.5,68,77
201,55.5,68,77
204,56.5,68,77
208,56.5,68,77
208,57.5,68,77
208,57.5,68,77
209,58.5,68,77
209,58.5,68,77
209,59,68,76
209,59,68,76
209,59,68,76
209,59,68,76
207.5,58,67,76
205.5,59,67,76
203.5,58,67,76
201,58,68,76
197,58.5,68,77
195,57.5,68,77
191,58.5,68,77
187,58.5,68,77
182,57.5,68,77
178,56.5,68,77
173,57.5,68,77
167,57.5,68,77
161,57.5,68,77
157,59,68,76
151,57,68,76
148,57,68,76
142.5,54,67,76
139.5,55,67,76
134,55,68,76
129,55,68,76
125,54.5,68,77
120,55.5,68,77
117.5,52.5,69,77
111.5,54.5,69,77
110.5,52,69,78
104.5,54,69,78
103.5,53,69,78
100.5,51,69,78
97.5,51,69,78
95.5,51.5,69,77
95,51.5,68,77
90,51.5,68,77
89,51.5,68,77
89,51.5,68,77
89,51.5,68,77
84,50.5,68,77
84,49,68,76
84.5,51,67,76
81.5,48,67,76
79.5,49.5,67,75
79.5,49.5,67,75
77.5,50.5,67,75
77.5,50.5,67,75
73,49.5,66,75
71,48.5,66,75
71,47.5,66,75
66,45.5,66,75
66,45.5,66,75
61,45,66,74
59,44,66,74
53,44,66,74
52,43.5,66,75
50.5,42.5,67,75
46.5,42.5,67,75
46.5,42.5,67,75
42,42.5,66,75
40,43,66,74
37,44.5,66,75
38,47,66,74
35.5,48,65,74
32.5,50,65,74
28.5,51.5,65,73
27,52.5,64,73
24,54,64,72
22,55,64,72
18,56,64,72
17.5,58,63,72
14.5,58.5,63,71
14.5,58.5,63,71
12,60,62,70
