232,88,76,84
240,92,76,84
251,97,76,84
260,103,76,84
268,106,76,84
275.5,105.5,77,85
286,108.5,76,85
294,111,76,84
298,114,76,84
303,118,76,84
309,117,76,84
311,116,76,84
309,113,76,84
303,107,76,84
294,100,76,84
281.5,93.5,77,85
266,91,76,84
250,86,76,84
236,85,76,84
224,84,76,84
213,85,76,84
202,88,76,84
184,83,76,84
189.5,91.5,75,83
203.5,94.5,75,83
216.5,101.5,75,83
233,105,76,84
243,106,76,84
261,110,76,84
269,107,76,84
298,115,76,84
296,112,76,84
303,108,76,84
295.5,108.5,77,85
290.5,111.5,77,85
280.5,114.5,77,85
276,116,76,84
266,114,76,84
262,114,76,84
257.5,108.5,77,85
234.5,103.5,77,85
225.5,92.5,77,85
220,82,78,86
220,75,78,86
235,72,78,86
262,75,78,86
295.5,75,77,86
316.5,77,77,86
336,78,78,86
349,74,78,86
350,78,78,86
340,83,78,86
326,90.5,78,87
305.5,101.5,79,87
280,106,78,86
253,108,78,86
223,111,78,86
199,110,78,86
183,113,78,86
173,114,78,86
170.5,113.5,77,85
166.5,108.5,77,85
165.5,95.5,77,85
175,83,78,86
196,70,78,86
219,56,78,86
238,51,78,86
263,52,78,86
285,55,78,86
297.5,54.5,77,85
284.5,62.5,77,85
282,69,78,86
284.5,79.5,77,85
297.5,81,77,86
320.5,83.5,77,85
344.5,77,77,86
365,70,78,86
379,61,78,86
374,52,78,86
353,48,78,86
338.5,49,77,86
314.5,61,77,86
290,67,78,86
260,71,78,86
238.5,75,77,86
222.5,81,77,86
209.5,82.5,77,85
198,83,78,86
185,81,78,86
172,76,78,86
164,68,78,86
145,62.5,78,87
163.5,45.5,79,87
147,43.5,78,87
134,46,78,86
129,48,78,86
129,53.5,78,87
123,65.5,78,87
129.5,71.5,79,87
142,75.5,78,87
154.5,80.5,79,87
173,84,78,86
182,88,78,86
184,92,78,86
176,105,78,86
187,93,78,86
217.5,80,77,86
171.5,112,77,86
171,106,78,86
184.5,106.5,77,85
200.5,102.5,77,85
215.5,98.5,77,85
236.5,98.5,77,85
262.5,98.5,77,85
288.5,100.5,77,85
309,95.5,76,85
332.5,90.5,77,85
347,87,76,84
364,87,76,84
371,85,76,84
371,85,76,84
368,89,76,84
361,94,76,84
360,101,76,84
357,102.5,76,83
359.5,98.5,75,83
361.5,91.5,75,83
361.5,82.5,75,83
345.5,74.5,75,83
326.5,71.5,75,83
313.5,69.5,75,83
295.5,71.5,75,83
264.5,76.5,75,83
237.5,78.5,75,83
219.5,80.5,75,83
200.5,89.5,75,83
209.5,71.5,75,83
179.5,96.5,75,83
163.5,102.5,75,83
151,102,74,82
135,101,74,82
123,100,74,82
112,100,74,82
101,97.5,74,81
98,95,74,82
101,94,74,82
109,91,74,82
126.5,90,75,82
148,90,74,82
148.5,93.5,75,83
185.5,70.5,75,83
199.5,68.5,75,83
227.5,87.5,75,83
243,80.5,76,83
260.5,70.5,75,83
285,58,76,84
310,47,76,84
319,41,76,84
352,58,76,84
347,60,76,84
305,54,76,84
298,55,76,84
282,47.5,76,85
305,75,76,84
261.5,49.5,77,85
257.5,49.5,77,85
239.5,74.5,77,85
228.5,77.5,77,85
214.5,71.5,77,85
204.5,73.5,77,85
188.5,74.5,77,85
162,77.5,76,85
139,83,76,84
143.5,80.5,77,85
145,77.5,76,85
151,78,76,84
160,80,76,84
179,81,76,84
206,81,76,84
234,77,76,84
247,67,76,84
248,65,76,84
237,68,76,84
222,71,76,84
211,63,76,84
205,63,76,84
220,48,76,84
237,40,76,84
246,51,76,84
250,66,76,84
251,85,76,84
252,99,76,84
253,102,76,84
264,98,76,84
275,94,76,84
285.5,88.5,77,85
287.5,82.5,77,85
272.5,78.5,77,85
254,75,76,84
257,67,76,84
247,59,76,84
233,53,76,84
214,58,76,84
210,70.5,76,83
212.5,79.5,75,83
224.5,84.5,75,83
235.5,79.5,75,83
244.5,66.5,75,83
234.5,64.5,75,83
235,60,74,82
215,66,74,82
193,73,74,82
190,95,74,82
191,108,74,82
172.5,126,75,82
224.5,108.5,75,83
255.5,95.5,75,83
272.5,84.5,75,83
299.5,64,75,82
321,51,74,82
334,47,74,82
335,53,74,82
317,70,74,82
284.5,89,75,82
282,95,74,82
257.5,97.5,75,83
235.5,97.5,75,83
232.5,84.5,75,83
248.5,76.5,75,83
258.5,73.5,75,83
257.5,88.5,75,83
238.5,95,75,82
229.5,96.5,75,83
224.5,109.5,75,83
191.5,100.5,75,83
189.5,95,75,82
163.5,105.5,75,83
184.5,101.5,75,83
205.5,95.5,75,83
238.5,82.5,75,83
259.5,77.5,75,83
270.5,82.5,75,83
289.5,89,75,82
301.5,93,75,82
300,96,74,82
286,101,74,82
258.5,111,75,82
235,119,74,82
221,121,74,82
214,117.5,74,81
208.5,108.5,73,81
169.5,125.5,73,81
217,101.5,74,81
236,93,74,82
262,83,74,82
285,72,74,82
297,61,74,82
289,58,74,82
282,62,74,82
282,68,74,82
296,69,74,82
310,72,74,82
321,68,74,82
321,60,74,82
321.5,48,75,82
324,44,74,82
330,41,74,82
332,48,74,82
334,58,74,82
329,65,74,82
318,67,74,82
318,66.5,74,81
317,62.5,74,81
314.5,55.5,73,81
318,45.5,74,81
314,42.5,74,81
314,31.5,74,81
309.5,24.5,73,81
334,14.5,74,81
327,16.5,74,81
285,20.5,74,81
294.5,22.5,73,81
308,68.5,74,81
282.5,51.5,73,81
269.5,74.5,73,81
275.5,83.5,73,81
265.5,91.5,73,81
248.5,97.5,73,81
234.5,101.5,73,81
223.5,100.5,73,81
203.5,100.5,73,81
174.5,81.5,73,81
183.5,81.5,73,81
189.5,70.5,73,81
198.5,64.5,73,81
210,66.5,74,81
216,69.5,74,81
210,72.5,74,81
203,79,74,82
196,86,74,82
192,87,74,82
204,66,74,82
220,46.5,74,81
213,39.5,74,81
215,34,74,82
198.5,33.5,73,81
172.5,46.5,73,81
181,48.5,74,81
165,71.5,74,81
170,82,74,82
196.5,90.5,73,81
218,104.5,74,81
248,107.5,74,81
266,98.5,74,81
282,100.5,74,81
276,105.5,74,81
263.5,112.5,73,81
247.5,129.5,73,81
233.5,145.5,73,81
230.5,147.5,73,81
237.5,133.5,73,81
258.5,114,73,80
270.5,87,73,80
290,63,72,80
316,50,72,80
275.5,35,73,80
257.5,49,73,80
230,67,72,80
229,60.5,72,79
228,48,72,80
239,51,72,80
233,70,72,80
231,90.5,72,79
227,106.5,72,79
231.5,109.5,71,79
250,99.5,72,79
254,99.5,72,79
270,94.5,72,79
255,85.5,72,79
226,77,72,80
188,83.5,72,79
160.5,104.5,71,79
168.5,107.5,71,79
168.5,120,71,78
173.5,126,71,78
175.5,125.5,71,79
173.5,128,71,78
176.5,125.5,71,79
209.5,124,71,78
201.5,116.5,71,79
182.5,107.5,71,79
174.5,93.5,71,79
157.5,83,71,78
137.5,70,71,78
