139,112,51,36
139.71,113.49,51,36
140.02,115.32,51,36
139.92,117.44,51,36
138.71,118.43,51,36
138.38,119.49,51,36
139.1,119.46,51,36
139.84,119.19,51,36
138.63,120.06,51,36
138.54,119.48,51,36
138.61,119.77,51,36
138.46,119.89,51,36
137.56,119,51,36
137.07,119.43,51,36
136.25,118.91,51,36
137.1,118.94,51,36
138.23,118.07,51,36
136.82,117.53,51,36
135.88,116.57,51,36
137.23,116.46,51,36
136.6,115.9,51,36
137.87,114.89,51,36
136.29,114.4,51,36
137.32,114.26,51,36
137.22,113.87,51,36
138.34,113.32,51,36
137.21,112.14,51,36
138.03,112.23,51,36
138.21,112,51,36
138.56,110.68,51,36
139.66,110.03,51,36
139.7,108.97,51,36
139.88,109.09,51,36
142.11,108.84,51,36
140.99,108.77,51,36
143.2,109.39,51,36
143.1,109.72,51,36
146.37,107.8,51,36
148.9,106.55,51,36
149.62,105.64,51,36
152.69,106.06,51,36
155.81,106.83,51,36
158.91,106.81,51,36
161.02,107.02,51,36
164.34,109.07,51,36
166.8,110.15,51,36
170.82,112.06,51,36
170.37,111.6,51,36
170.31,112.23,51,36
173.32,110.2,51,36
174.8,107.16,51,36
177.34,107.24,51,36
179.75,104.74,51,36
183.03,104.25,51,36
183.8,102.34,51,36
184.92,101.67,51,36
183.27,100.26,51,36
186.34,99.747,51,36
186.01,98.42,51,36
186.47,97.586,51,36
187.75,99.316,51,36
189.47,99.73,51,36
188.82,100.4,51,36
190.12,102.3,51,36
190.36,102.24,51,36
190.97,100.75,51,36
190.16,102.26,51,36
189.67,101.67,51,36
189.8,101.69,51,36
189.74,101.85,51,36
189.83,101.64,51,36
188.92,101.58,51,36
190.7,102.85,51,36
187.83,102.55,51,36
188.26,102.42,51,36
186.57,101.07,51,36
185.19,102.71,51,36
186.47,102.97,51,36
185.34,102.68,51,36
183.42,101.33,51,36
184.52,101.43,51,36
181.56,101.36,51,36
182.5,101.03,51,36
182.09,100.89,51,36
180.33,100.46,51,36
179.19,99.807,51,36
179.51,100.62,51,36
177.15,99.901,51,36
176.58,99.97,51,36
173.88,99.073,51,36
173.04,99.79,51,36
174.39,99.998,51,36
171.43,101.33,51,36
171.58,101.67,51,36
171.25,101.18,51,36
171.09,101.29,51,36
170.71,102.26,51,36
173.18,103.93,51,36
174.41,104.04,51,36
173.46,105.48,51,36
172.68,104.66,51,36
173.78,104.56,51,36
174.07,103.2,51,36
171.56,102.74,51,36
170.07,102.41,51,36
169.39,101.79,51,36
168.14,102.29,51,36
166.1,101.89,51,36
166.64,102.92,51,36
166.51,103,51,36
166.34,103.28,51,36
166.8,103.32,51,36
168.51,103.5,51,36
167.91,103.97,51,36
166.83,102.19,51,36
167.37,103.1,51,36
165.38,102.2,51,36
165.42,101.07,51,36
165.35,99.827,51,36
166.75,101.11,51,36
165.1,98.922,51,36
164.13,97.642,51,36
165,97.349,51,36
165.02,96.841,51,36
165.22,94.597,51,36
165.5,94.845,51,36
164.54,93.222,51,36
164.85,91.346,51,36
163.19,91.045,51,36
163.93,90.866,51,36
163.82,88.268,51,36
164.43,88.63,51,36
164.06,87.708,51,36
164.99,86.262,51,36
166.65,86.14,51,36
164.84,84.468,51,36
165.47,84.66,51,36
166.51,84.504,51,36
165.52,83.784,51,36
164.88,83.707,51,36
168.55,82.408,51,36
166.92,81.733,51,36
166.74,82.342,51,36
167.48,81.083,51,36
167.77,80.482,51,36
168.4,80.379,51,36
167.56,80.363,51,36
168.19,79.673,51,36
166.88,79.156,51,36
166.31,80.145,51,36
166.83,79.572,51,36
166.1,79.091,51,36
165.88,78.31,51,36
166.24,78.551,51,36
166.88,78.203,51,36
167.8,77.23,51,36
166.22,77.522,51,36
166.42,76.975,51,36
166.77,77.559,51,36
166.58,76.707,51,36
167.75,77.291,51,36
167.54,77.092,51,36
166.59,76.954,51,36
168.59,76.67,51,36
168.94,75.97,51,36
167.72,76.379,51,36
168.8,75.603,51,36
166.71,75.55,51,36
168.7,75.843,51,36
168.62,75.221,51,36
166.41,75.992,51,36
166.85,77.869,51,36
166.88,78.71,51,36
167.85,79.114,51,36
167.16,79.554,51,36
168.58,79.647,51,36
168.29,82.003,51,36
169.28,81.653,51,36
166.98,82.151,51,36
167.76,83.162,51,36
167.5,83.889,51,36
169.48,85,51,36
170.71,85.397,51,36
169.55,86.232,51,36
169.55,87.348,51,36
171.39,88.637,51,36
170.81,90.441,51,36
172.76,90.966,51,36
169.42,91.23,51,36
172.09,94.132,51,36
172.15,93.845,51,36
172.98,95.357,51,36
171.9,97.332,51,36
172.15,98.2,51,36
173.82,98.947,51,36
172.68,99.811,51,36
173.04,99.982,51,36
173.1,101.48,51,36
173.16,101.43,51,36
173.02,102.6,51,36
174.09,102.95,51,36
173.81,105.29,51,36
173.9,105.37,51,36
173.59,106.66,51,36
172.66,108.55,51,36
173.96,109.32,51,36
174.93,110.64,51,36
174.09,112.51,51,36
174.59,112.51,51,36
174.18,112.75,51,36
174.79,114.46,51,36
175.08,115.93,51,36
174.91,116.47,51,36
173.97,118.39,51,36
174.76,118.9,51,36
173.92,120.14,51,36
174.16,121.39,51,36
174.75,123.71,51,36
174.08,125.52,51,36
175.39,126.95,51,36
174.65,127.78,51,36
174.31,129.34,51,36
175.43,131.22,51,36
174.62,131.23,51,36
175.39,132.47,51,36
174.58,133.45,51,36
173.57,133.55,51,36
175.23,134.31,51,36
174.46,134.9,51,36
175.59,135.57,51,36
174.58,136.16,51,36
174.45,136.81,51,36
174.96,136.43,51,36
173.12,136.2,51,36
174.94,137.89,51,36
174.84,137.91,51,36
173.99,137.83,51,36
173.81,136.38,51,36
175.56,135.88,51,36
172.86,134.67,51,36
174.47,134.24,51,36
172.09,132.34,51,36
172.9,129.6,51,36
173.01,127.07,51,36
173.07,125.29,51,36
171.66,123.35,51,36
171.32,120.09,51,36
171.64,118.45,51,36
171.49,117.69,51,36
171.4,114.99,51,36
170.77,113.92,51,36
173.08,113.19,51,36
172.19,113.64,51,36
171.31,111.09,51,36
171.07,112.51,51,36
171.33,111.17,51,36
170.97,110.58,51,36
169.56,109.43,51,36
170.32,109.15,51,36
168.81,110.18,51,36
168.09,108.56,51,36
166.31,107.31,51,36
164.68,107.77,51,36
166.6,105.55,51,36
165.19,103.71,51,36
167.57,103.26,51,36
167.28,101.59,51,36
167.84,100.36,51,36
167.11,99.239,51,36
168.22,96.903,51,36
168.26,97.298,51,36
169.24,95.954,51,36
168.76,94.398,51,36
169.68,94.41,51,36
170.8,93.654,51,36
170.92,95.154,51,36
171.33,93.909,51,36
171.57,93.714,51,36
172.11,93.985,51,36
171.74,94.131,51,36
172.46,93.255,51,36
173.95,94.025,51,36
173.01,94.52,51,36
174.74,94.548,51,36
173.48,94.584,51,36
173.78,94.406,51,36
176.52,95.351,51,36
174.53,94.68,51,36
174.64,94.605,51,36
174.65,94.305,51,36
173.76,94.488,51,36
175.24,93.9,51,36
172.63,93.564,51,36
174.36,95.443,51,36
174.09,94.687,51,36
175.67,95.531,51,36
173.12,95.452,51,36
172.57,95.278,51,36
172.73,95.795,51,36
171.41,96.677,51,36
172.23,96.071,51,36
173.53,96.182,51,36
173.57,95.85,51,36
172.88,95.988,51,36
172.74,95.539,51,36
174.32,96.683,51,36
174.95,95.118,51,36
174.24,95.169,51,36
175.05,94.792,51,36
172.86,94.765,51,36
176.04,95.505,51,36
174.06,94.616,51,36
176.2,93.765,51,36
175.06,94.639,51,36
174.1,93.871,51,36
174.36,93.982,51,36
174.53,94.269,51,36
173.76,94.685,51,36
175.25,95.019,51,36
174.81,93.927,51,36
174.93,93.689,51,36
174.61,94.357,51,36
176.07,94.226,51,36
176.66,94.616,51,36
176.17,94.328,51,36
178.48,93.904,51,36
177.94,92.041,51,36
178.98,93.893,51,36
178.08,92.84,51,36
179.15,93.172,51,36
179.41,93.303,51,36
179,91.502,51,36
178.99,92.967,51,36
180.19,94.106,51,36
180.64,94.648,51,36
180.92,94.268,51,36
181.49,93.191,51,36
181.43,93.897,51,36
183.52,94.584,51,36
183.43,93.855,51,36
183.55,94.63,51,36
183.49,94.653,51,36
183.67,95.737,51,36
182.53,93.949,51,36
181.03,94.424,51,36
183.87,94.815,51,36
181.71,94.157,51,36
181.02,96.277,51,36
182.15,94.909,51,36
180.71,95.663,51,36
181.29,96.695,51,36
179.81,95.97,51,36
181.81,95.982,51,36
182.92,97.011,51,36
182.34,96.863,51,36
182.16,96.665,51,36
179.92,96.371,51,36
181.69,96.936,51,36
182.63,98.035,51,36
181.95,96.539,51,36
184.39,95.419,51,36
185.44,95.871,51,36
184.96,96.251,51,36
184.79,96.19,51,36
183.78,96.362,51,36
184.56,96.237,51,36
185.98,95.553,51,36
188,97.237,51,36
188.13,95.873,51,36
187.44,96.335,51,36
188.5,96.063,51,36
190.46,95.186,51,36
188.68,95.762,51,36
188.57,94.982,51,36
191.3,95.519,51,36
190.49,94.68,51,36
191.55,95.289,51,36
190.63,96.403,51,36
191.25,95.959,51,36
190.8,95.755,51,36
191.92,95.635,51,36
192.15,96.354,51,36
192.3,97.168,51,36
193.54,97.407,51,36
191.87,97.294,51,36
192.45,96.25,51,36
193.96,97.149,51,36
194.52,97.274,51,36
193.43,97.155,51,36
194.04,98.032,51,36
194.11,98.365,51,36
195.12,98.229,51,36
194.59,99.216,51,36
194.95,98.513,51,36
193.33,98.946,51,36
194.8,98.819,51,36
196.23,98.289,51,36
195.46,97.889,51,36
195.29,99.569,51,36
196.76,97.582,51,36
195.44,100.18,51,36
195.77,99.299,51,36
195.79,97.979,51,36
197.62,99.524,51,36
196.13,98.175,51,36
196.62,98.571,51,36
197.42,99.41,51,36
195.56,98.671,51,36
195.71,98.009,51,36
197.17,98.604,51,36
196.5,98.912,51,36
196.31,97.584,51,36
196.83,98.464,51,36
197.75,97.498,51,36
198.43,100.3,51,36
197.59,99.89,51,36
198.42,98.904,51,36
196.42,99.323,51,36
197.99,98.806,51,36
197.15,98.632,51,36
196.29,98.548,51,36
197.91,99.419,51,36
195.66,98.365,51,36
197.25,99.779,51,36
198.05,98.187,51,36
197.13,98.751,51,36
198.34,98.54,51,36
198.65,98.564,51,36
198.19,99.262,51,36
197.33,99.113,51,36
199.19,99.285,51,36
197.88,98.318,51,36
198.23,98.802,51,36
199.13,98.596,51,36
200.37,99.105,51,36
200.56,97.935,51,36
199.59,100.07,51,36
199.41,98.32,51,36
198.63,98.976,51,36
197.39,97.608,51,36
197.24,98.422,51,36
196.55,96.413,51,36
195.74,97.963,51,36
195.53,97.597,51,36
194.13,97.636,51,36
193.1,100.01,51,36
191.73,98.064,51,36
190.7,97.016,51,36
191.71,97.685,51,36
191.73,98.355,51,36
189.74,99.535,51,36
188.33,97.741,51,36
189.04,98.224,51,36
188.05,97.813,51,36
186.45,97.548,51,36
189.68,98.454,51,36
186.41,98.602,51,36
187.33,98.063,51,36
186.23,97.298,51,36
184.94,97.847,51,36
186.71,99.808,51,36
185.94,98.447,51,36
186.49,98.41,51,36
185.22,98.441,51,36
186.05,98.331,51,36
186.85,99.307,51,36
186.88,98.731,51,36
186.74,98.176,51,36
187.77,100.13,51,36
188.58,99.034,51,36
188.83,97.769,51,36
189.89,99.574,51,36
189.62,99.235,51,36
190.01,99.526,51,36
191.76,98.921,51,36
192.67,100.35,51,36
193.05,100.02,51,36
195.65,100.2,51,36
195.6,100.91,51,36
193.64,99.658,51,36
194.67,99.296,51,36
196.02,100.55,51,36
197.17,101.84,51,36
198.18,99.854,51,36
199.96,101.3,51,36
200.04,100.7,51,36
201.72,100.93,51,36
203.99,100.93,51,36
204.39,100.16,51,36
204.06,99.44,51,36
204.2,99.111,51,36
207.11,98.545,51,36
208.45,99.095,51,36
210.68,98.439,51,36
210.13,98.579,51,36
211.31,98.455,51,36
211.7,98.95,51,36
212.58,99.263,51,36
211.99,99.232,51,36
212.6,98.447,51,36
211.62,98.521,51,36
212.9,100.37,51,36
211.65,100.31,51,36
209.17,98.365,51,36
208.24,99.379,51,36
206.37,98.446,51,36
205.65,99.843,51,36
202.97,99.688,51,36
201.56,98.766,51,36
201.79,100.74,51,36
198.39,98.488,51,36
196.94,98.323,51,36
196.54,97.319,51,36
194.82,96.984,51,36
194.82,97.109,51,36
193.26,98.253,51,36
193.96,96.113,51,36
192.95,97.01,51,36
193.77,95.651,51,36
190.92,95.254,51,36
192.6,96.348,51,36
190.6,95.833,51,36
192.55,97.399,51,36
191.1,97.278,51,36
191.22,96.317,51,36
192.03,96.319,51,36
190.35,95.042,51,36
190.3,94.443,51,36
187.46,92.879,51,36
189.54,92.969,51,36
188.01,90.909,51,36
188.91,90.771,51,36
188.31,88.518,51,36
188.04,89.034,51,36
186.48,86.426,51,36
188.61,87.116,51,36
188.24,86.451,51,36
188.63,87.118,51,36
187.58,86.657,51,36
186.22,86.031,51,36
187.67,86.021,51,36
185.48,85.939,51,36
188.34,83.698,51,36
188.21,83.709,51,36
188.13,83.868,51,36
187.61,83.009,51,36
188.43,83.501,51,36
187.43,83.192,51,36
187.83,82.157,51,36
186.24,83.642,51,36
186.41,84.539,51,36
188.37,84.548,51,36
188.66,86.215,51,36
189.14,87.652,51,36
186.7,88.044,51,36
187.13,89.152,51,36
188.98,89.922,51,36
187.87,92.192,51,36
188.08,93.266,51,36
186.43,94.199,51,36
186.12,96.794,51,36
187.13,98.354,51,36
186.39,99.399,51,36
186.84,102.16,51,36
187.21,104.25,51,36
186.32,105.46,51,36
185.38,106.4,51,36
186,107.43,51,36
184.22,109.03,51,36
184.86,110.89,51,36
183.73,112.64,51,36
183.42,116.27,51,36
182.77,118.9,51,36
183.24,121.81,51,36
183.36,124.4,51,36
181.16,125.96,51,36
180.29,128.7,51,36
179.72,130.46,51,36
178.78,131.68,51,36
178.63,133.37,51,36
178.02,133.29,51,36
176.89,133.53,51,36
175.13,131.51,51,36
174.77,131.21,51,36
173.66,130.03,51,36
172.63,129.93,51,36
171.74,129.35,51,36
171.94,127.23,51,36
170.97,127.67,51,36
170.48,126.05,51,36
169.76,125,51,36
169.74,125.56,51,36
170.13,124.21,51,36
169.01,124.18,51,36
171.73,124.83,51,36
173.16,127,51,36
172.17,127.85,51,36
173.1,125.63,51,36
172.29,125.23,51,36
171.34,120.05,51,36
165.32,118.41,51,36
164.31,116.7,51,36
162.01,117.19,51,36
160.42,117.19,51,36
159.1,117.58,51,36
158.13,118.86,51,36
160.5,120.02,51,36
162.07,121.58,51,36
164.53,123.41,51,36
166.51,123.27,51,36
167.72,123.37,51,36
169.92,121.35,51,36
165.94,120.32,51,36
164.95,117.14,51,36
166.12,113.61,51,36
164.68,113.45,51,36
162.95,111.97,51,36
162.78,109.99,51,36
159.41,110.08,51,36
159.24,108.06,51,36
159.41,109.38,51,36
159.32,109.28,51,36
157.04,109.48,51,36
156.29,108.39,51,36
156.89,109.62,51,36
156.43,105,51,36
153.79,104.67,51,36
154.01,103.61,51,36
153.93,101.77,51,36
152.31,102.88,51,36
154.1,103.22,51,36
154.33,101.69,51,36
157.03,102.77,51,36
153.92,103.98,51,36
153.96,104.72,51,36
154.44,105.29,51,36
155.5,103.13,51,36
154.72,102.22,51,36
152.22,101.41,51,36
150.36,100.67,51,36
148.68,98.288,51,36
150.19,96.635,51,36
148.11,97.762,51,36
150.31,98.057,51,36
151.38,99.947,51,36
152.48,103.86,51,36
152.56,104.4,51,36
150.39,107.03,51,36
152.65,107.53,51,36
153.98,107.37,51,36
153.25,105.83,51,36
150.99,106.35,51,36
152.93,105.28,51,36
146.09,104.78,51,36
147.52,101.84,51,36
145.81,101.74,51,36
148.13,103.42,51,36
147.82,104.29,51,36
150.69,103.52,51,36
154.41,105.52,51,36
155.4,106.26,51,36
158.59,107.6,51,36
156.04,107.26,51,36
154.76,107.86,51,36
155.08,105.88,51,36
152.34,105.79,51,36
149.75,104.37,51,36
146.88,105.7,51,36
144.02,106.11,51,36
141,109.6,51,36
139.44,110.83,51,36
139.86,113.83,51,36
140.31,112.71,51,36
141.56,113.15,51,36
141.17,114.68,51,36
141.41,114.9,51,36
139.63,113.84,51,36
138.7,112.17,51,36
139.94,112.9,51,36
144.46,112.51,51,36
144.49,110.22,51,36
148.57,110.78,51,36
150.18,112.42,51,36
152.01,111.02,51,36
152.73,108.59,51,36
156.05,108.69,51,36
157.89,109.78,51,36
156.24,110.22,51,36
154.02,110.28,51,36
148.76,107.79,51,36
146.47,109.3,51,36
141.15,111.54,51,36
139.85,115.76,51,36
141,117.6,51,36
141.28,119.26,51,36
139.98,119.11,51,36
140.52,119.69,51,36
136.96,119.91,51,36
135.49,121.75,51,36
134.18,121.71,51,36
131.87,122.78,51,36
134.52,120.16,51,36
137.65,121.57,51,36
137.11,119.55,51,36
136.93,119.19,51,36
137.18,117.52,51,36
134.91,115.72,51,36
133.17,114.29,51,36
131.57,111.28,51,36
126.3,107.87,51,36
119.24,106.99,51,36
114.48,105.14,51,36
110.33,104,51,36
107,102.61,51,36
104.39,102.47,51,36
103.83,101.79,51,36
107.92,100.41,51,36
106.41,98.866,51,36
105.65,99.677,51,36
106.19,98.452,51,36
103.93,100.25,51,36
104.28,98.688,51,36
106.23,98.432,51,36
106.47,97.486,51,36
108.2,98.85,51,36
108.02,99.548,51,36
106.95,99.477,51,36
108.18,100.22,51,36
109.1,98.753,51,36
103.31,100.05,51,36
101.14,99.941,51,36
97.454,101.02,51,36
92.25,99.816,51,36
85.47,98.45,51,36
80.894,99.933,51,36
79.352,98.769,51,36
81.025,98.883,51,36
85.75,101.71,51,36
96.657,103.88,51,36
108,106.45,51,36
116.02,108.27,51,36
120.56,110.15,51,36
120.67,110.04,51,36
115.8,109.69,51,36
108.44,109.35,51,36
105.46,109.53,51,36
105.15,106.52,51,36
105.43,108.49,51,36
106.04,109.13,51,36
108.61,110.13,51,36
113.53,110.37,51,36
116.26,111.17,51,36
117.93,112.19,51,36
122.24,112.46,51,36
126.49,111.02,51,36
130.35,111.95,51,36
136.13,113.56,51,36
141.4,114.9,51,36
144.96,115.61,51,36
145.26,113.17,51,36
145.95,113.74,51,36
146.14,113.44,51,36
143.05,112.95,51,36
147.28,113.16,51,36
151.28,111.3,51,36
159.24,110.77,51,36
169.84,108.83,51,36
176.65,110.56,51,36
182.31,111.55,51,36
186.15,112.24,51,36
190.4,112.49,51,36
194.65,113.09,51,36
200.77,113.26,51,36
202.2,115.85,51,36
207.85,116.92,51,36
212.53,117.86,51,36
214.95,117.79,51,36
218.45,117.87,51,36
225.52,117.14,51,36
227.98,117.92,51,36
233.52,115.99,51,36
235.94,116.42,51,36
238.8,116.8,51,36
243.11,115.04,51,36
245.58,115.76,51,36
246.34,116.07,51,36
248.39,115.71,51,36
249.24,116.39,51,36
248.91,115.49,51,36
247.73,114.28,51,36
247.28,115.95,51,36
248.86,114.37,51,36
250.05,115.1,51,36
249.49,114.67,51,36
249.33,115.62,51,36
246.6,115.88,51,36
244.85,116.33,51,36
236.97,115.34,51,36
232.11,114.6,51,36
229.18,113.67,51,36
225.93,112.06,51,36
227.65,111.42,51,36
227.67,112.55,51,36
227.53,115.12,51,36
226.46,116.74,51,36
223.07,115.75,51,36
216.76,116.21,51,36
211.76,114.81,51,36
204.66,115.32,51,36
198.8,113.72,51,36
191.21,112.65,51,36
188.66,112.41,51,36
184.52,112.58,51,36
180.52,111.25,51,36
177.51,111.24,51,36
172.23,111.16,51,36
167.28,111.29,51,36
162.84,110.71,51,36
160.31,110.23,51,36
157.69,109.92,51,36
155.07,111.12,51,36
152.41,110.5,51,36
148.46,110.96,51,36
144.66,111.07,51,36
143.05,112.5,51,36
141.88,112.36,51,36
139.17,113.85,51,36
139.26,115.54,51,36
138.35,116.5,51,36
135.19,118.28,51,36
132.53,117.96,51,36
130.63,116.75,51,36
130.07,115.8,51,36
127.26,114.86,51,36
124.88,116.19,51,36
124.18,116.37,51,36
120.6,116.11,51,36
121.75,115.39,51,36
123.19,111.65,51,36
124.91,111.27,51,36
125.46,112.03,51,36
125.93,111.57,51,36
126.03,113.92,51,36
126.15,117.9,51,36
126.44,124.53,51,36
125.41,127.86,51,36
124.63,129.33,51,36
123.88,129.9,51,36
122.25,128.11,51,36
123.6,125.36,51,36
122.49,118.04,51,36
123.63,111.09,51,36
125.7,106.66,51,36
125.24,100.58,51,36
125.17,96.597,51,36
128.14,95.252,51,36
130.55,94.304,51,36
133.66,96.374,51,36
136.62,101.15,51,36
138.41,105.92,51,36
139.03,114.18,51,36
135.92,120.16,51,36
136.05,124.39,51,36
133.09,126.4,51,36
133.25,125.66,51,36
133.2,124.75,51,36
133.44,120.51,51,36
131.84,116.94,51,36
131.02,114.5,51,36
130.06,109.57,51,36
131.67,104.1,51,36
133.22,99.266,51,36
132.48,95.127,51,36
133.92,93.551,51,36
137.16,94.712,51,36
139.22,99.738,51,36
140.45,105.88,51,36
145.05,110.29,51,36
146.61,115.96,51,36
148.29,116.06,51,36
150.75,113.92,51,36
150.5,110.9,51,36
151.02,107,51,36
150.51,102.56,51,36
151.18,99.873,51,36
149.62,97.093,51,36
150.16,97.286,51,36
148.04,94.008,51,36
146.7,93.336,51,36
148,92.345,51,36
147.36,90.358,51,36
147.16,85.551,51,36
146.32,84.977,51,36
145.26,83.582,51,36
146.34,84.716,51,36
149.81,86.944,51,36
151.18,90.853,51,36
152.32,99.009,51,36
152.75,106.88,51,36
154.79,109.97,51,36
153.96,113.21,51,36
154.01,114.94,51,36
153.67,113.53,51,36
153.12,110.55,51,36
151.42,108.02,51,36
154.42,102.81,51,36
152.69,99.244,51,36
153.97,97.316,51,36
153.48,93.786,51,36
155.9,87.197,51,36
155.55,85.92,51,36
155.47,86.641,51,36
156.78,91.996,51,36
155.51,98.274,51,36
155.82,110,51,36
155.18,121.34,51,36
155.82,132.83,51,36
154.27,137.79,51,36
152.33,138.11,51,36
150.69,134.03,51,36
149.83,129.69,51,36
149.07,121.56,51,36
148.48,110,51,36
149.15,102.34,51,36
148.76,93.175,51,36
150.17,89.142,51,36
151.14,86.319,51,36
149.39,88.406,51,36
150.59,92.11,51,36
145.7,102.21,51,36
145.1,112.38,51,36
142.74,126.65,51,36
141.13,136.9,51,36
139.82,144.66,51,36
141.38,145.14,51,36
139.59,139.09,51,36
136.36,127.52,51,36
136.05,116,51,36
134.47,105.2,51,36
133.53,95.215,51,36
132.42,90.089,51,36
131.73,88.103,51,36
130.44,92.614,51,36
126.53,101.05,51,36
126.01,113.92,51,36
127.34,126.58,51,36
126.51,136.96,51,36
127.96,140.97,51,36
125.76,138.84,51,36
122.91,128.74,51,36
123.96,118.41,51,36
124.97,103.29,51,36
126.7,91.764,51,36
126.62,81.245,51,36
129.7,74.238,51,36
126.21,71.67,51,36
124.9,70.305,51,36
124.71,72.762,51,36
122.85,78.487,51,36
121.46,90.266,51,36
118.38,102.43,51,36
114.59,116.37,51,36
116.16,129.33,51,36
112.17,136.91,51,36
115.29,139.36,51,36
112.17,133.47,51,36
109.89,125.18,51,36
109.42,112.77,51,36
112.03,99.369,51,36
111.66,88.593,51,36
112.69,79.76,51,36
113.28,74.55,51,36
114.24,72.291,51,36
113.7,73.382,51,36
114.97,82.884,51,36
112.53,95.867,51,36
114.49,113.15,51,36
111.04,131.09,51,36
106.51,146.48,51,36
104.65,155.85,51,36
104.85,156.61,51,36
103.53,150.74,51,36
103.91,140.64,51,36
104.34,126.38,51,36
108.93,111.22,51,36
109.37,99.307,51,36
114.41,90.046,51,36
114.97,84.089,51,36
114.79,82.668,51,36
115.76,87.435,51,36
114.89,96.818,51,36
116.34,111.11,51,36
117.41,127.96,51,36
116.71,143.29,51,36
117.8,154.96,51,36
114.95,159.77,51,36
113.65,155.79,51,36
114.87,142.6,51,36
116.09,127.89,51,36
117.33,109.74,51,36
119.24,95.028,51,36
121.58,81.609,51,36
123.27,73.151,51,36
120.91,69.641,51,36
120.83,72.004,51,36
118.9,79.718,51,36
117.65,93.232,51,36
117.35,110.25,51,36
116.09,126.49,51,36
116.75,135.75,51,36
113.22,138.28,51,36
112.68,132.84,51,36
106.81,122.36,51,36
111.33,109.56,51,36
111.82,92.299,51,36
114.77,78.498,51,36
115.7,65.367,51,36
116.2,58.957,51,36
118.49,55.897,51,36
118.65,57.596,51,36
117,64.111,51,36
116.47,77.856,51,36
115.56,94.891,51,36
115.37,112.58,51,36
116.94,128.24,51,36
116.36,141.92,51,36
117.29,148.52,51,36
116.17,147.04,51,36
117.85,138.25,51,36
119.24,124.3,51,36
120.27,108.71,51,36
121.17,97.365,51,36
120.28,87.232,51,36
118.99,81.641,51,36
120.89,83.135,51,36
122.15,88.715,51,36
123.98,100.56,51,36
122.83,115.91,51,36
123.75,130.47,51,36
120.82,139.36,51,36
120.44,143.46,51,36
117.86,135.34,51,36
119.47,124.55,51,36
121,114.06,51,36
123.6,103.47,51,36
123.11,94.068,51,36
123.63,88.861,51,36
123.97,89.422,51,36
124.74,96.149,51,36
121.62,109.7,51,36
123.13,130.04,51,36
122.21,146.27,51,36
120.85,151.95,51,36
119.71,146.91,51,36
120.49,137.04,51,36
119.7,125.16,51,36
122.97,110.13,51,36
127.45,96.867,51,36
130.44,84.136,51,36
136.3,73.687,51,36
136.58,66.55,51,36
137.12,68.489,51,36
140.34,74.54,51,36
141.88,85.67,51,36
141.21,97.726,51,36
144.82,105.35,51,36
145.67,111.44,51,36
146.05,110.38,51,36
148.24,104.03,51,36
151.79,94.366,51,36
156.48,82.982,51,36
158.86,72.773,51,36
160.41,64.001,51,36
163.92,58.692,51,36
165.97,59.7,51,36
168.73,66.655,51,36
170.43,78.341,51,36
171.18,92.673,51,36
173.6,110.42,51,36
170.16,124.51,51,36
168.17,134.29,51,36
169.68,135.81,51,36
169.94,127.81,51,36
171.87,115,51,36
173.22,101.74,51,36
177.43,88.954,51,36
182.33,75.193,51,36
185.08,65.503,51,36
184.76,57.125,51,36
184.79,57.185,51,36
185.84,59.433,51,36
186.89,67.044,51,36
188.68,79.221,51,36
191.36,95.231,51,36
194.11,112.34,51,36
194.59,125.71,51,36
194.36,134.6,51,36
195.09,131.57,51,36
193.72,126.73,51,36
193.57,114.21,51,36
194.33,99.701,51,36
195.1,84.7,51,36
197.43,71.837,51,36
198.77,62.174,51,36
200.08,55.795,51,36
200.78,53.688,51,36
200.5,56.601,51,36
199.51,62.228,51,36
199.5,72.228,51,36
198.38,84.516,51,36
199.57,101.09,51,36
201.55,113.78,51,36
198.76,123.73,51,36
197.88,127.48,51,36
196.68,126.15,51,36
197.08,117.37,51,36
196.26,109.53,51,36
197.11,99.017,51,36
196.48,88.883,51,36
198.48,79.639,51,36
196.94,71.141,51,36
197.06,67.731,51,36
196.27,66.993,51,36
195.54,68.219,51,36
195,72.266,51,36
194.68,81.814,51,36
194.45,90.176,51,36
195.88,101.45,51,36
193.34,108.67,51,36
194.27,114.53,51,36
192.01,115.32,51,36
191.92,110.45,51,36
190.97,103.63,51,36
191.03,93.768,51,36
190.85,85.537,51,36
192.13,80.077,51,36
192.47,76.863,51,36
191.09,74.012,51,36
194.1,79.054,51,36
193.22,86.398,51,36
194.03,97.579,51,36
193.85,106.25,51,36
191.97,117.48,51,36
192.62,124.1,51,36
190.18,126.62,51,36
190.46,121.7,51,36
191.54,115.7,51,36
193.31,108.06,51,36
194.59,101.64,51,36
197.62,94.853,51,36
200.1,90.202,51,36
201.99,88.226,51,36
201.93,84.922,51,36
202.82,87.406,51,36
203.03,90.932,51,36
203.94,97.35,51,36
203.2,105.24,51,36
204.03,112.16,51,36
204.12,116.78,51,36
204.02,116.16,51,36
202,112.22,51,36
201.55,107.24,51,36
204.04,98.919,51,36
202.82,93.237,51,36
204.3,89.817,51,36
202.96,86.649,51,36
202.08,85.486,51,36
203.66,88.355,51,36
204.51,92.159,51,36
206.11,98.964,51,36
206.24,104.41,51,36
205.46,109.11,51,36
203.63,109.12,51,36
203.64,106.58,51,36
202.02,103.45,51,36
200.77,98.74,51,36
200.04,96.096,51,36
198,93.627,51,36
197.48,92.566,51,36
194.25,93.885,51,36
188.95,95.71,51,36
188.01,97.087,51,36
186.09,99.234,51,36
184.23,101.71,51,36
185.74,104.83,51,36
192.31,106.93,51,36
197.72,106.85,51,36
205.14,107.55,51,36
209.89,109.21,51,36
217.78,110.43,51,36
222.82,109.33,51,36
230.56,110.91,51,36
235.01,112.5,51,36
238.89,114.93,51,36
241.43,115.78,51,36
243.94,116.3,51,36
245.4,118.35,51,36
243.63,118.02,51,36
244.9,117.96,51,36
242.33,118.82,51,36
239.61,117.76,51,36
236.07,118.34,51,36
232.88,116.15,51,36
227.46,115.2,51,36
223.38,114.54,51,36
220.18,113.74,51,36
215.76,111.03,51,36
211.55,112.14,51,36
207.18,111.77,51,36
202.48,110.22,51,36
196.41,107.36,51,36
193.04,105.26,51,36
189.03,104.01,51,36
183.44,102.92,51,36
178.91,100.98,51,36
175.1,100.86,51,36
173.8,99.352,51,36
172.12,98.243,51,36
168.94,96.77,51,36
168.84,97.572,51,36
169.24,96.763,51,36
166.93,97.274,51,36
166.59,97.483,51,36
168.43,98.557,51,36
166.74,98.07,51,36
167.12,98.167,51,36
167.04,98.26,51,36
166.13,99.542,51,36
166.85,99.912,51,36
168.27,99.245,51,36
167.89,100.23,51,36
169.15,101.35,51,36
169.68,101.3,51,36
173.52,102.64,51,36
173.84,102.84,51,36
176.83,105.08,51,36
176.85,105.96,51,36
178.6,108.23,51,36
181.82,109.82,51,36
182.56,112.46,51,36
184.51,113.48,51,36
184.8,113.76,51,36
188.7,116.58,51,36
188.74,119.43,51,36
191.8,120.52,51,36
192.7,123.08,51,36
194.28,123.06,51,36
196.6,124.93,51,36
200.07,127.27,51,36
200.82,127.45,51,36
203.61,128.82,51,36
204.65,128.98,51,36
205.81,130.13,51,36
207.13,130.61,51,36
207.85,130.31,51,36
209.45,129.99,51,36
210.39,127.44,51,36
212.18,128.66,51,36
214.82,126.4,51,36
215.8,125.28,51,36
219.91,125.1,51,36
219.43,124.6,51,36
221.92,124.99,51,36
221.74,124.86,51,36
223.18,125.6,51,36
222.42,125.99,51,36
223.93,126.7,51,36
225.29,127.96,51,36
221.71,128.05,51,36
223.86,129.18,51,36
223.84,130.13,51,36
224.37,130.68,51,36
225.4,130.29,51,36
224.24,128.25,51,36
226,128.57,51,36
226.06,128.4,51,36
225.4,126.92,51,36
226.38,126.4,51,36
224.66,123.89,51,36
226.93,123.34,51,36
228.34,120.4,51,36
224.97,117.88,51,36
228.78,118.74,51,36
228.09,118.74,51,36
227.32,118.36,51,36
227.75,118.37,51,36
226.57,118.38,51,36
225.8,118.19,51,36
225.65,117.2,51,36
224.98,118.02,51,36
224.77,119.74,51,36
224.48,119.42,51,36
225.19,120.24,51,36
226.29,122.41,51,36
228.45,121.53,51,36
228.03,120.03,51,36
228.4,121.21,51,36
227.93,121.57,51,36
225.69,120.14,51,36
222.7,120.05,51,36
218.67,120.25,51,36
215.66,119.68,51,36
212.39,122.35,51,36
207.52,120.58,51,36
204.98,120.43,51,36
202.1,120.54,51,36
201.32,120.26,51,36
200,121.44,51,36
198.68,121.11,51,36
197.84,120.7,51,36
197.81,121.26,51,36
196.62,121.72,51,36
196.84,121.14,51,36
197.33,121.81,51,36
198.14,121.48,51,36
197.41,120.93,51,36
197.92,121.73,51,36
198.24,122.25,51,36
200.27,121.5,51,36
200.35,121.3,51,36
200.66,120.17,51,36
200.94,119.66,51,36
202,119.18,51,36
202.63,120.19,51,36
204.54,122.76,51,36
207.01,123.46,51,36
207.06,127.12,51,36
207.42,128.9,51,36
208.07,132.43,51,36
206.93,134.23,51,36
205.85,134.6,51,36
205.99,136.53,51,36
206.45,138.06,51,36
206.34,138.35,51,36
207.16,137.27,51,36
206.63,138.07,51,36
210.44,138.62,51,36
210.66,138.47,51,36
211.28,139.47,51,36
212.64,139.37,51,36
213.82,139.45,51,36
215.17,140.09,51,36
216.07,138.38,51,36
217.69,138.38,51,36
218.25,138.69,51,36
220.87,140.99,51,36
220.18,143.98,51,36
220.54,148,51,36
216.98,157.61,51,36
213.5,171.59,51,36
