111,98,25,101
111.48,101,25,101
111.61,105.25,25,101
111.43,106.26,25,101
110.22,106.47,25,101
110.57,108.7,25,101
109.43,106.26,25,101
107.67,114.03,25,101
104.7,112.46,25,101
103.35,113.28,25,101
98.598,119.53,25,101
94.531,116.04,25,101
91.98,118.59,25,101
88.182,112.09,25,101
87.145,112.35,25,101
89.079,109.7,25,101
88.408,110.16,25,101
88.343,110.83,25,101
91.19,110.29,25,101
93.674,113.36,25,101
94.767,111.04,25,101
95.36,110.44,25,101
100.05,108.84,25,101
99.186,101.31,25,101
102.11,105.84,25,101
102.25,102.77,25,101
104.25,108.41,25,101
105.08,111.03,25,101
108.08,109.49,25,101
106.15,103.81,25,101
106.7,100.94,25,101
104.52,99.692,25,101
104.15,98.327,25,101
104.44,97.409,25,101
105.95,101.41,25,101
106.37,100.63,25,101
105.17,101.18,25,101
107.37,101.57,25,101
104.58,100.35,25,101
105.21,100.63,25,101
105.63,99.007,25,101
102.37,96.605,25,101
100.84,97.237,25,101
101.36,96.058,25,101
98.307,98.478,25,101
97.013,96.832,25,101
92.822,99.784,25,101
88.318,96.464,25,101
83.626,94.521,25,101
82.567,94.48,25,101
80.631,96.048,25,101
81.253,100.75,25,101
81.781,103.21,25,101
84.247,106.08,25,101
83.353,102.55,25,101
85.706,106.76,25,101
87.793,103.22,25,101
93.379,98.434,25,101
95.535,99.336,25,101
100.82,95.544,25,101
103.79,94.583,25,101
105.72,98.582,25,101
105.02,100.82,25,101
107.91,98.026,25,101
108.13,99.992,25,101
111.55,99.272,25,101
109.5,95.409,25,101
111.89,96.939,25,101
112.17,89.687,25,101
113.9,81.57,25,101
129.14,73.502,25,101
124.73,68.031,25,101
122.75,67.701,25,101
118.88,67.815,25,101
115.89,71.463,25,101
113.08,65.862,25,101
108.45,68.356,25,101
102.46,67.468,25,101
86.097,68.421,25,101
80.297,66.087,25,101
77.363,65.291,25,101
71.855,60.87,25,101
68.597,55.997,25,101
65.208,55.936,25,101
63.951,57.16,25,101
61.837,52.23,25,101
60.912,48.342,25,101
58.258,47.197,25,101
58.124,42.532,25,101
55.515,37.59,25,101
54.955,41.615,25,101
55.966,38.86,25,101
52.682,34.859,25,101
50.498,38.792,25,101
47.472,37.821,25,101
46.001,37.812,25,101
39.513,33.09,25,101
34.811,32.637,25,101
31.106,31.691,25,101
26.541,30.194,25,101
22.641,31.405,25,101
16.502,28.382,25,101
11.808,22.028,25,101
7.2736,20.96,25,101
3.1952,20.414,25,101
-0.32908,19.11,25,101
-1.2942,14.417,25,101
20.518,0.96875,25,101
15.105,-6.525,25,101
14.436,-13.965,25,101
11.255,-17.386,25,101
2.6483,-14.901,25,101
-0.55488,-20.841,25,101
6.9511,-7.1795,25,101
5.6199,-3.6983,25,101
16.087,-2.4071,25,101
13.464,-1.8179,25,101
7.1732,-8.4659,25,101
12.031,-19.217,25,101
18.087,-24.186,25,101
24.087,-24.08,25,101
15.454,-24.993,25,101
10.496,-25.216,25,101
12.276,-24.418,25,101
10.582,-23.118,25,101
10.464,-27.317,25,101
8.0013,-25.015,25,101
6.0293,-23.065,25,101
3.4075,-23.443,25,101
1.3146,-25.377,25,101
0.51655,-24.839,25,101
-0.11432,-22.338,25,101
3.3174,-21.278,25,101
1.8954,-22.052,25,101
-1.5964,-23.18,25,101
-2.4345,-21.289,25,101
-2.4561,-19.868,25,101
-1.6947,-20.819,25,101
-2.2608,-22.412,25,101
-1.847,-22.225,25,101
-0.75291,-23.399,25,101
-1.6679,-17.623,25,101
-2.94,-17.782,25,101
-2.7992,-17.978,25,101
-2.7177,-16.844,25,101
-2.0035,-20.445,25,101
-3.0438,-23.822,25,101
-2.8824,-26.912,25,101
-3.5712,-30.585,25,101
-2.9392,-22.184,25,101
-2.9907,-21.027,25,101
-2.7561,-29.312,25,101
-2.7886,-21.068,25,101
-2.1484,-16.521,25,101
-2.6455,-15.881,25,101
-3.3258,-23.061,25,101
-2.8269,-16.351,25,101
-3.1026,-18.981,25,101
-2.1702,-1.4459,25,101
-2.0994,-1.8474,25,101
-1.8091,-0.10796,25,101
-1.5009,-0.080433,25,101
-2.0394,-4.0141,25,101
-1.8533,-1.6986,25,101
-2.2105,-10.459,25,101
-2.0527,-1.3758,25,101
-2.3195,-0.072881,25,101
-2.1949,7.8721,25,101
-2.2524,3.7497,25,101
-2.1394,3.4163,25,101
-2.2298,8.7281,25,101
-2.8907,10.591,25,101
-2.1873,1.9544,25,101
-1.6355,1.6787,25,101
-2.3336,2.355,25,101
-2.6071,0.86718,25,101
-1.7758,3.2016,25,101
-2.2473,5.009,25,101
-2.84,3.1336,25,101
-2.9749,5.0168,25,101
-2.901,0.019631,25,101
-1.8216,0.76593,25,101
-2.7299,1.8697,25,101
-2.1615,2.8981,25,101
-2.1419,1.2934,25,101
-1.9542,10.413,25,101
-1.9509,4.2849,25,101
-1.4238,10.683,25,101
-1.6569,15.881,25,101
-2.4609,10.211,25,101
-1.9709,13.698,25,101
-1.9711,9.376,25,101
-2.2215,9.6063,25,101
-2.2613,3.1521,25,101
-2.3904,2.9907,25,101
-2.3563,-1.4593,25,101
-2.3996,-0.91491,25,101
-2.3198,-4.4963,25,101
-2.8186,-14.037,25,101
-2.2633,-16.54,25,101
-1.5382,-24.738,25,101
-2.461,-25.169,25,101
-3.1181,-25.387,25,101
-3.3815,-22.032,25,101
-2.2171,-24.076,25,101
-2.9394,-20.853,25,101
-2.5536,-16.245,25,101
-2.403,-16.57,25,101
-1.7822,-16.289,25,101
-2.1775,-8.3971,25,101
-2.001,-13.223,25,101
-2.6451,-11.233,25,101
-2.6145,-13.341,25,101
-1.7064,-14.523,25,101
-2.0509,-12.899,25,101
-2.7387,-12.173,25,101
-2.8923,1.0074,25,101
-1.9991,6.256,25,101
-2.2541,9.6139,25,101
-2.1062,14.068,25,101
-2.8467,13.531,25,101
-2.1691,14.534,25,101
-2.2935,22.115,25,101
-2.1237,32.245,25,101
-2.3213,23.215,25,101
-1.7466,33.9,25,101
-1.9603,31.544,25,101
-2.5236,28.498,25,101
-2.5419,34.605,25,101
-2.9958,28.918,25,101
-2.5415,31.79,25,101
-2.0423,25.897,25,101
-2.3923,31.613,25,101
-2.6254,30.899,25,101
-1.5438,20.59,25,101
-1.4821,2.6351,25,101
-1.2445,3.6357,25,101
-2.1758,-1.5016,25,101
-1.7818,-1.5122,25,101
-1.4824,-16.64,25,101
-2.628,-18.676,25,101
-2.9387,-5.3075,25,101
-2.3364,-7.8678,25,101
-2.4062,-13.446,25,101
-1.841,-12.422,25,101
-2.5784,-16.748,25,101
-2.6203,-10.718,25,101
-2.4484,-5.8717,25,101
-2.1823,-8.9153,25,101
-2.3935,3.5073,25,101
-2.5243,10.527,25,101
-2.9812,8.1437,25,101
-2.171,-5.7545,25,101
-1.9935,-6.4169,25,101
-2.023,-1.9217,25,101
-2.1906,9.0964,25,101
-1.7112,8.6088,25,101
-2.1309,22.315,25,101
-1.6925,22.996,25,101
-2.3926,23.402,25,101
-2.7792,33.458,25,101
-2.55,29.981,25,101
-2.8359,24.075,25,101
-2.2687,21.191,25,101
-1.5312,21.368,25,101
-2.2188,28.687,25,101
-2.1179,24.663,25,101
-2.5999,16.775,25,101
-2.5756,18.693,25,101
-2.0397,10.387,25,101
-2.1977,10.341,25,101
-2.1039,10.767,25,101
-3.0267,7.7926,25,101
-2.623,3.1237,25,101
-2.385,0.66668,25,101
-2.5788,1.1016,25,101
-1.7398,5.541,25,101
-3.1335,8.6172,25,101
-1.8245,3.5143,25,101
-1.9868,1.546,25,101
-2.3119,6.5834,25,101
-1.882,6.9702,25,101
-2.4529,11.919,25,101
-2.5841,6.5682,25,101
-2.5228,14.175,25,101
-2.4486,14.071,25,101
-2.0327,4.591,25,101
-2.9767,12.611,25,101
-2.1126,5.0634,25,101
-2.3338,2.5436,25,101
-2.051,19.474,25,101
-2.7853,13.182,25,101
-2.322,10.547,25,101
-2.2869,18.149,25,101
-1.7806,10.194,25,101
-1.4171,2.9299,25,101
-1.9754,1.6549,25,101
-2.1822,9.2766,25,101
-2.3698,7.2591,25,101
-1.0491,5.317,25,101
-2.3391,-2.9706,25,101
-2.8336,-4.6371,25,101
-2.1731,-13.364,25,101
-2.7084,-19.134,25,101
-2.2743,-24.079,25,101
-2.2016,-22.596,25,101
-2.9753,-23.34,25,101
