331,39,38,42
330.36,34.784,38,42
332.26,26.543,38,42
332.29,19.532,38,42
334.48,13.55,38,42
339.45,13.886,38,42
343.4,17.998,38,42
350.94,27.908,38,42
353.02,37.433,38,42
362.26,46.567,38,42
353.25,37.698,38,42
353.7,39.177,38,42
350.58,40.264,38,42
352.98,37.764,38,42
351.96,48.415,38,42
344.9,39.979,38,42
334.59,32.665,38,42
327.13,26.696,38,42
322.52,21.375,38,42
318.87,17.52,38,42
318.79,16.591,38,42
317.13,18.686,38,42
319.58,20.949,38,42
319.68,30.136,38,42
324.23,33.472,38,42
328.75,33.387,38,42
331.4,33.535,38,42
334.19,29.9,38,42
330.91,25.524,38,42
336.93,20.756,38,42
345.24,16.272,38,42
350.85,22.339,38,42
364.47,31.723,38,42
375.26,43.963,38,42
385.16,52.778,38,42
372.75,48.323,38,42
373.97,47.529,38,42
374.97,47.752,38,42
370.95,47.304,38,42
370.62,47.487,38,42
376.67,46.691,38,42
372.06,45.962,38,42
370.1,57.599,38,42
372.15,48.851,38,42
370.51,49.225,38,42
366.87,48.876,38,42
356.98,48.954,38,42
366.72,32.972,38,42
371.95,46.745,38,42
376.87,35.34,38,42
371.25,29.803,38,42
372.37,28.909,38,42
369.53,45.71,38,42
371.79,37.784,38,42
373.6,36.429,38,42
384.85,44.718,38,42
394.2,44.242,38,42
397.5,45.135,38,42
405.89,37.021,38,42
406.78,29.947,38,42
393.23,40.767,38,42
392.91,41.251,38,42
391.22,46.595,38,42
390.51,46.561,38,42
390.47,43.619,38,42
389.14,39.123,38,42
387.79,26.876,38,42
385.64,15.914,38,42
382.06,10.893,38,42
383.75,7.8459,38,42
381.4,9.5203,38,42
386.37,14.061,38,42
380.91,24.168,38,42
378.55,20.257,38,42
375.03,25.25,38,42
374.79,23.892,38,42
374.02,16.013,38,42
375.85,10.02,38,42
373.37,11.204,38,42
373.98,5.0851,38,42
379.23,9.679,38,42
372.4,14.758,38,42
363.16,11.872,38,42
371.75,1.8307,38,42
366.38,5.8539,38,42
364.42,10.894,38,42
364.91,2.9953,38,42
364.33,10.4,38,42
360.78,8.6426,38,42
361.57,9.7443,38,42
358.61,3.2569,38,42
355.49,16.744,38,42
369.99,19.975,38,42
359.46,17.96,38,42
354.39,12.51,38,42
346.37,7.7294,38,42
353.81,2.0459,38,42
359.03,7.7433,38,42
352.02,9.1401,38,42
357.98,19.135,38,42
