162,188,34,84
161.66,187.64,34,84
161.47,188.17,34,84
161.5,187.22,34,84
160.3,186.45,34,84
160.01,187.51,34,84
159.62,186.5,34,84
159.95,185.6,34,84
158.85,184.69,34,84
158.81,184.59,34,84
157.36,183.69,34,84
158.17,182.49,34,84
158.43,181.55,34,84
159.17,183.17,34,84
158.43,185.53,34,84
160.08,186.49,34,84
159.69,189.2,34,84
160.32,187.04,34,84
159.36,188.51,34,84
159.89,190.32,34,84
159.57,190.29,34,84
160.46,192.96,34,84
161.31,192.08,34,84
161.18,192.19,34,84
163.43,194.07,34,84
164.26,190.33,34,84
167.04,191.4,34,84
168.13,190.28,34,84
168.53,188.99,34,84
169.53,188.89,34,84
170.2,189.9,34,84
169.59,188.47,34,84
168.16,188.11,34,84
168.31,189.82,34,84
166.88,188.15,34,84
165.49,187.11,34,84
163.43,188.01,34,84
162.38,188.36,34,84
162.67,188.99,34,84
161.43,189.27,34,84
161.34,190.22,34,84
160.46,188.9,34,84
159,190.13,34,84
157.33,190.03,34,84
159.52,188.95,34,84
160.01,191.19,34,84
156.09,192.67,34,84
156.19,189.99,34,84
155.82,190.69,34,84
154.48,191.31,34,84
153.81,193.65,34,84
152.76,189.98,34,84
151.76,191.69,34,84
151.6,192.63,34,84
150.11,194.14,34,84
149.75,190.44,34,84
148.24,187.01,34,84
146.62,190.26,34,84
146.24,188.96,34,84
145.28,191.97,34,84
144.43,189.86,34,84
142.62,189.36,34,84
143.59,187.5,34,84
143.84,187.32,34,84
143.36,183.73,34,84
142.97,192.17,34,84
142.72,191.57,34,84
143.84,192.11,34,84
144.9,190.34,34,84
146.84,193.68,34,84
147.97,192.56,34,84
148.17,189.57,34,84
148.99,188.82,34,84
152.18,189.41,34,84
156.75,190.58,34,84
156.81,191.59,34,84
155.09,189.41,34,84
160.33,188.79,34,84
163.11,188.58,34,84
164.47,187.64,34,84
165.39,188.88,34,84
166.79,186.92,34,84
172.8,187.92,34,84
175.3,186.85,34,84
179.78,186.43,34,84
183.06,186.06,34,84
185.15,186.42,34,84
188.72,185.33,34,84
192.62,185.39,34,84
195.29,186.77,34,84
195.6,185.58,34,84
196.63,185.09,34,84
198.56,185.03,34,84
198.65,186.5,34,84
199.52,187.12,34,84
199.42,185.38,34,84
200.09,186.2,34,84
199.72,186.61,34,84
199.99,188.74,34,84
201.35,186.53,34,84
201.79,183.99,34,84
199.63,186.6,34,84
200.29,185.59,34,84
202.76,183.45,34,84
203.53,185.69,34,84
204.55,186.04,34,84
204.67,187.72,34,84
208.03,186.36,34,84
206.95,183.36,34,84
210.76,182.11,34,84
209.91,182.43,34,84
213.12,178.83,34,84
211.81,179.25,34,84
213.93,179.22,34,84
216.34,179.03,34,84
218.09,176.61,34,84
220.4,173.36,34,84
222.24,172.24,34,84
221.56,174.57,34,84
223.78,172.11,34,84
223.14,170.5,34,84
226.22,168.22,34,84
226.41,170.64,34,84
225.33,171.79,34,84
223.62,171.87,34,84
224.1,169.36,34,84
225.26,169.88,34,84
226.21,171.26,34,84
224.42,170.22,34,84
223.11,172.08,34,84
224.85,170.7,34,84
225.18,170.19,34,84
223.72,170.11,34,84
225.36,169.57,34,84
224.7,171.3,34,84
225.02,169.54,34,84
225.3,170.47,34,84
224.75,169.64,34,84
223.25,169.68,34,84
224.41,170.01,34,84
223.38,170.69,34,84
224.35,169.94,34,84
225.53,169.18,34,84
225.72,167.83,34,84
226.33,169.51,34,84
225.56,168.61,34,84
225.17,170.4,34,84
225.39,173.3,34,84
224.95,168.99,34,84
224.98,170.66,34,84
225.72,171.44,34,84
223.89,171.13,34,84
227.03,168.92,34,84
226.06,169.91,34,84
226.42,174.35,34,84
225.93,174.85,34,84
228.35,175.68,34,84
228.1,179.68,34,84
228.29,178.49,34,84
228,179.01,34,84
228.91,180.83,34,84
228.91,178.13,34,84
227.56,180.27,34,84
226.62,177.35,34,84
223.68,180.27,34,84
223.12,178.23,34,84
220.11,177.51,34,84
220.74,177.81,34,84
219.37,176.63,34,84
218.97,174.16,34,84
218.06,166.58,34,84
220.5,165.33,34,84
218.54,165.93,34,84
217.7,165.18,34,84
217.94,166.35,34,84
216.16,165.44,34,84
216.41,166.67,34,84
215.06,166.95,34,84
203.29,178.69,34,84
207.3,184.32,34,84
205.85,172.2,34,84
208.33,171.01,34,84
211.46,167.87,34,84
213.58,165.94,34,84
213.42,166.71,34,84
213.24,165.83,34,84
211.81,166.84,34,84
211.32,169.11,34,84
211.02,169.3,34,84
208.6,171.83,34,84
207.13,172.37,34,84
204.48,174.64,34,84
202.97,174.51,34,84
201.95,175.04,34,84
196.67,174.64,34,84
197.18,179.02,34,84
196.31,176.19,34,84
195.32,173.45,34,84
195.1,173.7,34,84
194.44,169.87,34,84
192.99,170.09,34,84
192.83,168.62,34,84
192.2,166.87,34,84
190.35,168.73,34,84
190.5,168.52,34,84
189.31,169.15,34,84
187.53,169.77,34,84
186.92,170.59,34,84
184.91,173.05,34,84
184.84,172.9,34,84
184.19,174.84,34,84
183.17,176.39,34,84
179.92,173.97,34,84
182.11,174.09,34,84
184.63,168.64,34,84
183.95,166.24,34,84
184.95,165.61,34,84
186.85,166.21,34,84
184.94,166.61,34,84
187.46,163.07,34,84
187.83,163.58,34,84
187.4,164.14,34,84
186.42,163.03,34,84
184.36,162.6,34,84
184.84,162.45,34,84
184.08,163.11,34,84
184.93,162.14,34,84
185.11,162.74,34,84
184.7,163.2,34,84
183.02,161.9,34,84
181.34,160.89,34,84
178.62,164.02,34,84
180.54,162.44,34,84
180.6,161.09,34,84
181.59,161.38,34,84
184.14,158,34,84
183.39,157.97,34,84
185,161.31,34,84
184.84,162.22,34,84
187.27,162.81,34,84
187.56,161.54,34,84
189.56,163.97,34,84
190.38,161.87,34,84
193.21,163.13,34,84
194.23,163.23,34,84
195.89,165.88,34,84
197.65,164.92,34,84
199.54,163.29,34,84
200.16,163.84,34,84
199.94,163.1,34,84
201.12,161.7,34,84
198.76,160.95,34,84
198.92,155.82,34,84
196.81,159.49,34,84
197.28,159.27,34,84
197.76,161.3,34,84
196.4,159.89,34,84
197.43,163.93,34,84
195.91,160.58,34,84
195.67,162.4,34,84
195.5,164.78,34,84
197.64,163.45,34,84
199.4,163.47,34,84
200.56,164.67,34,84
201.52,162.84,34,84
201.72,164.48,34,84
202.08,162.55,34,84
203.89,164.25,34,84
204.25,163.82,34,84
206.36,165.53,34,84
208.13,166.58,34,84
209.67,167.46,34,84
211.13,164.87,34,84
214.92,167.46,34,84
218.84,166.5,34,84
226.07,163,34,84
228.37,167.67,34,84
231.22,166.14,34,84
235.17,163.92,34,84
234.21,163.53,34,84
234.92,164.55,34,84
237.61,164.18,34,84
240.29,165.85,34,84
240.36,168.43,34,84
242.88,166.53,34,84
241.2,172.03,34,84
242.03,169.75,34,84
244.75,169.98,34,84
249.31,170.01,34,84
249.41,169.49,34,84
247.81,173.38,34,84
251.23,172.02,34,84
250.84,173.64,34,84
250.35,174.68,34,84
250.45,173.47,34,84
247.99,176.14,34,84
251.93,171.46,34,84
248.24,170.34,34,84
251.29,171.22,34,84
254.4,171.17,34,84
251.4,171.38,34,84
253.67,171.45,34,84
255.53,169.59,34,84
254.24,173.43,34,84
248.45,176.77,34,84
252.57,173.07,34,84
248.99,173.82,34,84
266.41,172.82,34,84
267.97,173.83,34,84
266.22,173.31,34,84
265.23,175.79,34,84
264.26,175.54,34,84
262.97,173.58,34,84
261.31,170.7,34,84
257.46,176.4,34,84
251.28,179.57,34,84
249.6,179.12,34,84
249.51,178.42,34,84
247.19,178.95,34,84
245.55,180.21,34,84
265.24,177.51,34,84
257.11,178.39,34,84
254.65,177.43,34,84
252.1,180.25,34,84
249.18,177.74,34,84
257.82,179.36,34,84
257.59,178.18,34,84
257.22,178.28,34,84
256.71,179.08,34,84
257.13,179.02,34,84
254.52,181.13,34,84
249.53,177.72,34,84
249.55,178.13,34,84
256.41,179.22,34,84
258.4,180.65,34,84
262.36,181.79,34,84
264.09,181.99,34,84
259.94,181.26,34,84
266.1,181.67,34,84
268.94,181.42,34,84
270.09,182.38,34,84
273.38,180.3,34,84
277.98,182,34,84
290.25,183.29,34,84
288.43,178.77,34,84
289.7,182.16,34,84
288.59,183.88,34,84
288.85,187.85,34,84
289.52,184.01,34,84
292.99,183.31,34,84
298.71,179.92,34,84
298.7,169.75,34,84
302.01,167.45,34,84
305.6,168.79,34,84
307.88,167.51,34,84
306.15,177.13,34,84
308.7,178.6,34,84
309.73,173.67,34,84
307.33,171.84,34,84
309.46,177.02,34,84
309.71,172.56,34,84
308.31,173.81,34,84
310.88,175.47,34,84
312.69,170.29,34,84
314.35,166.26,34,84
315.91,169.56,34,84
316.09,170.16,34,84
316.97,180.3,34,84
319.54,175.34,34,84
324.17,172.74,34,84
322.96,172.65,34,84
332.52,174.78,34,84
340.05,181.66,34,84
353.46,177.9,34,84
356.85,178.82,34,84
349.7,178.63,34,84
345.97,180.33,34,84
341.27,180.54,34,84
342.02,184.53,34,84
343.07,186.03,34,84
348.12,187.14,34,84
348.42,189.21,34,84
353.56,185.61,34,84
355.72,187.07,34,84
357.73,185.45,34,84
358.93,183.64,34,84
362.15,186.94,34,84
361.5,186.24,34,84
363.07,187.6,34,84
365.2,189.75,34,84
365.65,189.69,34,84
364.76,190.07,34,84
364.42,186.84,34,84
363.69,190.43,34,84
366.42,188.68,34,84
368.05,186.5,34,84
369.18,184.43,34,84
370.16,187,34,84
371.26,189.26,34,84
372.43,187.51,34,84
