446,181,29,26
443.77,174.04,29,26
442.27,170.59,29,26
441.34,165.17,29,26
440.56,161.31,29,26
437.92,151.27,29,26
437.46,148.63,29,26
436.63,148.4,29,26
438.59,144.92,29,26
429.35,131.17,29,26
426.76,115.34,29,26
439.31,117.45,29,26
445.61,117.55,29,26
455.68,118.67,29,26
465.51,118.38,29,26
471.37,117.58,29,26
489.08,117.15,29,26
496.42,116.63,29,26
507.5,115.93,29,26
516.48,114.48,29,26
523.77,113.13,29,26
538.16,112.35,29,26
551.76,107.93,29,26
559.31,105.51,29,26
568.96,103.35,29,26
576.81,101.61,29,26
592.96,98.304,29,26
601.25,96.129,29,26
608.83,94.081,29,26
616.21,93.596,29,26
625.5,93.118,29,26
626.59,95.795,29,26
626.28,111.91,29,26
614.92,127.42,29,26
624.2,125.46,29,26
624.47,133.31,29,26
625.17,131.83,29,26
627.59,127.29,29,26
619.13,129.35,29,26
623.16,129.91,29,26
627.56,138.21,29,26
626.49,128.86,29,26
627.59,129.01,29,26
626.32,123.88,29,26
624.59,120.71,29,26
623.99,117.88,29,26
626.51,120.16,29,26
627.18,123.2,29,26
627.75,125.53,29,26
626.58,117.51,29,26
626.44,121.97,29,26
627.66,121.03,29,26
627.45,123.65,29,26
628.53,121.58,29,26
628.23,125.36,29,26
628.06,128.56,29,26
627.33,128.56,29,26
628.35,120.69,29,26
627.53,125.82,29,26
626.72,126.46,29,26
628.91,125.56,29,26
627.7,122.74,29,26
628.08,124.53,29,26
628.61,124.19,29,26
627.62,127.13,29,26
626.31,126.67,29,26
627.13,125.52,29,26
626.44,125.87,29,26
627.15,125.59,29,26
627.03,127.22,29,26
627.16,126.99,29,26
626.26,124.13,29,26
625.78,125.81,29,26
625.38,126.13,29,26
626.65,127.18,29,26
625.34,126.85,29,26
626.02,126.92,29,26
626.55,130.59,29,26
628.15,125.61,29,26
625.53,124.25,29,26
625.81,125.82,29,26
