198.5,214,34,81
196.5,214,34,81
194.5,215,34,81
194,218,33,79
192,219,33,79
190.5,224.5,32,76
189.5,229,30,73
188.5,233,30,71
189,236.5,29,70
190,235,29,69
192,236,29,69
194.5,236,28,67
195,264.5,27,66
193.5,264,28,67
195.5,263,28,67
195,263,29,69
199.5,284,28,67
198.5,269,28,67
200,254,27,65
190,262,27,65
195.5,261,28,67
201.5,261,28,67
205,259,29,69
209.5,262,28,67
212,263,29,69
226,247,29,69
229.5,249,28,67
227,230.5,27,66
232.5,231,26,63
237.5,230,26,63
242,229,25,61
246,227,25,61
250,226,25,61
253,226,25,61
257,225.5,25,60
261,226,25,61
265,227,25,61
268,228,25,61
273,230.5,25,60
277,232.5,25,60
280,235.5,25,60
283,237.5,25,60
285,238,25,61
286,239,25,61
287,238,25,61
286,236.5,25,60
286,235.5,25,60
285,234.5,25,60
284,234.5,25,60
283,233.5,25,60
282,233.5,25,60
280,232,25,61
278,230,25,61
276,229.5,25,60
276,228.5,25,60
275,229.5,25,60
274,230.5,25,60
271.5,232,24,59
268,234.5,23,56
265,237,23,55
263.5,236.5,22,54
268,229,23,55
273,228,23,55
272,227.5,23,56
267.5,228,24,57
262,226.5,25,60
256,227,25,61
249,227,25,61
243.5,226.5,26,62
240.5,226,26,63
238,225,27,65
234,224.5,27,66
228,224.5,27,66
221,225.5,27,66
214,225.5,27,66
207,226.5,27,66
197.5,226,28,67
189,226,29,69
183,227,29,69
178,226.5,29,70
173,226.5,29,70
170,226.5,29,70
167,227,29,69
164,227,29,69
161,227.5,29,70
157,227.5,29,70
153,227.5,29,70
147.5,229,30,71
143.5,229,30,73
140.5,230,30,73
138.5,230,30,73
135.5,230,30,73
133,229.5,31,74
135.5,231,30,73
137.5,232,30,71
136.5,232,30,71
135.5,232,30,71
134,234.5,29,70
129,220.5,29,70
128,219.5,29,70
130,218.5,29,70
132,216.5,29,70
133.5,213,30,71
129.5,216,30,71
132.5,211,30,73
135.5,208,30,71
138,207.5,29,70
140,207.5,29,70
143,208.5,29,70
146,209.5,29,70
150,208.5,29,70
154,207.5,29,70
157.5,204,30,71
161.5,200,30,71
165.5,197,30,71
169.5,195,30,71
173.5,193,30,71
177,193.5,29,70
180,193.5,29,70
183,195.5,29,70
186,196.5,29,70
190,195.5,29,70
192.5,193,30,71
196.5,191,30,71
199,188.5,29,70
200,186.5,29,70
203,184.5,29,70
206,184.5,29,70
209,184.5,29,70
211,186.5,29,70
214,187.5,29,70
216,187.5,29,70
219,185.5,29,70
220.5,182,30,71
222.5,179,30,71
225,176.5,29,70
226,175,29,69
228,175,29,69
229.5,175,28,67
230.5,176,28,67
231.5,177,28,67
233.5,177,28,67
234,176,29,69
235,175,29,69
236,172,29,69
237,170,29,69
238,168,29,69
240,168,29,69
241,168,29,69
243,169,29,69
246,170,29,69
248,172,29,69
251,172.5,29,70
252,171.5,29,70
254,170.5,29,70
257,168.5,29,70
259,166.5,29,70
261,164.5,29,70
262,164.5,29,70
264,164.5,29,70
265,165.5,29,70
266,164.5,29,70
268,164,29,69
270,163,29,69
272,161,29,69
274,160,29,69
276,158,29,69
279,158,29,69
282,159,29,69
284,160,29,69
287,162,29,69
290,163,29,69
292,164,29,69
294,163,29,69
295,162.5,29,70
295,161,29,69
296,160,29,69
296.5,160,28,67
295.5,160,28,67
294.5,160,28,67
293,161,29,69
292,160,29,69
292,158.5,29,70
291,156.5,29,70
290,155.5,29,70
290,153.5,29,70
289,153.5,29,70
289,153.5,29,70
289,153.5,29,70
289,155.5,29,70
289,157.5,29,70
289,160.5,29,70
287.5,162,30,71
288.5,163,30,71
289.5,162,30,73
288.5,163,30,73
287.5,163,30,73
286.5,163,30,73
286.5,163,30,73
286.5,162,30,73
287.5,161,30,73
288.5,161,30,71
289,160.5,29,70
290,161.5,29,70
290,162.5,29,70
291,164.5,29,70
293,167.5,29,70
293,169.5,29,70
294,172,29,69
294,173,29,69
293,173,29,69
292,174,29,69
291,175,29,69
289,174,29,69
288,174,29,69
287,172,29,69
286,171,29,69
286,171,29,69
286,171,29,69
285,172,29,69
285,175,29,69
284,177,29,69
283,180,29,69
281,182.5,29,70
280,183.5,29,70
278,183.5,29,70
277,184.5,29,70
276,185.5,29,70
274,186.5,29,70
272,185.5,29,70
270,184.5,29,70
267,183.5,29,70
265,182.5,29,70
263,181.5,29,70
260,182.5,29,70
258,183.5,29,70
256,185.5,29,70
254,187.5,29,70
252,191,29,69
251,194,29,69
250,195,29,69
249,195,29,69
247,195,29,69
244,196,29,69
242,197,29,69
239,198,29,69
237,197.5,29,70
234,196.5,29,70
232,195.5,29,70
230,194.5,29,70
228,192.5,29,70
226,191.5,29,70
223,192.5,29,70
221,193.5,29,70
219,194.5,29,70
217,196.5,29,70
215,200,29,69
213,203,29,69
210,204,29,69
207,204,29,69
204,204,29,69
201,204,29,69
199,205,29,69
198,205,29,69
196,204.5,29,70
195,202.5,29,70
194,201.5,29,70
194,199.5,29,70
193,197.5,29,70
193,196.5,29,70
193,196.5,29,70
193,196.5,29,70
192.5,198,30,71
192.5,200,30,71
191.5,202,30,71
191.5,202,30,71
190.5,201,30,73
188.5,200,30,73
188.5,199,30,73
188.5,197,30,73
188.5,196,30,73
187.5,196,30,73
187.5,197,30,71
187.5,198,30,71
186.5,199,30,73
185.5,202,30,73
185.5,202,30,73
186.5,201,30,73
187,199.5,31,74
188,197.5,31,74
188.5,195.5,32,76
189.5,195,32,77
189.5,194,32,77
189.5,195.5,32,76
189.5,198.5,32,76
189.5,200.5,32,76
188.5,202,32,77
186.5,203,32,77
185.5,204,32,77
184.5,206,32,77
182.5,207,32,77
180.5,208,32,77
178.5,210,32,77
175.5,211,32,77
173.5,212,32,77
171.5,212,32,77
169.5,212.5,32,76
168.5,213.5,32,76
166.5,213.5,32,76
165,214.5,31,74
163.5,214,30,73
161.5,215,30,73
159.5,217,30,73
157.5,218,30,73
155.5,219,30,73
153.5,220,30,73
153.5,220,30,73
152.5,221,30,73
151.5,222,30,73
150.5,223,30,73
149.5,224,30,73
148.5,225,30,73
146.5,225,30,71
144.5,224,30,71
143.5,225,30,71
143.5,225,30,71
143.5,226,30,71
143.5,226,30,71
143.5,225,30,71
143.5,225,30,71
143.5,225,30,71
145,225.5,29,70
145,226.5,29,70
146,227.5,29,70
148,227.5,29,70
149,228.5,29,70
151,228.5,29,70
152,228.5,29,70
154,229.5,29,70
156,228.5,29,70
158,228.5,29,70
159,228.5,29,70
160,228.5,29,70
160,228.5,29,70
160,228.5,29,70
160,228.5,29,70
159.5,229,30,71
159.5,229,30,71
158.5,229,30,71
158.5,230,30,71
157.5,231,30,71
156.5,231,30,71
155.5,231,30,73
153,231.5,31,74
153,231.5,31,74
152,231.5,31,74
151,231.5,31,74
150.5,230.5,32,76
150.5,229.5,32,76
150.5,229.5,32,76
150.5,229,32,77
150.5,228.5,32,76
151.5,229,32,77
150.5,229,32,77
151.5,229,32,77
151.5,229,32,77
152.5,230,32,77
152.5,230,32,77
153.5,230,32,77
153.5,231,32,77
154.5,230,32,77
155.5,230,32,77
155.5,231,32,77
156.5,231,32,77
156.5,231,32,77
157.5,231.5,32,76
158.5,232.5,32,76
158.5,233,32,77
159.5,233,32,77
159.5,233.5,32,76
160.5,234,32,77
160.5,234,32,77
161.5,234.5,32,76
162.5,235,32,77
162.5,235.5,32,76
163.5,236.5,32,76
163.5,236.5,32,76
164.5,237.5,32,76
165,238.5,31,74
166,238.5,31,74
166,239.5,31,74
166,239.5,31,74
166,239.5,31,74
166,240.5,31,74
166,240.5,31,74
166,241.5,31,74
166,241.5,31,74
165,242.5,31,74
165,243.5,31,74
164.5,242.5,32,76
164.5,243,32,77
164.5,242,32,77
164.5,241,32,77
165.5,240,32,77
165.5,239.5,32,76
166.5,238.5,32,76
167.5,238.5,32,76
169.5,238,32,77
170.5,237.5,32,76
171.5,237.5,32,76
172.5,237.5,32,76
173.5,237.5,32,76
174.5,237.5,32,76
175.5,237.5,32,76
176.5,237.5,32,76
177.5,237.5,32,76
177.5,237.5,32,76
178.5,237.5,32,76
178.5,237.5,32,76
178.5,237.5,32,76
179.5,237.5,32,76
179.5,237.5,32,76
179.5,237.5,32,76
180.5,238,32,77
180.5,238,32,77
180.5,238,32,77
181.5,238,32,77
182.5,238,32,77
183.5,239,32,77
184.5,239,32,77
185.5,239.5,32,76
187.5,240.5,32,76
189.5,240.5,32,76
190.5,240.5,32,76
192.5,240.5,32,76
193.5,240.5,32,76
195.5,240.5,32,76
196.5,240.5,32,76
198.5,240.5,32,76
200.5,239.5,32,76
203.5,240.5,32,76
205.5,239.5,32,76
207.5,240.5,32,76
209.5,240.5,32,76
210.5,240.5,32,76
212.5,240.5,32,76
214.5,239.5,32,76
216.5,239.5,32,76
217.5,238.5,32,76
219.5,237.5,32,76
221.5,237.5,32,76
225,237.5,31,74
227,237.5,31,74
229,238.5,31,74
231.5,239,30,73
234.5,241,30,73
237.5,242,30,73
240.5,244,30,73
244.5,246,30,73
249.5,247,30,73
253.5,247,30,71
259,246.5,29,70
265,245.5,29,70
271,244,29,69
277,244,29,69
282,244,29,69
289,244,29,69
296,244,29,69
300,244,29,69
306,242.5,29,70
312,240.5,29,70
319,239.5,29,70
324,238.5,29,70
331,239.5,29,70
336,240,29,69
343,241.5,29,70
348,242.5,29,70
352,242.5,29,70
359,242,29,69
365,242,29,69
373,241,29,69
382,239,29,69
390,240,29,69
399.5,242,28,67
406,243.5,27,66
413,245.5,27,66
418,245.5,27,66
423,245.5,27,66
427,246,27,65
430,244,27,65
432,244,27,65
433,241.5,27,66
432.5,237,28,67
431,233,29,69
429,229.5,29,70
427,225.5,29,70
424,222.5,29,70
421,219.5,29,70
418,218.5,29,70
415,216.5,29,70
411,214.5,29,70
408,211.5,29,70
404,209.5,29,70
401,206.5,29,70
398,203.5,29,70
395,202,29,69
392,202,29,69
389.5,202,28,67
387,201.5,27,66
385,203.5,27,66
382,203.5,27,66
380,203.5,27,66
379,203.5,27,66
378,203.5,27,66
377,203.5,27,66
376,202.5,27,66
375,200.5,27,66
374,199.5,27,66
372,197.5,27,66
370,195.5,27,66
368,193.5,27,66
365,192,29,69
363,190.5,29,70
362,189.5,29,70
361,189.5,29,70
360,189.5,29,70
359,190,29,69
359,192,29,69
359,192,29,69
358,193,29,69
357,192,29,69
356,191,29,69
355,191,29,69
354,190.5,29,70
352,190,29,69
352,190,29,69
352,189,29,69
351,188,29,69
350,188,29,69
348,189,29,69
347,190,29,69
346,190,29,69
345,191,29,69
345,191,29,69
345,192,29,69
344,192,29,69
343,192,29,69
342,192,29,69
342,190,29,69
340,189.5,29,70
339,188.5,29,70
337,188.5,29,70
336,187.5,29,70
334,186.5,29,70
332.5,185,30,71
331.5,182,30,73
329,181.5,31,74
329,180.5,31,74
328,180.5,31,74
327,180.5,31,74
326,181.5,31,74
326,183.5,31,74
325.5,184.5,32,76
325.5,186,32,77
324,186,33,79
323,186,33,79
321.5,187,32,77
318.5,187,32,77
316.5,187,32,77
313.5,186,32,77
312.5,186,32,77
310,184,33,79
310,183.5,33,80
309,181.5,33,80
308,179.5,33,80
308,178.5,33,80
308,177.5,33,80
308,176.5,33,80
308,176.5,33,80
307,177.5,33,80
307,178.5,33,80
308,179.5,33,80
309,180.5,33,80
310,181.5,33,80
310,181.5,33,80
309,180.5,33,80
309,179.5,33,80
308,178.5,33,80
307,177,33,79
307,175.5,33,80
306,173,33,79
307,172,33,79
307,170,33,79
307,169,33,79
308,169,33,79
308,169,33,79
309,170,33,79
309,171,33,79
310,172,33,79
311,173,33,79
312,172.5,33,80
313,170.5,33,80
316,168.5,33,80
319,166,33,79
322,166,33,79
325.5,166,32,77
327.5,166.5,32,76
329.5,167.5,32,76
331.5,167.5,32,76
333.5,168.5,32,76
336.5,168.5,32,76
338.5,167.5,32,76
340.5,167,32,77
341.5,165.5,32,76
343.5,165.5,32,76
345.5,164.5,32,76
346.5,164.5,32,76
348.5,164.5,32,76
348.5,164.5,32,76
349.5,164,32,77
348,161.5,33,80
346.5,157.5,34,82
345.5,153.5,34,82
343.5,149.5,34,82
341.5,147.5,34,82
338.5,144.5,34,82
336.5,142.5,34,82
335.5,142.5,34,82
334.5,142.5,34,82
334,142.5,35,84
334,144.5,35,84
335,146.5,35,84
335,149.5,35,84
335,153.5,35,84
335,157.5,35,84
335,161.5,35,84
335,164.5,35,84
334.5,165,36,85
334.5,165,36,85
334.5,166,36,85
336.5,165,36,85
338,165.5,35,84
339,165.5,35,84
339.5,166.5,34,82
340,167.5,33,80
341,169,33,79
341,171,33,79
341,173,33,79
341,175,33,79
339,177,33,79
340,179,33,79
340,181,33,79
341,183,33,79
342,185,33,79
343,187,33,79
343,190,33,79
344,193,33,79
344.5,197,32,77
345.5,200,32,77
346,203,33,79
346,207.5,33,80
346,209.5,33,80
347,211.5,33,80
347,213.5,33,80
349,214.5,33,80
349,215.5,33,80
348.5,216.5,34,82
349.5,217.5,34,82
349.5,219.5,34,82
349.5,220.5,34,82
350,222.5,33,80
350,223.5,33,80
350,223.5,33,80
350,223.5,33,80
350.5,221.5,34,82
351.5,219.5,34,82
351.5,218.5,34,82
350.5,218.5,34,82
351.5,216.5,34,82
352.5,216.5,34,82
353.5,215.5,34,82
353.5,215.5,34,82
353.5,215.5,34,82
353.5,215.5,34,82
353.5,215.5,34,82
353.5,215.5,34,82
353.5,214.5,34,82
352.5,214.5,34,82
352.5,213.5,34,82
353,211.5,35,84
354,210.5,35,84
353,209.5,35,84
353.5,208.5,34,82
352.5,207.5,34,82
351.5,207.5,34,82
351.5,207.5,34,82
350.5,207.5,34,82
350.5,207.5,34,82
350,208.5,33,80
350,209.5,33,80
349,209.5,33,80
349,209.5,33,80
348,209.5,33,80
348,209.5,33,80
347,208.5,33,80
347,207.5,33,80
347,207.5,33,80
347,207.5,33,80
347,207.5,33,80
348,208.5,33,80
348,209.5,33,80
348,212.5,33,80
348,215,33,79
348,215,33,79
346,215,33,79
344,213,33,79
342,211,33,79
339.5,210,32,77
338.5,208,32,77
336.5,207,32,77
334.5,205,32,77
332.5,203,32,77
330.5,201.5,32,76
329,200.5,31,74
327,197.5,31,74
