336.5,165,26,61
337,165,25,59
336,164,25,59
334.5,164,26,61
333,164,27,63
331,163.5,27,64
333,165,27,63
332,160,27,63
327,168.5,27,64
327.5,166.5,26,62
330,166.5,25,60
329,165.5,25,60
328,165,25,59
326.5,165,24,57
326.5,165.5,24,58
326.5,166,24,57
325.5,167,24,57
326.5,165,24,57
329.5,162,24,57
328.5,163.5,24,56
325.5,168.5,24,58
328.5,162.5,24,58
329,162,25,59
331.5,161.5,24,58
328,159,25,59
326,160,25,59
328,159.5,25,60
325.5,159.5,26,62
326,154,27,63
329.5,153.5,26,62
329.5,153.5,26,62
328.5,154.5,26,62
329.5,154.5,26,62
332,154.5,25,60
331,153.5,25,60
330.5,152.5,26,62
329.5,154.5,26,62
329,155,27,63
329,154,27,63
331,151.5,27,64
333,149.5,27,64
333,151,27,63
332,151,27,63
331,151.5,27,64
331,151.5,27,64
331,151.5,27,64
329.5,150.5,28,66
329.5,151.5,28,66
328.5,154,28,67
328,152.5,29,68
330,151.5,29,68
332,149.5,29,68
333.5,151,28,67
333,151.5,29,68
334.5,151,28,67
335.5,152,28,67
334.5,152,28,67
334.5,153,28,67
333.5,154,28,67
332.5,153,28,67
333.5,152,28,67
332.5,152,28,67
331.5,151,28,67
329.5,151,28,67
328.5,151,28,67
327,149.5,29,68
325,149.5,29,68
323,149.5,29,68
321,150.5,29,68
319,151.5,29,68
320,151.5,29,68
320,151.5,29,68
320,150.5,29,68
321,150.5,29,68
322,150.5,29,68
322,150.5,29,68
322,150.5,29,68
321,150.5,29,68
320,151.5,29,68
319,152.5,29,68
319,152.5,29,68
320,152.5,29,68
320,151.5,29,68
321,150.5,29,68
321,150.5,29,68
321,151.5,29,68
322,150.5,29,70
322,150.5,29,70
322,151.5,29,70
322,152.5,29,70
322,153.5,29,70
324,154.5,29,70
327,153.5,29,70
328,152.5,29,70
330,151.5,29,70
331,151.5,29,70
333,151.5,29,70
334,150.5,29,70
335,150.5,29,70
335,150.5,29,70
334,151.5,29,70
335,152.5,29,70
336,151.5,29,70
336,151.5,29,70
337,150.5,29,70
337.5,150,30,71
339.5,150,30,71
339.5,150,30,71
340.5,150,30,71
342.5,151,30,71
343.5,152,30,71
344.5,154,30,71
348,154.5,31,72
350,153.5,31,72
352,152.5,31,74
355.5,152,32,75
357.5,152,32,75
359.5,153,32,75
361.5,153,32,75
362.5,152,32,75
362.5,152,32,75
362.5,153,32,75
363.5,154,32,75
364.5,154,32,75
364.5,154,32,75
364.5,154,32,75
365.5,154,32,75
367.5,155,32,75
367.5,155,32,75
368.5,155,32,75
369.5,156,32,75
371.5,158,32,75
372.5,159,32,75
374.5,161,32,75
376.5,161,32,75
377.5,161,32,75
379.5,160,32,77
380.5,160,32,77
383.5,161,32,77
384.5,161,32,77
387.5,162,32,77
387.5,163,32,77
388.5,164,32,77
389.5,167,32,77
392.5,168,32,77
397.5,168,32,77
400.5,167,32,77
401.5,167,32,77
402.5,168,32,77
406.5,168,32,77
407.5,167,32,77
408.5,166,32,77
408.5,166,32,77
408.5,167,32,77
408.5,167,32,77
408.5,166,32,77
409.5,165,32,77
409.5,164,32,77
409.5,163,32,77
409.5,164,32,77
410.5,165,32,77
410.5,165,32,77
411.5,165,32,77
412.5,166,32,77
415.5,167,32,77
418.5,170,32,77
422.5,169,32,77
427.5,168,32,77
437.5,168,32,77
442.5,168,32,77
443.5,168,32,77
447.5,167,32,77
451.5,166,32,77
454.5,167,32,75
455.5,166,32,75
457.5,165,32,75
459.5,163,32,75
461.5,161,32,75
462.5,160,32,75
464.5,158,32,75
464.5,158,32,75
464.5,158,32,75
464.5,158,32,75
465.5,159,32,75
466.5,160,32,75
467.5,162,32,75
468.5,164,32,75
467.5,165,32,75
467.5,165,32,75
467.5,166,32,75
467.5,166,32,75
463.5,168,32,75
461.5,168,32,75
459.5,168,32,75
458,167.5,31,74
454,168.5,31,74
453,169.5,31,72
453,169.5,31,72
452,169.5,31,72
452,167.5,31,72
452,165.5,31,72
453,165.5,31,72
454,165.5,31,72
454,164.5,31,72
454,162.5,31,72
454.5,161,30,71
455,160.5,29,70
454,160.5,29,68
454,159.5,29,68
453,158.5,29,68
451,157.5,29,68
450,157.5,29,68
449,157.5,29,68
449,158.5,29,68
448,159.5,29,68
448,157.5,29,68
449,154.5,29,70
449,154.5,29,70
449,154.5,29,70
449,155.5,29,70
450,155.5,29,70
449.5,154,30,71
450.5,154,30,71
451.5,153,30,71
451.5,153,30,71
451.5,154,30,71
451.5,152,30,71
451.5,151,30,71
452.5,149,30,71
453.5,148,30,71
454,147.5,31,72
455,146.5,31,72
454,146.5,31,72
458,145.5,31,72
463,144.5,31,72
467,143.5,31,72
471,142.5,31,72
475,142.5,31,72
480.5,142,30,71
494,139.5,31,72
501,135.5,31,72
505,134.5,31,72
510,132.5,31,72
518.5,132,30,71
524.5,131,30,71
526.5,129,30,71
531.5,127,30,71
533.5,125,30,71
534.5,125,30,71
535,124.5,29,70
534,123.5,29,70
533,122.5,29,70
532,121.5,29,68
531,120.5,29,68
529,120.5,29,68
527,121.5,29,68
524,122.5,29,68
523,122.5,29,68
521,121.5,29,68
519.5,121,28,67
516.5,122,28,67
514.5,123,28,67
510,121.5,29,68
509,119.5,29,68
508,118.5,29,68
506,116.5,29,68
503.5,115,28,67
500.5,115,28,67
499.5,115,28,67
498.5,113,28,67
496.5,109,28,67
493.5,106,28,67
491.5,105,28,67
488.5,103.5,28,66
487.5,101,28,67
486.5,99,28,67
486.5,97,28,67
485.5,95,28,67
484.5,93.5,28,66
484.5,93.5,28,66
485.5,94.5,28,66
486.5,93,28,67
487.5,92,28,67
487.5,90,28,67
487.5,89,28,67
488.5,90,28,67
489.5,90,28,67
490.5,89,28,67
491.5,88,28,67
492,85.5,29,68
493.5,84,28,67
492.5,84,28,67
492.5,85.5,28,66
492.5,86.5,28,66
492.5,87,28,67
491.5,87,28,67
489.5,87,28,67
487.5,87,28,67
485.5,88,28,67
482.5,89,28,67
479.5,88,28,67
475.5,87,28,67
471.5,87,28,67
467.5,87.5,28,66
463,89.5,27,64
459,91.5,27,64
455,93.5,27,64
452,94.5,27,64
446,93.5,27,64
442,94.5,27,64
441,95.5,27,64
439,96.5,27,64
438,97.5,27,64
436,97,27,63
436,97,27,63
434,96,27,63
432,96,27,63
432,97,27,63
432,98,27,63
432,99,27,63
432,99,27,63
432,98,27,63
431,98,27,63
431,99,27,63
430,100,27,63
429,97,27,63
428,96,27,63
426,95,27,63
425,95,27,63
422,96,27,63
421,97,27,63
417,95,27,63
415,94,27,63
414,94,27,63
411,96,27,63
410,96,27,63
409,96,27,63
407,94,27,63
403,93,27,63
401,94,27,63
398,95,27,63
396,95,27,63
394,94,27,63
392.5,93.5,26,62
387.5,94.5,26,62
382,95.5,25,60
379,94.5,25,60
375,93,25,59
375,93,25,59
375,93,25,59
