205,151.5,17,50
204,150.5,17,50
203,150.5,17,50
201.5,150,16,49
200.5,150,16,49
199,149.5,17,50
198,150,17,51
195,148.5,17,50
194,148.5,17,50
193.5,148.5,16,48
190.5,147,16,49
189,145.5,17,50
189.5,146,16,49
187,144.5,17,50
185,143.5,17,50
184,143.5,17,50
183,143.5,17,50
182.5,143,16,49
181.5,142,16,49
180.5,141,16,49
179.5,140,16,49
178.5,139,16,49
177.5,138.5,16,48
177.5,138.5,16,48
176.5,138.5,16,48
175.5,138.5,16,48
175.5,137.5,16,48
173.5,138,16,47
173,138.5,15,46
171,136.5,15,46
169,135.5,15,46
169,134.5,15,46
167.5,133,16,47
167.5,132,16,47
166.5,132,16,47
165.5,132,16,47
166,132.5,15,46
164.5,132,16,47
164.5,130,16,47
165,129.5,15,46
164,127.5,15,46
163,127.5,15,46
163,126.5,15,46
162,125.5,15,46
162,126,15,45
161,126,15,45
161,126.5,15,46
159,126,15,45
158,125,15,45
157,124,15,45
156,123,15,45
154,122,15,45
152,120,15,45
151,120,15,45
150,120,15,45
149,120,15,45
148,121,15,45
147,121,15,45
146,121,15,45
144,121,15,45
142,121,15,45
139,118,15,45
138,117.5,15,44
137,117.5,15,44
136,117.5,15,44
135,117.5,15,44
133,117.5,15,44
132,117.5,15,44
129,116.5,15,44
128,115.5,15,44
126,113.5,15,44
125,112.5,15,44
124,112.5,15,44
123,112.5,15,44
122,112.5,15,44
121,111.5,15,44
118,110.5,15,44
118,110.5,15,44
116,109.5,15,44
116,109.5,15,44
114,106.5,15,44
113,106.5,15,44
112.5,106,14,43
109.5,106,14,43
108.5,106,14,43
105.5,105,14,43
104.5,105,14,43
102.5,105,14,43
101.5,104.5,14,42
99.5,103.5,14,42
97.5,102.5,14,42
97.5,102.5,14,42
94.5,102.5,14,42
92.5,101.5,14,42
91.5,101.5,14,42
90.5,102,14,43
87.5,101.5,14,42
87.5,101.5,14,42
84.5,98.5,14,42
83.5,98.5,14,42
82.5,98.5,14,42
80.5,98.5,14,42
79.5,98.5,14,42
77.5,98.5,14,42
76.5,98.5,14,42
74.5,98.5,14,42
73.5,97.5,14,42
71.5,96.5,14,42
70.5,95.5,14,42
67.5,95.5,14,42
67.5,95.5,14,42
65.5,95.5,14,42
64.5,95.5,14,42
63.5,95.5,14,42
61.5,94.5,14,42
60.5,93.5,14,42
58.5,92.5,14,42
57.5,92.5,14,42
57.5,91.5,14,42
56.5,91.5,14,42
