146.5,150,32,73
147.5,150,32,73
147.5,150,32,73
147.5,150,32,73
148.5,150,32,73
148.5,150,32,73
148.5,150,32,73
148.5,150,32,73
147.5,151,32,73
147.5,151,32,73
147.5,151,32,73
148.5,151,32,73
148.5,151,32,73
148.5,151,32,73
149.5,151,32,73
149.5,151,32,73
149.5,150,32,73
149.5,150,32,73
149.5,150,32,73
149.5,151,32,73
148.5,151,32,73
148.5,150,32,73
148.5,150,32,73
149.5,150,32,73
150.5,150,32,73
150.5,150,32,73
150.5,151,32,73
150.5,150,32,73
150.5,150,32,73
151.5,150,32,73
151.5,151,32,73
151.5,151,32,73
151.5,151,32,73
151.5,151,32,73
150.5,151,32,73
150.5,151,32,73
149.5,152,32,73
148.5,152,32,73
148.5,153,32,73
148.5,153,32,73
147.5,153,32,73
147.5,153,32,73
147.5,153,32,73
147.5,152,32,73
147.5,152,32,73
147.5,152,32,73
146.5,152,32,73
146.5,152,32,73
146.5,152,32,73
146.5,152,32,73
145.5,153,32,73
144.5,153,32,73
144.5,153,32,73
144.5,153,32,73
144.5,152,32,73
144.5,153,32,73
144.5,153,32,73
144.5,153,32,73
144.5,153,32,73
144.5,154,32,73
144.5,154,32,73
145.5,154,32,73
145.5,154,32,73
146.5,154,32,73
146.5,154,32,73
146.5,154,32,73
146.5,154,32,73
146.5,154,32,73
146.5,154,32,73
146.5,154,32,73
146.5,154,32,73
146.5,154,32,73
146.5,154,32,73
146.5,154,32,73
146.5,154,32,73
146.5,153,32,73
146.5,153,32,73
146.5,153,32,73
146.5,153,32,73
146.5,153,32,73
145.5,153,32,73
145.5,153,32,73
146.5,153,32,73
146.5,152,32,73
147.5,152,32,73
148.5,153,32,73
148.5,153,32,73
148.5,153,32,73
148.5,152,32,73
149.5,152,32,73
149.5,153,32,73
149.5,153,32,73
149.5,154,32,73
149.5,154,32,73
150.5,155,32,73
150.5,155,32,73
150.5,155,32,73
151.5,156,32,73
151.5,156,32,73
152.5,156,32,73
152.5,156,32,73
152.5,156,32,73
152.5,156,32,73
152.5,155,32,73
152.5,155,32,73
152.5,155,32,73
152.5,155,32,73
152.5,155,32,73
152.5,154.5,32,74
152.5,154,32,73
153.5,155,32,73
153.5,155,32,73
153.5,155,32,73
153.5,155,32,73
153.5,155,32,73
154.5,155,32,73
154.5,155,32,73
155.5,155,32,73
155.5,154,32,73
156.5,154,32,73
155.5,154,32,73
155.5,154,32,73
155.5,154,32,73
155.5,154,32,73
154.5,154,32,73
154.5,154,32,73
154.5,154,32,73
154.5,153,32,73
154.5,153,32,73
154.5,153,32,73
153.5,154,32,73
153.5,154,32,73
153.5,154,32,73
153.5,153,32,73
153.5,153,32,73
153.5,152,32,73
153.5,152,32,73
153.5,152,32,73
153.5,152,32,73
153.5,152,32,73
153.5,152,32,73
153.5,151,32,73
152.5,152,32,73
152.5,152,32,73
152.5,152,32,73
151.5,151,32,73
151.5,151,32,73
150.5,152,32,73
150.5,152,32,73
150.5,152,32,73
149.5,151,32,73
149.5,151,32,73
149.5,151,32,73
149.5,151,32,73
149.5,151,32,73
148.5,151,32,73
148.5,151,32,73
148.5,151,32,73
148.5,151,32,73
147.5,151,32,73
147.5,152,32,73
147.5,152,32,73
146.5,152,32,73
146.5,152,32,73
146.5,152,32,73
146.5,152,32,73
146.5,152,32,73
146.5,152,32,73
146.5,152,32,73
146.5,152,32,73
146.5,152,32,73
146.5,152,32,73
146.5,152,32,73
146.5,152,32,73
146.5,152,32,73
146.5,152,32,73
145.5,151,32,73
145.5,151,32,73
145.5,151,32,73
145.5,151,32,73
145.5,151,32,73
145.5,151,32,73
145.5,151,32,73
146.5,151,32,73
146.5,151,32,73
147.5,151,32,73
148.5,151,32,73
150.5,150,32,73
152.5,150,32,73
154.5,149,32,73
157.5,148,32,73
160.5,148,32,73
163.5,147,32,73
166.5,146,32,73
168.5,145,32,73
170.5,144,32,73
172.5,143,32,73
173.5,142,32,73
173.5,141,32,73
172.5,140,32,73
171.5,139,32,73
170.5,138.5,32,74
167.5,137.5,32,74
163.5,137.5,32,74
159.5,137.5,32,74
155,136,33,75
150,135,33,75
145,135,33,75
139,135,33,75
134,134,33,75
129,134,33,75
124,134,33,75
120,134,33,75
117,134,33,75
114,135,33,75
111,136,33,75
109,138,33,75
108,140,33,75
106,141,33,75
106,143,33,75
105,145,33,75
104,147,33,75
104,149,33,75
105,151,33,75
106,153,33,75
107.5,154.5,32,74
108,157,33,75
109,158,33,75
110,159,33,75
111,160,33,75
112.5,160.5,32,74
112,162,33,75
112,162,33,75
112.5,162.5,32,74
110.5,163.5,32,74
109.5,163.5,32,74
107.5,163.5,32,74
106.5,162.5,32,74
105.5,161.5,32,74
103.5,162.5,32,74
102.5,162.5,32,74
100.5,162.5,32,74
97,162,33,75
95,161,33,75
92,160,33,75
88,160,33,75
85,159,33,75
82,158,33,75
79,157,33,75
76,156,33,75
72,154,33,77
68.5,153,34,79
65,151.5,35,80
63,149.5,35,80
60,148.5,35,80
58,146.5,35,80
56,145.5,35,80
53.5,143.5,36,82
52.5,142,36,83
51.5,141,36,83
50.5,141,36,83
49,139,37,85
50,139,37,85
50,139,37,85
50.5,138,38,87
52.5,138,38,87
54,137.5,39,88
56,137.5,39,88
61,137.5,39,88
65,136.5,39,88
69,136.5,39,88
74,135.5,39,90
78,135.5,39,90
83,135.5,39,90
88,135.5,39,90
94,136.5,39,90
99,136.5,39,90
104,136.5,39,90
109,136.5,39,90
113,136.5,39,90
117,137.5,39,90
121,138.5,39,88
125,138.5,39,88
127,139.5,39,88
129,140.5,39,88
133,141.5,39,88
135,142.5,39,88
137.5,143,38,87
141.5,144,38,87
142.5,145,38,87
143.5,146,38,87
145,147,37,85
147.5,148,36,83
147.5,149,36,83
148.5,149,36,83
149.5,150,36,83
149.5,151,36,83
149.5,152.5,36,82
149.5,153.5,36,82
149.5,155.5,36,82
148.5,156.5,36,82
149,158.5,35,80
148,159.5,35,80
147.5,162,34,79
145.5,164,34,79
143.5,165,34,79
140.5,165,34,79
137.5,166,34,79
135,168,33,77
132,169,33,77
129,170,33,77
125,171,33,75
123,172,33,75
121,171,33,75
119,169,33,75
116.5,168.5,32,74
112.5,168.5,32,74
108.5,168.5,32,74
104.5,168.5,32,74
100.5,168.5,32,74
97.5,167.5,32,74
93,167,33,75
90,165,33,75
87,164,33,75
83,164,33,75
80,162,33,75
76,161,33,75
73,160,33,75
69,158,33,75
66,156,33,75
64,155,33,75
62,154,33,75
61,153,33,75
60,150,33,77
58.5,148,34,79
58.5,146,34,79
59.5,145,34,79
61,143.5,35,80
63,141.5,35,80
65,140.5,35,80
68,138.5,35,80
71,137.5,35,80
75,136.5,35,80
77.5,134.5,36,82
82.5,133.5,36,82
87.5,132.5,36,82
93.5,131.5,36,82
99.5,131,36,83
104.5,130,36,83
110.5,129,36,83
116.5,128.5,36,82
123.5,128.5,36,82
129.5,128.5,36,82
136.5,129.5,36,82
142.5,129.5,36,82
148.5,129.5,36,82
155.5,129.5,36,82
161.5,129.5,36,82
168.5,130.5,36,82
175.5,130.5,36,82
182.5,130.5,36,82
188.5,129.5,36,82
195.5,129.5,36,82
201.5,130.5,36,82
206.5,130.5,36,82
211.5,131.5,36,82
214.5,132.5,36,82
220,135.5,35,80
222,136.5,35,80
225.5,138,34,79
226.5,140,34,79
227.5,142,34,79
228.5,143,34,79
228.5,144,34,79
227.5,146,34,79
224.5,148,34,79
221.5,149,34,79
217.5,150,34,79
212.5,151,34,79
208.5,152,34,79
203.5,153,34,79
197.5,154,34,79
192.5,155,34,79
186.5,156,34,79
181,158,33,77
175,160,33,77
169,161,33,77
163,161,33,77
157,162,33,77
151,162,33,77
144,162,33,77
138,161,33,77
131,161,33,77
125,161,33,77
119,160,33,77
113,159,33,77
108,157,33,77
103,155,33,77
98,152,33,77
94,149,33,77
90,146,33,77
86,142,33,77
82,138,33,77
80,135,33,77
80,131,33,77
81,127,33,77
83,124,33,77
86,121,33,77
89,117,33,77
94,114,33,77
99,111,33,77
104,107,33,77
109,105,33,77
115,102,33,77
120,99,33,77
125,96,33,77
130,93,33,77
134,90,33,77
138,87,33,77
142,84,33,77
145,82,33,77
148,79,33,77
150,76,33,77
152,73,33,77
154,70,33,77
156,67,33,77
155.5,63,34,79
155.5,60,34,79
155.5,57,34,79
154.5,55,34,79
152.5,53,34,79
149.5,50,34,79
146.5,48,34,79
143.5,47,34,79
140.5,46,34,79
137.5,46,34,79
134.5,46,34,79
130,46.5,35,80
127,46.5,35,80
124,48.5,35,80
121,50.5,35,80
118,52.5,35,80
115,55.5,35,80
112,58.5,35,80
109.5,62,34,79
106.5,66,34,79
104.5,69,34,79
102.5,73,34,79
99.5,77,34,79
98.5,81,34,79
96.5,85,34,79
95.5,90,34,79
94.5,94,34,79
93.5,98,34,79
93.5,102,34,79
92.5,106,34,79
92.5,110,34,79
93.5,115,34,79
93.5,120,34,79
93.5,125,34,79
94.5,129,34,79
96.5,132,34,79
98.5,135,34,79
100.5,138,34,79
102.5,140,34,79
104.5,142,34,79
105.5,143,34,79
106.5,145,34,79
107.5,148,34,79
108.5,150,34,79
108.5,152,34,79
109.5,154,34,79
110.5,155,34,79
111,157,33,77
111,158,33,77
112,158,33,77
113,159,33,77
113,160,33,77
112,161,33,77
112,161,33,77
112,161,33,77
112,162,33,77
112,162,33,77
112,162,33,77
112,162,33,77
111.5,161,34,79
111.5,160,34,79
111.5,160,34,79
111.5,159,34,79
110,158.5,35,80
109,157.5,35,80
108,157.5,35,80
107,156.5,35,80
106,155.5,35,80
106,154.5,35,80
104.5,152.5,36,82
104.5,151,36,83
103.5,149,36,83
102.5,148,36,83
101.5,147,36,83
100,146,37,85
100,144,37,85
98.5,142,38,87
97,139.5,39,88
96,136.5,39,90
95,133.5,39,88
95,131.5,39,90
93.5,128.5,40,92
92.5,124.5,40,92
91.5,121.5,40,92
91.5,118.5,40,92
91.5,115.5,40,92
92,113.5,41,94
94.5,109.5,42,96
95,107.5,43,98
99,106.5,43,98
103,105.5,43,98
108,103.5,43,100
115,103.5,43,100
121.5,103.5,44,102
129.5,106.5,44,102
137.5,107.5,44,102
145.5,111.5,44,102
152.5,114.5,44,102
160.5,114.5,44,102
168.5,114.5,44,102
174.5,114.5,44,102
180.5,117.5,44,102
185,119.5,43,100
188,121.5,43,98
189,124.5,43,98
190,125.5,43,98
191.5,127.5,42,96
191.5,130.5,42,96
191.5,131.5,42,96
191.5,132.5,42,96
191,134.5,41,94
188,137.5,41,94
187,140.5,41,94
184.5,142.5,40,92
180.5,145.5,40,92
177.5,148.5,40,92
173.5,151.5,40,92
170,153.5,39,90
168,156.5,39,88
164,160.5,39,88
163.5,163,38,87
159.5,167,38,87
158,167,37,85
157,166,37,85
152,170,37,85
150,174,37,85
146,176,37,85
146,176,37,85
147,176,37,85
146,177,37,85
144.5,179,36,83
139.5,180.5,36,82
136.5,179,36,83
131.5,177,36,83
126.5,176.5,36,82
124.5,177.5,36,82
122.5,178.5,36,82
121,180.5,35,80
120,180.5,35,80
118,178.5,35,80
117,178.5,35,80
116,178.5,35,80
117.5,179,34,79
118.5,180,34,79
120.5,180,34,79
123.5,180,34,79
125.5,180,34,79
127.5,181,34,79
129.5,182,34,79
131.5,184,34,79
133.5,186,34,79
135.5,187,34,79
137.5,188,34,79
140.5,189,34,79
143.5,189,34,79
146.5,189,34,79
150.5,189,34,79
153.5,188,34,79
157.5,187,34,79
162.5,187,34,79
166.5,187,34,79
171.5,187,34,79
175.5,186,34,79
179.5,184,34,79
182.5,182,34,79
185.5,179,34,79
186.5,175,34,79
187.5,172,34,79
188,169.5,35,80
188,167.5,35,80
187,166.5,35,80
186,164.5,35,80
185,162.5,35,80
185,160.5,35,80
185,159.5,35,80
184,158.5,35,80
181.5,157.5,36,82
179.5,157.5,36,82
176.5,157.5,36,82
173.5,157,36,83
168.5,157.5,36,82
165.5,158.5,36,82
162.5,158.5,36,82
157.5,159.5,36,82
154.5,160.5,36,82
151.5,161.5,36,82
148.5,163.5,36,82
145.5,164.5,36,82
144.5,165.5,36,82
143.5,167.5,36,82
143.5,170.5,36,82
144.5,172.5,36,82
145.5,175.5,36,82
147,178.5,35,80
148,181.5,35,80
149,182.5,35,80
151,183.5,35,80
152,185.5,35,80
153,186.5,35,80
155,186.5,35,80
157,186.5,35,80
159,186.5,35,80
161,187.5,35,80
164,187.5,35,80
166,187.5,35,80
169,187.5,35,80
171,187.5,35,80
174,186.5,35,80
177,185.5,35,80
179,184.5,35,80
182,183.5,35,80
186,182.5,35,80
189,181.5,35,80
192,181.5,35,80
195,180.5,35,80
198,179.5,35,80
200,177.5,35,80
203,175.5,35,80
206,173.5,35,80
209,173.5,35,80
212,172.5,35,80
215,170.5,35,80
221,167.5,35,80
221.5,164.5,36,82
222.5,163.5,36,82
224.5,163,36,83
224.5,162,36,83
225.5,161,36,83
226,160,37,85
228,159,37,85
229,158,37,85
230,157,37,85
231.5,156,38,87
232,154.5,39,88
233,152.5,39,88
234,151.5,39,88
236,149.5,39,88
237,148.5,39,88
238,147.5,39,88
239,145.5,39,90
239,144.5,39,90
239,143.5,39,90
239,142.5,39,90
239,140.5,39,90
238,139.5,39,90
237,138.5,39,90
234.5,136.5,40,92
231,134.5,41,94
228,134.5,41,94
225,133.5,41,94
222,130.5,41,94
218,130.5,41,94
214,129.5,41,94
209.5,127.5,42,96
205.5,126.5,42,96
201.5,123.5,42,96
196.5,123.5,42,96
189.5,123.5,42,96
185.5,123.5,42,96
180.5,122.5,42,96
173.5,122.5,42,96
169.5,122.5,42,96
164.5,121.5,42,96
160.5,121.5,42,96
155.5,120.5,42,96
150.5,120.5,42,96
145.5,119.5,42,96
139,120.5,41,94
135,120.5,41,94
131,120.5,41,94
127,119.5,41,94
124.5,120.5,40,92
120.5,120.5,40,92
120,121.5,39,90
118,122.5,39,88
116.5,123,38,87
115.5,124,38,87
114.5,125,38,87
114,127,37,85
114,129,37,85
114.5,131,36,83
114.5,133,36,83
115.5,135,36,83
116.5,136.5,36,82
118.5,138.5,36,82
120.5,140.5,36,82
122.5,143.5,36,82
124.5,146.5,36,82
126.5,148.5,36,82
129.5,151.5,36,82
132.5,154.5,36,82
135.5,157.5,36,82
138.5,159.5,36,82
140.5,161.5,36,82
143.5,163.5,36,82
146.5,164.5,36,82
148.5,164.5,36,82
150.5,164.5,36,82
152.5,162.5,36,82
155.5,161.5,36,82
158.5,159.5,36,82
160.5,157.5,36,82
163,153.5,35,80
165,150.5,35,80
167,146.5,35,80
170,142.5,35,80
172,138.5,35,80
174,132.5,35,80
175,128.5,35,80
177,121.5,35,80
177,117.5,35,80
178,111.5,35,80
179,107.5,35,80
179,101.5,35,80
179,95.5,35,80
179,89.5,35,80
178,83.5,35,80
177,77.5,35,80
176,73.5,35,80
174,69.5,35,80
172,63.5,35,80
170,60.5,35,80
167,56.5,35,80
164,54.5,35,80
160,52.5,35,80
156,51.5,35,80
152,50.5,35,80
148,50.5,35,80
142,51.5,35,80
139,52.5,35,80
135,53.5,35,80
129,54.5,35,80
125,56.5,35,80
120.5,57.5,36,82
114.5,60,36,83
111.5,63,36,83
106,65,37,85
104.5,68,38,87
102,72.5,39,88
100,76.5,39,88
99,81.5,39,88
98,86.5,39,88
98,90.5,39,90
97,96.5,39,90
97,101.5,39,90
97.5,106.5,40,92
97.5,112.5,40,92
98.5,117.5,40,92
99.5,123.5,40,92
100,127.5,41,94
100.5,131.5,42,96
101.5,135.5,42,96
104.5,139.5,42,96
105.5,143.5,42,96
108.5,146.5,42,96
111.5,150.5,42,96
114.5,154.5,42,96
117.5,158.5,42,96
121.5,162.5,42,96
124.5,165.5,42,96
128.5,168.5,42,96
132.5,171.5,42,96
137,173.5,41,94
140,176.5,41,94
144,177.5,41,94
148,178.5,41,94
152.5,180.5,40,92
156.5,180.5,40,92
160.5,180.5,40,92
164.5,179.5,40,92
168.5,178.5,40,92
172.5,177.5,40,92
176,175.5,39,90
178,176.5,39,88
182,174.5,39,88
183.5,173,38,87
187.5,171,38,87
188.5,167,38,87
189.5,165,38,87
190.5,160,38,87
191,157,37,85
191,156,37,85
191,154,37,85
191,152,37,85
191,147,37,85
192.5,143,36,83
192.5,138,36,83
192.5,133,36,83
192.5,130,36,83
191.5,125,36,83
190.5,122,36,83
188.5,119,36,83
185.5,116,36,83
182.5,111,36,83
179.5,109,36,83
176.5,107,36,83
171.5,106,36,83
169,105,37,85
164.5,105,38,87
162.5,107,38,87
160,110.5,39,88
158,114.5,39,88
157,119.5,39,90
156,125.5,39,90
155.5,129.5,40,92
154.5,133.5,40,92
154.5,134.5,40,92
153.5,131.5,40,92
153.5,126.5,40,92
153,119.5,41,94
153,111.5,41,94
153,105.5,41,94
153,99.5,41,94
152,95.5,41,94
148.5,93.5,42,96
145.5,93.5,42,96
142,95.5,43,98
139,98.5,43,98
136,103.5,43,98
133,108.5,43,98
132,113.5,43,98
129,117.5,43,100
128,120.5,43,100
128,121.5,43,100
129,121.5,43,100
128.5,119.5,44,102
128.5,115.5,44,102
128.5,109.5,44,102
128.5,103.5,44,102
127.5,97.5,44,102
126.5,93.5,44,102
125.5,89.5,44,102
124,87.5,45,104
123.5,85.5,46,106
122.5,85.5,46,106
122.5,88.5,46,106
123.5,92.5,46,106
124.5,98.5,46,106
125,103.5,47,108
128,109.5,47,108
131,113.5,47,108
134,117.5,47,108
137,118.5,47,108
139.5,116.5,48,110
142.5,113.5,48,110
147.5,107.5,48,110
150.5,99.5,48,110
153.5,91.5,48,110
156,82.5,49,112
158.5,73,50,115
160,66,51,117
162,61,51,117
162,58,51,117
159.5,55,52,119
159.5,57,52,119
157.5,59,52,119
157,62.5,53,122
154.5,68.5,54,124
154.5,73.5,54,124
154,77,55,127
155.5,81,56,129
157.5,83,56,129
159.5,83,56,129
159,79.5,57,132
162,76.5,59,134
164,69.5,59,134
164,63.5,59,134
163.5,55,60,137
163.5,49,60,137
161,45.5,61,140
156.5,44,62,143
154.5,46,62,143
152.5,52,62,143
152.5,58,62,143
152,67,63,145
152,77,63,145
151,83.5,65,148
151,89.5,65,148
153,93.5,65,148
155,91.5,65,148
157,89.5,65,148
158.5,82,66,151
159,75.5,65,148
160.5,66,66,151
158.5,60,66,151
158,50.5,67,154
154,44.5,67,154
149,38.5,69,158
146.5,37,70,161
141.5,35.5,72,164
139.5,37.5,72,164
137,41,73,167
137,46,73,167
136.5,51,74,171
136.5,58,74,171
138.5,63,74,171
140.5,65,74,171
140.5,70,74,171
142.5,72,74,171
144.5,74,74,171
146.5,76,74,171
151.5,76,74,171
154,78,73,167
161,76,73,167
168,74,73,167
175.5,70.5,72,164
183.5,67,70,161
193,64.5,69,158
202,60.5,69,158
212,58.5,67,154
218.5,56,66,151
225,57.5,65,148
232,57,63,145
234,59,63,145
236.5,60,62,143
234.5,64,62,143
233,67.5,61,140
229.5,71,60,137
226,74.5,59,134
221,79.5,57,132
216,83.5,57,132
209,87.5,57,132
202,91.5,57,132
193.5,95,56,129
187,100,55,127
180,103,55,127
173,108,55,127
166.5,112.5,54,124
161.5,117.5,54,124
156.5,122.5,54,124
152,126.5,53,122
149,131.5,53,122
146.5,136,52,119
146.5,139,52,119
147,143,51,117
147,148,51,117
149,150,51,117
151,152,51,117
153.5,155,50,115
156.5,155,50,115
159.5,157,50,115
163,156.5,49,112
166,156.5,49,112
169,154.5,49,112
172.5,153.5,48,110
176,151.5,47,108
179,150.5,47,108
182,147.5,47,108
185,144.5,47,108
186,140.5,47,108
187,137.5,47,108
188,133.5,47,108
188,129.5,47,108
188,125.5,47,108
187,121.5,47,108
184,117.5,47,108
181.5,112.5,46,106
178.5,109.5,46,106
174.5,105.5,46,106
170.5,102.5,46,106
166.5,99.5,46,106
163,97.5,45,104
159,96.5,45,104
155,96.5,45,104
152.5,97.5,44,102
149.5,98.5,44,102
148.5,99.5,44,102
146,101.5,43,100
146,102.5,43,100
145,104.5,43,98
145,107.5,43,98
146,108.5,43,98
147.5,110.5,42,96
148.5,113.5,42,96
149.5,114.5,42,96
151,118.5,41,94
154,118.5,41,94
157,119.5,41,94
160.5,121.5,40,92
163.5,122.5,40,92
168,124.5,39,90
172,125.5,39,90
176,126.5,39,90
181,127.5,39,90
186,128.5,39,88
192,127.5,39,88
198,127.5,39,88
204.5,128,38,87
210.5,129,38,87
215.5,129,38,87
221.5,128,38,87
227.5,127,38,87
233,127,37,85
237,127,37,85
239,126,37,85
240,125,37,85
241,125,37,85
241,125,37,85
240,125,37,85
238,125,37,85
234,125,37,85
230,125,37,85
226,125,37,85
221,125,37,85
216,124,37,85
210,124,37,85
205,124,37,85
199,124,37,85
193,124,37,85
187,124,37,85
181,124,37,85
175,124,37,85
169,125,37,85
163,126,37,85
157,127,37,85
150.5,127,38,87
145.5,128,38,87
139.5,129,38,87
134.5,131,38,87
130.5,132,38,87
125.5,134,38,87
121.5,135,38,87
117.5,137,38,87
115.5,139,38,87
111.5,141,38,87
109.5,143,38,87
107.5,145,38,87
106.5,147,38,87
106.5,149,38,87
105.5,151,38,87
106.5,153,38,87
108,155,37,85
109,156,37,85
111,158,37,85
115,159,37,85
117.5,161,36,83
120.5,163,36,83
125.5,164,36,83
128.5,166,36,83
134.5,167,36,83
139.5,169,36,83
144.5,170.5,36,82
150.5,172.5,36,82
156.5,173.5,36,82
161.5,173.5,36,82
166.5,173.5,36,82
171.5,173.5,36,82
176.5,173.5,36,82
182,173.5,35,80
186.5,173,34,79
191.5,173,34,79
196.5,172,34,79
202.5,171,34,79
208.5,170,34,79
216.5,169,34,79
221.5,168,34,79
227,167,33,77
233,165,33,77
239,164,33,77
244,163,33,75
250,161,33,75
255,160,33,75
259,158,33,75
262,157,33,75
266,155,33,75
268,153,33,75
270,151,33,77
272,150,33,77
274,148,33,77
275,146,33,77
275,144,33,77
276,142,33,77
276,140,33,77
275,139,33,77
274,137,33,77
272,135,33,77
270,134,33,77
267,133,33,77
263.5,132,34,79
259.5,131,34,79
255,130.5,35,80
252,129.5,35,80
248,129.5,35,80
244,129.5,35,80
238,129.5,35,80
235,129.5,35,80
231,129.5,35,80
224.5,128.5,36,82
219.5,129.5,36,82
213.5,130.5,36,82
207.5,130.5,36,82
202.5,131,36,83
196.5,130,36,83
190.5,130,36,83
185.5,130,36,83
179.5,130,36,83
174.5,131,36,83
169.5,131,36,83
164.5,131,36,83
159.5,132,36,83
156.5,132,36,83
151.5,133.5,36,82
148.5,135.5,36,82
145.5,136.5,36,82
142.5,138.5,36,82
139.5,139.5,36,82
136.5,141.5,36,82
134.5,143.5,36,82
132.5,144.5,36,82
131.5,146.5,36,82
130.5,148.5,36,82
129.5,150.5,36,82
129.5,153.5,36,82
128.5,155.5,36,82
129.5,158.5,36,82
130.5,159.5,36,82
130.5,161.5,36,82
132.5,163.5,36,82
134.5,164.5,36,82
137.5,166.5,36,82
140.5,167.5,36,82
143.5,167.5,36,82
148.5,168.5,36,82
153.5,168.5,36,82
158.5,169.5,36,82
161.5,169.5,36,82
167,169.5,35,80
170,169.5,35,80
173,169.5,35,80
176,168.5,35,80
179,168.5,35,80
182,167.5,35,80
185,166.5,35,80
188,165.5,35,80
191,163.5,35,80
194,161.5,35,80
196.5,160,34,79
198.5,158,34,79
201.5,156,34,79
203.5,153,34,79
205.5,150,34,79
207.5,147,34,79
209.5,144,34,79
211.5,140,34,79
212.5,136,34,79
213.5,132,34,79
214.5,127,34,79
215.5,123,34,79
215.5,118,34,79
215.5,113,34,79
215.5,108,34,79
214.5,103,34,79
212.5,98,34,79
211.5,93,34,79
209.5,89,34,79
207.5,84,34,79
205.5,80,34,79
202.5,76,34,79
198.5,72,34,79
194.5,69,34,79
189,66.5,35,80
185,64.5,35,80
179,63.5,35,80
173,63.5,35,80
167,64.5,35,80
161,66.5,35,80
155,69.5,35,80
149,72.5,35,80
142.5,77.5,36,82
136.5,83,36,83
131.5,88,36,83
126.5,94,36,83
121.5,100,36,83
118.5,106,36,83
115.5,112,36,83
112,117,37,85
110,123,37,85
108,129,37,85
107,134,37,85
106,139,37,85
106,144,37,85
107,149,37,85
107.5,152,38,87
109.5,156,38,87
111.5,158,38,87
115.5,162,38,87
117.5,163,38,87
121.5,165,38,87
123.5,166,38,87
127.5,168,38,87
129.5,170,38,87
134.5,171,38,87
136.5,172,38,87
140.5,173,38,87
144.5,173,38,87
146.5,174,38,87
150.5,175,38,87
152,175.5,39,88
156,175.5,39,88
158,176.5,39,88
160,176.5,39,90
162,176.5,39,90
163.5,176.5,40,92
164.5,176.5,40,92
165.5,176.5,40,92
166,175.5,41,94
166,174.5,41,94
165.5,172.5,42,96
165.5,171.5,42,96
166,169.5,43,98
166,166.5,43,98
166,163.5,43,98
165,160.5,43,98
165,156.5,43,100
164,152.5,43,100
164,148.5,43,100
164,143.5,43,100
164,138.5,43,100
164,133.5,43,100
165,128.5,43,100
165,123.5,43,100
165,118.5,43,100
166,113.5,43,100
166,108.5,43,100
167,104.5,43,100
168,100.5,43,100
168,96.5,43,100
169,93.5,43,100
169,90.5,43,100
169,88.5,43,98
170,88.5,43,98
171,87.5,43,98
171,86.5,43,98
171,86.5,43,98
172,87.5,43,98
172.5,88.5,42,96
172.5,89.5,42,96
173,91.5,41,94
173,92.5,41,94
173,95.5,41,94
172.5,96.5,40,92
171.5,97.5,40,92
170.5,98.5,40,92
170,100.5,39,90
169,102.5,39,88
169,104.5,39,88
168.5,107,38,87
167,110.5,39,88
166,111.5,39,88
165,113.5,39,88
164,115.5,39,88
163,117.5,39,88
162,121.5,39,88
162.5,123,38,87
161,126.5,39,88
160,127.5,39,88
160,129.5,39,88
159.5,132,38,87
159,135.5,39,88
159,137.5,39,88
160,139.5,39,88
160.5,142,38,87
160,145.5,39,88
161,146.5,39,88
162,148.5,39,88
163,152.5,39,88
164,153.5,39,88
165,155.5,39,88
165,156.5,39,88
166,157.5,39,88
167,158.5,39,88
168,158.5,39,88
169,158.5,39,88
170,157.5,39,90
171,157.5,39,90
172,156.5,39,90
173,155.5,39,90
175,155.5,39,90
177,154.5,39,90
181,153.5,39,90
183,151.5,39,90
187,150.5,39,90
188.5,147.5,40,92
192.5,144.5,40,92
196.5,143.5,40,92
200,141.5,39,90
202,140.5,39,90
205.5,137.5,40,92
208.5,136.5,40,92
212.5,135.5,40,92
215.5,135.5,40,92
218.5,134.5,40,92
221.5,133.5,40,92
224.5,132.5,40,92
227.5,132.5,40,92
231.5,132.5,40,92
234.5,132.5,40,92
235.5,132.5,40,92
238.5,131.5,40,92
240,132.5,39,90
242,131.5,39,90
244,131.5,39,90
246,130.5,39,90
247,129.5,39,90
246,130.5,39,90
245,131.5,39,88
244,131.5,39,88
243,131.5,39,88
241,131.5,39,88
239,132.5,39,88
237.5,133,38,87
235,133.5,39,88
233,133.5,39,88
231,133.5,39,88
229,133.5,39,88
228,133.5,39,88
223,134.5,39,88
221,135.5,39,88
217,136.5,39,88
213.5,139,38,87
211.5,141,38,87
206.5,142,38,87
202.5,143,38,87
198.5,143,38,87
194.5,144,38,87
189.5,145,38,87
185.5,145,38,87
183.5,145,38,87
179.5,146,38,87
177.5,146,38,87
175.5,147,38,87
171.5,148,38,87
169.5,149,38,87
165.5,150,38,87
163.5,150,38,87
161.5,150,38,87
157.5,150,38,87
156.5,150,38,87
152.5,150,38,87
150.5,149,38,87
146.5,149,38,87
144.5,149,38,87
142,147.5,39,88
140,147.5,39,88
139.5,148,38,87
137,148.5,39,88
136,147.5,39,88
135,147.5,39,88
134,146.5,39,90
133,146.5,39,90
132,146.5,39,90
131,146.5,39,90
128.5,145.5,40,92
127.5,144.5,40,92
127.5,144.5,40,92
128.5,143.5,40,92
129.5,142.5,40,92
132.5,141.5,40,92
135.5,140.5,40,92
138.5,140.5,40,92
141.5,139.5,40,92
144.5,139.5,40,92
148.5,139.5,40,92
153,138.5,41,94
158.5,138.5,42,96
166,138.5,41,94
171,137.5,41,94
175.5,135.5,42,96
181,133.5,41,94
184.5,132.5,42,96
188,130.5,43,98
193,129.5,43,98
198,127.5,43,100
202,126.5,43,100
207,125.5,43,100
212,124.5,43,100
217,123.5,43,100
222,123.5,43,100
227,122.5,43,100
232,122.5,43,100
237,121.5,43,100
241,121.5,43,100
245,122.5,43,100
249,122.5,43,100
252,122.5,43,100
256,122.5,43,100
259,123.5,43,100
262,123.5,43,100
262.5,122.5,44,102
265.5,122.5,44,102
266.5,121.5,44,102
266,119.5,45,104
266,116.5,45,104
263,113.5,45,104
259.5,111.5,44,102
255,109.5,45,104
249,106.5,45,104
245,106.5,45,104
238.5,105.5,46,106
232.5,104.5,46,106
226.5,104.5,46,106
220.5,104.5,46,106
214.5,104.5,46,106
208.5,104.5,46,106
201.5,104.5,46,106
194.5,104.5,46,106
188.5,105.5,46,106
181.5,105.5,46,106
175.5,105.5,46,106
168.5,106.5,46,106
162.5,106.5,46,106
156.5,107.5,46,106
150.5,108.5,46,106
144.5,109.5,46,106
138.5,110.5,46,106
134.5,111.5,46,106
128.5,112.5,46,106
124.5,113.5,46,106
120.5,114.5,46,106
114.5,114.5,46,106
111,115.5,45,104
108.5,117.5,44,102
105.5,117.5,44,102
103,119.5,43,100
102,120.5,43,100
101,121.5,43,100
101,123.5,43,98
102,124.5,43,98
103.5,126.5,42,96
107,128.5,41,94
110,129.5,41,94
113.5,131.5,40,92
117,133.5,39,90
118,135.5,39,90
119,137.5,39,90
120,139.5,39,90
120,143.5,39,90
120,145.5,39,90
119,147.5,39,88
118,148.5,39,88
116,150.5,39,88
112,151.5,39,88
108,152.5,39,88
106,153.5,39,88
104,154.5,39,88
102,154.5,39,88
101,153.5,39,88
101,153.5,39,88
101,154.5,39,88
102.5,155,38,87
103.5,156,38,87
105.5,157,38,87
107.5,158,38,87
112,160,37,85
116,161,37,85
121,163,37,85
126.5,166,36,83
131.5,168,36,83
137.5,169,36,83
142.5,170.5,36,82
149.5,172.5,36,82
154.5,173.5,36,82
160.5,174.5,36,82
166.5,175.5,36,82
172.5,175.5,36,82
177.5,175.5,36,82
183.5,175,36,83
189.5,173.5,36,82
194.5,172.5,36,82
199.5,171.5,36,82
204.5,169.5,36,82
209.5,167.5,36,82
214.5,165,36,83
219.5,162.5,36,82
225.5,159.5,36,82
230.5,156.5,36,82
233.5,154.5,36,82
239.5,151,36,83
242.5,148,36,83
247.5,145,36,83
249.5,142,36,83
251.5,137,36,83
253.5,135,36,83
254.5,133,36,83
254,130,37,85
253,126,37,85
251,124,37,85
246.5,121,38,87
244,118.5,39,88
240,116.5,39,88
238,113.5,39,90
233,112.5,39,90
228,111.5,39,90
223,111.5,39,90
218,112.5,39,88
212,113.5,39,88
206,114.5,39,88
200.5,116,38,87
194.5,118,38,87
188.5,120,38,87
183.5,124,38,87
179,125.5,39,88
175,127.5,39,88
173.5,130,38,87
171.5,135,38,87
170.5,139,38,87
170.5,143,38,87
170.5,147,38,87
171.5,149,38,87
172.5,154,38,87
174.5,158,38,87
176.5,160,38,87
180.5,164,38,87
182.5,166,38,87
186.5,168,38,87
190.5,169,38,87
192.5,171,38,87
196.5,171,38,87
197.5,170,38,87
199.5,169,38,87
200,166.5,39,88
201.5,162,38,87
202.5,158,38,87
203,155.5,39,88
203,149.5,39,88
203,144.5,39,88
203,139.5,39,88
203,134.5,39,88
203,129.5,39,88
203,123.5,39,88
202,118.5,39,88
202,113.5,39,88
201,108.5,39,88
200,103.5,39,90
199,98.5,39,90
196.5,93.5,40,92
193.5,89.5,40,92
192.5,85.5,40,92
189,81.5,41,94
185,78.5,41,94
180.5,74.5,42,96
173.5,71.5,42,96
168,69.5,43,98
163,67.5,43,100
156,64.5,43,100
150.5,63.5,44,102
143,62.5,45,104
135.5,61.5,46,106
129,60.5,47,108
122,60.5,47,108
116,61.5,47,108
109.5,61.5,48,110
103,62.5,49,112
97,64.5,49,112
90.5,65,50,115
84.5,67,50,115
78.5,69,50,115
72.5,72,50,115
67.5,75,50,115
62.5,78,50,115
59,82,51,117
57,85,51,117
55,90,51,117
55,93,51,117
57,98,51,117
59,101,51,117
62,104,51,117
68.5,110,50,115
74.5,115,50,115
83,119.5,49,112
91,122.5,49,112
99.5,128.5,48,110
108.5,131.5,48,110
119.5,134.5,48,110
131,138.5,47,108
141,141.5,47,108
151,142.5,47,108
161.5,144.5,46,106
173.5,147.5,46,106
184,149.5,45,104
193.5,151.5,46,106
203.5,152.5,46,106
213.5,153.5,46,106
222.5,154.5,46,106
229.5,154.5,46,106
235.5,154.5,46,106
239.5,154.5,46,106
242.5,154.5,46,106
242.5,154.5,46,106
241.5,153.5,46,106
237.5,153.5,46,106
233.5,152.5,46,106
230,153.5,45,104
223.5,153.5,44,102
217.5,152.5,44,102
211.5,151.5,44,102
204.5,150.5,44,102
197,150.5,43,100
190,149.5,43,100
183,149.5,43,98
176,149.5,43,98
169.5,149.5,42,96
163,150.5,41,94
158,151.5,41,94
153,152.5,41,94
149.5,154.5,40,92
144.5,157.5,40,92
142,161.5,39,90
140,165.5,39,90
139,170.5,39,90
140,175.5,39,88
141,180.5,39,88
143.5,185,38,87
148.5,190,38,87
153.5,195,38,87
158.5,199,38,87
163.5,203,38,87
169.5,205,38,87
175.5,209,38,87
182.5,210,38,87
188.5,210,38,87
194.5,209,38,87
201.5,207,38,87
207,204.5,39,88
214.5,201,38,87
220.5,199,38,87
226,196.5,39,88
231.5,193,38,87
236,190,37,85
241,186,37,85
243,182,37,85
245,178,37,85
247,174,37,85
249,170,37,85
250,166,37,85
251,162,37,85
251,160,37,85
251,155,37,85
251,151,37,85
250.5,148,38,87
250.5,144,38,87
250.5,140,38,87
249.5,136,38,87
249,133.5,39,88
248,128.5,39,88
247,123.5,39,90
245,121.5,39,90
241,117.5,39,90
238.5,114.5,40,92
234.5,110.5,40,92
230.5,107.5,40,92
226,105.5,41,94
222,102.5,41,94
218,101.5,41,94
213,98.5,41,94
208,97.5,41,94
203,96.5,41,94
197.5,95.5,42,96
192.5,94.5,42,96
187.5,94.5,42,96
182.5,94.5,42,96
178.5,94.5,42,96
174.5,95.5,42,96
170.5,98.5,42,96
167,100.5,41,94
163,103.5,41,94
160,106.5,41,94
157,110.5,41,94
156,114.5,41,94
155,118.5,41,94
155,122.5,41,94
154,126.5,41,94
153,130.5,41,94
152.5,134.5,40,92
151.5,137.5,40,92
151.5,140.5,40,92
150.5,141.5,40,92
151,145.5,39,90
151,147.5,39,90
151,149.5,39,90
151,152.5,39,88
152.5,155,38,87
152,158.5,39,88
153,162.5,39,88
153.5,165,38,87
155,170.5,39,88
157,174.5,39,88
159,178.5,39,88
164.5,184,38,87
166,187.5,39,88
170,189.5,39,88
174,191.5,39,88
178,193.5,39,88
183,195.5,39,88
187.5,196,38,87
193,196.5,39,88
197,195.5,39,88
201.5,192,38,87
205,189.5,39,88
209,184.5,39,88
210,178.5,39,88
211,171.5,39,88
212,164.5,39,88
211.5,156,38,87
210.5,150,38,87
208.5,143,38,87
204.5,136,38,87
200.5,129,38,87
195.5,123,38,87
190.5,118,38,87
184.5,113,38,87
179.5,109,38,87
173.5,107,38,87
166.5,105,38,87
159.5,105,38,87
151.5,104,38,87
143.5,105,38,87
136.5,106,38,87
128.5,108,38,87
121.5,110,38,87
115.5,114,38,87
109.5,116,38,87
104.5,120,38,87
100.5,122,38,87
98.5,126,38,87
96,129.5,39,88
95,130.5,39,88
94,134.5,39,88
94,136.5,39,88
94,138.5,39,88
95,142.5,39,88
97,143.5,39,88
99,145.5,39,88
103,147.5,39,88
105.5,149,38,87
110.5,151,38,87
115.5,152,38,87
120.5,154,38,87
125.5,155,38,87
130.5,156,38,87
135.5,157,38,87
140.5,158,38,87
144.5,159,38,87
150.5,159,38,87
156.5,159,38,87
162.5,161,38,87
169.5,162,38,87
175.5,163,38,87
183,165,37,85
190,167,37,85
197,168,37,85
204,167,37,85
210,166,37,85
215,166,37,85
221,165,37,85
227,165,37,85
231,164,37,85
235,162,37,85
239,160,37,85
240,160,37,85
242,159,37,85
243.5,157,38,87
243,155.5,39,88
244.5,154,38,87
245.5,154,38,87
246.5,153,38,87
247,151.5,39,88
247,149.5,39,88
247,147.5,39,88
247,146.5,39,88
246,144.5,39,90
245,142.5,39,90
244,140.5,39,90
242.5,138.5,40,92
242.5,137.5,40,92
242,135.5,41,94
242,134.5,41,94
240.5,133.5,42,96
237.5,132.5,42,96
236.5,129.5,42,96
233,128.5,43,98
230,128.5,43,98
227,127.5,43,98
223,126.5,43,98
220,124.5,43,100
216,123.5,43,100
211.5,122.5,44,102
207.5,121.5,44,102
203.5,120.5,44,102
199,119.5,45,104
195,119.5,45,104
189,119.5,45,104
185,119.5,45,104
181,119.5,45,104
175,119.5,45,104
171,119.5,45,104
167,120.5,45,104
161,120.5,45,104
157,121.5,45,104
153,122.5,45,104
149.5,124.5,44,102
145.5,125.5,44,102
142.5,126.5,44,102
140,128.5,43,100
137,129.5,43,100
135.5,131.5,44,102
133,132.5,43,100
130,134.5,43,98
129,137.5,43,98
128,140.5,43,98
127,144.5,43,98
126,148.5,43,98
126.5,153.5,42,96
127.5,158.5,42,96
128.5,162.5,42,96
131.5,166.5,42,96
134.5,170.5,42,96
137.5,173.5,42,96
140.5,176.5,42,96
145,178.5,41,94
149,179.5,41,94
153,180.5,41,94
157.5,181.5,40,92
161,179.5,39,90
165,178.5,39,90
170,177.5,39,90
175,174.5,39,88
180,172.5,39,88
184,167.5,39,88
189,162.5,39,88
193,157.5,39,88
195,153.5,39,88
197.5,149,38,87
199.5,145,38,87
200.5,141,38,87
200.5,137,38,87
200.5,133,38,87
199.5,129,38,87
198.5,127,38,87
196.5,123,38,87
194.5,121,38,87
192,118.5,39,88
187,116.5,39,88
181,116.5,39,88
175,116.5,39,88
168,116.5,39,88
159,117.5,39,88
152,116.5,39,90
143,116.5,39,90
136,116.5,39,90
127,116.5,39,90
120,116.5,39,90
112.5,115.5,40,92
103,114.5,41,94
96.5,113.5,42,96
89,112.5,43,98
84,111.5,43,98
79,110.5,43,98
75,109.5,43,98
72,108.5,43,98
69,105.5,43,98
68,103.5,43,100
67,102.5,43,100
68,101.5,43,100
70.5,99.5,44,102
74.5,98.5,44,102
80.5,97.5,44,102
86,95.5,45,104
92,95.5,45,104
101,95.5,45,104
108,95.5,45,104
118,96.5,45,104
128,97.5,45,104
139,98.5,45,104
149.5,100.5,46,106
161.5,101.5,46,106
171.5,104.5,46,106
181,106.5,47,108
190,107.5,47,108
196,111.5,47,108
200,115.5,47,108
203,119.5,47,108
203,122.5,47,108
203,125.5,47,108
200,128.5,47,108
197,131.5,47,108
192.5,133.5,48,110
187.5,133.5,48,110
181,134.5,49,112
176,132.5,49,112
170,132.5,49,112
164,130.5,49,112
157.5,129,50,115
151.5,126,50,115
145,123,51,117
138.5,119,52,119
133.5,116,52,119
128,111.5,53,122
125,106.5,53,122
122.5,102.5,54,124
120,96,55,127
120,91,55,127
117,85.5,57,132
117,81.5,57,132
117,77.5,57,132
118,74.5,59,134
119.5,69,60,137
119,65.5,61,140
119,63.5,61,140
120.5,60,62,143
122.5,56,62,143
126.5,54,62,143
130.5,52,62,143
134,51,63,145
138,49,63,145
144,49,63,145
150,49,63,145
156,49,63,145
162,51,63,145
170.5,52,62,143
176.5,54,62,143
184.5,56,62,143
192.5,58,62,143
198.5,62,62,143
206.5,64,62,143
212.5,66,62,143
219,71.5,61,140
223,75.5,61,140
227.5,81,60,137
229.5,85,60,137
232,90.5,59,134
232,92.5,59,134
230,96.5,59,134
229,99.5,57,132
225,103.5,57,132
220,107.5,57,132
213,109.5,57,132
208,111.5,57,132
199,113.5,57,132
192.5,117,56,129
184,118,55,127
177,120,55,127
168,122,55,127
161.5,123.5,54,124
155,124.5,53,122
148,126.5,53,122
141.5,128,52,119
135,129,51,117
129,131,51,117
123,131,51,117
118,131,51,117
113,131,51,117
108.5,132,50,115
106,131.5,49,112
103.5,132.5,48,110
101.5,132.5,48,110
102.5,132.5,46,106
102.5,133.5,46,106
103.5,133.5,46,106
105,134.5,45,104
108,135.5,45,104
112,136.5,45,104
116.5,137.5,44,102
120.5,138.5,44,102
124.5,138.5,44,102
130.5,138.5,44,102
136.5,138.5,44,102
143.5,138.5,44,102
149.5,138.5,44,102
155.5,137.5,44,102
161.5,136.5,44,102
168,136.5,43,100
172,135.5,43,100
179,134.5,43,100
184,133.5,43,100
189,132.5,43,100
196,131.5,43,100
201,129.5,43,98
206,128.5,43,98
210,127.5,43,98
213.5,125.5,42,96
216.5,125.5,42,96
218,123.5,41,94
219,122.5,41,94
219.5,120.5,42,96
220,118.5,41,94
219,117.5,41,94
217.5,115.5,42,96
216.5,114.5,42,96
216,112.5,41,94
212.5,110.5,42,96
209.5,109.5,42,96
206,107.5,41,94
202,106.5,41,94
197.5,104.5,42,96
193.5,103.5,42,96
188.5,102.5,42,96
183.5,101.5,42,96
176.5,100.5,42,96
171.5,100.5,42,96
164.5,100.5,42,96
159.5,100.5,42,96
152.5,101.5,42,96
147.5,102.5,42,96
142.5,103.5,42,96
136,105.5,41,94
131,106.5,41,94
126,107.5,41,94
121,110.5,41,94
116,111.5,41,94
112,112.5,41,94
108,115.5,41,94
104,116.5,41,94
100,119.5,41,94
97.5,121.5,40,92
96.5,124.5,40,92
95.5,127.5,40,92
94,129.5,41,94
95,132.5,41,94
96,135.5,41,94
99,138.5,41,94
100.5,140.5,40,92
104,142.5,39,90
108,144.5,39,90
112,147.5,39,88
116,148.5,39,88
121,150.5,39,88
125,151.5,39,88
130,152.5,39,88
135,152.5,39,88
140,153.5,39,88
145,153.5,39,88
151,153.5,39,88
157,153.5,39,88
164,152.5,39,88
170,152.5,39,88
177,151.5,39,88
183,151.5,39,88
189,150.5,39,88
195,149.5,39,88
202,148.5,39,88
208,147.5,39,88
214,147.5,39,88
220,146.5,39,88
226,146.5,39,88
232,145.5,39,88
236,145.5,39,88
240,143.5,39,88
244,142.5,39,88
248,141.5,39,88
250,139.5,39,88
252,137.5,39,88
253,134.5,39,90
253,132.5,39,90
253,130.5,39,90
253,126.5,39,90
251,125.5,39,90
249.5,122.5,40,92
246.5,118.5,40,92
242.5,117.5,40,92
239.5,114.5,40,92
235.5,113.5,40,92
231.5,112.5,40,92
227,110.5,41,94
222,109.5,41,94
216,108.5,41,94
210,107.5,41,94
204,106.5,41,94
196,105.5,41,94
190,104.5,41,94
184,104.5,41,94
178,104.5,41,94
172,104.5,41,94
166,105.5,41,94
160,106.5,41,94
154,107.5,41,94
148,110.5,41,94
143.5,112.5,40,92
139,114.5,39,90
134,117.5,39,88
130,119.5,39,88
128,122.5,39,90
124,124.5,39,88
123,126.5,39,88
122,129.5,39,90
121,130.5,39,90
121,133.5,39,88
122,136.5,39,90
123,137.5,39,90
125,139.5,39,88
129,141.5,39,88
131,142.5,39,88
133,143.5,39,88
137.5,144,38,87
138.5,144,38,87
140.5,144,38,87
144.5,143,38,87
145.5,143,38,87
150.5,141,38,87
152.5,140,38,87
157.5,138,38,87
163.5,136,38,87
168.5,134,38,87
174,131,37,85
179,127,37,85
183.5,124,36,83
188,120,37,85
192,115,37,85
197,109,37,85
201,105,37,85
206,101,37,85
210,96,37,85
214,91,37,85
216,86,37,85
220,80,37,85
222,75,37,85
224,70,37,85
228,64,37,85
228,58,37,85
229,53,37,85
229,48,37,85
228,43,37,85
226,39,37,85
224,35,37,85
222,33,37,85
217.5,31,38,87
213.5,31,38,87
209.5,31,38,87
204.5,32,38,87
198.5,34,38,87
192.5,36,38,87
186,40.5,39,88
180,42.5,39,88
173,47.5,39,88
166,51.5,39,88
159,55.5,39,90
152,59.5,39,90
146,64.5,39,90
141,68.5,39,90
136,73.5,39,90
130.5,77.5,40,92
125.5,82.5,40,92
120.5,87.5,40,92
116.5,92.5,40,92
112.5,97.5,40,92
108.5,103.5,40,92
105.5,109.5,40,92
101.5,114.5,40,92
97.5,120.5,40,92
94.5,126.5,40,92
93.5,132.5,40,92
90.5,137.5,40,92
90.5,142.5,40,92
90.5,147.5,40,92
90.5,152.5,40,92
93.5,156.5,40,92
96.5,160.5,40,92
99.5,164.5,40,92
104,166.5,39,90
108,168.5,39,90
113,170.5,39,88
118,171.5,39,88
124,171.5,39,88
129.5,172,38,87
134.5,173,38,87
138.5,173,38,87
143.5,173,38,87
148.5,173,38,87
153.5,172,38,87
158.5,171,38,87
162.5,170,38,87
167.5,169,38,87
172.5,167,38,87
176.5,166,38,87
180.5,164,38,87
182.5,162,38,87
187.5,160,38,87
189.5,158,38,87
191.5,157,38,87
195.5,155,38,87
196.5,154,38,87
197.5,152,38,87
197.5,150,38,87
197,147.5,39,88
196,143.5,39,88
194,142.5,39,88
192,141.5,39,88
188,140.5,39,88
184,137.5,39,90
179,135.5,39,90
174,134.5,39,90
169,132.5,39,90
163,131.5,39,90
156,130.5,39,90
150,129.5,39,90
144,129.5,39,90
137,129.5,39,90
130,129.5,39,90
124,130.5,39,90
118,130.5,39,90
113,131.5,39,90
108,132.5,39,90
104,132.5,39,90
100,133.5,39,90
96,134.5,39,90
92,135.5,39,90
88,136.5,39,90
86,137.5,39,90
82,139.5,39,90
80,140.5,39,90
78,142.5,39,90
76,145.5,39,88
75,147.5,39,88
73,148.5,39,88
72,150.5,39,88
72,152.5,39,88
72,153.5,39,88
72,155.5,39,88
73,157.5,39,88
75,158.5,39,88
77,159.5,39,88
79,160.5,39,88
83,161.5,39,88
85,162.5,39,88
90,163.5,39,88
95,164.5,39,88
100,165.5,39,88
106,166.5,39,88
112.5,167,38,87
119,169,37,85
125,169,37,85
131,168,37,85
138,168,37,85
143,167,37,85
150,166,37,85
156,166,37,85
163,166,37,85
170,166,37,85
176,166,37,85
183,167,37,85
190,167,37,85
196,168,37,85
202,168,37,85
208,168,37,85
214,168,37,85
219,168,37,85
224,167,37,85
230,166,37,85
236,165,37,85
241,163,37,85
247,161,37,85
252,159,37,85
258,155,37,85
262.5,152,38,87
266.5,150,38,87
270.5,146,38,87
274.5,144,38,87
276.5,140,38,87
278.5,138,38,87
280.5,134,38,87
280.5,132,38,87
280.5,128,38,87
280.5,126,38,87
279.5,124,38,87
278.5,120,38,87
276,118.5,39,88
274,115.5,39,90
269,113.5,39,90
265,111.5,39,90
261,109.5,39,90
256.5,107.5,40,92
252.5,106.5,40,92
247.5,105.5,40,92
242.5,104.5,40,92
236.5,103.5,40,92
231.5,102.5,40,92
225.5,102.5,40,92
217.5,103.5,40,92
209.5,104.5,40,92
201.5,105.5,40,92
192.5,108.5,40,92
183.5,109.5,40,92
174.5,112.5,40,92
166.5,115.5,40,92
157.5,118.5,40,92
149.5,121.5,40,92
143.5,124.5,40,92
136,128.5,39,90
130,132.5,39,90
125,136.5,39,90
120,140.5,39,90
116,144.5,39,90
114,149.5,39,90
112,153.5,39,90
112,156.5,39,88
113,161.5,39,88
115,163.5,39,88
120,167.5,39,88
126,169.5,39,88
132,171.5,39,88
141,173.5,39,88
147,174.5,39,88
156,174.5,39,88
165,173.5,39,88
174,171.5,39,88
183,169.5,39,88
193,167.5,39,88
203,163.5,39,88
213,161.5,39,88
224,157.5,39,88
234,155.5,39,88
244,151.5,39,88
254,150.5,39,88
264,148.5,39,88
273,145.5,39,90
280,143.5,39,90
289,142.5,39,90
296,140.5,39,90
304.5,138.5,40,92
312.5,137.5,40,92
320.5,137.5,40,92
328.5,137.5,40,92
334.5,136.5,40,92
340.5,135.5,40,92
346.5,134.5,40,92
352,133.5,41,94
358,133.5,41,94
362.5,131.5,42,96
365.5,130.5,42,96
366.5,129.5,42,96
366,127.5,43,98
366,126.5,43,98
365,126.5,43,98
362,125.5,43,98
359,124.5,43,98
356,123.5,43,100
351,123.5,43,100
346,123.5,43,100
339,123.5,43,100
331.5,122.5,44,102
324.5,122.5,44,102
316.5,122.5,44,102
308.5,123.5,44,102
298.5,124.5,44,102
291,125.5,43,100
281,126.5,43,100
273,127.5,43,100
265,127.5,43,100
255,128.5,43,100
247,128.5,43,100
237,129.5,43,100
229,130.5,43,100
219,131.5,43,100
211,132.5,43,100
203,133.5,43,100
196,134.5,43,100
189,136.5,43,98
185,137.5,43,98
178,138.5,43,98
173.5,140.5,42,96
166.5,143.5,42,96
161,145.5,43,98
156,148.5,43,98
152,151.5,43,98
148.5,155.5,42,96
144.5,159.5,42,96
141.5,163.5,42,96
139,169.5,41,94
136,174.5,41,94
135,179.5,41,94
135,185.5,41,94
135,191.5,41,94
138.5,197.5,40,92
139.5,201.5,40,92
144,205.5,41,94
149,209.5,41,94
154,212.5,41,94
160,213.5,41,94
166.5,217.5,40,92
174.5,217.5,40,92
182.5,218.5,40,92
191,219.5,39,90
198,218.5,39,90
208,216.5,39,90
217,214.5,39,90
224,212.5,39,90
233,210.5,39,90
239,206.5,39,90
245.5,203.5,40,92
251.5,199.5,40,92
256.5,196.5,40,92
260.5,192.5,40,92
263,188.5,41,94
266,185.5,41,94
266.5,181.5,42,96
266.5,177.5,42,96
266.5,174.5,42,96
263,169.5,43,98
260,165.5,43,100
257,162.5,43,100
253,159.5,43,100
248,155.5,43,100
243,152.5,43,100
236,149.5,43,100
231,146.5,43,100
224,145.5,43,100
217,142.5,43,100
210,142.5,43,100
204.5,140.5,44,102
197.5,139.5,44,102
190.5,139.5,44,102
184.5,138.5,44,102
177.5,138.5,44,102
170.5,139.5,44,102
164.5,140.5,44,102
159,141.5,43,100
154,142.5,43,100
147,144.5,43,98
143,145.5,43,98
138,146.5,43,98
134,147.5,43,98
131,148.5,43,98
128,149.5,43,98
125,149.5,43,98
124,149.5,43,98
121,149.5,43,98
118,150.5,43,98
118,150.5,43,98
117,150.5,43,98
117,151.5,43,98
117,152.5,43,98
118.5,153.5,42,96
119.5,153.5,42,96
120.5,154.5,42,96
121.5,154.5,42,96
124.5,154.5,42,96
125.5,154.5,42,96
128.5,153.5,42,96
129.5,153.5,42,96
132.5,152.5,42,96
135.5,151.5,42,96
138.5,151.5,42,96
139.5,150.5,42,96
142.5,150.5,42,96
145.5,150.5,42,96
148.5,149.5,42,96
151.5,149.5,42,96
154.5,148.5,42,96
157.5,148.5,42,96
161.5,148.5,42,96
165.5,148.5,42,96
169.5,148.5,42,96
173.5,148.5,42,96
177.5,148.5,42,96
181.5,149.5,42,96
185.5,149.5,42,96
189.5,149.5,42,96
193.5,150.5,42,96
196.5,150.5,42,96
200.5,150.5,42,96
203.5,150.5,42,96
206.5,150.5,42,96
207.5,150.5,42,96
208.5,150.5,42,96
209.5,149.5,42,96
210,148.5,43,98
210,147.5,43,98
209,146.5,43,98
208,145.5,43,98
207.5,145.5,42,96
204.5,145.5,42,96
203.5,144.5,42,96
200.5,143.5,42,96
197,142.5,43,98
194,141.5,43,98
191,140.5,43,98
187.5,140.5,42,96
184.5,140.5,42,96
181.5,139.5,42,96
177.5,138.5,42,96
173.5,138.5,42,96
169.5,138.5,42,96
165.5,138.5,42,96
162.5,138.5,42,96
159.5,137.5,42,96
156.5,137.5,42,96
153.5,136.5,42,96
152.5,136.5,42,96
149.5,135.5,42,96
147,135.5,41,94
145.5,134.5,42,96
144.5,133.5,42,96
141.5,133.5,42,96
140.5,132.5,42,96
139.5,131.5,42,96
139.5,130.5,42,96
138.5,130.5,42,96
138.5,130.5,42,96
138.5,129.5,42,96
138.5,129.5,42,96
138.5,128.5,42,96
139,129.5,41,94
140,129.5,41,94
140,129.5,41,94
140.5,128.5,42,96
140.5,128.5,42,96
141.5,128.5,42,96
142.5,128.5,42,96
145.5,127.5,42,96
146.5,127.5,42,96
147.5,127.5,42,96
150.5,127.5,42,96
151.5,127.5,42,96
152.5,127.5,42,96
155.5,127.5,42,96
156.5,127.5,42,96
159.5,127.5,42,96
160.5,127.5,42,96
163.5,128.5,42,96
164.5,128.5,42,96
168.5,129.5,42,96
169.5,129.5,42,96
172.5,129.5,42,96
173.5,129.5,42,96
176.5,130.5,42,96
179.5,130.5,42,96
180.5,130.5,42,96
183.5,130.5,42,96
184.5,130.5,42,96
185.5,130.5,42,96
187,131.5,41,94
188,132.5,41,94
189,132.5,41,94
189.5,132.5,42,96
190.5,132.5,42,96
191.5,133.5,42,96
191.5,133.5,42,96
191.5,133.5,42,96
191.5,133.5,42,96
191.5,133.5,42,96
190.5,133.5,42,96
189.5,133.5,42,96
189.5,132.5,42,96
188,131.5,43,98
188,130.5,43,98
188,129.5,43,98
188,128.5,43,98
188,127.5,43,98
188,126.5,43,98
188,125.5,43,98
188,124.5,43,98
187.5,124.5,42,96
186.5,123.5,42,96
185.5,122.5,42,96
184.5,122.5,42,96
183.5,121.5,42,96
180.5,121.5,42,96
180.5,121.5,42,96
179.5,121.5,42,96
178.5,121.5,42,96
177.5,121.5,42,96
175,122.5,41,94
173.5,122.5,42,96
173,123.5,41,94
169.5,123.5,42,96
168.5,123.5,42,96
165.5,123.5,42,96
164.5,122.5,42,96
161.5,122.5,42,96
161.5,121.5,42,96
160,119.5,43,98
157,117.5,43,100
156,115.5,43,98
155,114.5,43,98
152.5,112.5,42,96
151,110.5,43,98
148,108.5,43,100
145,106.5,43,98
142,104.5,43,100
139,103.5,43,100
136,102.5,43,100
133,102.5,43,100
130,102.5,43,100
129,102.5,43,100
128,103.5,43,100
127,104.5,43,100
127,106.5,43,98
127,108.5,43,100
127,111.5,43,100
128,114.5,43,100
131,116.5,43,98
132,119.5,43,98
135,120.5,43,98
139,123.5,43,98
142,124.5,43,98
146,125.5,43,98
149,126.5,43,98
152,126.5,43,98
155,127.5,43,98
159,128.5,43,98
163.5,130.5,42,96
166.5,131.5,42,96
169,133.5,43,98
172,133.5,43,98
175.5,135.5,42,96
176.5,136.5,42,96
177.5,137.5,42,96
178,139.5,43,98
179.5,140.5,42,96
179.5,141.5,42,96
179.5,144.5,42,96
179.5,143.5,42,96
179,145.5,41,94
179,145.5,41,94
178,145.5,41,94
176.5,144.5,42,96
175.5,143.5,42,96
174.5,143.5,42,96
173.5,142.5,42,96
172.5,142.5,42,96
171.5,141.5,42,96
170.5,140.5,42,96
169.5,139.5,42,96
168.5,138.5,42,96
168.5,137.5,42,96
167.5,136.5,42,96
166.5,135.5,42,96
166.5,134.5,42,96
165.5,133.5,42,96
165,131.5,41,94
164,131.5,41,94
162.5,130.5,42,96
161.5,129.5,42,96
160.5,128.5,42,96
159.5,128.5,42,96
156.5,127.5,42,96
156.5,127.5,42,96
155.5,127.5,42,96
154.5,127.5,42,96
153.5,127.5,42,96
152.5,126.5,42,96
151.5,125.5,42,96
151.5,124.5,42,96
151,123.5,43,98
151.5,123.5,42,96
151.5,122.5,42,96
151.5,121.5,42,96
151.5,120.5,42,96
152.5,119.5,42,96
152.5,118.5,42,96
153,116.5,43,98
154,115.5,43,98
154.5,113.5,42,96
154.5,112.5,42,96
154,110.5,43,98
154,109.5,43,98
154,108.5,43,98
154,107.5,43,98
154,106.5,43,98
154,106.5,43,98
154,105.5,43,100
153,105.5,43,100
153,105.5,43,100
153,106.5,43,100
154,107.5,43,100
154,108.5,43,100
155,109.5,43,100
156,112.5,43,100
157,113.5,43,100
160,116.5,43,100
161,118.5,43,98
164,120.5,43,100
167,123.5,43,100
170,126.5,43,100
171,129.5,43,100
175,131.5,43,98
178,133.5,43,100
181,135.5,43,98
184,138.5,43,98
185,139.5,43,98
188,140.5,43,98
191,141.5,43,98
194,141.5,43,98
195,142.5,43,98
196,142.5,43,98
197,142.5,43,98
197,142.5,43,98
197,142.5,43,98
196.5,143.5,42,96
195.5,144.5,42,96
192.5,145.5,42,96
189.5,146.5,42,96
185.5,146.5,42,96
181.5,147.5,42,96
177.5,148.5,42,96
173.5,149.5,42,96
168.5,150.5,42,96
164.5,151.5,42,96
159.5,152.5,42,96
154.5,153.5,42,96
149.5,153.5,42,96
144.5,153.5,42,96
139.5,154.5,42,96
134.5,154.5,42,96
129.5,154.5,42,96
124.5,154.5,42,96
120.5,154.5,42,96
116.5,154.5,42,96
112,154.5,43,98
108,154.5,43,98
105,153.5,43,98
101,153.5,43,98
98,152.5,43,98
97,151.5,43,98
94,150.5,43,98
93,149.5,43,98
93,148.5,43,98
93,147.5,43,98
93,146.5,43,98
93,145.5,43,98
94,144.5,43,98
97,143.5,43,98
98,142.5,43,98
101,141.5,43,98
104,140.5,43,98
107,140.5,43,98
110,140.5,43,98
114,140.5,43,98
119,140.5,43,98
123,139.5,43,98
128,138.5,43,98
133,138.5,43,98
138,138.5,43,98
145,137.5,43,98
150,136.5,43,98
157,135.5,43,98
162,134.5,43,98
169,133.5,43,98
174,132.5,43,98
179.5,130.5,42,96
183,128.5,43,98
186,125.5,43,98
189,123.5,43,100
189.5,121.5,44,102
193,119.5,43,100
193.5,117.5,44,102
193.5,116.5,44,102
193.5,115.5,44,102
192,114.5,45,104
191,114.5,45,104
187,114.5,45,104
184,114.5,45,104
178,115.5,45,104
174,115.5,45,104
170,116.5,45,104
164,117.5,45,104
160.5,119.5,44,102
154.5,120.5,44,102
149,122.5,43,100
145,123.5,43,100
139.5,125.5,44,102
133.5,126.5,44,102
130,128.5,43,100
126,129.5,43,100
123,130.5,43,100
119,131.5,43,100
116,132.5,43,100
115,133.5,43,100
112,135.5,43,98
111.5,137.5,42,96
110.5,138.5,42,96
109,140.5,43,98
108,141.5,43,98
108.5,143.5,42,96
109.5,144.5,42,96
110.5,145.5,42,96
111.5,145.5,42,96
114.5,145.5,42,96
117.5,144.5,42,96
120.5,143.5,42,96
124.5,142.5,42,96
128.5,139.5,42,96
134,137.5,41,94
139,134.5,41,94
144.5,131.5,40,92
150,128.5,39,90
155,124.5,39,90
160,120.5,39,90
165,116.5,39,90
171,112.5,39,90
175.5,109.5,40,92
181.5,105.5,40,92
187.5,101.5,40,92
193.5,97.5,40,92
198.5,93.5,40,92
205,89.5,39,90
210,85.5,39,90
214,81.5,39,90
218,77.5,39,90
220,73.5,39,90
223.5,70.5,40,92
224.5,67.5,40,92
225.5,64.5,40,92
224,62.5,41,94
223,61.5,41,94
219,60.5,41,94
215.5,59.5,42,96
211.5,59.5,42,96
207.5,59.5,42,96
202.5,60.5,42,96
197,62.5,43,98
190,65.5,43,98
183,68.5,43,98
176,71.5,43,98
169,74.5,43,100
162,77.5,43,100
155,81.5,43,100
147,86.5,43,100
140,90.5,43,100
132,94.5,43,100
125,98.5,43,100
118,102.5,43,100
111,107.5,43,100
104,111.5,43,100
99,115.5,43,100
94,119.5,43,100
89,123.5,43,100
85,127.5,43,100
81,131.5,43,100
77,135.5,43,100
74,139.5,43,100
73,143.5,43,100
70,146.5,43,100
70,148.5,43,98
71,150.5,43,100
72,151.5,43,98
73,152.5,43,98
76,152.5,43,98
77,151.5,43,98
78,150.5,43,98
81,149.5,43,98
82,146.5,43,98
82,145.5,43,98
82,141.5,43,98
82,137.5,43,98
82,133.5,43,98
82,129.5,43,98
81,125.5,43,98
80,121.5,43,98
79,117.5,43,98
76,113.5,43,98
75,110.5,43,98
71,109.5,43,98
68,108.5,43,98
64,108.5,43,98
61,109.5,43,98
60,113.5,43,98
59,117.5,43,98
58,122.5,43,98
58,127.5,43,98
59,132.5,43,98
62,139.5,43,98
65,146.5,43,98
69,151.5,43,98
74,158.5,43,98
81,163.5,43,98
88,168.5,43,98
95,172.5,43,98
104,175.5,43,98
113,178.5,43,98
122,179.5,43,98
131,179.5,43,98
142,179.5,43,98
151,179.5,43,98
160,178.5,43,98
169,177.5,43,98
178,174.5,43,98
187,171.5,43,98
195,168.5,43,98
203,165.5,43,98
210,161.5,43,98
217,157.5,43,100
222,153.5,43,100
228.5,149.5,44,102
234,144.5,45,104
238,140.5,45,104
244,136.5,45,104
247,130.5,45,104
249.5,126.5,46,106
253,121.5,47,108
253.5,116.5,48,110
256.5,111.5,48,110
256,107.5,49,112
255.5,103,50,115
255,99,51,117
251.5,93,52,119
248,86.5,53,122
242.5,80.5,54,124
235,74,55,127
227.5,68,56,129
218,62.5,57,132
208,57.5,59,134
198.5,52,60,137
187,48.5,61,140
173.5,47,62,143
163.5,47,62,143
153,46,63,145
141,48,63,145
131,50,63,145
121,52,63,145
110,52.5,65,148
102,56.5,65,148
96,60.5,65,148
88,64.5,65,148
85,72,63,145
79,76,63,145
75.5,83,62,143
73.5,89,62,143
71.5,95,62,143
70,102.5,61,140
70,110.5,61,140
72,116.5,61,140
74.5,124,60,137
77,131.5,59,134
82,138.5,57,132
86,143.5,57,132
90.5,150,56,129
95,156,55,127
98.5,162.5,54,124
104,166.5,53,122
109,171.5,53,122
114.5,176,52,119
122,180,51,117
127.5,184,50,115
134,187.5,49,112
139,189.5,49,112
144.5,190.5,48,110
150,191.5,47,108
156.5,193.5,46,106
161,194.5,45,104
167.5,195.5,44,102
171.5,192.5,44,102
177.5,191.5,44,102
181.5,190.5,44,102
186,188.5,43,100
190,187.5,43,100
194,183.5,43,100
198,180.5,43,100
201,176.5,43,100
204,172.5,43,100
207,169.5,43,100
208,166.5,43,98
211,163.5,43,98
211,160.5,43,98
212,157.5,43,98
212,156.5,43,98
211,153.5,43,98
211,152.5,43,98
210,151.5,43,98
207.5,151.5,42,96
206.5,150.5,42,96
203.5,149.5,42,96
200.5,149.5,42,96
196.5,149.5,42,96
192.5,149.5,42,96
187.5,150.5,42,96
182.5,151.5,42,96
176,153.5,41,94
171.5,155.5,40,92
163,157.5,39,90
157,159.5,39,90
150,160.5,39,90
143,162.5,39,90
137,164.5,39,88
131,166.5,39,88
125,167.5,39,88
120,168.5,39,88
114,168.5,39,88
108,168.5,39,88
102,168.5,39,88
97,168.5,39,88
93,168.5,39,88
89,167.5,39,88
88,166.5,39,88
88,165.5,39,88
88,164.5,39,88
90,163.5,39,88
92,162.5,39,88
96,160.5,39,88
101,159.5,39,88
106,158.5,39,88
112,158.5,39,88
119,157.5,39,88
126,156.5,39,88
135,156.5,39,88
144,156.5,39,88
153,156.5,39,88
163,156.5,39,88
173,156.5,39,88
183,157.5,39,88
193,156.5,39,90
203,156.5,39,90
213,157.5,39,90
223,157.5,39,90
233,157.5,39,90
243,157.5,39,90
252,157.5,39,90
261,156.5,39,90
268,155.5,39,90
275,155.5,39,90
282,154.5,39,90
288,152.5,39,90
293,151.5,39,90
297,149.5,39,90
298.5,147.5,40,92
299.5,144.5,40,92
300.5,143.5,40,92
300,141.5,41,94
299,140.5,41,94
295,137.5,41,94
291.5,135.5,42,96
286,133.5,43,98
281,131.5,43,100
274,130.5,43,100
269,129.5,43,100
261,127.5,43,98
253,126.5,43,100
245,125.5,43,100
235,125.5,43,100
227,125.5,43,100
217,125.5,43,100
209,125.5,43,100
201,126.5,43,100
191,126.5,43,100
184,126.5,43,100
176,128.5,43,98
168,129.5,43,98
159.5,130.5,42,96
151.5,131.5,42,96
143.5,132.5,42,96
136.5,133.5,42,96
131.5,133.5,42,96
127,135.5,41,94
123,135.5,41,94
119,138.5,41,94
116.5,140.5,40,92
115.5,143.5,40,92
112.5,146.5,40,92
112.5,149.5,40,92
112.5,152.5,40,92
113.5,155.5,40,92
117,157.5,39,90
119,159.5,39,90
121,163.5,39,90
125,164.5,39,90
129,165.5,39,90
133,166.5,39,90
137,168.5,39,88
142,169.5,39,88
147,169.5,39,88
152,169.5,39,88
157,168.5,39,88
162,168.5,39,88
168.5,168,38,87
173.5,168,38,87
179.5,168,38,87
185.5,168,38,87
192,167.5,39,88
198,166.5,39,88
204,166.5,39,88
210,165.5,39,88
215,165.5,39,88
221,164.5,39,88
226,163.5,39,88
231,162.5,39,88
235,161.5,39,88
239,160.5,39,88
241,159.5,39,88
245,157.5,39,88
246,155.5,39,90
246,154.5,39,90
246,153.5,39,90
245.5,151.5,40,92
242.5,150.5,40,92
241.5,149.5,40,92
238.5,148.5,40,92
234.5,147.5,40,92
230.5,147.5,40,92
226.5,147.5,40,92
221.5,147.5,40,92
216,146.5,41,94
210,146.5,41,94
204,147.5,41,94
199,147.5,41,94
193,148.5,41,94
187,149.5,41,94
181,149.5,41,94
175,149.5,41,94
169,149.5,41,94
163,150.5,41,94
157,150.5,41,94
151,151.5,41,94
145,151.5,41,94
139,152.5,41,94
134,153.5,41,94
128.5,155.5,42,96
124,157.5,41,94
119.5,159.5,40,92
114.5,160.5,40,92
110.5,161.5,40,92
107,163.5,39,90
105,164.5,39,90
103,165.5,39,90
102,167.5,39,88
101,168.5,39,88
100,169.5,39,88
100.5,170,38,87
101.5,171,38,87
102,171.5,39,88
102.5,171,38,87
104.5,170,38,87
106.5,170,38,87
108.5,170,38,87
112.5,170,38,87
114.5,170,38,87
118.5,169,38,87
120.5,168,38,87
124.5,167,38,87
126.5,166,38,87
130.5,165,38,87
132.5,164,38,87
136.5,164,38,87
138.5,163,38,87
142.5,162,38,87
144.5,161,38,87
148.5,161,38,87
150.5,161,38,87
154.5,161,38,87
156.5,161,38,87
160,160.5,39,88
161.5,160,38,87
163.5,160,38,87
165.5,160,38,87
169,160.5,39,88
170.5,161,38,87
171,161.5,39,88
172,161.5,39,88
173,162.5,39,88
174,163.5,39,88
176,163.5,39,88
177,164.5,39,88
178,164.5,39,88
178,164.5,39,88
179,164.5,39,88
179,165.5,39,88
178,165.5,39,88
177,164.5,39,90
175,164.5,39,88
174,164.5,39,88
172,163.5,39,88
170,162.5,39,88
168,162.5,39,88
164,161.5,39,88
162,161.5,39,88
158,160.5,39,88
154,160.5,39,88
150,160.5,39,88
148,160.5,39,88
143,160.5,39,88
139,160.5,39,88
135,160.5,39,88
131,160.5,39,88
129,160.5,39,88
124.5,161,38,87
120,161.5,39,88
116,161.5,39,88
112.5,162,38,87
108,162.5,39,88
103.5,163,38,87
99,163.5,39,88
95,163.5,39,88
90,163.5,39,88
85,163.5,39,88
80,163.5,39,88
75,163.5,39,88
71,163.5,39,88
67,162.5,39,88
63,162.5,39,88
61,161.5,39,88
60,161.5,39,88
59,160.5,39,88
59,160.5,39,88
60,160.5,39,88
62,160.5,39,88
64,160.5,39,88
69,160.5,39,88
74,159.5,39,90
79,158.5,39,90
85,157.5,39,90
91,156.5,39,90
98,154.5,39,90
105,153.5,39,90
112,152.5,39,90
119,150.5,39,90
126,148.5,39,90
132,146.5,39,90
139,144.5,39,90
145,142.5,39,90
151.5,139.5,40,92
157.5,136.5,40,92
162.5,133.5,40,92
166.5,130.5,40,92
170,128.5,41,94
174,127.5,41,94
177,124.5,41,94
177,123.5,41,94
178,122.5,41,94
177,121.5,41,94
176,120.5,41,94
171.5,119.5,42,96
167.5,119.5,42,96
163.5,119.5,42,96
158.5,120.5,42,96
151.5,121.5,42,96
144.5,122.5,42,96
137.5,125.5,42,96
129.5,126.5,42,96
122.5,129.5,42,96
114.5,130.5,42,96
105.5,133.5,42,96
97.5,136.5,42,96
89.5,137.5,42,96
82.5,141.5,42,96
75.5,144.5,42,96
68.5,147.5,42,96
63.5,148.5,42,96
58.5,151.5,42,96
53.5,152.5,42,96
49.5,155.5,42,96
47,157.5,41,94
44,158.5,41,94
44,161.5,41,94
44,162.5,41,94
44,165.5,41,94
45,166.5,41,94
46.5,168.5,40,92
49.5,169.5,40,92
53,170.5,39,90
57,170.5,39,90
62,170.5,39,90
67,169.5,39,90
73,167.5,39,90
79,165.5,39,90
85,162.5,39,88
92,157.5,39,88
99,152.5,39,88
106,146.5,39,88
115,140.5,39,88
121,134.5,39,88
128,127.5,39,88
137.5,119,38,87
143,112.5,39,88
149,103.5,39,88
155,96.5,39,88
160,87.5,39,88
164,81.5,39,88
165,75.5,39,88
167.5,69,38,87
168.5,64,38,87
168.5,59,38,87
167,56.5,39,88
165.5,53,38,87
161.5,53,38,87
159.5,53,38,87
154.5,53,38,87
149.5,54,38,87
144,57.5,39,88
139,61.5,39,88
134,66.5,39,88
129,71.5,39,88
124,77.5,39,88
119,84.5,39,88
115,91.5,39,88
110,99.5,39,90
105.5,105.5,40,92
102,113.5,41,94
100.5,120.5,42,96
99.5,129.5,42,96
98,137.5,43,98
98,145.5,43,98
98.5,154.5,42,96
101.5,162.5,42,96
104.5,170.5,42,96
107.5,177.5,42,96
111.5,182.5,42,96
115.5,187.5,42,96
120.5,191.5,42,96
127.5,195.5,42,96
132.5,198.5,42,96
137.5,198.5,42,96
144.5,199.5,42,96
151.5,199.5,42,96
156.5,199.5,42,96
161.5,198.5,42,96
169,196.5,41,94
173,195.5,41,94
178.5,193.5,40,92
183,191.5,39,90
187,189.5,39,90
191,187.5,39,90
193,185.5,39,90
194.5,182.5,40,92
198,180.5,39,90
199,178.5,39,90
201,176.5,39,90
201.5,174.5,40,92
203,174.5,39,90
204,173.5,39,90
205,172.5,39,90
206,171.5,39,90
206.5,170.5,40,92
207,169.5,41,94
207,169.5,41,94
207,169.5,41,94
206.5,167.5,42,96
206.5,167.5,42,96
206,165.5,43,98
207,164.5,43,98
208,162.5,43,100
209,159.5,43,100
210,156.5,43,100
213,153.5,43,100
215.5,151.5,44,102
216.5,148.5,44,102
219,146.5,45,104
221.5,144.5,46,106
222,142.5,47,108
223,141.5,47,108
223,140.5,47,108
223,140.5,47,108
221.5,139.5,48,110
218.5,137.5,48,110
216.5,137.5,48,110
213.5,135.5,48,110
208.5,135.5,48,110
204,134.5,47,108
199.5,133.5,48,110
194,132.5,47,108
189.5,132.5,48,110
184.5,132.5,48,110
179.5,132.5,48,110
175,131.5,47,108
172,132.5,47,108
168,132.5,47,108
165,133.5,47,108
161,134.5,47,108
158.5,136.5,46,106
156,138.5,45,104
155,141.5,45,104
152,142.5,45,104
151.5,144.5,44,102
150.5,147.5,44,102
149.5,150.5,44,102
148.5,153.5,44,102
149,155.5,43,100
149,158.5,43,100
149,160.5,43,98
150,163.5,43,98
151,166.5,43,98
152.5,168.5,42,96
156,170.5,41,94
157,173.5,41,94
160,174.5,41,94
163.5,176.5,40,92
166.5,177.5,40,92
170,178.5,39,90
172,179.5,39,88
177,178.5,39,90
179,179.5,39,88
184,179.5,39,88
189,178.5,39,88
191,177.5,39,88
196,176.5,39,88
200,175.5,39,88
202,174.5,39,88
206,172.5,39,90
207,171.5,39,90
207,170.5,39,90
207,169.5,39,90
207,168.5,39,90
206,167.5,39,90
203.5,165.5,40,92
200,163.5,41,94
197,162.5,41,94
194.5,160.5,40,92
190.5,159.5,40,92
186.5,158.5,40,92
182.5,157.5,40,92
178.5,156.5,40,92
173,155.5,41,94
169,155.5,41,94
164,155.5,41,94
159,155.5,41,94
154,155.5,41,94
149,154.5,41,94
144,154.5,41,94
139,154.5,41,94
134,154.5,41,94
129,154.5,41,94
125,154.5,41,94
121,154.5,41,94
116,154.5,41,94
112,155.5,41,94
108,156.5,41,94
103.5,158.5,42,96
100,160.5,41,94
96,163.5,41,94
93,164.5,41,94
89.5,167.5,42,96
88.5,170.5,42,96
84.5,173.5,42,96
84,177.5,41,94
82.5,180.5,42,96
82,182.5,41,94
83,185.5,41,94
84,186.5,41,94
88.5,188.5,40,92
92.5,189.5,40,92
96.5,189.5,40,92
101.5,189.5,40,92
108,189.5,39,90
114,188.5,39,90
121,187.5,39,90
128,186.5,39,90
135,185.5,39,90
144,184.5,39,90
153,182.5,39,90
160,180.5,39,90
169,178.5,39,90
176,176.5,39,90
185,172.5,39,90
191,170.5,39,90
198,168.5,39,90
204,164.5,39,90
211,162.5,39,90
217,158.5,39,90
224,156.5,39,90
231,154.5,39,90
238,152.5,39,90
245,151.5,39,90
251.5,148.5,40,92
260,146.5,39,90
266,145.5,39,90
272.5,143.5,40,92
278.5,142.5,40,92
283.5,139.5,40,92
286.5,138.5,40,92
287,134.5,41,94
288,134.5,41,94
288,131.5,41,94
286.5,129.5,42,96
283.5,128.5,42,96
280.5,125.5,42,96
276.5,125.5,42,96
272,121.5,43,98
267,121.5,43,98
260,120.5,43,98
255,118.5,43,100
247,117.5,43,100
240,116.5,43,100
232,114.5,43,98
225,113.5,43,100
217,113.5,43,100
207,113.5,43,100
197,113.5,43,100
187,113.5,43,100
179,113.5,43,100
169,114.5,43,100
161,117.5,43,100
153,118.5,43,100
145,121.5,43,100
137,122.5,43,100
130,123.5,43,100
125,127.5,43,100
120,130.5,43,100
116,133.5,43,100
113,136.5,43,100
112,139.5,43,100
109,142.5,43,100
108,143.5,43,100
107,146.5,43,100
106,147.5,43,100
106,148.5,43,100
107,148.5,43,100
107,148.5,43,100
107,147.5,43,100
108,146.5,43,100
108,145.5,43,100
107.5,143.5,44,102
108,141.5,43,100
107,138.5,43,100
107,135.5,43,100
106,132.5,43,100
105,129.5,43,100
101.5,124.5,44,102
101.5,120.5,44,102
98.5,116.5,44,102
97,111.5,45,104
96,107.5,45,104
93,103.5,45,104
91.5,98.5,46,106
90.5,94.5,46,106
89.5,88.5,46,106
89.5,84.5,46,106
89.5,80.5,46,106
90,75.5,47,108
92.5,70.5,48,110
95.5,65.5,48,110
100.5,60.5,48,110
105,56.5,49,112
110.5,52,50,115
118.5,49,50,115
126,45,51,117
133.5,41,52,119
143.5,38,52,119
154,33.5,53,122
165.5,30.5,54,124
177.5,27.5,54,124
191,23,55,127
203,20,55,127
214.5,16,56,129
226,12.5,57,132
239,10.5,57,132
250,8.5,57,132
259,8.5,57,132
265,9.5,59,134
271,9.5,59,134
274.5,10,60,137
274.5,12,60,137
272,14.5,61,140
266,18.5,61,140
260,22.5,61,140
250,26.5,61,140
240,28.5,61,140
227.5,31,62,143
215.5,35,62,143
201.5,39,62,143
187.5,41,62,143
173.5,45,62,143
159.5,49,62,143
145.5,53,62,143
134,60.5,61,140
124,68.5,61,140
114,76.5,61,140
108.5,84,60,137
104.5,92,60,137
103,99.5,59,134
104,107.5,57,132
104,116.5,57,132
108,121.5,57,132
110.5,130,56,129
116,136,55,127
119.5,142.5,54,124
126.5,147.5,54,124
133.5,150.5,54,124
142.5,152.5,54,124
152,153.5,53,122
160,153.5,53,122
170,153.5,53,122
178,150.5,53,122
187.5,146.5,54,124
196.5,141.5,54,124
203.5,136.5,54,124
210.5,131.5,54,124
215.5,124.5,54,124
220,118,55,127
223,111,55,127
225.5,105,56,129
227.5,98,56,129
225,91.5,57,132
222,85.5,59,134
218,79.5,59,134
211.5,76,60,137
205.5,74,60,137
199,72.5,61,140
191,74.5,61,140
183,74.5,61,140
176.5,77,62,143
170.5,81,62,143
166.5,85,62,143
162.5,89,62,143
160,94,63,145
160,100,63,145
160,106,63,145
164,110,63,145
168,116,63,145
174,122,63,145
180,126,63,145
186,130,63,145
192,134,63,145
200,138,63,145
208,140,63,145
216,140,63,145
222,142,63,145
228,142,63,145
234,142,63,145
240,138,63,145
245,134.5,65,148
251,132.5,65,148
255,128.5,65,148
258.5,123,66,151
262,119.5,67,154
263,113.5,69,158
264.5,108,70,161
264.5,104,70,161
264.5,100,70,161
263.5,94.5,72,164
263,88,73,167
257.5,84,74,171
254.5,80.5,76,174
249.5,75.5,76,174
243.5,72,78,177
236.5,67,78,177
229,63,79,181
219.5,60,78,177
212,56,79,181
204,49,81,185
196,44,81,185
188,39,81,185
180,34,81,185
171.5,29.5,82,188
163.5,24.5,82,188
158.5,21.5,82,188
150.5,16.5,82,188
144.5,11.5,84,192
139.5,8.5,84,192
131.5,5.5,84,192
126.5,2.5,84,192
118.5,2.5,84,192
115.5,2.5,84,192
110.5,2.5,84,192
108.5,4.5,82,188
105.5,9.5,82,188
105.5,12.5,82,188
103,17,81,185
107,24,79,181
107,31,79,181
107.5,38,78,177
113.5,46.5,76,174
116.5,55,74,171
121.5,62,74,171
127,71,73,167
132,80,73,167
137.5,88.5,72,164
145.5,97,70,161
152.5,104,70,161
162,109.5,69,158
172,115.5,67,154
183,119.5,67,154
194,123.5,67,154
202.5,129,66,151
214.5,131,66,151
224.5,133,66,151
236.5,133,66,151
246.5,133,66,151
256.5,131,66,151
266.5,129,66,151
274.5,125,66,151
280.5,121,66,151
288.5,117,66,151
294,111.5,67,154
296,107.5,67,154
299,99.5,69,158
299,95.5,69,158
298.5,90,70,161
298.5,83,70,161
295.5,77.5,72,164
290.5,70.5,72,164
288,64,73,167
283,57,73,167
275.5,50,74,171
267.5,43.5,76,174
259.5,35,78,177
252,28,79,181
245,21,79,181
234,14,81,185
224.5,7.5,84,192
212.5,2.5,86,196
204,0.5,87,200
192,1.5,89,204
180,2.5,91,208
168,0.5,93,212
155,1.5,95,216
141.5,3,98,225
128.5,3.5,100,230
118.5,4.5,102,234
107.5,5,104,239
100.5,5,104,239
92,5.5,107,244
84,3,109,249
79,1,113,259
72,1,113,259
69.5,0,118,269
65.5,0,118,269
64.5,-3,120,275
64.5,-3,120,275
63,-5.5,123,280
62,-8.5,125,286
61,-11,127,291
61,-15,127,291
63.5,-18,130,297
63.5,-22,130,297
67.5,-26,130,297
71.5,-30,130,297
75.5,-38,130,297
79.5,-46,130,297
83.5,-54,130,297
89,-63,127,291
97,-71,127,291
101,-83,127,291
106,-88.5,125,286
114,-96.5,125,286
119,-101.5,123,280
127,-109.5,123,280
131,-121.5,123,280
139,-129.5,123,280
147,-137.5,123,280
152.5,-139,120,275
157.5,-140,118,269
164.5,-144,118,269
170,-141.5,115,264
174,-141.5,115,264
182,-135,113,259
190,-132.5,111,254
198,-123,109,249
206,-117.5,107,244
214.5,-105,104,239
226.5,-90.5,100,230
233.5,-82,98,225
243.5,-74,96,221
250,-62.5,95,216
260,-54.5,93,212
267,-46.5,91,208
271,-35.5,89,204
278.5,-23.5,86,196
283.5,-11.5,82,188
284,-5,81,185
288,5,79,181
288.5,12,78,177
289.5,18.5,76,174
288.5,25,74,171
284,29,73,167
282.5,35.5,72,164
278.5,42,70,161
272,45.5,69,158
267,49.5,67,154
261,51.5,67,154
255,53.5,67,154
249,53.5,67,154
241.5,55,66,151
235.5,57,66,151
227.5,57,66,151
219.5,57,66,151
211.5,57,66,151
203.5,57,66,151
193.5,57,66,151
185.5,57,66,151
175.5,59,66,151
167.5,59,66,151
157.5,59,66,151
149.5,59,66,151
141.5,61,66,151
135.5,61,66,151
128,64.5,65,148
122,66.5,65,148
116,68.5,65,148
111,72,63,145
107,76,63,145
105,78,63,145
103,80,63,145
103,84,63,145
103,86,63,145
105,90,63,145
109.5,93,62,143
113,96,63,145
119.5,99,62,143
127.5,101,62,143
135.5,103,62,143
143.5,107,62,143
152,108.5,61,140
162,110.5,61,140
174.5,110,60,137
183.5,110,60,137
194.5,110,60,137
206,109.5,59,134
215,109.5,59,134
223,108.5,57,132
230,108.5,57,132
237,108.5,57,132
242,108.5,57,132
247.5,110,56,129
251.5,110,56,129
256,111,55,127
259,113,55,127
262.5,114.5,54,124
266,115.5,53,122
269,117.5,53,122
269,119.5,53,122
271,121.5,53,122
269.5,126,52,119
270,130,51,117
268,135,51,117
266,138,51,117
264.5,142,50,115
261.5,147,50,115
255.5,150,50,115
250.5,155,50,115
246,159.5,49,112
241,162.5,49,112
236,165.5,49,112
231,167.5,49,112
226,169.5,49,112
220.5,172.5,48,110
215.5,170.5,48,110
209.5,170.5,48,110
206.5,168.5,48,110
203.5,165.5,48,110
200,161.5,49,112
197,158.5,49,112
195,156.5,49,112
193,154.5,49,112
193,152.5,49,112
195,150.5,49,112
197,148.5,49,112
197,148.5,49,112
198.5,145,50,115
198.5,143,50,115
198,142,51,117
198,139,51,117
196,136,51,117
194,133,51,117
191.5,129,52,119
189.5,124,52,119
186,120.5,53,122
184,117.5,53,122
181.5,113.5,54,124
