245.5,64,12,13
245.5,64,12,13
245.5,64,12,13
245.5,64,12,13
245.5,64,12,13
246.5,64,12,13
246.5,64,12,13
246.5,64,12,13
246.5,64,12,13
246.5,64,12,13
246.5,64,12,13
246.5,64,12,13
246.5,64,12,13
246.5,64,12,13
246.5,64,12,13
246.5,64,12,13
246.5,64,12,13
246.5,64,12,13
246.5,64,12,13
246.5,64,12,13
245.5,64,12,13
245.5,64,12,13
245.5,64,12,13
245.5,64,12,13
244.5,64,12,13
243.5,64,12,13
243.5,64,12,13
242.5,64,12,13
241.5,64,12,13
240.5,64,12,13
239.5,64,12,13
238.5,64,12,13
237.5,64,12,13
236.5,65,12,13
234.5,65,12,13
233.5,65,12,13
232.5,65,12,13
230.5,65,12,13
229.5,65,12,13
227.5,65,12,13
225.5,65,12,13
223.5,65,12,13
222.5,65,12,13
220.5,64,12,13
218.5,64,12,13
216.5,64,12,13
215.5,63,12,13
213.5,63,12,13
211.5,63,12,13
209.5,62,12,13
208.5,62,12,13
206.5,62,12,13
204.5,62,12,13
203.5,62,12,13
201.5,63,12,13
199.5,63,12,13
197.5,63,12,13
196.5,63,12,13
194.5,63,12,13
192.5,63,12,13
190.5,63,12,13
189.5,63,12,13
187.5,63,12,13
185.5,63,12,13
184.5,62,12,13
182.5,62,12,13
180.5,62,12,13
178.5,62,12,13
177.5,62,12,13
175.5,62,12,13
173.5,62,12,13
172.5,62,12,13
170.5,62,12,13
168.5,62,12,13
166.5,63,12,13
164.5,63,12,13
163.5,63,12,13
161.5,63,12,13
159.5,63,12,13
158.5,63,12,13
156.5,63,12,13
155.5,62,12,13
154.5,62,12,13
153.5,61,12,13
152.5,61,12,13
151.5,61,12,13
151.5,61,12,13
151.5,61,12,13
151.5,61,12,13
151.5,62,12,13
151.5,62,12,13
151.5,62,12,13
151.5,63,12,13
152.5,63,12,13
152.5,63,12,13
152.5,63,12,13
153.5,63,12,13
153.5,63,12,13
153.5,63,12,13
154.5,63,12,13
154.5,63,12,13
154.5,63,12,13
154.5,62,12,13
154.5,62,12,13
154.5,62,12,13
155.5,62,12,13
155.5,62,12,13
155.5,62,12,13
155.5,62,12,13
155.5,63,12,13
155.5,63,12,13
155.5,63,12,13
156.5,64,12,13
156.5,64,12,13
156.5,65,12,13
156.5,66,12,13
156.5,66,12,13
157.5,67,12,13
157.5,67,12,13
158.5,67,12,13
158.5,67,12,13
158.5,67,12,13
158.5,67,12,13
158.5,67,12,13
158.5,67,12,13
157.5,66,12,13
157.5,66,12,13
157.5,65,12,13
156.5,64,12,13
156.5,64,12,13
155.5,63,12,13
154.5,63,12,13
153.5,63,12,13
152.5,63,12,13
151.5,62,12,13
150.5,62,12,13
150.5,62,12,13
149.5,62,12,13
148.5,62,12,13
148.5,62,12,13
148.5,63,12,13
148.5,63,12,13
148.5,62,12,13
148.5,62,12,13
147.5,61,12,13
147.5,61,12,13
147.5,60,12,13
146.5,59,12,13
145.5,59,12,13
144.5,59,12,13
143.5,59,12,13
142.5,59,12,13
141.5,59,12,13
140.5,59,12,13
138.5,59,12,13
137.5,59,12,13
135.5,60,12,13
133.5,60,12,13
131.5,60,12,13
130.5,60,12,13
128.5,60,12,13
126.5,60,12,13
125.5,60,12,13
123.5,60,12,13
122.5,60,12,13
120.5,59,12,13
119.5,58,12,13
118.5,57,12,13
116.5,56,12,13
115.5,56,12,13
114.5,56,12,13
112.5,55,12,13
111.5,55,12,13
109.5,55,12,13
108.5,55,12,13
107.5,55,12,13
106.5,55,12,13
106.5,56,12,13
105.5,56,12,13
105.5,56,12,13
104.5,56,12,13
104.5,56,12,13
104.5,56,12,13
103.5,56,12,13
103.5,56,12,13
102.5,55,12,13
102.5,55,12,13
101.5,55,12,13
100.5,55,12,13
100.5,55,12,13
99.5,55,12,13
98.5,55,12,13
97.5,56,12,13
96.5,56,12,13
95.5,56,12,13
93.5,56,12,13
92.5,57,12,13
90.5,58,12,13
89.5,58,12,13
87.5,58,12,13
86.5,58,12,13
85.5,58,12,13
84.5,58,12,13
83.5,57,12,13
82.5,56,12,13
82.5,56,12,13
82.5,55,12,13
82.5,55,12,13
83.5,54,12,13
83.5,54,12,13
84.5,54,12,13
85.5,54,12,13
86.5,54,12,13
88,54.5,11,12
87.5,54,12,13
89.5,55,12,13
90.5,54,12,13
91.5,54,12,13
93.5,53,12,13
94.5,53,12,13
95.5,53,12,13
95.5,52,12,13
96.5,52,12,13
96.5,52,12,13
97.5,52,12,13
97.5,53,12,13
98.5,52,12,13
98.5,53,12,13
99.5,53,12,13
100.5,53,12,13
100.5,54,12,13
101.5,54,12,13
101.5,54,12,13
101.5,55,12,13
101.5,55,12,13
102.5,55,12,13
102.5,54,12,13
103.5,54,12,13
103.5,53,12,13
104.5,53,12,13
104.5,52,12,13
105.5,52,12,13
105.5,51,12,13
105.5,51,12,13
106.5,50,12,13
106.5,49,12,13
106.5,49,12,13
107.5,48,12,13
107.5,48,12,13
108.5,49,12,13
110.5,49,12,13
112.5,50,12,13
114.5,50,12,13
116.5,51,12,13
118.5,52,12,13
121.5,52,12,13
120.5,52,12,13
123.5,53,12,13
126.5,54,12,13
130.5,54,12,13
133.5,55,12,13
137.5,55,12,13
140.5,55,12,13
144.5,54,12,13
146.5,53,12,13
148.5,51,12,13
150.5,50,12,13
151.5,48,12,13
152.5,47,12,13
153.5,46,12,13
155.5,46,12,13
156.5,45,12,13
158.5,45,12,13
161.5,45,12,13
163.5,46,12,13
167.5,46,12,13
170.5,47,12,13
174.5,48,12,13
177.5,48,12,13
181.5,49,12,13
184.5,50,12,13
188.5,50,12,13
192.5,51,12,13
196.5,52,12,13
200.5,53,12,13
205.5,54,12,13
209.5,54,12,13
214.5,54,12,13
218.5,54,12,13
222.5,54,12,13
226.5,54,12,13
229.5,54,12,13
232.5,53,12,13
235.5,53,12,13
238.5,52,12,13
240.5,52,12,13
243.5,52,12,13
246.5,52,12,13
248.5,53,12,13
251.5,53,12,13
254.5,54,12,13
257.5,55,12,13
260.5,55,12,13
263.5,56,12,13
265.5,57,12,13
267.5,58,12,13
270.5,58,12,13
273.5,58,12,13
275.5,58,12,13
277.5,58,12,13
279.5,58,12,13
281.5,57,12,13
282.5,57,12,13
283.5,57,12,13
285.5,56,12,13
286.5,56,12,13
288.5,56,12,13
290.5,57,12,13
292.5,57,12,13
293.5,58,12,13
295.5,58,12,13
296.5,58,12,13
298.5,58,12,13
299.5,58,12,13
300.5,57,12,13
301.5,56,12,13
301.5,55,12,13
302.5,54,12,13
302.5,53,12,13
302.5,52,12,13
303.5,51,12,13
303.5,50,12,13
303.5,48,12,13
303.5,47,12,13
304.5,45,12,13
304.5,45,12,13
305.5,45,12,13
306.5,45,12,13
308.5,46,12,13
309.5,48,12,13
311.5,49,12,13
313.5,50,12,13
315.5,51,12,13
317.5,51,12,13
319.5,51,12,13
321.5,50,12,13
323.5,49,12,13
325.5,48,12,13
326.5,47,12,13
327.5,46,12,13
327.5,45,12,13
327.5,44,12,13
326.5,43,12,13
325.5,42,12,13
324.5,42,12,13
322.5,42,12,13
320.5,42,12,13
318.5,43,12,13
316.5,44,12,13
314.5,45,12,13
311.5,46,12,13
308.5,48,12,13
305.5,49,12,13
305.5,50,12,13
307.5,50,12,13
304.5,51,12,13
302.5,51,12,13
300.5,51,12,13
298.5,50,12,13
296.5,49,12,13
294.5,48,12,13
291.5,47,12,13
288.5,47,12,13
286.5,47,12,13
283.5,48,12,13
279.5,49,12,13
275.5,50,12,13
273.5,50,12,13
268.5,51,12,13
264.5,51,12,13
262.5,51,12,13
259.5,51,12,13
257.5,51,12,13
255.5,51,12,13
252.5,51,12,13
251.5,50,12,13
248.5,51,12,13
245.5,51,12,13
243.5,52,12,13
240.5,53,12,13
238.5,54,12,13
236.5,55,12,13
234.5,56,12,13
232.5,56,12,13
232.5,56,12,13
231.5,56,12,13
231.5,55,12,13
231.5,54,12,13
231.5,53,12,13
231.5,51,12,13
231.5,49,12,13
230.5,47,12,13
231.5,44,12,13
232.5,41,12,13
232.5,40,12,13
235.5,37,12,13
238.5,34,12,13
240.5,32,12,13
242.5,32,12,13
242.5,31,12,13
241.5,30,12,13
239.5,30,12,13
237.5,31,12,13
234.5,31,12,13
230.5,32,12,13
229.5,30,12,13
237,30.5,11,12
236.5,29,12,13
235.5,30,12,13
230.5,30,12,13
226,30.5,11,12
225,37.5,11,12
225,37.5,11,12
227,42.5,11,12
228,48.5,11,12
231,48.5,11,12
231,48.5,11,12
231,48.5,11,12
231,48.5,11,12
231,48.5,11,12
231,47.5,11,12
231,48.5,11,12
230,47.5,11,12
230,47.5,11,12
231,47.5,11,12
230,47.5,11,12
230,47.5,11,12
231,47.5,11,12
231,47.5,11,12
233,46.5,11,12
233,46.5,11,12
230,46.5,11,12
230,46.5,11,12
230,47.5,11,12
231,46.5,11,12
231,46.5,11,12
231,46.5,11,12
231,46.5,11,12
231,46.5,11,12
231,46.5,11,12
230,46.5,11,12
230,46.5,11,12
230,46.5,11,12
230,46.5,11,12
231,46.5,11,12
231,46.5,11,12
231,45.5,11,12
231,45.5,11,12
231,45.5,11,12
230,45.5,11,12
231,45.5,11,12
231,45.5,11,12
231,45.5,11,12
231,45.5,11,12
231,45.5,11,12
231,46.5,11,12
230,46.5,11,12
231,46.5,11,12
231,46.5,11,12
230,46.5,11,12
229,46.5,11,12
231,46.5,11,12
231,46.5,11,12
231,46.5,11,12
