206,85,49,57
200,89,49,57
200.5,93,48,55
202.5,93,48,55
209,87.5,47,54
212.5,82,46,53
213.5,76,46,53
208,69.5,45,52
203.5,68,46,53
203,68.5,45,52
208,72.5,43,50
212,78.5,43,50
215,83.5,41,48
216,88,41,47
218,89,41,47
216.5,87.5,40,46
212.5,85.5,40,46
214,78,41,47
215,72,41,47
216.5,68.5,40,46
198.5,66.5,40,46
203,58.5,41,48
216,54.5,41,48
215.5,62,44,51
215.5,61,42,49
213.5,56,42,49
200.5,65,42,49
199.5,63,42,49
193,60.5,41,48
182,66,41,47
184,72.5,41,48
186,79.5,41,48
201,98.5,41,48
200.5,100,42,49
204.5,147,42,49
215,147.5,41,48
210,146.5,41,48
207,141.5,41,48
217.5,148,42,49
215,152.5,41,48
222.5,142,42,49
223.5,128,42,49
228.5,109,42,49
217,104.5,43,50
212.5,103,44,51
217,112.5,45,52
231,108.5,45,52
245.5,106,44,51
255,103.5,45,52
269,99.5,45,52
265.5,84,46,53
258,107.5,47,54
265,112.5,47,54
251.5,102,48,55
254.5,99,48,55
261.5,97,48,55
273.5,101,48,55
280.5,96,48,55
287.5,90,48,55
294.5,87,48,55
298.5,87,48,55
300.5,83,48,55
299.5,81,48,55
302,77.5,47,54
304.5,74,48,55
306,72,49,57
311,75,49,57
316,81,49,57
318,88,49,57
323,92.5,49,58
323,93.5,49,58
318,95,49,57
310,97,49,57
303,97,49,57
311,94,49,57
304,95,49,57
298,95,49,57
293,91,49,57
296.5,100,48,55
295.5,98,48,55
300,97.5,47,54
296,101.5,47,54
294,107.5,47,54
296,111.5,47,54
297,111.5,47,54
302,108.5,47,54
305,106.5,47,54
305,104.5,47,54
314.5,115,48,55
314.5,124,48,55
314.5,125,48,55
314.5,127,48,55
309.5,128,48,55
303.5,129,48,55
295.5,130,48,55
289.5,130,48,55
285.5,128,48,55
283.5,127,48,55
280.5,127,48,55
280.5,128,48,55
281.5,143,48,55
292.5,146,48,55
289,163,49,57
290,166,49,57
311,182,49,57
311,184,49,57
311,193,49,57
309,203,49,57
303,210,49,57
295,214,49,57
285,215,49,57
279,216,49,57
271,200,49,57
264,195,49,57
271,187.5,49,58
267,183.5,49,58
266,182.5,49,58
263,186.5,49,58
258,193.5,49,58
250,189,49,57
256,168,49,57
277,146,49,57
282,167,49,57
277,178,49,57
266,178.5,49,58
251,173.5,49,58
236,162.5,49,58
229,148.5,49,58
222,138,49,57
216,131,49,57
212,125,49,57
206,117,49,57
208,113,49,57
206,101,49,57
207,116,49,57
203.5,110,48,55
194.5,118,48,55
206.5,119,48,55
216.5,117,48,55
200.5,117,48,55
192.5,100,48,55
185.5,105,48,55
190.5,99,48,55
189,101.5,47,54
183.5,105,46,53
199.5,101,46,53
205.5,114,46,53
211,122.5,47,54
207.5,126,46,53
208.5,119,46,53
216.5,111,46,53
223,113.5,45,52
245,116.5,45,52
263,124.5,45,52
257,115.5,45,52
259.5,124,44,51
258.5,122,44,51
254.5,123,44,51
285.5,110,44,51
280.5,96,44,51
266.5,85,44,51
262.5,84,44,51
249.5,83,44,51
272.5,76,44,51
284,70.5,43,50
298,88.5,43,50
