111,98,25,101
111,101,25,101
110.5,104,24,99
110.5,106,24,99
109,105,25,101
109,106,25,101
108,109,25,101
107.5,111,26,105
105,113,25,103
102,116,25,101
99,118,25,101
95,118,25,101
92,115,25,103
89,112,25,101
88,111,25,101
89.5,110,24,99
88.5,111,24,99
89,110,25,101
91,111,25,101
93,111,25,101
94,110,25,101
96,108,25,103
98.5,106,26,105
99.5,105,26,105
101.5,105,26,107
102.5,108,26,105
103.5,110,26,105
105.5,112.5,24,100
107.5,109.5,24,100
107,103,25,103
106.5,99,26,105
105.5,97,26,107
104.5,96,26,107
104.5,97,26,105
105.5,99,26,105
106.5,99,26,107
105.5,100,26,107
105.5,99,26,105
103.5,97,26,105
104.5,96,26,105
103.5,96,26,105
102.5,93,26,107
101.5,95,26,107
100.5,98,26,107
98.5,98,26,107
95.5,97,26,107
91.5,98,26,107
87.5,95,26,107
83,91,27,109
82.5,91,26,107
80.5,93,26,107
80.5,97,26,105
81.5,100,26,105
82.5,104,26,105
82.5,104,26,105
84.5,102,26,105
87.5,101,26,107
92.5,99,26,107
95,95,27,109
99,94,27,109
103,94,27,109
105,97,27,109
105,98,27,109
107,96,27,109
109,95,27,109
112,93,27,109
113,90,27,111
113,90,27,109
111.5,92,26,107
109.5,93,26,105
107.5,93,26,105
105,92,25,103
102,91,25,103
99,91,25,103
96,91,25,103
93,90,25,103
89,90,25,103
83,90,25,103
67.5,91,26,105
60.5,90,26,105
57.5,88,26,105
52.5,84,26,105
48.5,82,26,105
45.5,79,26,105
43.5,76,26,105
41.5,75,26,105
40.5,72,26,105
38.5,69,26,105
38.5,68,26,105
35.5,66,26,105
35.5,65,26,105
36.5,64,26,105
34.5,64,26,105
31.5,64,26,105
28.5,64,26,105
26.5,64,26,105
21.5,63,26,105
16.5,62,26,105
12.5,60,26,105
7.5,59,26,105
3.5,57,26,105
-1.5,55,26,105
-6.5,52,26,105
-11.5,49,26,105
-15.5,48,26,105
-17.5,46,26,105
-18.5,44,26,105
-14.5,37,26,107
-15.5,54,26,105
-17.5,51,26,107
-19,1,27,109
-18,-2,27,109
-18,-9,27,111
-18.5,-13.5,28,116
-19,-13.5,29,120
-19,4.5,29,118
-19,4.5,29,118
-17.5,4.5,28,116
-17.5,10.5,28,116
-18.5,17,28,113
-18.5,17,28,113
-18.5,17,28,113
-18.5,17,28,113
-17.5,13.5,28,116
-18.5,13.5,28,116
-18.5,11.5,28,116
-18.5,12.5,28,116
-18.5,14.5,28,116
-18.5,14.5,28,116
-18.5,12.5,28,116
-18.5,14.5,28,116
-18.5,19,28,113
-18,22,27,111
-18.5,21,28,113
-18.5,19,28,113
-18.5,22,28,113
-18,34,27,111
-18.5,32,28,113
-18.5,30.5,28,116
-19,29.5,29,118
-19,32.5,29,120
-18.5,40,28,113
-18.5,38,28,113
-18.5,36,28,113
-18.5,36,28,113
-18.5,37,28,113
-18,40,27,111
-18,36,27,111
-18,34,27,111
-18,34,27,111
-18,32,27,111
-18.5,25,28,113
-18.5,22,28,113
-18.5,18.5,28,116
-19.5,17.5,28,116
-19.5,17.5,28,116
-18.5,16,28,113
-18.5,13,28,113
-18,16,27,111
-18,17,27,111
-18,18,27,111
-18,18,27,111
-18,18,27,111
-18,16,27,111
-18,17,27,111
-18,17,27,111
-18.5,15,28,113
-18.5,13.5,28,116
-19,12.5,29,118
-19,12.5,29,120
-19.5,13,30,123
-19.5,14,30,123
-19.5,15,30,123
-19,18.5,29,118
-18.5,20.5,28,116
-18.5,22.5,28,116
-18.5,22.5,28,116
-18.5,26,28,113
-18.5,27,28,113
-18.5,27,28,113
-18.5,28,28,113
-18.5,25,28,113
-18.5,24,28,113
-18.5,22.5,28,116
-18.5,27.5,28,116
-18.5,26.5,28,116
-18.5,25.5,28,116
-18.5,25,28,113
-18.5,24,28,113
-18,26,27,111
-18,25,27,109
-17.5,23,26,107
-17.5,21,26,107
-17.5,22,26,107
-17.5,25,26,105
-16,27,25,103
-16,25,25,103
-16.5,22,26,105
-17.5,20,26,105
-17.5,19,26,105
-17,23,25,103
-16.5,11.5,24,100
-16.5,14,24,99
-16.5,16,24,97
-15,-1,23,95
-15,10,23,95
-16.5,7,24,97
-15.5,18,24,97
-15,22,23,95
-15,14,23,95
-16,21,23,93
-15.5,22,24,99
-15,32,23,95
-15.5,26,24,99
-16,9,25,103
-15.5,27,24,99
-16.5,6,24,99
-16.5,5.5,24,100
-17,10,25,103
-16.5,7,26,107
-18,6,27,109
-18,9,27,111
-18,9,27,109
-18,19,27,111
-19,33,27,109
-18,50,27,109
-17,46,27,109
-17,41,27,111
-18.5,39,28,113
-18.5,35.5,28,116
-19,32.5,29,118
-18.5,35.5,28,116
-19.5,33.5,28,116
-19,44,27,109
-18,41,27,109
-18,38,27,109
-17,34,27,109
-17.5,24,28,113
-18.5,20.5,28,116
-19,18.5,29,118
-19,19.5,29,120
-20,16,31,125
-20,16,31,125
-20,13.5,31,128
-21,14.5,31,128
-21,16,31,125
-21,17,31,125
-21,17,31,125
-21,16.5,31,128
-21,21.5,31,128
-21.5,23.5,32,130
-21.5,22,32,133
-21.5,23,32,133
-21.5,23,32,133
-21.5,24,32,133
-21.5,24,32,133
-22,23,33,135
-21.5,27,32,133
-21.5,29.5,32,130
-21,35.5,31,128
-21,38.5,31,128
-21.5,38.5,32,130
-21.5,35.5,32,130
-21.5,38.5,32,130
-21.5,46.5,32,130
-21.5,50.5,32,130
-21.5,50,32,133
-22,45,33,135
-22.5,42.5,34,138
-23,38,35,141
-23,38,35,141
-23,33.5,35,144
-23,29.5,35,144
-24,28.5,35,144
-24,29.5,35,144
-24,32,35,141
-23.5,36.5,34,138
-22,41,33,135
-21.5,45,32,133
-21.5,47.5,32,130
-21.5,45,32,133
-21,51.5,31,128
-21,52.5,31,128
-21,51.5,31,128
-21.5,50.5,32,130
-21.5,51.5,32,130
-21.5,51.5,32,130
-21.5,50,32,133
-21.5,53,32,133
-22,49,33,135
-22,49,33,135
-22,50,33,135
-22,51,33,135
-22.5,50.5,34,138
-23,52,35,141
-24,51.5,35,144
-24.5,43,36,147
-25,35.5,37,150
-25,26.5,37,150
-25.5,16.5,38,156
-25,12,37,153
-25,0,37,153
-26,-6,39,159
-25,-20,37,153
-25,-32.5,37,150
-25,-41.5,37,150
-24.5,-53,36,147
