40,199,61,103
40,199,61,103
40,199,61,103
40,198,61,103
39,197,61,103
38.5,195,62,105
38,195,61,103
37.5,194,62,105
37.5,193,62,105
36.5,192,62,105
36.5,190,62,105
36.5,187,62,105
35.5,184,62,105
35.5,180,62,105
35.5,175,62,105
36,169,63,107
36,163,63,107
37,156,63,107
37.5,149,64,109
38.5,142,64,109
39.5,134,66,111
41.5,128,66,111
44,121,67,113
47,114,67,113
51,108,67,113
57,102,67,113
60.5,97,68,115
66.5,92,68,115
72.5,87,68,115
78.5,82.5,70,118
86,76.5,71,120
93.5,70,72,123
100.5,65,74,125
110.5,60,74,125
120,54.5,75,128
129,52.5,75,128
139,50.5,75,128
149,46.5,75,128
158,43.5,77,130
168,40.5,77,130
178,37.5,77,130
187,36.5,77,130
196,35.5,77,130
206,33.5,75,128
213,34.5,75,128
222,35.5,75,128
228,37.5,75,128
235,38.5,75,128
241,39.5,75,128
247.5,42,74,125
252.5,44,74,125
257.5,45,74,125
262.5,49,74,125
267.5,51,72,123
269.5,55,72,123
273.5,57,72,123
277.5,61,72,123
281.5,65,72,123
283.5,67,72,123
288.5,72,72,123
292.5,77,72,123
296.5,82,72,123
300.5,87,72,123
304.5,91,72,123
309.5,96,72,123
313.5,100,72,123
318.5,105,72,123
323.5,111,72,123
328.5,116,72,123
332.5,122,72,123
337.5,128,72,123
342,134.5,71,120
347,140.5,71,120
351,147.5,71,120
353,154.5,71,120
357,161.5,71,120
359.5,168.5,70,118
361.5,174.5,70,118
363.5,180.5,70,118
365.5,188,68,115
366,194,67,113
366,197,67,113
366.5,202,66,111
366.5,205,66,111
365.5,206,66,111
365.5,208,64,109
364.5,209,64,109
364,209,63,107
363,208,63,107
363,207,63,107
363,205,63,107
363,202,63,107
364,200,63,107
363.5,196,64,109
364.5,192,64,109
365.5,189,64,109
365.5,184,66,111
367,179,67,113
368,175,67,113
369,169,67,113
368.5,164,68,115
368.5,158,68,115
367.5,150.5,70,118
366.5,145.5,70,118
365.5,140.5,70,118
363,134.5,71,120
359,130.5,71,120
356.5,127,72,123
351.5,123,72,123
345.5,120,74,125
340.5,119,74,125
334.5,118,74,125
328.5,117,74,125
321.5,116,74,125
314,114.5,75,128
306,113.5,77,130
298,113.5,77,130
292,113.5,77,130
284,113.5,77,130
278,114.5,77,130
271.5,114,78,133
262.5,114,80,135
257.5,114,80,135
250.5,115,80,135
245.5,114.5,82,138
240,116,83,141
235,119,83,141
230,120.5,85,144
226,122,87,147
223,123,87,147
220,126,87,147
219,129,87,147
217.5,130.5,88,150
216.5,133.5,88,150
216.5,136.5,88,150
216.5,140.5,88,150
217.5,144.5,88,150
220.5,147.5,88,150
224,150,87,147
228,153,87,147
233,154.5,85,144
240,156,83,141
244,156,83,141
249.5,156.5,82,138
257.5,157,80,135
265.5,157,78,133
271,157.5,77,130
278,158.5,75,128
283,158.5,75,128
289.5,161,74,125
296.5,162,72,123
300.5,163,72,123
305,165.5,71,120
310.5,166.5,70,118
314.5,169,68,115
318,171,67,113
320,172,67,113
323,174,67,113
325.5,177,66,111
327.5,179,66,111
330.5,181,64,109
332,182,63,107
334,182,63,107
335,181,63,107
337,181,63,107
339,180,63,107
342,179,63,107
344,178,63,107
347,177,63,107
350,175,63,107
353.5,173,64,109
355.5,171,66,111
360.5,170,66,111
364.5,169,66,111
368,168,67,113
372,168,67,113
376,167,67,113
380,167,67,113
384,166,67,113
388,165,67,113
394,164,67,113
397,163,67,113
400,162,67,113
404,159,67,113
408.5,158,66,111
411.5,157,66,111
415.5,155,66,111
419.5,153,66,111
422.5,150,66,111
425.5,147,66,111
428.5,145,66,111
431.5,144,66,111
434.5,143,64,109
436.5,142,64,109
440,142,63,107
442,142,63,107
444,142,63,107
446,143,63,107
448,144,63,107
450.5,146,62,105
452.5,148,62,105
454.5,149,62,105
455.5,149,62,105
457.5,148,62,105
458.5,146,62,105
459.5,142,62,105
460.5,138,62,105
460.5,133,62,105
460.5,128,62,105
459.5,123,62,105
458,118,63,107
455,112,63,107
451.5,105,64,109
447.5,98,64,109
441.5,89,66,111
435.5,83,66,111
427,78,67,113
418,72,67,113
408,68,67,113
396.5,63,68,115
381.5,55.5,70,118
367,49.5,71,120
351,43.5,71,120
335,39.5,71,120
316.5,36,72,123
298.5,34,74,125
281.5,32,74,125
264.5,28,74,125
248,24.5,75,128
231,22.5,75,128
214,20.5,75,128
195,18.5,75,128
179,16.5,75,128
165,14.5,75,128
151,12.5,75,128
140,10.5,75,128
128,9.5,75,128
116,9.5,75,128
105,9.5,75,128
94,11.5,75,128
85,13.5,75,128
75,17.5,75,128
68,22.5,75,128
59,27.5,75,128
53,32.5,75,128
47,38.5,75,128
42,44.5,75,128
37,51.5,75,128
33,58.5,75,128
29,64.5,75,128
27.5,73,74,125
25.5,80,74,125
22.5,88,72,123
20.5,95,72,123
18.5,101,72,123
15,108.5,71,120
15.5,114.5,70,118
14.5,122,68,115
13,128,67,113
12.5,132,66,111
12.5,136,64,109
12.5,139,64,109
12,143,63,107
13.5,147,62,105
13.5,151,62,105
15.5,155.5,60,102
16.5,158.5,60,102
17.5,161.5,60,102
18.5,165.5,60,102
20.5,169.5,60,102
21.5,173.5,60,102
23.5,177.5,60,102
25.5,182.5,60,102
27.5,186.5,60,102
29.5,190.5,60,102
31.5,195.5,60,102
34.5,199.5,60,102
36.5,203.5,60,102
39,207.5,59,100
41,210.5,59,100
43,213.5,59,100
45,216.5,59,100
47,219.5,59,100
49,221.5,59,100
50,223.5,59,100
52.5,226,58,99
53.5,229,58,99
54.5,231,58,99
55.5,233,58,99
56.5,235,58,99
57.5,236,58,99
57.5,237,58,99
59,238,57,97
60,239,57,97
61,239,57,97
62,240,57,97
63,240,57,97
64,241,57,97
64,241,57,97
65,242,57,97
67,243,57,97
67,245,57,97
68,246,57,97
69,247,57,97
69,248,57,97
70,249,57,97
70,250,57,97
71,251,57,97
70,253,57,97
70,255,57,97
71,256,57,97
71,258,57,97
71,260,57,97
71,262,57,97
70,265,57,97
70.5,267,56,95
70.5,269,56,95
71,270,55,93
71,271,55,93
71.5,272,54,91
71.5,272,54,91
71.5,272,54,91
71.5,272,54,91
72.5,274,54,91
72.5,276,54,91
73.5,278,54,91
74.5,279,54,91
75.5,279,54,91
77.5,280,54,91
79.5,282,54,91
82,284,53,89
85.5,286,52,87
87.5,287,52,87
89,287.5,51,86
89,287.5,51,86
90,287.5,51,86
90,287.5,51,86
91.5,289.5,50,84
92,291.5,49,82
92,290.5,49,82
92,289.5,49,82
92.5,288.5,50,84
92,290.5,49,82
92,289.5,49,82
92,290.5,49,82
92,290.5,49,82
92,290.5,49,82
92,290.5,49,82
92,290.5,49,82
92,290.5,49,82
92,290.5,49,82
92,290.5,49,82
92,290.5,49,82
92,290.5,49,82
92,290.5,49,82
90.5,288.5,50,84
90.5,289.5,50,84
90,287.5,51,86
89,287.5,51,86
90,287.5,51,86
90,287.5,51,86
90,288.5,51,86
90,287.5,51,86
89,287.5,51,86
90,287.5,51,86
90,288.5,51,86
90,287.5,51,86
90,287.5,51,86
90,287.5,51,86
90,287.5,51,86
90.5,289.5,50,84
92,290.5,49,82
90.5,288.5,50,84
90.5,289.5,50,84
90.5,289.5,50,84
90.5,289.5,50,84
90.5,289.5,50,84
90.5,289.5,50,84
90.5,289.5,50,84
90.5,289.5,50,84
90.5,289.5,50,84
90.5,289.5,50,84
90.5,288.5,50,84
90.5,289.5,50,84
90.5,289.5,50,84
90.5,289.5,50,84
90.5,289.5,50,84
90.5,289.5,50,84
90.5,289.5,50,84
90.5,289.5,50,84
90.5,289.5,50,84
90.5,289.5,50,84
90.5,289.5,50,84
90.5,289.5,50,84
90.5,289.5,50,84
90.5,289.5,50,84
90.5,289.5,50,84
90.5,289.5,50,84
90.5,289.5,50,84
90.5,289.5,50,84
90.5,289.5,50,84
90.5,289.5,50,84
90.5,289.5,50,84
90.5,289.5,50,84
90.5,289.5,50,84
90.5,289.5,50,84
90.5,289.5,50,84
90.5,289.5,50,84
90.5,289.5,50,84
90.5,289.5,50,84
90.5,289.5,50,84
90.5,289.5,50,84
90.5,289.5,50,84
90.5,289.5,50,84
90.5,289.5,50,84
90.5,289.5,50,84
90.5,289.5,50,84
90.5,289.5,50,84
90.5,289.5,50,84
90.5,289.5,50,84
90.5,289.5,50,84
90.5,289.5,50,84
90.5,289.5,50,84
90.5,289.5,50,84
90.5,289.5,50,84
90.5,289.5,50,84
90.5,289.5,50,84
90.5,289.5,50,84
90.5,289.5,50,84
90.5,289.5,50,84
90.5,289.5,50,84
90.5,289.5,50,84
90.5,289.5,50,84
90.5,289.5,50,84
90.5,289.5,50,84
90.5,289.5,50,84
90.5,289.5,50,84
90.5,289.5,50,84
90.5,289.5,50,84
90.5,289.5,50,84
90.5,289.5,50,84
90.5,289.5,50,84
90.5,289.5,50,84
90.5,289.5,50,84
90.5,289.5,50,84
90.5,289.5,50,84
90.5,289.5,50,84
90.5,289.5,50,84
90.5,289.5,50,84
90.5,289.5,50,84
90.5,289.5,50,84
90.5,289.5,50,84
90.5,289.5,50,84
90.5,289.5,50,84
90.5,289.5,50,84
90.5,289.5,50,84
90.5,289.5,50,84
90.5,289.5,50,84
90.5,289.5,50,84
90.5,289.5,50,84
90.5,289.5,50,84
90.5,289.5,50,84
90.5,289.5,50,84
90.5,289.5,50,84
90.5,289.5,50,84
90.5,289.5,50,84
90.5,289.5,50,84
90.5,289.5,50,84
90.5,289.5,50,84
90.5,289.5,50,84
90.5,289.5,50,84
90.5,289.5,50,84
90.5,289.5,50,84
90.5,289.5,50,84
90.5,289.5,50,84
90.5,289.5,50,84
90.5,289.5,50,84
90.5,289.5,50,84
90.5,289.5,50,84
90.5,289.5,50,84
90.5,289.5,50,84
90.5,289.5,50,84
90.5,289.5,50,84
90.5,289.5,50,84
90.5,289.5,50,84
90.5,289.5,50,84
90.5,289.5,50,84
90.5,289.5,50,84
90.5,289.5,50,84
90.5,289.5,50,84
90.5,289.5,50,84
90.5,289.5,50,84
90.5,289.5,50,84
90.5,289.5,50,84
90.5,289.5,50,84
90.5,289.5,50,84
90.5,289.5,50,84
90.5,289.5,50,84
90.5,289.5,50,84
90.5,289.5,50,84
90.5,289.5,50,84
90.5,289.5,50,84
90.5,289.5,50,84
90.5,289.5,50,84
90.5,289.5,50,84
90.5,289.5,50,84
90.5,289.5,50,84
90.5,289.5,50,84
90.5,289.5,50,84
90.5,289.5,50,84
90.5,289.5,50,84
90.5,289.5,50,84
90.5,289.5,50,84
90.5,289.5,50,84
90.5,289.5,50,84
90.5,289.5,50,84
90.5,289.5,50,84
90.5,289.5,50,84
90.5,289.5,50,84
90.5,289.5,50,84
90.5,289.5,50,84
90.5,289.5,50,84
90.5,289.5,50,84
90.5,289.5,50,84
90.5,289.5,50,84
90.5,289.5,50,84
90.5,289.5,50,84
90.5,289.5,50,84
90.5,289.5,50,84
90.5,289.5,50,84
90.5,289.5,50,84
90.5,289.5,50,84
90.5,289.5,50,84
90.5,289.5,50,84
90.5,289.5,50,84
90.5,289.5,50,84
90.5,289.5,50,84
90.5,289.5,50,84
90.5,289.5,50,84
90.5,289.5,50,84
90.5,289.5,50,84
90.5,289.5,50,84
90.5,289.5,50,84
90.5,289.5,50,84
90.5,289.5,50,84
90.5,289.5,50,84
90.5,289.5,50,84
90.5,289.5,50,84
90.5,289.5,50,84
90.5,289.5,50,84
90.5,289.5,50,84
90.5,289.5,50,84
90.5,289.5,50,84
90.5,289.5,50,84
90.5,289.5,50,84
90.5,289.5,50,84
90.5,289.5,50,84
90.5,289.5,50,84
90.5,289.5,50,84
90.5,289.5,50,84
90.5,289.5,50,84
90.5,289.5,50,84
90.5,289.5,50,84
90.5,289.5,50,84
90.5,289.5,50,84
90.5,289.5,50,84
90.5,289.5,50,84
90.5,289.5,50,84
90.5,289.5,50,84
90.5,289.5,50,84
90.5,289.5,50,84
90.5,289.5,50,84
90.5,289.5,50,84
90.5,289.5,50,84
90.5,289.5,50,84
90.5,289.5,50,84
90.5,289.5,50,84
90.5,289.5,50,84
90.5,289.5,50,84
90.5,289.5,50,84
90.5,289.5,50,84
90.5,289.5,50,84
90.5,289.5,50,84
90.5,289.5,50,84
90.5,289.5,50,84
90.5,289.5,50,84
90.5,289.5,50,84
90.5,289.5,50,84
90.5,289.5,50,84
90.5,289.5,50,84
90.5,289.5,50,84
90.5,289.5,50,84
90.5,289.5,50,84
90.5,289.5,50,84
90.5,289.5,50,84
90.5,289.5,50,84
90.5,289.5,50,84
90.5,289.5,50,84
90.5,289.5,50,84
90.5,289.5,50,84
90.5,289.5,50,84
90.5,289.5,50,84
90.5,289.5,50,84
90.5,289.5,50,84
90.5,289.5,50,84
90.5,289.5,50,84
90.5,289.5,50,84
90.5,289.5,50,84
90.5,289.5,50,84
90.5,289.5,50,84
90.5,289.5,50,84
90.5,289.5,50,84
90.5,289.5,50,84
90.5,289.5,50,84
90.5,289.5,50,84
90.5,289.5,50,84
90.5,289.5,50,84
90.5,289.5,50,84
90.5,289.5,50,84
90.5,289.5,50,84
90.5,289.5,50,84
90.5,289.5,50,84
90.5,289.5,50,84
90.5,289.5,50,84
90.5,289.5,50,84
90.5,289.5,50,84
90.5,289.5,50,84
90.5,289.5,50,84
90.5,289.5,50,84
90.5,289.5,50,84
90.5,289.5,50,84
90.5,289.5,50,84
90.5,289.5,50,84
90.5,289.5,50,84
90.5,289.5,50,84
90.5,289.5,50,84
90.5,289.5,50,84
90.5,289.5,50,84
90.5,289.5,50,84
90.5,289.5,50,84
90.5,289.5,50,84
90.5,289.5,50,84
90.5,289.5,50,84
90.5,289.5,50,84
90.5,289.5,50,84
90.5,289.5,50,84
90.5,290.5,50,84
90.5,290.5,50,84
90.5,289.5,50,84
90.5,290.5,50,84
90.5,289.5,50,84
90.5,289.5,50,84
90.5,289.5,50,84
90.5,289.5,50,84
90.5,289.5,50,84
90.5,289.5,50,84
90.5,289.5,50,84
90.5,289.5,50,84
90.5,289.5,50,84
90.5,289.5,50,84
90.5,289.5,50,84
90.5,289.5,50,84
90.5,289.5,50,84
90.5,289.5,50,84
90.5,289.5,50,84
90.5,289.5,50,84
90.5,289.5,50,84
90.5,289.5,50,84
90.5,289.5,50,84
90.5,289.5,50,84
90.5,289.5,50,84
90.5,289.5,50,84
90.5,289.5,50,84
90.5,289.5,50,84
90.5,289.5,50,84
90.5,289.5,50,84
90.5,289.5,50,84
90.5,289.5,50,84
90.5,289.5,50,84
90.5,289.5,50,84
90.5,289.5,50,84
90.5,289.5,50,84
90.5,289.5,50,84
90.5,289.5,50,84
90.5,289.5,50,84
90.5,289.5,50,84
90.5,290.5,50,84
90.5,289.5,50,84
90.5,289.5,50,84
90.5,289.5,50,84
90.5,289.5,50,84
90.5,289.5,50,84
90.5,289.5,50,84
90.5,289.5,50,84
90.5,289.5,50,84
90.5,289.5,50,84
90.5,289.5,50,84
90.5,289.5,50,84
90.5,289.5,50,84
90.5,289.5,50,84
90.5,289.5,50,84
90.5,289.5,50,84
90.5,289.5,50,84
90.5,289.5,50,84
90.5,289.5,50,84
90.5,289.5,50,84
90.5,289.5,50,84
90.5,289.5,50,84
90.5,289.5,50,84
90.5,289.5,50,84
90.5,289.5,50,84
90.5,289.5,50,84
90.5,289.5,50,84
90.5,289.5,50,84
90.5,289.5,50,84
90.5,289.5,50,84
90.5,289.5,50,84
90.5,289.5,50,84
90.5,289.5,50,84
90.5,289.5,50,84
90.5,289.5,50,84
90.5,289.5,50,84
90.5,289.5,50,84
90.5,289.5,50,84
90.5,289.5,50,84
90.5,289.5,50,84
90.5,289.5,50,84
90.5,289.5,50,84
90.5,289.5,50,84
90.5,289.5,50,84
90.5,289.5,50,84
90.5,289.5,50,84
90.5,289.5,50,84
90.5,289.5,50,84
90.5,289.5,50,84
90.5,289.5,50,84
90.5,289.5,50,84
90.5,289.5,50,84
90.5,289.5,50,84
90.5,289.5,50,84
90.5,289.5,50,84
90.5,289.5,50,84
90.5,289.5,50,84
90.5,289.5,50,84
90.5,289.5,50,84
90.5,289.5,50,84
90.5,289.5,50,84
90.5,289.5,50,84
90.5,289.5,50,84
90.5,289.5,50,84
90.5,289.5,50,84
90.5,289.5,50,84
90.5,289.5,50,84
90.5,289.5,50,84
90.5,289.5,50,84
90.5,289.5,50,84
90.5,289.5,50,84
90.5,289.5,50,84
90.5,289.5,50,84
90.5,289.5,50,84
90.5,289.5,50,84
90.5,289.5,50,84
90.5,289.5,50,84
90.5,289.5,50,84
90.5,289.5,50,84
90.5,289.5,50,84
90.5,289.5,50,84
90.5,289.5,50,84
90.5,289.5,50,84
90.5,289.5,50,84
90.5,289.5,50,84
90.5,289.5,50,84
90.5,289.5,50,84
90.5,289.5,50,84
90.5,289.5,50,84
90.5,289.5,50,84
90.5,289.5,50,84
90.5,289.5,50,84
90.5,289.5,50,84
90.5,289.5,50,84
90.5,289.5,50,84
90.5,289.5,50,84
90.5,289.5,50,84
90.5,289.5,50,84
90.5,289.5,50,84
90.5,289.5,50,84
90.5,289.5,50,84
90.5,289.5,50,84
90.5,289.5,50,84
90.5,289.5,50,84
90.5,289.5,50,84
90.5,289.5,50,84
90.5,289.5,50,84
90.5,289.5,50,84
90.5,289.5,50,84
90.5,289.5,50,84
90.5,288.5,50,84
90.5,289.5,50,84
90.5,289.5,50,84
90.5,289.5,50,84
90.5,289.5,50,84
90.5,289.5,50,84
90.5,289.5,50,84
90.5,289.5,50,84
90.5,289.5,50,84
90.5,289.5,50,84
90.5,289.5,50,84
90.5,289.5,50,84
90.5,289.5,50,84
90.5,289.5,50,84
90.5,289.5,50,84
90.5,289.5,50,84
90.5,289.5,50,84
90.5,289.5,50,84
90.5,289.5,50,84
90.5,289.5,50,84
90.5,289.5,50,84
90.5,289.5,50,84
90.5,289.5,50,84
90.5,289.5,50,84
90.5,289.5,50,84
90.5,289.5,50,84
90.5,289.5,50,84
90.5,289.5,50,84
90.5,289.5,50,84
90.5,289.5,50,84
90.5,289.5,50,84
90.5,289.5,50,84
90.5,289.5,50,84
90.5,289.5,50,84
90.5,289.5,50,84
90.5,289.5,50,84
90.5,289.5,50,84
90.5,289.5,50,84
90.5,289.5,50,84
90.5,289.5,50,84
90.5,289.5,50,84
90.5,289.5,50,84
90.5,289.5,50,84
90.5,289.5,50,84
90.5,289.5,50,84
90.5,289.5,50,84
90.5,289.5,50,84
90.5,289.5,50,84
90.5,289.5,50,84
90.5,289.5,50,84
90.5,289.5,50,84
90.5,289.5,50,84
90.5,289.5,50,84
90.5,289.5,50,84
90.5,289.5,50,84
90.5,289.5,50,84
90.5,289.5,50,84
90.5,289.5,50,84
90.5,289.5,50,84
90.5,289.5,50,84
90.5,289.5,50,84
90.5,289.5,50,84
90.5,289.5,50,84
90.5,289.5,50,84
90.5,289.5,50,84
90.5,289.5,50,84
90.5,289.5,50,84
90.5,289.5,50,84
90.5,289.5,50,84
90.5,289.5,50,84
90.5,289.5,50,84
90.5,289.5,50,84
90.5,289.5,50,84
90.5,289.5,50,84
90.5,289.5,50,84
90.5,289.5,50,84
90.5,289.5,50,84
90.5,289.5,50,84
90.5,289.5,50,84
92,290.5,49,82
92.5,290,48,81
92.5,291,48,81
92,290.5,49,82
93.5,290,48,81
93,290.5,49,82
92.5,290,48,81
93,290.5,49,82
93.5,290,48,81
93,290.5,49,82
93.5,290,48,81
94,288.5,49,82
98,283.5,49,82
100.5,282,48,81
103.5,280,48,81
94.5,263,48,81
98,261.5,49,82
101,259.5,49,82
105,259.5,49,82
108.5,257.5,50,84
112.5,257.5,50,84
117.5,257.5,50,84
122.5,256.5,50,84
127,254.5,51,86
132.5,254,52,87
138.5,253,52,87
144.5,253,52,87
151,252,53,89
157,253,53,89
163,253,53,89
170.5,254,52,87
177,253.5,51,86
184,253.5,51,86
189,251.5,51,86
195.5,249.5,50,84
200.5,247.5,50,84
206.5,245.5,50,84
211,242.5,49,82
216,239.5,49,82
221,236.5,49,82
225,232.5,49,82
230,229.5,49,82
235,227.5,49,82
239.5,224.5,50,84
244,221.5,51,86
249,218.5,51,86
253.5,216.5,50,84
258.5,215.5,50,84
263.5,213.5,50,84
267.5,212.5,50,84
271.5,212.5,50,84
274.5,211.5,50,84
278,211.5,49,82
280,210.5,49,82
282.5,212,48,81
284.5,211,48,81
285.5,210,48,81
286,210,47,79
286,209,47,79
286,208,47,79
286,207,47,79
285,205,47,79
283.5,203.5,46,78
282.5,201.5,46,78
280.5,200.5,46,78
278.5,198.5,46,78
276.5,196.5,46,78
274.5,194.5,46,78
272,192,47,79
270,189,47,79
268,186,47,79
266,183,47,79
264,181,47,79
262,178,47,79
260.5,175,48,81
259.5,173,48,81
259.5,169,48,81
258,166.5,49,82
257.5,163.5,50,84
257.5,161.5,50,84
257.5,159.5,50,84
259.5,158.5,50,84
260.5,157.5,50,84
263,157.5,49,82
264,157.5,49,82
265,158.5,49,82
267.5,159,48,81
268.5,160,48,81
271,160,47,79
273.5,158.5,46,78
277,158.5,45,76
278,157.5,45,76
279.5,157,44,75
280.5,156,44,75
281,154.5,45,76
282,153.5,45,76
282.5,151.5,46,78
282,149,47,79
283,147,47,79
282.5,145.5,46,78
283.5,143.5,46,78
283.5,140.5,46,78
283.5,138.5,46,78
283.5,136.5,46,78
283.5,135.5,46,78
283.5,135.5,46,78
283.5,134.5,46,78
283.5,134.5,46,78
283.5,133.5,46,78
283.5,133.5,46,78
283.5,132.5,46,78
283.5,131.5,46,78
283.5,131.5,46,78
283.5,130.5,46,78
283.5,132,44,75
283.5,131,44,75
283.5,130,44,75
283.5,129,44,75
283.5,128,44,75
283.5,127,44,75
283.5,126,44,75
283.5,125,44,75
283.5,123.5,46,78
283.5,122.5,46,78
284,122,47,79
284.5,121,48,81
285.5,121,48,81
285.5,121,48,81
285.5,121,48,81
285.5,121,48,81
285,121.5,49,82
285,122.5,49,82
286,126.5,49,82
285,131.5,49,82
285.5,135,48,81
286,139,47,79
287,142,47,79
287,146,47,79
286.5,149.5,46,78
286.5,154.5,46,78
286.5,159.5,46,78
286.5,163.5,46,78
286.5,165.5,46,78
288.5,168.5,46,78
291.5,174,44,75
294.5,178.5,42,72
300,181.5,41,70
304,183,41,69
310,184,41,69
317.5,186,40,67
324.5,186,40,67
333,185,41,69
342,187,41,69
350.5,184.5,42,72
361.5,184.5,42,72
373,184.5,41,70
384,185.5,41,70
394.5,184.5,42,72
406.5,183.5,42,72
417.5,180.5,42,72
428.5,176.5,42,72
439.5,174.5,42,72
448.5,171.5,42,72
454,167,43,73
459,165,43,73
462,162,43,73
462.5,158,44,75
463,156.5,45,76
460,152.5,45,76
455.5,150.5,46,78
448.5,148.5,46,78
441.5,147.5,46,78
433,145,47,79
424,142,47,79
413.5,139,48,81
402.5,136,48,81
392.5,134,48,81
381,131.5,49,82
371,128.5,49,82
361,124.5,49,82
353,121.5,49,82
345,118.5,49,82
339,116.5,49,82
333,114.5,49,82
327,112.5,49,82
324,110.5,49,82
322,108.5,49,82
320,106.5,49,82
318,105.5,49,82
318,106.5,49,82
318,106.5,49,82
317,106.5,49,82
317,107.5,49,82
316,109.5,49,82
314,111.5,49,82
312,113.5,49,82
310.5,118,48,81
305.5,124,48,81
301.5,130,48,81
295.5,137,48,81
290,145,47,79
283.5,150,48,81
277,159,47,79
269,167,47,79
261,173,47,79
254.5,177.5,46,78
250.5,179.5,46,78
239,177,47,79
233,174,47,79
228,169,47,79
223,164,47,79
218,157,47,79
215.5,145.5,46,78
213,141,47,79
210.5,132,48,81
211.5,128,48,81
211.5,122,48,81
212.5,116,48,81
212.5,109,48,81
213,102.5,49,82
214,96.5,49,82
214,90.5,49,82
214,84.5,49,82
213,78.5,49,82
212.5,75,48,81
212.5,74.5,46,78
212,75.5,45,76
210.5,76,44,75
209.5,78,44,75
204.5,79,44,75
200.5,81,44,75
196.5,83,44,75
192.5,84,44,75
189.5,85,44,75
185.5,86,44,75
178.5,86,44,75
172.5,85,44,75
167.5,85,44,75
160.5,84,44,75
157.5,83,44,75
150.5,82,44,75
147,80.5,45,76
145.5,79,44,75
142.5,76,44,75
141,76,43,73
139,75,43,73
138.5,73.5,42,72
137.5,72.5,42,72
137.5,71.5,42,72
137.5,70.5,42,72
138.5,69.5,42,72
138.5,68.5,42,72
139.5,67.5,42,72
140.5,66.5,42,72
140.5,66.5,42,72
141,66,43,73
142.5,66.5,42,72
142.5,67.5,42,72
143.5,66.5,42,72
142.5,67.5,42,72
143,68,43,73
143,69.5,41,70
143,70.5,41,70
142,72,41,69
142,72,41,69
141,72,41,69
141,72,41,69
140,72,41,69
140,72,41,69
139,72,41,69
140,71,41,69
139,72,41,69
139,72,41,69
139.5,74,40,67
140,75.5,39,66
139,78.5,39,66
138.5,81,40,67
138,83,41,69
138,86,41,69
139,88,41,69
139,89,41,69
139,90,41,69
140,90,41,69
139,91,41,69
140,92,41,69
140,93,41,69
141,92,41,69
141,91,41,69
142,90,41,69
143,90.5,41,70
143,89.5,41,70
144,88.5,41,70
145,88,41,69
147,87.5,41,70
148,86.5,41,70
149,85.5,41,70
151,84.5,41,70
152,82.5,41,70
153,81.5,41,70
155,80.5,41,70
156,80.5,41,70
158,80.5,41,70
159,81,41,69
161,81,41,69
163,81,41,69
165,80,41,69
167,79,41,69
170,78,41,69
171.5,78,40,67
174.5,78,40,67
175.5,77,40,67
178.5,76,40,67
180.5,75,40,67
183.5,73,40,67
185.5,72,40,67
187.5,71,40,67
189.5,70,40,67
191.5,69,40,67
193,68.5,39,66
195,66.5,39,66
196,65.5,39,66
197.5,65,38,65
198.5,64,38,65
199,63.5,37,64
200,63.5,37,64
200,63.5,37,62
201,62.5,37,62
200,61.5,37,62
201,59.5,37,62
200.5,59,36,61
201.5,59,36,61
201,58.5,35,60
202,57.5,35,60
203,56.5,35,60
204,55.5,35,60
205,54.5,35,60
206,54,35,59
208,54.5,35,60
209,54,35,59
211,54,35,59
213,55,35,59
214,56,35,59
216,57,35,59
217.5,57.5,34,58
218.5,58.5,34,58
219.5,59.5,34,58
220.5,59.5,34,58
221.5,59.5,34,58
222.5,59.5,34,58
223.5,59.5,34,58
223.5,59.5,34,58
225,59.5,33,56
225,58.5,33,56
226,58,33,55
227,58.5,33,56
227,58,33,55
228,57,33,55
229,57.5,33,56
228,58,33,55
229,57,33,55
230,56,33,55
229,56.5,33,56
228,57,33,55
229,57,33,55
228,57.5,33,56
227,58.5,33,56
227,58.5,33,56
226,59,33,55
226,59,33,55
226,59.5,33,56
225,60.5,33,56
225,60,33,55
226,60,33,55
225,60,33,55
226,60,33,55
227,60,33,55
228.5,59.5,32,54
229,60,33,55
230,60,33,55
231,60,33,55
233.5,59.5,32,54
234.5,59.5,32,54
236.5,58.5,32,54
238.5,58.5,32,54
240.5,57.5,32,54
242,57,33,55
244,57,33,55
246,57.5,33,56
247,57.5,33,56
249,56.5,33,56
252,56.5,33,56
254,55.5,33,56
256,55.5,33,56
258.5,53.5,34,58
260,54,35,59
263,53.5,35,60
264.5,54,36,61
267,53.5,35,60
268.5,55,36,61
271.5,56,36,61
274.5,59,36,61
277,62.5,37,62
280,65.5,37,62
284,67.5,37,64
285.5,71,38,65
289,72.5,39,66
294,74.5,39,66
299,77.5,39,66
303.5,82,40,67
309.5,87,40,67
314.5,92,40,67
320,98,41,69
326,103.5,41,70
331,108.5,41,70
336,114,41,69
343,121.5,41,70
347,128.5,41,70
352,135.5,41,70
356,141.5,41,70
359,146.5,41,70
362,151.5,41,70
362.5,155.5,42,72
364.5,160.5,42,72
364.5,165.5,42,72
364.5,169.5,42,72
363.5,173.5,42,72
362.5,177.5,42,72
361.5,180.5,42,72
360.5,184.5,42,72
357,188,43,73
356.5,190.5,42,72
353.5,193.5,42,72
352,197,43,73
350.5,199.5,42,72
349.5,203.5,42,72
348.5,207.5,42,72
347.5,211.5,42,72
347.5,213.5,42,72
348,216,43,73
348,218,43,73
349,221,43,73
350,223,43,73
352,225,43,73
355,228,43,73
357,230,43,73
359,231,43,73
361.5,232,44,75
363,233.5,45,76
365,234.5,45,76
368,235.5,45,76
369,236.5,45,76
369.5,236.5,46,78
371.5,236.5,46,78
371.5,235.5,46,78
371.5,236.5,46,78
370,237,47,79
369.5,236.5,46,78
367.5,236.5,46,78
365.5,236.5,46,78
362.5,237.5,46,78
361,237.5,45,76
