117.5,68,122,125
114.5,62,122,125
111.5,52,124,127
107.5,61,132,135
106.5,61,132,135
107.5,60,132,135
107.5,55,140,143
108.5,54,140,143
113.5,56.5,134,138
118.5,60,132,135
128,61.5,129,132
135.5,64,124,127
144,68.5,119,122
152,72.5,117,120
158.5,76,114,117
163.5,78,112,115
164.5,81,112,115
166.5,86.5,108,110
170.5,87.5,108,110
173.5,86,110,113
180.5,87.5,108,110
187.5,82.5,108,110
191.5,81.5,106,108
195.5,78.5,106,108
197.5,75.5,104,106
194.5,72.5,106,108
191.5,69.5,108,110
188.5,56.5,108,110
181.5,50.5,106,108
176.5,46.5,102,104
173.5,35.5,104,106
173.5,24.5,102,104
170.5,14.5,102,104
167.5,3.5,102,104
165.5,-5.5,100,102
164.5,-15.5,98,100
163.5,-25.5,96,98
161.5,-36.5,96,98
160.5,-47.5,94,96
159.5,-57.5,92,94
154.5,-69.5,94,96
152.5,-81.5,94,96
144.5,-88.5,98,100
139.5,-118.5,96,98
173.5,-140.5,96,98
176.5,-159.5,96,98
176.5,-176.5,96,98
172.5,-184.5,96,98
171.5,-194.5,98,100
168.5,-203.5,98,100
165.5,-215.5,100,102
164.5,-224.5,100,102
161.5,-232.5,100,102
156.5,-240.5,100,102
109.5,-245.5,100,102
105.5,-252.5,100,102
103.5,-263.5,100,102
105.5,-270.5,100,102
98.5,-277.5,100,102
88.5,-282.5,102,104
84.5,-291.5,104,106
74.5,-295.5,102,104
70.5,-299.5,102,104
70.5,-299.5,102,104
75.5,-299.5,102,104
62.5,-298.5,102,104
59.5,-298.5,102,104
40.5,-300.5,102,104
40.5,-307.5,102,104
35.5,-304.5,102,104
42.5,-302.5,102,104
35.5,-299.5,102,104
74.5,-302.5,102,104
72.5,-298.5,100,102
71.5,-295.5,98,100
72.5,-293.5,98,100
72.5,-294.5,98,100
70.5,-292.5,98,100
63.5,-291.5,98,100
82.5,-295.5,98,100
70.5,-294.5,98,100
56.5,-293.5,98,100
49.5,-299.5,98,100
47.5,-298.5,98,100
47.5,-293.5,98,100
52.5,-290.5,98,100
56.5,-289.5,98,100
54.5,-284.5,98,100
55.5,-282.5,98,100
54.5,-283.5,98,100
55.5,-282.5,98,100
63.5,-284.5,98,100
63.5,-279.5,98,100
65.5,-277.5,98,100
64.5,-275.5,98,100
64.5,-273.5,96,98
62.5,-273.5,96,98
54.5,-273.5,96,98
58.5,-272.5,98,100
62.5,-272.5,98,100
64.5,-272.5,98,100
60.5,-269.5,98,100
53.5,-267.5,98,100
52.5,-267.5,98,100
45.5,-266.5,100,102
43.5,-267.5,100,102
41.5,-267.5,102,104
38.5,-265.5,102,104
42.5,-265.5,102,104
36.5,-265.5,102,104
49.5,-264.5,102,104
46.5,-262.5,102,104
43.5,-259.5,102,104
48.5,-259.5,102,104
39.5,-259.5,102,104
35.5,-258.5,102,104
35.5,-257.5,102,104
34.5,-259.5,102,104
32.5,-258.5,102,104
50.5,-261.5,102,104
50.5,-261.5,102,104
51.5,-262.5,102,104
52.5,-260.5,102,104
53.5,-260.5,102,104
62.5,-261.5,102,104
64.5,-260.5,102,104
76.5,-261.5,102,104
78.5,-262.5,104,106
87.5,-263.5,104,106
95.5,-263.5,104,106
84.5,-263.5,104,106
95.5,-263.5,104,106
102.5,-265.5,104,106
106.5,-267.5,104,106
88.5,-268.5,104,106
99.5,-269.5,104,106
109.5,-270.5,104,106
116.5,-271.5,104,106
120.5,-272.5,106,108
123.5,-272.5,106,108
121.5,-272.5,106,108
124.5,-272.5,104,106
123.5,-272.5,106,108
127.5,-273.5,106,108
131.5,-270.5,106,108
128.5,-269.5,106,108
127.5,-269.5,106,108
127.5,-270.5,106,108
125.5,-270.5,106,108
104.5,-266.5,102,104
116.5,-266.5,102,104
98.5,-264.5,102,104
96.5,-266.5,100,102
95.5,-267.5,100,102
94.5,-267.5,100,102
93.5,-267.5,100,102
91.5,-267.5,100,102
91.5,-268.5,100,102
99.5,-268.5,100,102
93.5,-267.5,98,100
94.5,-268.5,98,100
90.5,-267.5,98,100
112.5,-266.5,100,102
112.5,-266.5,100,102
