319,185.5,67,56
317,184.5,67,56
315,183.5,67,56
313,182.5,67,56
312,181.5,67,56
311.5,181,64,53
308.5,178,68,57
306.5,177,68,57
305,176.5,67,56
303,175.5,67,56
301.5,173,68,57
299.5,172,68,57
298,170.5,69,58
295,169,71,59
296,167.5,69,58
294,166.5,69,58
293,164,71,59
292,163,71,59
291,162,71,59
290,160,71,59
287.5,157.5,72,60
286.5,155.5,72,60
286,155,71,59
285,154,71,59
283,153,71,59
282,151,71,59
281.5,148.5,72,60
280,146,73,61
279,144,73,61
277,141,75,63
278,140,73,61
278.5,138.5,72,60
279,137,71,59
279,135,71,59
277.5,132.5,72,60
276.5,129.5,72,60
276.5,127.5,72,60
276,125,73,61
275,122,75,63
276,121,75,63
276,119,75,63
276,117,75,63
276,115,75,63
276,113,75,63
276,112,75,63
276.5,109.5,76,64
276.5,108.5,76,64
275.5,107,78,65
275.5,105,78,65
275.5,104,78,65
275.5,103,78,65
276.5,103,78,65
276.5,102,78,65
275.5,100.5,80,66
277.5,101,78,65
276.5,99.5,80,66
277.5,99.5,80,66
278.5,99,78,65
278.5,99,78,65
278.5,98,78,65
279.5,98,78,65
279.5,97,78,65
280.5,97,78,65
281.5,97,78,65
281.5,96,78,65
281.5,96,78,65
282.5,96,78,65
284.5,95.5,76,64
285.5,95.5,76,64
285.5,95.5,76,64
286.5,94.5,76,64
286.5,94.5,76,64
287.5,93.5,76,64
288.5,93.5,76,64
288.5,92,78,65
289.5,92,78,65
289.5,91,78,65
291.5,91,78,65
291.5,90,78,65
292.5,89,78,65
293.5,88.5,76,64
294.5,88.5,76,64
294.5,87.5,76,64
295.5,87.5,76,64
296.5,86.5,76,64
295.5,86,78,65
294.5,84.5,80,66
295.5,83.5,80,66
295.5,83.5,80,66
295.5,82.5,80,66
295.5,82.5,80,66
296.5,82.5,80,66
296.5,82.5,80,66
296.5,81.5,80,66
296.5,81.5,80,66
296.5,81.5,80,66
297.5,80.5,80,66
297.5,80.5,80,66
297.5,79.5,80,66
297.5,79.5,80,66
296.5,78.5,80,66
296.5,78.5,80,66
296.5,78.5,80,66
296.5,78.5,80,66
296.5,78.5,80,66
296.5,78.5,80,66
296.5,78.5,80,66
296.5,78.5,80,66
296.5,78.5,80,66
296.5,78.5,80,66
298.5,79,78,65
297.5,79,78,65
297.5,79,78,65
297.5,79,78,65
297.5,79,78,65
296.5,79.5,80,66
296.5,79.5,80,66
296.5,80.5,80,66
297.5,80.5,80,66
297.5,81.5,80,66
297.5,81.5,80,66
296.5,81.5,80,66
296.5,82.5,80,66
295.5,82.5,80,66
295.5,83.5,80,66
295.5,83.5,80,66
295.5,84.5,80,66
295.5,85.5,80,66
294.5,85.5,80,66
294.5,85.5,80,66
293.5,86.5,80,66
293.5,87.5,80,66
292.5,88.5,80,66
292,87.5,81,68
291,88.5,81,68
290,89.5,81,68
290,90.5,81,68
290,90.5,81,68
289,91.5,81,68
289,91.5,81,68
288,92.5,81,68
288,92.5,81,68
287,92.5,81,68
286,93.5,81,68
286,93.5,81,68
285,93.5,81,68
284,93.5,81,68
284,94.5,81,68
283,94.5,81,68
282,95.5,81,68
282,96.5,81,68
282,96.5,81,68
281,96.5,81,68
280,97.5,81,68
280,97.5,81,68
279,97.5,81,68
278,98.5,81,68
277,99.5,81,68
277,100.5,81,68
276,100.5,81,68
276,101.5,81,68
275,102.5,81,68
275,103.5,81,68
275,104.5,81,68
274,105.5,81,68
274,106.5,81,68
273,107.5,81,68
273,108.5,81,68
272,108.5,81,68
272.5,110.5,80,66
272.5,111.5,80,66
272.5,112.5,80,66
271.5,113.5,80,66
270.5,113.5,80,66
270.5,114.5,80,66
269.5,115.5,80,66
269.5,115.5,80,66
269.5,116.5,80,66
268.5,117.5,80,66
268.5,117.5,80,66
267.5,118.5,80,66
266.5,119.5,80,66
266.5,119.5,80,66
265.5,120.5,80,66
264,119.5,81,68
263,120.5,81,68
262,121.5,81,68
260,122,83,69
260,122,83,69
260,123,83,69
259,125,83,69
258,126,83,69
257,128,83,69
256,129,83,69
255,131,83,69
254,133,83,69
253,135,83,69
252,137,83,69
252,139,83,69
251,141,83,69
252,143.5,81,68
251,145.5,81,68
250,147.5,81,68
249,149.5,81,68
249,151.5,81,68
249,152.5,81,68
249,154.5,81,68
248.5,159.5,80,66
249.5,159.5,80,66
249.5,161.5,80,66
249.5,163.5,80,66
249.5,164.5,80,66
248.5,165.5,80,66
249.5,167,78,65
249.5,168.5,76,64
248.5,169.5,76,64
248.5,170.5,76,64
247.5,170.5,76,64
247.5,170.5,76,64
246.5,171.5,76,64
246.5,171.5,76,64
245.5,172.5,76,64
245.5,172.5,76,64
244.5,173.5,76,64
244.5,173.5,76,64
243.5,173.5,76,64
242.5,174.5,76,64
241.5,174.5,76,64
