162.5,188.5,34,84
162.5,188.5,34,84
161.5,188.5,34,84
161.5,188.5,34,84
161.5,188,34,85
160,186,35,87
159.5,184,36,89
159.5,183,36,89
158.5,181.5,36,90
158,180.5,37,92
157.5,179.5,38,94
157,177.5,39,96
159,179.5,37,92
159,180.5,37,92
159.5,181.5,36,90
159.5,182.5,36,90
159,182.5,37,92
159,183.5,37,92
160.5,186.5,36,90
160.5,188,36,89
162,190,35,87
165,193,33,83
165,193,33,83
165,193,33,83
166,192,33,83
167.5,191,34,85
169,191,33,83
170.5,190,34,85
172,190,33,83
173,190,33,83
172,189,33,83
172,188,33,83
171.5,187,34,85
170,188,33,83
169,188.5,33,82
169.5,189.5,32,80
168.5,189.5,32,80
167.5,190,32,79
167.5,191,32,79
165.5,191.5,32,80
164.5,192,32,79
164,194,31,77
162,194,31,77
161.5,195.5,30,74
160.5,195.5,30,74
160.5,196.5,30,74
159.5,196.5,30,74
158.5,196.5,30,74
157.5,196.5,30,74
155.5,196.5,30,74
155.5,196.5,30,74
154.5,196.5,30,74
153.5,196.5,30,74
153,197,29,73
152,197,29,73
150,197,29,73
149,197,29,73
148,197,29,73
146,197,29,73
146,197,29,71
147,195,29,73
146,196,29,73
145.5,195.5,30,74
145.5,194.5,30,76
147.5,196.5,30,76
149,196,31,77
149,196,31,77
149,196,31,77
150,197,31,77
153,196,31,77
154,195,31,77
156.5,194.5,30,76
157.5,194.5,30,74
159.5,193.5,30,74
160.5,192.5,30,74
162.5,192.5,30,74
164.5,192.5,30,74
166.5,193.5,30,74
169.5,192.5,30,76
170,193,31,77
173,192,31,77
176,192,31,77
179,192,31,77
183,191,31,77
186,190,31,77
189,190,31,77
192.5,189,32,79
194.5,189,32,79
197.5,188.5,32,80
198.5,189.5,32,80
200.5,189.5,32,80
201.5,189.5,32,80
203,189.5,33,82
204,190.5,33,82
205,190.5,33,82
205,190.5,33,82
205,190.5,33,82
205,190.5,33,82
205,189.5,33,82
205,189.5,33,82
205,189.5,33,82
206,188.5,33,82
206,188,33,83
206,187,33,83
207,186,33,83
207.5,185,34,85
208.5,184,34,85
210,182,35,87
211.5,180,36,89
212.5,178.5,36,90
213.5,176.5,36,90
215.5,175.5,36,90
216.5,174.5,36,90
218.5,173.5,36,90
219.5,172.5,36,90
221.5,171.5,36,90
222.5,170.5,36,90
224,168.5,37,92
225,167.5,37,92
225.5,166.5,38,94
227.5,165.5,38,94
228.5,165.5,38,94
229.5,165.5,38,94
230,165.5,37,92
230,165.5,37,92
230,165.5,37,92
230,165.5,37,92
230,165.5,37,92
230,165.5,37,92
230,165.5,37,92
230,165.5,37,92
230,165.5,37,92
230,165.5,37,92
230,165.5,37,92
230,165.5,37,92
230,165.5,37,92
230,165.5,37,92
230,165.5,37,92
230,165.5,37,92
230,165.5,37,92
230,165.5,37,92
230,165.5,37,92
230,165.5,37,92
230,165.5,37,92
230,165.5,37,92
230,165.5,37,92
230,165.5,37,92
230,165.5,37,92
230,165.5,37,92
230,165.5,37,92
230,165.5,37,92
230,165.5,37,92
231,165.5,37,92
232,166.5,37,92
232,167.5,37,92
232,168.5,37,92
232,169.5,37,92
230.5,171.5,38,94
230,172.5,39,96
231,173.5,39,96
231,173.5,39,98
231,173.5,39,96
230.5,173.5,38,94
228.5,172.5,38,94
227,173.5,37,92
226.5,173.5,36,90
224.5,173,36,89
224.5,172,36,89
222.5,171,36,89
222.5,169,36,89
221.5,167,36,89
221.5,165,36,89
221.5,164,36,89
221.5,163,36,89
221.5,161.5,36,90
220.5,160,36,89
220.5,160,36,89
219.5,159.5,36,90
219.5,158.5,36,90
219.5,158.5,36,90
219,158.5,37,92
218.5,159.5,38,94
217.5,160.5,38,94
217,160.5,39,96
217,160.5,39,98
216,160.5,39,98
215,160.5,39,98
214,160.5,39,98
213,161.5,39,98
211,162.5,39,98
209,164.5,39,96
207.5,165.5,38,94
206,167.5,37,92
204.5,168.5,36,90
202.5,170,36,89
202,171,35,87
200,170,35,87
199,169,35,87
198,168,35,87
197,167,35,87
197,166,35,87
197,165,35,87
196,165,35,87
196,165,35,87
195.5,166,34,85
194.5,167,34,85
193.5,168,34,85
191.5,169,34,85
190.5,170,34,85
189.5,172,34,85
188.5,172,34,85
188.5,173,34,85
189,174,33,83
189,172,33,83
190,171,33,83
192,170,33,83
194,169,33,83
195,168,33,83
196,168,33,83
197,167.5,33,82
198,167.5,33,82
199,167.5,33,82
199,167.5,33,82
199,167.5,33,82
199,167.5,33,82
199,167,33,83
198,166,33,83
198,166,33,83
198,166,33,83
197,165,33,83
196.5,164,34,85
195.5,163,34,85
195,162,35,87
195,162,35,87
195,161,35,87
194.5,160,36,89
195.5,160,36,89
195.5,159,36,89
196.5,159,36,89
196.5,158.5,36,90
196.5,158.5,36,90
197.5,158.5,36,90
198.5,159.5,36,90
199.5,159.5,36,90
200.5,160.5,36,90
201,159.5,37,92
201.5,158.5,38,94
202.5,157.5,38,94
203.5,156.5,38,94
203.5,155.5,38,94
204.5,154.5,38,94
204.5,153.5,38,94
203.5,152.5,38,94
202.5,152.5,38,94
201.5,152.5,38,94
201,152.5,39,96
201,153.5,39,98
199.5,153.5,40,100
199.5,153.5,40,100
199,153.5,41,102
200,154.5,41,102
200.5,154.5,42,104
202,154.5,43,106
203,154.5,43,106
204,153.5,43,106
205,152.5,43,106
205,151.5,43,106
206,151.5,43,106
207,151.5,43,106
210,151.5,43,106
210,152.5,43,106
213,153.5,43,106
214,154.5,43,106
218,153.5,43,108
221,153.5,43,108
226,153.5,43,108
230,154.5,43,106
233,155.5,43,106
230,154.5,43,108
234,153.5,43,108
237,152.5,43,108
238,151.5,43,108
241,152.5,43,108
242,152.5,43,108
243,153.5,43,108
243,156.5,43,108
243,156.5,43,108
244,157.5,43,108
247,157.5,43,108
248,159.5,43,106
251.5,161.5,42,104
250.5,163.5,42,104
248.5,165.5,42,104
249,165.5,41,102
251,164.5,41,102
251.5,165.5,40,100
251.5,164.5,40,100
252,165.5,39,98
252,165.5,39,98
252,165.5,39,98
252,165.5,39,98
252,165.5,39,98
252,165.5,39,98
253,164.5,39,98
253,162.5,39,98
253,161.5,39,98
253,160.5,39,98
253,160.5,39,98
252.5,158.5,40,100
264.5,168.5,40,100
266,169.5,39,98
267,170.5,39,98
266,170.5,39,98
262,170.5,39,98
258,171.5,39,96
255,171.5,39,96
254,172.5,39,96
255,171.5,39,96
253,171.5,39,96
248,171.5,39,96
242,170.5,39,96
237,169.5,39,96
236,167.5,39,96
236,167.5,39,96
234,167.5,39,96
233,166.5,39,96
233,165.5,39,96
232,165.5,39,96
231,164.5,39,98
231,165.5,39,98
232,165.5,39,98
234,165.5,39,98
236,165.5,39,98
237,167.5,39,96
240,167.5,39,96
241,167.5,39,96
243,167.5,39,96
248,167.5,39,96
250,167.5,39,96
253,167.5,39,96
256,167.5,39,96
257,167.5,39,96
259,165.5,39,96
261,165.5,39,96
263,166.5,39,96
265,166.5,39,96
267,167.5,39,96
269.5,168.5,38,94
272.5,168.5,38,94
275,169.5,37,92
277,170.5,37,92
279,171.5,37,92
281,172.5,37,92
281.5,172.5,38,94
283.5,172.5,38,94
286.5,171.5,38,94
287.5,171.5,38,94
289,168.5,39,96
290,169.5,39,96
291,169.5,39,96
291,171.5,39,96
291,172.5,39,96
291,173.5,39,96
292,174.5,39,96
293,174.5,39,96
294,175.5,39,96
295,175.5,39,96
296,175.5,39,96
298,175.5,39,96
300,175.5,39,96
302,175.5,39,96
305,174.5,39,96
307,175.5,39,96
309,175.5,39,96
312.5,176.5,38,94
314,175.5,39,96
316,175.5,39,96
319,175.5,39,98
320.5,175.5,40,100
322.5,175.5,40,100
324.5,177.5,40,100
326,176.5,41,102
327,177.5,41,102
328,178.5,41,102
330,178.5,41,102
332,177.5,41,102
333.5,176.5,42,104
334.5,176.5,42,104
334.5,176.5,42,104
335.5,176.5,42,104
336,177.5,41,102
337,178.5,41,102
338,179.5,41,102
339,180.5,41,102
340,180.5,41,102
340,181.5,41,102
341,180.5,41,102
343,180.5,41,102
343.5,178.5,42,104
345.5,177.5,42,104
