232.5,88.5,76,84
243.5,93.5,74,82
252.5,99.5,74,82
260,105.5,73,80
268,108.5,73,80
278,110,71,79
286,112,71,79
295,115,71,79
300.5,118,70,77
306,120,71,79
310,122,71,79
313,120,71,79
312,116,71,79
305,108.5,73,80
295,103,71,79
282,96.5,73,80
269,93,71,79
252,90,71,79
238.5,89,70,77
230.5,88.5,68,76
219.5,91,70,77
209.5,92,70,77
200.5,94,70,77
197,95,71,79
205.5,99.5,68,76
215.5,102.5,68,76
230.5,107,70,77
248.5,111,70,77
261,114,71,79
273.5,107,70,77
279.5,89,70,77
290,88.5,67,74
297,88.5,67,74
301,105.5,67,74
296.5,115.5,68,76
288,119,71,79
281,119,71,79
272,116.5,73,80
260.5,112.5,74,82
247,109,75,83
234,103,75,83
224,94,75,83
220,87,75,83
221,77,77,85
233,72,79,87
257,73,79,87
286,75,79,87
316,75,79,87
337,75,79,87
346.5,75,80,89
348.5,79,80,89
340.5,85,80,89
325,92,79,87
305,100,79,87
281,106,77,85
251,111,75,83
224,113,75,83
200,113,75,83
185,115,75,83
174,117,75,83
172,116,75,83
167,109,75,83
163,98,77,85
173,85,77,85
192,70,77,85
213,57,79,87
239,48,79,87
265,47,77,85
286,51,77,85
293,55,77,85
289,52,79,87
282,63,79,87
285,75,79,87
299,82,79,87
319,83,79,87
340.5,80,80,89
357.5,73.5,82,90
372.5,63.5,82,90
371.5,53.5,82,90
355.5,48.5,82,90
337.5,48.5,82,90
312.5,54.5,82,90
286.5,60.5,82,90
261.5,63.5,82,90
240.5,68.5,82,90
224.5,73.5,82,90
210.5,76.5,82,90
197.5,77.5,82,90
183.5,76.5,82,90
172.5,73,80,89
161,67,79,87
146,61,79,87
144,62,79,87
134,54,79,87
123.5,53,80,89
118.5,55,80,89
118.5,60,80,89
123,66,79,87
131,71,79,87
141,76,79,87
151.5,81,80,89
155.5,91,80,89
162.5,97,80,89
168,104,79,87
169,108,79,87
167,107,79,87
166,106,77,85
167,106,75,83
171,107,75,83
182.5,107.5,74,82
198.5,106.5,74,82
219.5,104.5,74,82
242,105.5,73,80
266,104.5,73,80
287,103.5,73,80
309,100.5,73,80
329,97.5,73,80
345,93.5,73,80
360.5,93,70,77
370.5,92,70,77
372,92,71,79
368,94.5,73,80
363.5,98.5,74,82
359.5,103.5,74,82
357,104,75,83
357,101,75,83
359.5,93.5,74,82
359,85.5,73,80
346,75.5,73,80
331,69.5,73,80
314.5,67.5,74,82
294,71,75,83
268,74,75,83
243,76,75,83
223,77,75,83
207,82,75,83
192,90,75,83
177,96,75,83
164,99,75,83
152,99,75,83
139,98,75,83
127,97,75,83
115,97,75,83
105,97,75,83
99,96,75,83
100,93,77,85
105,91,79,87
116.5,89,80,89
132.5,89,80,89
151.5,90,80,89
170.5,94,80,89
189.5,94,80,89
214.5,88,80,89
234.5,83,80,89
254.5,75,80,89
274.5,62.5,82,90
297.5,53.5,82,90
312,43.5,83,92
316,39.5,83,92
313,38.5,85,94
304,43.5,87,96
295,48.5,87,96
283,39.5,85,94
274,27.5,85,94
263,35.5,85,94
248,45.5,87,96
232,75.5,85,94
212,83.5,85,94
197,87.5,83,92
180,86.5,83,92
165,82.5,83,92
148,79.5,83,92
139,76.5,83,92
140,77.5,83,92
141.5,78.5,82,90
144.5,77.5,82,90
152.5,79.5,82,90
167.5,81.5,82,90
191.5,84.5,82,90
221.5,78.5,82,90
240.5,68.5,82,90
245.5,63.5,82,90
234.5,63.5,82,90
219.5,64.5,82,90
204.5,64.5,82,90
202.5,58.5,82,90
215.5,46.5,82,90
235.5,42,80,89
244,48,79,87
248,66,79,87
249,87,79,87
247,102,77,85
250,103,77,85
262,100,75,83
274,94,75,83
284,88,75,83
288,82,75,83
270,77,75,83
255,75,75,83
253,67,75,83
252,55,75,83
237.5,47.5,74,82
219,53,75,83
207,70,75,83
206,83,75,83
217,87,75,83
233,79,75,83
240,70,75,83
238,62,75,83
233,56,75,83
218.5,57.5,74,82
193.5,74.5,74,82
180.5,94.5,74,82
185,111,75,83
195,110,75,83
223,117,75,83
248,105,75,83
267,85,77,85
283,68,77,85
299,57,77,85
314,52,77,85
325,55,77,85
311,67,79,87
286,86,79,87
261,101,79,87
236,102,79,87
224,93,79,87
229,82,79,87
244,73,79,87
256,76,79,87
254,87,77,85
247,95,75,83
230.5,96.5,74,82
205.5,98.5,74,82
181.5,100.5,74,82
162.5,104.5,74,82
160.5,106.5,74,82
172.5,101.5,74,82
197.5,93.5,74,82
228,84,75,83
255,79,75,83
273,83,75,83
292,90,75,83
304,93,75,83
301.5,97.5,74,82
282.5,104.5,74,82
258.5,113.5,74,82
234,121.5,73,80
223,123.5,73,80
218,122,71,79
211,114,71,79
206,106,71,79
211,100,71,79
230,93.5,73,80
260,84,71,79
283,74,71,79
296,64,71,79
292,59,71,79
284,63,71,79
285,69,71,79
292,74.5,73,80
303.5,76.5,74,82
316,73.5,73,80
324,62,71,79
325.5,49,70,77
326,42,71,79
325,48,71,79
328,56,71,79
330,63,71,79
326,69,71,79
317,73,71,79
315,71,71,79
314.5,68,70,77
317.5,58,70,77
321.5,43,70,77
324,27,71,79
323,15,71,79
312.5,5.5,74,82
304,2.5,73,80
293.5,6.5,74,82
287,18,75,83
284,20,77,85
283,24,77,85
281,41,77,85
277,55,77,85
273,81,75,83
264.5,91.5,74,82
250.5,97.5,74,82
235,100.5,73,80
216.5,99.5,74,82
196.5,99.5,74,82
179.5,87.5,74,82
180.5,78.5,74,82
186.5,71.5,74,82
195.5,67.5,74,82
205.5,67.5,74,82
212.5,70.5,74,82
211.5,71.5,74,82
202,75,75,83
195,80,75,83
193,81,77,85
201,69,77,85
211,51,77,85
215,35,75,83
215,27,75,83
202,29,75,83
183,38,75,83
175,47,75,83
164.5,63.5,74,82
172.5,78.5,74,82
174.5,103.5,74,82
192.5,111.5,74,82
195.5,108.5,74,82
196.5,108.5,74,82
196.5,108.5,74,82
195,109,75,83
195.5,108.5,74,82
195,109,75,83
195,109,75,83
194.5,109.5,74,82
194.5,110.5,74,82
195.5,109.5,74,82
195.5,109.5,74,82
195.5,109.5,74,82
195.5,109.5,74,82
195.5,109.5,74,82
195.5,109.5,74,82
195.5,109.5,74,82
195.5,109.5,74,82
195.5,109.5,74,82
195.5,109.5,74,82
195.5,109.5,74,82
195.5,109.5,74,82
195.5,109.5,74,82
195.5,109.5,74,82
195.5,109.5,74,82
195.5,109.5,74,82
195.5,109.5,74,82
195.5,109.5,74,82
195.5,109.5,74,82
195.5,109.5,74,82
195,110.5,73,80
195.5,109.5,74,82
195.5,109.5,74,82
195.5,109.5,74,82
195.5,109.5,74,82
195.5,109.5,74,82
195.5,109.5,74,82
195.5,109.5,74,82
195,110.5,73,80
195.5,109.5,74,82
195.5,109.5,74,82
195.5,109.5,74,82
195.5,109.5,74,82
