146.5,54,68,101
147.5,54,68,101
147.5,55,68,101
149.5,56,66,99
151.5,55,66,99
153.5,54,66,99
155.5,54,66,99
156.5,53,68,101
159.5,53,68,101
162.5,54,66,99
164,56,65,97
165,58,65,97
165.5,61,64,95
166.5,63,62,93
170,63,61,91
175.5,65,60,89
177.5,67,60,89
180,68,59,87
184.5,68.5,58,86
187.5,67.5,58,86
189.5,65.5,56,84
192,63.5,55,82
195.5,62,54,81
196.5,64,54,81
199,68,53,79
200.5,71.5,52,78
198.5,74.5,52,78
197,76.5,51,76
197.5,78,50,75
195.5,79,50,75
192,81,49,73
187.5,77,50,75
184.5,76,50,75
181.5,75,50,75
177.5,74,50,75
172.5,73,50,75
167,71.5,51,76
163,69.5,51,76
158,69.5,51,76
156,68.5,51,76
155.5,69.5,52,78
155.5,70.5,52,78
155.5,71.5,52,78
154,72.5,51,76
154,72.5,51,76
152,73.5,51,76
148,73.5,51,76
147,72.5,51,76
148,73.5,51,76
147.5,74,50,75
146.5,73,50,75
146,73,49,73
147.5,72.5,48,72
148.5,73.5,48,72
150,75.5,47,70
151,78.5,47,70
150.5,81,46,69
149.5,84,46,69
151,86,45,67
151,86,45,67
153.5,83,46,69
156.5,81,46,69
159.5,78,46,69
164,74.5,47,70
167,72.5,47,70
169,69.5,47,70
172.5,67.5,48,72
174,68,49,73
175,69,49,73
178.5,70,50,75
180.5,72,50,75
183.5,73,50,75
184.5,74,50,75
184.5,73,50,75
185.5,73,50,75
187.5,74,50,75
186.5,72,50,75
185,72,49,73
186,70,49,73
184.5,71.5,48,72
182,73.5,47,70
181,75.5,47,70
180,76.5,47,70
178,75.5,47,70
177,74.5,47,70
177,73.5,47,70
175,73.5,47,70
174.5,71.5,48,72
172.5,70.5,48,72
170.5,69.5,48,72
169.5,66.5,48,72
165,66,49,73
161,64,49,73
159,62,49,73
159,65,49,73
160,70,49,73
159,73,49,73
160,75,49,73
159,77,49,73
158,77,49,73
158.5,78.5,48,72
160,80.5,47,70
161,77.5,47,70
161,76.5,47,70
163,77.5,47,70
164,77.5,47,70
167.5,77,46,69
170.5,78,46,69
174.5,79,46,69
176.5,79,46,69
179,77.5,47,70
180,76.5,47,70
179.5,75.5,48,72
180,76,49,73
181,75,49,73
185,74,49,73
188,75,49,73
189,74,49,73
190,73,49,73
191,72,49,73
191,71,49,73
193,73,49,73
193,76,49,73
194,79,49,73
196,81,49,73
195,81,49,73
195,80,49,73
193,77,49,73
189,75,49,73
186,73,49,73
184.5,69.5,48,72
183.5,66.5,48,72
182.5,65.5,48,72
179.5,68.5,48,72
175.5,71.5,48,72
171,72,49,73
167.5,71.5,48,72
166,72,49,73
162,72,49,73
161.5,71.5,48,72
162.5,70.5,48,72
162,70.5,47,70
163,71.5,47,70
163.5,71.5,48,72
164.5,71.5,48,72
167.5,71.5,48,72
169,74.5,47,70
171,75.5,47,70
172,75.5,47,70
174.5,74.5,48,72
175.5,74.5,48,72
179,73,49,73
182,72,49,73
183.5,69,50,75
184,67.5,51,76
186,67.5,51,76
186.5,71,50,75
186.5,72,50,75
186.5,73,50,75
186.5,75,50,75
186.5,76,50,75
185.5,78,50,75
184.5,80,50,75
182.5,80,50,75
182.5,80,50,75
181.5,79,50,75
181.5,77,50,75
182.5,73,50,75
181.5,70,50,75
178.5,69,50,75
175.5,70,50,75
173.5,71,50,75
172.5,72,50,75
170.5,73,50,75
167.5,76,50,75
165.5,76,50,75
160.5,75,50,75
157.5,72,50,75
156.5,71,50,75
155,72,49,73
155.5,72.5,48,72
156.5,74.5,48,72
159.5,74.5,48,72
163,76,49,73
164,79,49,73
166,81,49,73
168,84,49,73
170.5,85,50,75
172.5,86,50,75
176.5,87,50,75
180,87,49,73
183,86,49,73
187,82,49,73
192,78,49,73
193,77,49,73
194.5,75,50,75
198.5,75,50,75
202.5,76,50,75
206.5,77,50,75
208.5,78,50,75
212.5,78,50,75
216.5,79,50,75
217.5,79,50,75
218.5,78,50,75
219.5,78,50,75
220.5,77,50,75
218,77,49,73
216,78,49,73
216.5,77,50,75
215.5,79,50,75
213.5,79,50,75
212.5,78,50,75
212.5,77,50,75
211.5,76,50,75
210,74.5,51,76
208,72.5,51,76
207,72.5,51,76
204.5,74.5,52,78
201.5,77.5,52,78
199.5,77.5,52,78
201,78.5,51,76
199,77.5,51,76
199,75.5,51,76
198.5,76,50,75
199,77,49,73
201.5,78.5,48,72
204,79,49,73
205.5,80.5,48,72
206.5,81.5,48,72
207.5,82.5,48,72
209.5,82.5,48,72
210.5,80.5,48,72
211.5,77.5,48,72
214.5,78.5,48,72
217.5,77.5,48,72
223.5,75.5,48,72
227,76.5,47,70
231,78.5,47,70
235.5,82.5,48,72
238,86,49,73
238.5,89,50,75
239.5,91,50,75
238.5,92,50,75
239.5,93,50,75
243,92.5,51,76
246,91.5,51,76
247,92.5,51,76
247,93.5,51,76
242,91.5,51,76
242,88.5,51,76
242,88.5,51,76
238.5,89.5,52,78
236,91,53,79
231.5,90,54,81
228.5,89,54,81
226.5,88,54,81
222.5,86,54,81
218.5,80,54,81
219.5,74,54,81
221.5,68,54,81
225,65,53,79
230,67,53,79
232,71,53,79
236.5,77.5,52,78
240.5,81.5,52,78
245.5,84.5,52,78
250.5,88.5,52,78
255.5,87.5,52,78
259.5,82.5,52,78
261,77.5,51,76
266,72.5,51,76
271,68.5,51,76
273,64.5,51,76
274.5,63,50,75
273.5,64,50,75
270.5,68,50,75
267,71,49,73
266,72,49,73
264.5,70,50,75
265,70,49,73
264,68,49,73
264,67,49,73
266,66,49,73
265,65,49,73
264,65,49,73
264.5,63,50,75
264,61.5,51,76
266,61.5,51,76
266,62.5,51,76
266,63.5,51,76
264,63.5,51,76
264,62.5,51,76
265,64.5,51,76
265.5,64.5,52,78
265.5,66.5,52,78
263.5,67.5,52,78
258.5,69.5,52,78
252.5,71.5,52,78
245.5,73.5,52,78
239.5,72.5,52,78
234.5,71.5,52,78
225.5,71.5,52,78
221.5,72.5,52,78
216.5,71.5,52,78
214.5,71.5,52,78
213.5,70.5,52,78
210.5,72.5,52,78
207.5,73.5,52,78
204.5,74.5,52,78
202.5,74.5,52,78
198,73,53,79
192,71,53,79
188,69,53,79
182,68,53,79
175,66,53,79
165,64,53,79
156,62,53,79
150,60,53,79
144.5,58.5,52,78
141.5,58.5,52,78
139,61.5,51,76
136.5,62,50,75
134.5,62,50,75
135.5,63,50,75
136,67,49,73
133,68,49,73
132,69,49,73
135,69,49,73
139,69,49,73
141,70,49,73
141,73,49,73
142,73,49,73
146,72,49,73
150,73,49,73
156,73,49,73
161,75,49,73
165.5,76,50,75
168,75.5,51,76
170,72.5,51,76
172,67.5,51,76
171,63.5,51,76
171,59.5,51,76
173,56.5,51,76
173,54.5,51,76
171,57.5,51,76
172.5,63.5,52,78
175,74,53,79
179,83,53,79
184.5,90,54,81
189,96.5,55,82
196,100.5,55,82
198,104.5,55,82
202.5,105.5,56,84
206.5,107.5,56,84
209.5,106.5,56,84
212.5,106.5,56,84
210.5,105.5,56,84
207,104.5,55,82
205,102.5,55,82
203.5,96,54,81
199.5,91,54,81
194,87,53,79
188.5,81.5,52,78
184,79.5,51,76
181.5,78,50,75
178,80,49,73
175.5,79.5,48,72
174,81.5,47,70
173,84.5,47,70
172.5,87,46,69
170.5,88,46,69
167.5,88,46,69
165,89,45,67
164,86,45,67
163,84,45,67
162,82,45,67
161.5,81.5,44,66
159.5,80.5,44,66
160.5,79.5,44,66
164.5,77.5,44,66
167.5,76.5,44,66
176,79,43,65
179,84,43,65
185,87,43,65
191,90,43,65
196,91.5,43,64
201,91.5,43,64
204,89.5,43,64
206,86.5,43,64
207,84.5,43,64
204,81.5,43,64
201.5,80.5,42,62
200,79,41,61
198,78,41,61
197,80,41,61
195,82,41,61
194,84,41,61
192,85,41,61
190,86,41,61
189.5,86.5,40,60
185.5,87.5,40,60
181.5,86.5,40,60
180.5,83.5,40,60
180.5,80.5,40,60
178.5,77.5,40,60
179.5,76.5,40,60
180.5,77.5,40,60
179.5,79.5,40,60
180,83,39,59
181,86,39,59
181,88,39,59
181,90,39,59
180,89,39,59
180.5,88.5,40,60
182,87,41,61
186,85,41,61
188,82,41,61
192,79,41,61
196,78,41,61
204,79,41,61
211,84,41,61
216.5,87.5,42,62
221,90.5,43,64
223,93.5,43,64
223,96.5,43,64
222,97.5,43,64
219,96.5,43,64
215,95.5,43,64
209,93.5,43,64
204,90.5,43,64
201,89.5,43,64
197,86.5,43,64
197,85.5,43,64
198,86.5,43,64
200,88.5,43,64
204,91.5,43,64
209,94.5,43,64
212,96.5,43,64
213.5,97.5,42,62
216.5,96.5,42,62
215.5,94.5,42,62
211.5,92.5,42,62
207.5,88.5,42,62
205.5,85.5,42,62
199.5,84.5,42,62
192.5,83.5,42,62
188.5,84.5,42,62
184,84.5,43,64
181,84.5,43,64
179,81.5,43,64
178,79.5,43,64
174,77.5,43,64
171,74.5,43,64
172,71.5,43,64
172,67,43,65
174,64,43,65
178,63,43,65
180.5,65.5,44,66
180.5,68.5,44,66
181.5,70.5,44,66
180.5,71.5,44,66
175.5,74.5,44,66
167.5,73.5,44,66
159.5,71.5,44,66
153.5,67.5,44,66
146.5,62.5,44,66
140.5,57.5,44,66
135.5,52.5,44,66
134.5,49.5,44,66
131.5,49.5,44,66
132.5,48.5,44,66
133.5,50.5,44,66
135.5,53.5,44,66
137.5,54.5,44,66
142.5,55.5,44,66
145.5,56.5,44,66
148.5,57.5,44,66
151.5,57.5,44,66
154.5,58.5,44,66
155,57,45,67
157,56,45,67
158,59,45,67
160.5,61,46,69
161.5,65,46,69
162.5,67,46,69
163,67.5,47,70
166.5,67.5,48,72
168.5,68.5,48,72
172.5,68.5,48,72
173.5,65.5,48,72
174.5,61.5,48,72
176,58.5,47,70
173,55.5,47,70
172,56.5,47,70
171,60.5,47,70
168.5,62.5,48,72
167.5,63.5,48,72
167.5,63.5,48,72
168,63,49,73
167,62,49,73
170,58,49,73
178,57,49,73
181.5,54,50,75
187.5,55,50,75
190.5,59,50,75
194.5,63,50,75
195.5,64,50,75
194,63,49,73
190,61,49,73
186,59,49,73
187.5,58.5,48,72
188.5,57.5,48,72
189,55.5,47,70
192,54.5,47,70
194.5,52,46,69
200.5,53,46,69
200.5,57,46,69
199.5,63,46,69
196.5,70,46,69
189,74.5,47,70
178.5,75.5,48,72
167.5,71.5,48,72
156.5,67.5,48,72
147,61,49,73
144,56,49,73
142,52,49,73
141,49,49,73
141.5,49,50,75
142.5,56,50,75
144,61,49,73
147.5,64,50,75
147.5,71,50,75
147.5,75,50,75
149,77,49,73
153,73,49,73
155,67,49,73
157,64,49,73
159,64,49,73
160,64,49,73
162,65,49,73
163,69,49,73
162,73,49,73
160,77,49,73
159.5,80.5,48,72
157.5,82.5,48,72
153.5,81.5,48,72
150.5,80.5,48,72
149.5,75.5,48,72
147,69,49,73
146,63,49,73
148,58,49,73
149,56,49,73
150,57,49,73
151,60,49,73
150,64,49,73
149,69,49,73
148,73,49,73
147,75,49,73
146,76,49,73
145.5,75,50,75
146.5,75,50,75
150.5,73,50,75
156.5,70,50,75
163.5,67,50,75
169.5,65,50,75
176.5,64,50,75
182,64.5,51,76
187.5,67.5,52,78
190.5,71.5,52,78
