692.5,439,24,79
691,439,23,77
688,439,23,77
685,439,23,77
682,439,23,77
678,439,23,75
676,438,23,75
673,436,23,77
669,436,23,77
666,435,23,77
664,434,23,77
661,433,23,77
659,432,23,75
657.5,431.5,22,72
656,431,21,71
653,431,21,71
650,431,21,71
647,431,21,71
643.5,431.5,22,72
640.5,431.5,22,72
638,431,21,71
634,430,21,71
632,429,21,71
629,428,21,71
626,427,21,71
623,426,21,71
621,425,21,71
618,424,21,71
616,424,21,71
613,424,21,71
611,424.5,21,70
609,424.5,21,70
606,424.5,21,70
603,423.5,21,70
600,422.5,21,70
598,421.5,21,70
595,420.5,21,70
593,419.5,21,70
591,418,21,71
589,417.5,21,70
587,416.5,21,70
584,416.5,21,70
582,417.5,21,70
579,417.5,21,70
577,417.5,21,70
574,417.5,21,70
571,416.5,21,70
568,415.5,21,70
565,415.5,21,70
563,414.5,21,70
560,412.5,21,70
558,411.5,21,70
556,411.5,21,70
553.5,411.5,20,68
550.5,411,20,67
549.5,411.5,20,68
546.5,411.5,20,68
543.5,411.5,20,68
541.5,411,20,67
538.5,410.5,20,68
535.5,409,20,67
534.5,408.5,20,68
531.5,407,20,67
529.5,406,20,67
527.5,405,20,67
525.5,404,20,67
523.5,404,20,67
521.5,404,20,67
519.5,404,20,67
516.5,404,20,67
514.5,404.5,20,68
511.5,404,20,67
508.5,404,20,67
506.5,403.5,20,66
504.5,402.5,20,66
501.5,401.5,20,66
499.5,400.5,20,66
497.5,399.5,20,66
495.5,398.5,20,66
493.5,398.5,20,66
491.5,398.5,20,66
489.5,398.5,20,66
487.5,398.5,20,66
485.5,398.5,20,66
483.5,398.5,20,66
480.5,397.5,20,66
478.5,396.5,20,66
476.5,396.5,20,66
475,395.5,19,64
473,394.5,19,64
471,393,19,63
470,393,19,63
468.5,392.5,18,62
466.5,392.5,18,62
464,393,19,63
462,393,19,63
460,393,19,63
458.5,393.5,18,62
455.5,393.5,18,62
453.5,392.5,18,62
451.5,391.5,18,62
449.5,390.5,18,62
447.5,389.5,18,62
445.5,388.5,18,62
443.5,387.5,18,62
441.5,387.5,18,62
439.5,387.5,18,62
437.5,387.5,18,62
435.5,387.5,18,62
434.5,387.5,18,62
432.5,387.5,18,62
430.5,386.5,18,62
428.5,386.5,18,62
426.5,385.5,18,62
424.5,385,18,61
422.5,384,18,61
421.5,383,18,61
419.5,383,18,61
418.5,382,18,61
416.5,382,18,61
414.5,382,18,61
412.5,382,18,61
410.5,382,18,61
408.5,383,18,61
406.5,382,18,61
404.5,382,18,61
402.5,381,18,61
400.5,380,18,61
398.5,379,18,61
396.5,378,18,61
394.5,378,18,61
392.5,378,18,61
391.5,378,18,59
390.5,378,18,59
388.5,378,18,59
387.5,378,18,59
385.5,378,18,59
383.5,378,18,59
381.5,377,18,59
379.5,376,18,59
377.5,376,18,59
376.5,375,18,59
374.5,374,18,59
374,373.5,17,58
372,373,17,57
371,373,17,57
369,373,17,57
368,373.5,17,56
366,374.5,17,56
364,374.5,17,56
362,374.5,17,56
360.5,374,16,55
357,373.5,17,56
356,372.5,17,56
355,372.5,17,56
352,371.5,17,56
351,370.5,17,56
349,369.5,17,56
348,369.5,17,56
346,369.5,17,56
345,370.5,17,56
343.5,370,16,55
341.5,370,16,55
340.5,370,16,55
338.5,369,16,55
336.5,369,16,55
335.5,368,16,55
333.5,367,16,55
332.5,366,16,55
331.5,366,16,55
329.5,365,16,55
328.5,365,16,55
327.5,365,16,55
325.5,365,16,55
324.5,366,16,55
322.5,365,16,55
320.5,366,16,55
318.5,365,16,55
316.5,365,16,55
314.5,364,16,55
313.5,363,16,55
311.5,362,16,55
309.5,362,16,55
308.5,361,16,55
306.5,361,16,55
305.5,361,16,55
303.5,361,16,55
302.5,361,16,55
300.5,361,16,55
299.5,361,16,55
297.5,360,16,55
295.5,360,16,55
294.5,359,16,55
292.5,359,16,55
291.5,358,16,55
289.5,357,16,55
288.5,357,16,55
286.5,356,16,55
285.5,357,16,55
284.5,356,16,55
282.5,357,16,55
281.5,357,16,55
279.5,357,16,55
277.5,357,16,55
275.5,356,16,55
273.5,356,16,55
272.5,355,16,55
270.5,355,16,55
268.5,354,16,55
267.5,353.5,16,54
266.5,353.5,16,54
264.5,353.5,16,54
263.5,353.5,16,54
262.5,353.5,16,54
260.5,354.5,16,54
259.5,353.5,16,54
256.5,353.5,16,54
255.5,352.5,16,54
253.5,352.5,16,54
252.5,351.5,16,54
250.5,350.5,16,54
249.5,349.5,16,54
248.5,349.5,16,54
246.5,348.5,16,54
245.5,349.5,16,54
243.5,349.5,16,54
242.5,349.5,16,54
240.5,349.5,16,54
238.5,349.5,16,54
236.5,349.5,16,54
234.5,349.5,16,54
233.5,349.5,16,54
231.5,348.5,16,54
229.5,347.5,16,54
228.5,347.5,16,54
226.5,346.5,16,54
224.5,346.5,16,54
223.5,346.5,16,54
222.5,346.5,16,54
221.5,346.5,16,54
219.5,347.5,16,54
218.5,346.5,16,54
216.5,346.5,16,54
214.5,346.5,16,54
213.5,345.5,16,54
211.5,345.5,16,54
210.5,344.5,16,54
209.5,343.5,16,54
208.5,343.5,16,54
206.5,342.5,16,54
205.5,342.5,16,54
204.5,343.5,16,54
202.5,343.5,16,54
201.5,343.5,16,54
199.5,343.5,16,54
198.5,343.5,16,54
196.5,343.5,16,54
195.5,342.5,16,54
193.5,341.5,16,54
192.5,341.5,16,54
190.5,340.5,16,54
189.5,340.5,16,54
188.5,340.5,16,54
187.5,340.5,16,54
185.5,340.5,16,54
184.5,340.5,16,54
183.5,340.5,16,54
182.5,340.5,16,54
180.5,340.5,16,54
179.5,339.5,16,54
177.5,339.5,16,54
176.5,338.5,16,54
174.5,338.5,16,54
173.5,337.5,16,54
172.5,336.5,16,54
171.5,336.5,16,54
170.5,336.5,16,54
169.5,336.5,16,54
167.5,337.5,16,54
166.5,337.5,16,54
164.5,337.5,16,54
163.5,337.5,16,54
161.5,337.5,16,54
159.5,336.5,16,54
158.5,336.5,16,54
157.5,335.5,16,54
155.5,335.5,16,54
154.5,334.5,16,54
152.5,334.5,16,54
151.5,334.5,16,54
150.5,334.5,16,54
149.5,334.5,16,54
148.5,335.5,16,54
146.5,334.5,16,54
145.5,335.5,16,54
144.5,335,16,53
142.5,335,16,53
141.5,334,16,53
139.5,334,16,53
138.5,333,16,53
137.5,333,16,53
136.5,332,16,53
135.5,331.5,16,54
134.5,331.5,16,54
133.5,331.5,16,54
131.5,332.5,16,54
130.5,332.5,16,54
128.5,332.5,16,54
127.5,332.5,16,54
126.5,331.5,16,54
125.5,331.5,16,54
123.5,330.5,16,54
122.5,330.5,16,54
121.5,329.5,16,54
119.5,329.5,16,54
118.5,328.5,16,54
117.5,329.5,16,54
116.5,329.5,16,54
115.5,329.5,16,54
114.5,329.5,16,54
113.5,329.5,16,54
112.5,328.5,16,54
111.5,329.5,16,54
110.5,328.5,16,54
109.5,328.5,16,54
108.5,327.5,16,54
107.5,326.5,16,54
106.5,327,16,53
106.5,326,16,53
105.5,327,16,53
104.5,327,16,53
103.5,327,16,53
102.5,327,16,53
101.5,327,16,53
100.5,327,16,53
99.5,327,16,53
98.5,326,16,53
97.5,326,16,53
96.5,325,16,53
95.5,325,16,53
93.5,324,16,53
92.5,324,16,53
91.5,323,16,53
90.5,324,16,53
89.5,324,16,53
88.5,324,16,53
87.5,324,16,53
86.5,324,16,53
85.5,323,16,53
84.5,323,16,53
83.5,323,16,53
82.5,322,16,53
81.5,322,16,53
81.5,320.5,16,54
80.5,320.5,16,54
79.5,320.5,16,54
78.5,320.5,16,54
77.5,321,16,53
77.5,321,16,53
76.5,321,16,53
75.5,321,16,53
74.5,321,16,53
73.5,321,16,53
72.5,320,16,53
71.5,320,16,53
70.5,319,16,53
69.5,319,16,53
68.5,319,16,53
67.5,318,16,53
66.5,319,16,53
65.5,319,16,53
64.5,318,16,53
63.5,319,16,53
62.5,318,16,53
61.5,319,16,53
61.5,318,16,53
60.5,318,16,53
59.5,318,16,53
58.5,317,16,53
57.5,317,16,53
56.5,316,16,53
55.5,316,16,53
55.5,316,16,53
54.5,316,16,53
53.5,316,16,53
52.5,316,16,53
51.5,316,16,53
50.5,316,16,53
49.5,316,16,53
48.5,316,16,53
47.5,315,16,53
46.5,315,16,53
45.5,314,16,53
44.5,314,16,53
43.5,313,16,53
42.5,313,16,53
42.5,313,16,53
41.5,313,16,53
40.5,314,16,53
39.5,313,16,53
39.5,314,16,53
38.5,313,16,53
37.5,313,16,53
36.5,312,16,53
35.5,312,16,53
35.5,312,16,53
34.5,311,16,53
33.5,311,16,53
32.5,310,16,53
32.5,311,16,53
31.5,310,16,53
30.5,311,16,53
