336,165,26,61
336.85,164.06,26,61
336.01,161.48,26,61
334.86,163.15,26,61
332.54,164.76,26,61
335.2,168.11,26,61
335.47,169.81,26,61
333.36,171.46,26,61
329.99,171.62,26,61
326.46,173.94,26,61
331.11,164.27,26,61
329.03,163.7,26,61
330.28,164.98,26,61
325.86,162.78,26,61
323.74,165.71,26,61
325.88,166.27,26,61
328.85,165.7,26,61
330.06,164.69,26,61
330.77,161.96,26,61
330.48,170.89,26,61
327.03,168.92,26,61
328.57,159.95,26,61
328.93,159.84,26,61
327.88,160.61,26,61
327.55,163.3,26,61
325.7,161.02,26,61
326.76,158.51,26,61
328.06,156.26,26,61
330.71,156.78,26,61
328.99,161.49,26,61
329.79,157.27,26,61
329.24,159.58,26,61
326.2,160.59,26,61
329.18,154.05,26,61
334.54,152.32,26,61
333.58,154.21,26,61
329.32,155.02,26,61
333.64,152.69,26,61
332.13,153.68,26,61
338.61,152.72,26,61
336.93,156.81,26,61
335.07,154.33,26,61
334.8,154.78,26,61
331.94,155.89,26,61
331.47,154.08,26,61
330.63,154.02,26,61
330.34,153.58,26,61
328.8,153.72,26,61
332.22,154.15,26,61
334.49,156.55,26,61
335.14,159.51,26,61
337.17,154.82,26,61
337.3,158.37,26,61
335.3,161.6,26,61
333.41,157.27,26,61
336.14,156.18,26,61
335.15,157.76,26,61
335.43,156.69,26,61
336.21,158.15,26,61
336.61,155.34,26,61
337.41,152.89,26,61
335.62,153.84,26,61
335.51,153.05,26,61
332.12,159.07,26,61
330.87,155,26,61
329.09,151.11,26,61
326.32,153.95,26,61
324.51,153.48,26,61
323.55,153.92,26,61
321.99,153.17,26,61
324.95,155.4,26,61
323.53,155.41,26,61
324.29,150.6,26,61
324.57,153.61,26,61
324.02,153.26,26,61
325.61,153.06,26,61
324.71,153.66,26,61
321.97,152.81,26,61
321.47,153.66,26,61
323.17,158.52,26,61
322.78,156.08,26,61
323.64,154.46,26,61
323.76,154.24,26,61
324.07,154.3,26,61
323.92,155.15,26,61
324.86,153.69,26,61
324.9,149.83,26,61
323.15,152.42,26,61
322.58,152.71,26,61
325.63,157.84,26,61
326.59,158.57,26,61
330.18,156.66,26,61
332.6,154.99,26,61
333.51,156.58,26,61
335.68,156.87,26,61
334.7,157.21,26,61
336.38,154.46,26,61
335.3,152.76,26,61
335.84,153.45,26,61
335.69,153.34,26,61
336.05,156.44,26,61
339.29,157.18,26,61
349.13,154.27,26,61
340.23,149.6,26,61
339,153.14,26,61
340.73,157.24,26,61
342.81,152.9,26,61
343.05,151.27,26,61
345.04,154.35,26,61
342.3,156.56,26,61
346.09,152.37,26,61
348.03,150.52,26,61
350.64,156.85,26,61
355.05,154.04,26,61
355.76,155.56,26,61
354.7,166.11,26,61
359.07,167.73,26,61
362.91,160.36,26,61
364.7,156.36,26,61
365.53,153.53,26,61
365.74,160.41,26,61
364.52,158.22,26,61
371.98,160.51,26,61
368.68,158.16,26,61
369.17,163.23,26,61
368.65,161.96,26,61
369.23,162.82,26,61
371.9,158.07,26,61
372.53,155.98,26,61
369.77,156.26,26,61
372.37,162.54,26,61
374.26,160.93,26,61
374.81,167.01,26,61
379.39,162.88,26,61
379.91,158.87,26,61
381.6,167.5,26,61
381.59,171.31,26,61
384.08,172.38,26,61
387.44,170.73,26,61
387.74,165.78,26,61
390.03,167.93,26,61
392.25,170.11,26,61
392.64,171.45,26,61
393.81,168.72,26,61
394.16,176.22,26,61
401.37,173.84,26,61
402.23,174.07,26,61
406.02,173.7,26,61
407.38,173.61,26,61
410.3,170.76,26,61
410.42,169.95,26,61
411.06,172.24,26,61
412.03,174,26,61
412.48,172.37,26,61
413.12,174.26,26,61
412.11,176.86,26,61
412.18,174.44,26,61
412.12,173.73,26,61
412.34,174.23,26,61
415.7,171.76,26,61
415.34,169.41,26,61
415.11,168.83,26,61
416.71,172.7,26,61
416.53,173.95,26,61
419.25,175.62,26,61
422.6,172.5,26,61
425.99,174.93,26,61
430.58,177.05,26,61
440.93,182.45,26,61
446.92,180.6,26,61
447.4,178.02,26,61
452.97,172.7,26,61
455.36,172.48,26,61
457.83,173.67,26,61
460.35,173.99,26,61
461.61,174.44,26,61
463.99,174.16,26,61
463.75,173.53,26,61
466.03,167.18,26,61
463.92,169.9,26,61
467.11,167.82,26,61
468.79,163.76,26,61
467.96,162.71,26,61
468.17,163.01,26,61
468.36,167.35,26,61
470.76,170.56,26,61
473.69,174.74,26,61
470.77,172.65,26,61
470.08,169.72,26,61
469.77,173.65,26,61
468.29,175.7,26,61
465.84,176.14,26,61
464.96,172.94,26,61
462.59,173.34,26,61
460.5,172.34,26,61
458.16,172.92,26,61
457.43,176.75,26,61
456.75,175.84,26,61
453.38,177.33,26,61
453.9,170.57,26,61
453.47,172.33,26,61
453.81,173.05,26,61
456.69,172.5,26,61
456.06,170.25,26,61
457.51,166.54,26,61
456.65,165.87,26,61
456.36,160.39,26,61
457.7,164.88,26,61
454.05,166.6,26,61
451.36,164.42,26,61
451.47,161.34,26,61
448.83,161.4,26,61
449.71,165.5,26,61
449.23,162,26,61
451.89,163.68,26,61
451.12,158.37,26,61
448.77,157.09,26,61
448.26,158.65,26,61
450.89,157.93,26,61
450.61,159.84,26,61
449.01,161.12,26,61
450.52,156.25,26,61
449.67,157.86,26,61
450.27,157.58,26,61
450.95,158.54,26,61
447.71,166.1,26,61
447.99,163.38,26,61
449.86,159.4,26,61
449.95,154.06,26,61
452.74,155.07,26,61
452.44,155.04,26,61
451.04,157.72,26,61
452.63,161.35,26,61
459.13,154.59,26,61
460.04,147.49,26,61
463.31,150.62,26,61
470.32,151.67,26,61
474.44,150.91,26,61
480.44,151.29,26,61
493.63,149.84,26,61
501.72,142.94,26,61
504.11,144.61,26,61
509.35,142.85,26,61
517.63,140.36,26,61
523.54,141.98,26,61
525.84,133.95,26,61
529.87,131.65,26,61
532.26,129.87,26,61
533.31,132.36,26,61
532.67,131.72,26,61
533.07,129.01,26,61
532.47,124.4,26,61
528.61,122.95,26,61
528.98,125.57,26,61
527.13,124.94,26,61
525.4,127.34,26,61
523.03,125.97,26,61
520.17,123.47,26,61
518.48,123.31,26,61
517.83,127.51,26,61
515.54,126.57,26,61
512.38,124.92,26,61
508.79,122.38,26,61
507.4,121.99,26,61
506.52,121.34,26,61
503.07,120.82,26,61
499.45,120.23,26,61
499.26,122.2,26,61
497.01,116.95,26,61
495.6,113.95,26,61
496.34,116.14,26,61
490.04,111.34,26,61
489.82,107.31,26,61
486.27,108.04,26,61
485.08,109.75,26,61
485.46,99.493,26,61
484.14,99.881,26,61
483.57,95.893,26,61
483.28,98.968,26,61
484.36,99.07,26,61
484.4,107.46,26,61
485.18,98.038,26,61
484.64,98.504,26,61
488.79,100.28,26,61
486.61,99.71,26,61
487.53,95.401,26,61
486.84,94.198,26,61
487.68,90.554,26,61
489.38,94.571,26,61
489.34,89.842,26,61
488.97,90.746,26,61
489.63,90.524,26,61
491.1,90.183,26,61
490.6,87.723,26,61
488.52,86.26,26,61
486.18,83.994,26,61
486.88,90.713,26,61
486.6,93.772,26,61
481.13,91.128,26,61
480.16,95.248,26,61
480.8,110.57,26,61
478.77,111.43,26,61
475.52,114.74,26,61
469.05,114.98,26,61
460.66,122.88,26,61
448.13,118.76,26,61
443.43,118.1,26,61
440.67,117.13,26,61
434.3,119.32,26,61
426.78,113.66,26,61
425.92,110.8,26,61
423.43,111.62,26,61
437.12,99.951,26,61
433.44,103.07,26,61
435.21,105.52,26,61
429.67,105.55,26,61
429.79,107.72,26,61
424.25,112.61,26,61
418.71,111.94,26,61
420.79,114.47,26,61
421.32,120.61,26,61
420.12,118.13,26,61
420.61,119,26,61
418.88,118.58,26,61
425.24,107.64,26,61
424.09,106.69,26,61
418.45,104.9,26,61
419.45,106.24,26,61
414.71,109.48,26,61
410.4,114.98,26,61
407.98,113.33,26,61
401.13,110.27,26,61
398.84,110.76,26,61
400.22,112.58,26,61
408.28,104.24,26,61
399.43,92.868,26,61
389.8,84.681,26,61
391.38,86.481,26,61
388.58,90.338,26,61
393.94,93.702,26,61
391.9,95.496,26,61
388.53,97.481,26,61
383.49,98.492,26,61
383.73,99.366,26,61
381.69,103.25,26,61
377.51,102.55,26,61
373.17,101.43,26,61
369.57,99.478,26,61
369.34,99.287,26,61
370.2,99.896,26,61
