288,143,35,42
289.7,142.54,35,42
290.78,143.16,35,42
292.73,142.6,35,42
294.42,141.18,35,42
296.09,140.59,35,42
297.05,139.8,35,42
296.95,140.83,35,42
297.5,140.51,35,42
297.46,141.42,35,42
298.57,142.52,35,42
298.7,141.8,35,42
299.2,143.17,35,42
297.49,142.12,35,42
296.36,141.34,35,42
297.03,142.9,35,42
297.64,143.08,35,42
297.78,143.05,35,42
297.5,143.32,35,42
296.47,144.23,35,42
296.54,145.84,35,42
297.01,146.93,35,42
295.9,147.55,35,42
295.13,148.59,35,42
293.55,148.79,35,42
292.6,148.14,35,42
292.4,148.7,35,42
292.39,148.59,35,42
291.67,150.46,35,42
291.53,150.2,35,42
290.88,149.81,35,42
290.8,150.26,35,42
290.93,151.09,35,42
292.09,150.13,35,42
291.75,150.32,35,42
292.09,149.23,35,42
292.36,148.58,35,42
293.37,148.47,35,42
293.58,148.16,35,42
294.27,148.74,35,42
294.72,148.96,35,42
293.95,149.22,35,42
293.7,148.07,35,42
293.96,148.36,35,42
294.54,148.77,35,42
294.73,146.86,35,42
293.8,148.6,35,42
291.54,149.95,35,42
291.38,149.39,35,42
289.6,150.7,35,42
289.84,150.48,35,42
290.17,151.05,35,42
289.56,151.23,35,42
290.01,152.12,35,42
288.97,152.42,35,42
289.82,151.94,35,42
289.71,154.17,35,42
288.7,154.34,35,42
288.65,155.61,35,42
288.01,154.23,35,42
289.11,155.81,35,42
289.65,155.69,35,42
289.35,155.04,35,42
288.71,154.21,35,42
290.41,155.01,35,42
291.51,154.68,35,42
292.36,154.26,35,42
292.47,154.65,35,42
293.95,154.43,35,42
294.76,156.2,35,42
296.04,155.76,35,42
297.54,156.32,35,42
300.15,156.9,35,42
303.07,158.29,35,42
305.6,159.66,35,42
308.97,162.46,35,42
312.12,167.67,35,42
314.9,174.83,35,42
315.35,178.56,35,42
315.89,185.16,35,42
317.14,189.69,35,42
316.91,196.69,35,42
313.69,198.94,35,42
312.35,201.3,35,42
308.55,203.82,35,42
304.12,203.87,35,42
299.46,201.78,35,42
293.61,197.4,35,42
289.53,191.13,35,42
285.37,181.86,35,42
282.2,171.58,35,42
279.43,159.23,35,42
279.66,151.08,35,42
280.13,143.36,35,42
281.08,137.12,35,42
283.45,132.9,35,42
284.6,129.46,35,42
286.91,129.15,35,42
288.75,131.38,35,42
290.37,137.11,35,42
292.2,141.95,35,42
293.94,150.53,35,42
295.05,161.34,35,42
299.16,173.96,35,42
299.78,184.93,35,42
299.19,194.6,35,42
298.48,199.14,35,42
295.76,198.27,35,42
291.62,196.39,35,42
284.97,190.42,35,42
276.92,180.55,35,42
269.47,169.14,35,42
258.98,162.54,35,42
253.09,159.79,35,42
244.03,156.62,35,42
239.28,157.46,35,42
238.41,159.46,35,42
234.98,163.53,35,42
234.41,166.55,35,42
234.45,172.2,35,42
237.26,178.07,35,42
241.18,179.5,35,42
247,177.19,35,42
252.99,170.58,35,42
259.68,161.3,35,42
269.97,151.58,35,42
279.48,146.74,35,42
288.57,143.77,35,42
293.55,140.34,35,42
298.68,139.35,35,42
305.32,141.18,35,42
312.09,144.07,35,42
316.5,149.29,35,42
319.56,157.59,35,42
324.07,167.21,35,42
326.33,176.59,35,42
324.59,184.66,35,42
323.66,190.55,35,42
320.84,189.35,35,42
318.24,189.62,35,42
313.89,185.61,35,42
309.26,177.42,35,42
304.62,169.15,35,42
299.91,159.67,35,42
295.38,153.18,35,42
290.84,144.95,35,42
286.66,141.76,35,42
282.99,142.17,35,42
278.15,141.51,35,42
275.57,145.56,35,42
272.1,150.32,35,42
271.56,156.27,35,42
269.78,163.18,35,42
270.79,170.48,35,42
269.58,172.15,35,42
266.29,172.04,35,42
265.16,170.5,35,42
263.99,168.85,35,42
261.24,164.79,35,42
259.86,161.55,35,42
256.31,157.78,35,42
255.76,154.84,35,42
255.58,153.3,35,42
258.12,152.94,35,42
260.28,154.19,35,42
262.43,158.71,35,42
262.66,162.93,35,42
263.97,168.82,35,42
264.57,175.35,35,42
265.06,181.93,35,42
266.75,187.79,35,42
266.28,189.39,35,42
265.87,186.1,35,42
266.23,180.07,35,42
265.9,173.23,35,42
267.49,168.72,35,42
268.53,163.32,35,42
272.54,160.62,35,42
276.29,159.11,35,42
282.25,159.11,35,42
290.2,160.73,35,42
297.98,164.18,35,42
305.09,168.05,35,42
309.19,170.79,35,42
312.01,172.72,35,42
313.26,172.55,35,42
312.6,171.76,35,42
309.19,172.5,35,42
304.66,173.09,35,42
300.68,177.3,35,42
297.01,182.61,35,42
294.4,189.14,35,42
291.65,196.41,35,42
287.4,203.17,35,42
280.2,208.19,35,42
273.38,210.03,35,42
266.34,205.14,35,42
260.71,197.35,35,42
260.84,188.1,35,42
262.11,179.49,35,42
268.08,173.65,35,42
274.5,171.24,35,42
282.09,170.9,35,42
291.59,172.34,35,42
298.55,177.53,35,42
307.89,183.76,35,42
311.58,190.26,35,42
313.46,197.86,35,42
312.42,202.25,35,42
306.79,205.1,35,42
302.19,202.82,35,42
297.91,197.96,35,42
289.55,192.16,35,42
278.97,187.97,35,42
269.79,184.3,35,42
263.16,183.56,35,42
259.19,183.78,35,42
258.88,187.68,35,42
260.3,187.4,35,42
259.71,188.94,35,42
264.32,187.5,35,42
268.93,180.88,35,42
272.32,175.04,35,42
278.36,171.77,35,42
281.78,172.22,35,42
284.68,175.25,35,42
283.7,177.56,35,42
284.95,180.83,35,42
283.58,183.7,35,42
283.55,182.88,35,42
280.16,182.75,35,42
276.71,175.42,35,42
273.88,168.48,35,42
268.09,161.61,35,42
263.36,155.09,35,42
258.18,151.2,35,42
254.67,151.47,35,42
250.93,152.12,35,42
248.77,154.58,35,42
245.08,156.95,35,42
242.13,161.94,35,42
238.92,169.44,35,42
238.16,171.94,35,42
239.84,172.31,35,42
241.79,171.65,35,42
245.19,168.01,35,42
249.2,163.19,35,42
253.34,156.41,35,42
259.53,153.1,35,42
265.63,148.82,35,42
270.47,147.72,35,42
276.36,147.74,35,42
280.64,148.44,35,42
282.97,146.86,35,42
284.83,149.79,35,42
282.48,152.35,35,42
279.04,151.73,35,42
273.78,150.16,35,42
267.24,144.92,35,42
262.63,137.4,35,42
256.82,131.37,35,42
249.56,126.94,35,42
239.9,125.42,35,42
228.97,127.87,35,42
210.22,136.85,35,42
191.82,146.45,35,42
177.53,159.6,35,42
167.34,175.31,35,42
161.87,185.98,35,42
163.5,192.98,35,42
165.06,200.03,35,42
166.14,203.64,35,42
167.93,200.75,35,42
168.82,195.11,35,42
170.23,189.44,35,42
173.77,182.52,35,42
180.41,178.76,35,42
184.05,176.11,35,42
189.92,178.69,35,42
194.19,182.95,35,42
198.36,186.62,35,42
199.65,193.4,35,42
201.07,197.71,35,42
204.53,203.91,35,42
210.5,208.1,35,42
212.08,213.26,35,42
205.9,218.51,35,42
200.93,221.44,35,42
199.27,219.29,35,42
200.72,213.76,35,42
201.76,209.33,35,42
201.6,206.86,35,42
202.53,206.41,35,42
204.26,206.54,35,42
204.59,209.59,35,42
202.46,212.34,35,42
201.96,218.08,35,42
202.72,221.68,35,42
201.86,221.5,35,42
200.97,217.38,35,42
200.29,210.87,35,42
201.36,203.15,35,42
201.54,197.71,35,42
202.02,194.28,35,42
199.94,192.72,35,42
199.05,193.3,35,42
198.85,194.33,35,42
198.93,196.22,35,42
198.76,200.05,35,42
198.49,204.96,35,42
197.49,207.12,35,42
197.53,206.05,35,42
199.7,202.66,35,42
200.68,197.19,35,42
201.23,195.32,35,42
201.58,192.66,35,42
201.72,193.62,35,42
200.12,194.57,35,42
200,198.22,35,42
200.86,201.96,35,42
200.21,207.55,35,42
199.71,213.17,35,42
198.34,220.24,35,42
196.53,221.16,35,42
198.57,220.74,35,42
199.96,216.37,35,42
199.96,208.05,35,42
196.78,201.03,35,42
194.19,194.58,35,42
190.55,190.22,35,42
184.64,185.41,35,42
178.69,185.2,35,42
177.82,182.96,35,42
179.02,183.22,35,42
174.14,188.44,35,42
169.22,195.56,35,42
167.14,202.67,35,42
168.59,208.21,35,42
168.7,213.16,35,42
170.01,211.9,35,42
172.24,210.37,35,42
173.8,206.7,35,42
174.56,205.56,35,42
175.93,205.3,35,42
181.35,204.97,35,42
186.97,207.11,35,42
191.06,213.27,35,42
198.42,216.85,35,42
208.81,222.26,35,42
220.79,227.15,35,42
230.37,229.42,35,42
240.58,224.54,35,42
251.16,216.96,35,42
259.3,204.71,35,42
265.61,196.97,35,42
275.06,191.29,35,42
283.11,188.88,35,42
291,187.07,35,42
294.85,188.15,35,42
294.95,193.03,35,42
293.44,198,35,42
289.33,207.8,35,42
284.46,217.86,35,42
277.78,223.95,35,42
266.42,228.66,35,42
254.05,231.96,35,42
238.43,232.9,35,42
220.71,234.89,35,42
205.5,237.82,35,42
197.04,241.52,35,42
192.11,242.63,35,42
185.61,244.68,35,42
175.05,245.2,35,42
163.08,240.95,35,42
156.49,230.89,35,42
156.54,219.71,35,42
161.77,206.36,35,42
169.77,197.36,35,42
181,192.37,35,42
189.4,195.88,35,42
199.31,200.96,35,42
212.34,208.13,35,42
224.31,219.25,35,42
235.72,232.2,35,42
251.11,243.82,35,42
265.73,252.37,35,42
277.11,252.74,35,42
289.33,252.42,35,42
302.69,249.21,35,42
318.24,242.63,35,42
333.39,238.02,35,42
347.18,234.09,35,42
359.01,231.59,35,42
369.58,231.09,35,42
373.98,230.6,35,42
373.21,230.81,35,42
369.52,232.49,35,42
358.44,237.21,35,42
344.23,242.32,35,42
325.36,249.31,35,42
304.81,255.68,35,42
285.06,258.32,35,42
266.64,257.17,35,42
250.5,249.26,35,42
236.38,242.77,35,42
218.12,237.04,35,42
207.52,232.73,35,42
199.87,227.58,35,42
195.75,221.58,35,42
193.81,216.96,35,42
196.42,217.47,35,42
200.11,216.03,35,42
207.04,216.17,35,42
212.71,217.99,35,42
220.79,220.44,35,42
233.52,218.06,35,42
247.83,212.2,35,42
258.97,205.72,35,42
265.78,199.37,35,42
274.28,196.28,35,42
284.97,191.08,35,42
292.63,188.83,35,42
298.51,190.74,35,42
306.66,194.06,35,42
313.73,200,35,42
320.65,208.3,35,42
326.87,219.15,35,42
333.12,228.79,35,42
340.43,236.73,35,42
344.48,239.36,35,42
345.61,237.01,35,42
351.2,229.25,35,42
353.6,222.73,35,42
352.41,218.9,35,42
351.23,214.2,35,42
347.34,210.45,35,42
342.46,209.98,35,42
333.94,209.12,35,42
326.97,214,35,42
313.5,219.64,35,42
303.84,228.86,35,42
290.91,238.79,35,42
280.13,244.96,35,42
268.12,244.86,35,42
255.1,239.37,35,42
245.76,233.39,35,42
233.42,226.46,35,42
224.69,220.97,35,42
211.16,216.87,35,42
202.32,214.21,35,42
192.85,211.56,35,42
186.04,210.49,35,42
181.99,211.57,35,42
180.28,210.32,35,42
183.98,204.01,35,42
188.75,198.23,35,42
196.44,188.71,35,42
209.91,180.86,35,42
224.86,175.49,35,42
238.17,170.35,35,42
259.43,172.63,35,42
271.58,177.57,35,42
283.04,182.86,35,42
288.33,188.5,35,42
293.13,194.94,35,42
293.11,201.29,35,42
292.98,204.72,35,42
292.91,202.95,35,42
290.62,198.72,35,42
284.08,189.72,35,42
279.64,177.28,35,42
277.71,170.24,35,42
272.92,164.92,35,42
267.82,167.26,35,42
265.21,169.31,35,42
265.93,173.77,35,42
265.65,179.98,35,42
268.62,186.21,35,42
273.95,194.81,35,42
275.68,203.26,35,42
277.98,210.67,35,42
278.78,213.5,35,42
279.88,210.92,35,42
282.59,205.36,35,42
287.23,192.01,35,42
290.71,179.23,35,42
290.73,168.68,35,42
289.61,160.36,35,42
286.87,152.85,35,42
289.11,146.41,35,42
289.29,139.17,35,42
283.13,139.38,35,42
277.6,140.25,35,42
270.43,140.34,35,42
263.43,142.1,35,42
256.3,145.28,35,42
251.74,149.67,35,42
247.97,152.48,35,42
241.58,157.33,35,42
235.14,163.77,35,42
228.36,169.93,35,42
221.91,180.78,35,42
216.63,185.97,35,42
216.36,194.67,35,42
213.31,200.2,35,42
212.89,200.72,35,42
216.62,195.03,35,42
223.19,187.11,35,42
232.4,175.97,35,42
237.81,158,35,42
239.49,148.42,35,42
238.55,137.97,35,42
237.29,127.62,35,42
238.5,122.52,35,42
239.47,122.39,35,42
236.07,124.11,35,42
232.89,129.89,35,42
229.21,136.68,35,42
228.08,147,35,42
229.49,158.71,35,42
231.21,169.25,35,42
234.25,180.66,35,42
235.15,187.28,35,42
237,188.99,35,42
233.71,190.6,35,42
226.94,187.79,35,42
220.75,180.62,35,42
217.38,174.2,35,42
212.87,169.69,35,42
204.73,169.58,35,42
199.4,171.57,35,42
195.36,173.76,35,42
194.63,176.19,35,42
194.32,181.87,35,42
193.39,187.61,35,42
194.24,193.24,35,42
195.6,198.02,35,42
196.05,196.05,35,42
197.17,191.89,35,42
199.07,181.13,35,42
203.27,172.32,35,42
208.43,166.22,35,42
213.18,164.06,35,42
214.86,163.71,35,42
217.28,165.65,35,42
222.64,167.8,35,42
225.38,173.56,35,42
226.42,180.4,35,42
228.09,187.28,35,42
229.54,193.29,35,42
226.67,202.87,35,42
222.67,208.98,35,42
219.08,212.64,35,42
215.95,213.15,35,42
213.41,208.06,35,42
210.59,198.52,35,42
209.64,187.81,35,42
210.92,176.8,35,42
208.69,166.49,35,42
208.73,156.54,35,42
204.1,152.14,35,42
199.13,147.34,35,42
196.07,146.52,35,42
194.74,146.83,35,42
194.92,149.76,35,42
193.07,155.32,35,42
192.7,160.11,35,42
195.29,168.89,35,42
199.77,175.26,35,42
201.73,186.93,35,42
206.99,194.4,35,42
209.93,197.37,35,42
213.61,197.17,35,42
216.54,191.02,35,42
221.6,177.8,35,42
225.26,165.24,35,42
228.29,153.55,35,42
235.1,142.23,35,42
242.93,133.85,35,42
248.37,121.91,35,42
248.66,115.73,35,42
253.91,115.51,35,42
264.83,112.14,35,42
267.23,108.09,35,42
266.05,115.88,35,42
263.7,119.56,35,42
263.43,129.1,35,42
264.35,141.18,35,42
258.42,154.96,35,42
258.54,169.37,35,42
254.76,180.34,35,42
247.62,180.28,35,42
245.82,179.48,35,42
247,168.14,35,42
244.42,159.85,35,42
240.34,152.17,35,42
242.1,145.14,35,42
246.22,138.95,35,42
248.82,133.42,35,42
252.05,135.05,35,42
257.2,130.28,35,42
262.69,136.17,35,42
