73,126,29,23
73.688,125.74,29,23
72.924,125.57,29,23
75.224,124.51,29,23
75.062,125.28,29,23
77.007,125.19,29,23
76.573,125.67,29,23
77.432,125.57,29,23
78.124,124.86,29,23
78.968,124.98,29,23
80.205,124.62,29,23
79.11,124.09,29,23
79.6,124.84,29,23
80.77,124.18,29,23
79.956,123.33,29,23
81.393,123.09,29,23
81.92,122.99,29,23
80.754,123.66,29,23
81.74,123.29,29,23
84.078,123.31,29,23
84.197,123.4,29,23
82.012,122.6,29,23
84.131,123.38,29,23
83.908,124.09,29,23
86.257,122.84,29,23
86.209,123.96,29,23
86.902,124.22,29,23
87.651,124.32,29,23
86.989,124.1,29,23
88.175,125.65,29,23
89.076,124.49,29,23
88.272,124.19,29,23
90.1,124.23,29,23
90.063,123.74,29,23
90.757,124.6,29,23
90.573,125.52,29,23
91.658,125.13,29,23
91.822,124.87,29,23
91.104,125.34,29,23
91.014,125.96,29,23
91.777,124.31,29,23
90.921,126.14,29,23
92.586,126.64,29,23
92.234,126.89,29,23
91.605,127.11,29,23
92.902,127.91,29,23
92.069,128.73,29,23
93.62,128.74,29,23
94.021,129.08,29,23
93.44,129.65,29,23
94.409,127.98,29,23
93.218,128.91,29,23
93.892,128.21,29,23
93.184,128.9,29,23
95.828,127.32,29,23
94.897,127.88,29,23
93.318,127.06,29,23
94.905,126.56,29,23
95.392,127.93,29,23
96.733,127.66,29,23
96.587,127.33,29,23
95.532,126.29,29,23
96.645,127.07,29,23
97.26,125.64,29,23
96.631,127.34,29,23
97.615,126.72,29,23
97.995,126.42,29,23
97.915,126.74,29,23
97.238,125.9,29,23
97.746,126.56,29,23
97.251,125.92,29,23
98.371,126.12,29,23
98.31,126.03,29,23
98.749,125.96,29,23
99.823,126.74,29,23
100.47,126.39,29,23
99.004,125.62,29,23
99.752,126.51,29,23
100.67,126.4,29,23
101.63,126.87,29,23
99.679,125.99,29,23
101.36,125.79,29,23
102.06,127.1,29,23
99.468,125.58,29,23
100.94,126.3,29,23
102.14,126.61,29,23
100.86,127.16,29,23
101.4,126.31,29,23
102.69,126.9,29,23
103.56,126.84,29,23
102.81,126.94,29,23
101.7,127.18,29,23
101.8,126.08,29,23
102.27,126.57,29,23
101.72,126.44,29,23
103.56,126.86,29,23
102.49,126.4,29,23
101.34,127.41,29,23
103.41,126.28,29,23
103.21,126.86,29,23
103.31,127.21,29,23
103.05,127.17,29,23
102.37,127.45,29,23
103.03,126.45,29,23
102.67,126.69,29,23
102.45,127.39,29,23
102.17,126.37,29,23
103.95,126.99,29,23
102.28,126.03,29,23
103.26,127.14,29,23
103.53,126.25,29,23
102.8,127.22,29,23
103.39,127.29,29,23
102.42,125.7,29,23
102.9,126.52,29,23
103.69,126.36,29,23
103.38,125.42,29,23
103.67,125.97,29,23
103.12,125.68,29,23
102.94,124.65,29,23
102.6,125.53,29,23
101.86,125.02,29,23
103.33,125.42,29,23
103.56,124.87,29,23
103.5,124.59,29,23
104.28,124.82,29,23
104.07,124.74,29,23
102.35,125.58,29,23
102.37,124.25,29,23
102.46,124.22,29,23
103.33,125.09,29,23
103.98,124.45,29,23
104.23,125.18,29,23
104.45,125.14,29,23
104.34,125.2,29,23
104.76,125.22,29,23
103.59,125.23,29,23
104.4,124.76,29,23
104.37,125.54,29,23
103.45,125.63,29,23
103.82,125.49,29,23
103.35,125.17,29,23
104.26,124.93,29,23
102.47,124.78,29,23
102.74,124.63,29,23
102.51,125.29,29,23
103.71,124.85,29,23
103.19,125.01,29,23
105.56,125.08,29,23
103.28,124.59,29,23
102.38,125.73,29,23
102.88,125.32,29,23
104.23,125.4,29,23
104.22,125.55,29,23
103.36,125.03,29,23
103.5,125.58,29,23
103.09,124.94,29,23
104.72,125.44,29,23
104.8,126.5,29,23
104.18,125.73,29,23
104.26,125.66,29,23
104.43,125.77,29,23
104.72,126.64,29,23
103.67,125.84,29,23
104.45,126.74,29,23
104.33,126.24,29,23
104.09,125.09,29,23
103.46,126.27,29,23
103.53,126.66,29,23
106.15,125.01,29,23
103.79,125.54,29,23
103.82,126.66,29,23
103.89,125.81,29,23
103.88,125.56,29,23
104.42,124.58,29,23
103.99,126.04,29,23
105.11,126.98,29,23
105.05,126.04,29,23
104.01,125.37,29,23
103.32,125.3,29,23
103.92,125.65,29,23
105.5,126.01,29,23
105.04,126.43,29,23
105.49,125.64,29,23
105.38,126.47,29,23
104.99,126.56,29,23
104.46,127.07,29,23
105.17,127.33,29,23
105.9,126.69,29,23
104.82,126.03,29,23
105.59,127.03,29,23
107.25,127.66,29,23
105.57,127.74,29,23
106.8,126.41,29,23
107.01,127.38,29,23
107.07,127.14,29,23
106.59,126.47,29,23
107.82,126.18,29,23
108.19,125.51,29,23
106.83,125.73,29,23
107.98,125.11,29,23
107.06,125.88,29,23
107.34,125.63,29,23
108.81,124.76,29,23
107.89,124.61,29,23
108.03,124.89,29,23
109.03,124.57,29,23
109.95,125.64,29,23
109.85,125.56,29,23
109.53,125.96,29,23
108.42,125.87,29,23
111.01,125.67,29,23
111.02,125.78,29,23
108.82,126.64,29,23
110.01,126.21,29,23
109.78,126.27,29,23
109.41,127.26,29,23
111.48,126.46,29,23
109.31,127.73,29,23
110.31,127.16,29,23
110.33,128.13,29,23
111.22,128.26,29,23
111.1,128.06,29,23
111.63,127.73,29,23
111.93,127.69,29,23
111.39,127.01,29,23
112.58,127.32,29,23
112.8,126.92,29,23
112.83,126.45,29,23
112.05,126.4,29,23
114.51,125.67,29,23
115.08,126.27,29,23
114.92,125.42,29,23
115.56,125.54,29,23
115.27,125.76,29,23
115.03,126.02,29,23
115.52,125.86,29,23
116.33,126.42,29,23
117.42,126.32,29,23
117.42,126.05,29,23
117.85,126.44,29,23
117.1,125.99,29,23
117.97,125.64,29,23
117.38,126.24,29,23
118.39,126.64,29,23
119.8,126.39,29,23
119.65,126.2,29,23
120.23,125.18,29,23
121.13,125.93,29,23
121.2,125.75,29,23
120.64,126.05,29,23
121.39,124.87,29,23
122.97,124.27,29,23
122.62,125.22,29,23
122.4,124.45,29,23
123.34,123.65,29,23
123.91,123.26,29,23
125.03,124.4,29,23
125.14,123.78,29,23
126.86,123.16,29,23
127.03,123.7,29,23
126.82,123.06,29,23
127.83,122.48,29,23
128.1,122.43,29,23
129.31,123.72,29,23
129.39,124.19,29,23
129.59,123.32,29,23
128.43,123.01,29,23
130.6,123.74,29,23
130.33,123.99,29,23
131.03,123.42,29,23
131.15,123.53,29,23
129.44,122.82,29,23
126.76,122.92,29,23
126.21,121.73,29,23
124.97,121.12,29,23
126.26,120.45,29,23
121.43,119.19,29,23
127.27,119.68,29,23
122.86,118.87,29,23
122.88,118.77,29,23
121.98,117.63,29,23
120.77,117.94,29,23
123.01,118.69,29,23
122.55,118.84,29,23
122.23,118.84,29,23
121.6,118.85,29,23
119.34,118.82,29,23
119.48,119.49,29,23
121.51,120.25,29,23
121.06,119.76,29,23
121.07,119.78,29,23
118.79,120.11,29,23
115.42,120.54,29,23
118.4,120.4,29,23
117.75,119.95,29,23
114.97,119.87,29,23
114.97,120.1,29,23
117,119.37,29,23
115.27,119.25,29,23
113.65,119.6,29,23
112.88,120,29,23
112.82,120.43,29,23
112.91,119.79,29,23
108.82,119.86,29,23
111.91,120.33,29,23
109.95,120.63,29,23
110.28,121.64,29,23
106.72,122.19,29,23
107.62,122.79,29,23
105.03,122.48,29,23
103.62,123.89,29,23
103.19,125.11,29,23
103.14,125.51,29,23
102.23,126.33,29,23
101.29,126.8,29,23
100.88,126.89,29,23
98.469,127.11,29,23
97.323,126.54,29,23
96.861,127.09,29,23
95.301,125.51,29,23
95.039,124.86,29,23
93.613,124.27,29,23
91.65,123.36,29,23
91.433,123.74,29,23
91.445,121.87,29,23
90.737,122.52,29,23
88.931,121.85,29,23
88.873,120.8,29,23
86.746,120.17,29,23
85.608,120.26,29,23
85.222,120.34,29,23
83.896,119.21,29,23
81.713,121.59,29,23
80.98,119.78,29,23
66.538,122.61,29,23
79.217,121.35,29,23
72.803,123.06,29,23
73.569,124.58,29,23
66.538,124.32,29,23
70.973,123.61,29,23
67.643,124.53,29,23
68.42,124.41,29,23
63.261,124.25,29,23
63.563,124.85,29,23
59.046,125.7,29,23
61.06,125.69,29,23
63.768,123,29,23
57.614,124.47,29,23
59.457,125.33,29,23
56.907,124.88,29,23
55.548,124.41,29,23
53.754,124.58,29,23
53.803,125.46,29,23
65.744,124.03,29,23
65.151,124.46,29,23
63.502,123.47,29,23
51.299,124.38,29,23
49.899,124.2,29,23
45.917,124.87,29,23
49.707,123.55,29,23
46.962,123.99,29,23
47.234,122.29,29,23
43.988,123.12,29,23
43.734,122.19,29,23
47.57,121.81,29,23
46.545,120.57,29,23
42.739,121.86,29,23
37.542,121.79,29,23
40.849,121.62,29,23
37.697,121.43,29,23
36.732,121.86,29,23
35.277,121.74,29,23
35.218,121.64,29,23
35.068,121.3,29,23
31.617,121.17,29,23
28.961,122.21,29,23
29.098,121.63,29,23
26.963,122.21,29,23
26.95,122.19,29,23
26.304,120.15,29,23
23.453,120.98,29,23
24.105,120.94,29,23
23.38,121.23,29,23
22.242,120.42,29,23
22.566,120.54,29,23
20.061,120.39,29,23
19.417,120.4,29,23
18.829,121.62,29,23
18.468,120.51,29,23
17.994,121.8,29,23
16.653,121.18,29,23
14.662,120.95,29,23
