6,166,42,26
7.5635,165.96,42,26
9.7408,165.33,42,26
9.7916,165.73,42,26
13.755,165.67,42,26
14.652,165.54,42,26
16.765,167.28,42,26
18.176,166.8,42,26
18.077,165.48,42,26
20.703,167.1,42,26
21.001,166.43,42,26
21.219,167.3,42,26
23.949,166.11,42,26
21.93,166.68,42,26
25.021,167.04,42,26
26.829,166.25,42,26
31.576,167.86,42,26
30.483,167.49,42,26
31.588,167.36,42,26
32.829,167.61,42,26
34.687,168.68,42,26
38.262,168.8,42,26
41.169,169.22,42,26
41.047,170.39,42,26
43.407,169.35,42,26
45.794,169.99,42,26
45.297,169.64,42,26
47.293,170.87,42,26
46.241,170.88,42,26
48.016,170.87,42,26
51.032,170.02,42,26
51.536,170.86,42,26
51.903,170.95,42,26
52.119,170.31,42,26
52.222,171.19,42,26
53.213,171.69,42,26
54.167,171.66,42,26
54.966,170.51,42,26
57.809,171.39,42,26
58.234,171,42,26
58.42,171.27,42,26
57.911,170.87,42,26
60.192,171.08,42,26
62.291,171.99,42,26
63.489,170.89,42,26
65.385,170.94,42,26
63.767,171,42,26
65.895,170.95,42,26
68.879,171.02,42,26
68.28,170.26,42,26
70.341,170.68,42,26
71.864,170.73,42,26
73.291,171.17,42,26
73.132,170.75,42,26
74.107,170.82,42,26
74.989,170.99,42,26
77.356,171.22,42,26
79.663,170.8,42,26
79.194,171.28,42,26
77.001,171.73,42,26
82.246,171.1,42,26
82.205,172.54,42,26
80.108,171.86,42,26
80.266,172.38,42,26
83.896,171.38,42,26
82.605,171.86,42,26
81.664,172.66,42,26
83.1,172.84,42,26
82.387,173.22,42,26
82.199,173.5,42,26
84.463,172.81,42,26
82.027,173.53,42,26
82.674,174.42,42,26
85.234,174.5,42,26
82.395,174.24,42,26
84.845,174.34,42,26
83.103,174.28,42,26
83.334,174.97,42,26
85.912,174.54,42,26
84.334,175.94,42,26
85.968,175.45,42,26
85.473,175.26,42,26
84.246,174.98,42,26
86.666,175.21,42,26
86.325,176.35,42,26
86.63,176.46,42,26
82.804,176.12,42,26
85.275,176.91,42,26
85.414,176.86,42,26
87.241,177.42,42,26
85.778,177.65,42,26
84.871,177.59,42,26
85.469,178.8,42,26
85.366,177.66,42,26
86.975,176.82,42,26
82.377,178.61,42,26
85.005,179.02,42,26
84.617,178.91,42,26
84.635,178.34,42,26
84.949,178.84,42,26
86.675,178.63,42,26
86.037,179.55,42,26
84.469,178.98,42,26
85.165,179.5,42,26
87.356,178.22,42,26
85.109,178.16,42,26
85.733,178.77,42,26
86.904,179.75,42,26
88.313,179.23,42,26
89.219,179.38,42,26
86.272,178.22,42,26
88.503,179.37,42,26
90.599,181.05,42,26
90.722,178.43,42,26
89.798,178.57,42,26
89.686,178.95,42,26
91.219,178.86,42,26
93.025,178.55,42,26
91.719,178.9,42,26
90.847,179.62,42,26
92.147,178.9,42,26
92.318,179.51,42,26
94.741,178.05,42,26
93.197,178.75,42,26
95.09,177.96,42,26
96.701,178.02,42,26
95.642,176.82,42,26
99.698,177.32,42,26
101.03,177.43,42,26
102.35,177.49,42,26
102.27,178.82,42,26
104.2,177.58,42,26
104.04,177.41,42,26
107.47,177.53,42,26
106.89,177.48,42,26
106.54,178.12,42,26
109.78,177.98,42,26
107.88,177.44,42,26
110.92,177.48,42,26
109.69,177.06,42,26
113.94,177.74,42,26
111.17,176.83,42,26
116.08,176.81,42,26
117.79,177.35,42,26
120.05,177.5,42,26
119.51,176.55,42,26
121.86,176.82,42,26
122.97,177.2,42,26
125.82,176.83,42,26
126.8,176.62,42,26
129.14,176.41,42,26
129.79,176.35,42,26
133.23,175.45,42,26
134.44,175.98,42,26
136.52,176.39,42,26
136.1,175.64,42,26
139.06,175.71,42,26
140,176.76,42,26
142.28,176.42,42,26
144.02,175.55,42,26
151.47,176.57,42,26
143.38,176.03,42,26
147.83,176.83,42,26
148.57,176.49,42,26
157.69,176.38,42,26
150.35,174.75,42,26
151.42,175.42,42,26
152.5,176.18,42,26
152.6,175.49,42,26
157.01,177.45,42,26
155.89,177.05,42,26
158.91,177.74,42,26
159.79,175.88,42,26
165.11,175.55,42,26
162.83,176.27,42,26
165.29,175.88,42,26
167.74,175.61,42,26
165.46,175.52,42,26
166.45,175.54,42,26
166.9,175.75,42,26
167.96,175.05,42,26
169.61,175.86,42,26
168.23,175.98,42,26
173,173.42,42,26
171.66,173.7,42,26
171.88,175.07,42,26
178.32,174.3,42,26
183.62,174.81,42,26
187.83,174.14,42,26
192.21,173.11,42,26
195.65,173.54,42,26
202.55,173.95,42,26
208.67,172.28,42,26
212.65,172.54,42,26
215.64,171.6,42,26
215.92,170.97,42,26
218.18,170.8,42,26
218.76,170.47,42,26
216.9,172.03,42,26
214.44,168.62,42,26
215.32,168.13,42,26
213.03,167.63,42,26
210.23,167,42,26
205.75,167.51,42,26
202.26,166.26,42,26
196.95,165.32,42,26
193.59,164.04,42,26
191.19,163.63,42,26
191.88,163.06,42,26
194.58,161.9,42,26
197.5,160.82,42,26
201.75,160.54,42,26
209.18,160.71,42,26
215,159.02,42,26
221.96,158.35,42,26
231.41,159.31,42,26
237.01,160.41,42,26
247.1,158.76,42,26
254.04,157.27,42,26
260.43,157.47,42,26
269.2,157.83,42,26
274.38,158.63,42,26
281.59,158.34,42,26
291.34,156.08,42,26
298.43,156.01,42,26
306.48,153.84,42,26
312.53,153.53,42,26
317.85,149.19,42,26
324.42,149.57,42,26
329.89,148.8,42,26
338.44,146.16,42,26
341.01,147.24,42,26
346.1,146.38,42,26
350.37,146.35,42,26
356.06,144,42,26
362.49,145.65,42,26
367.41,144.19,42,26
372.19,145.16,42,26
377.08,143.43,42,26
382.63,144.38,42,26
387.25,143.06,42,26
393.01,141.33,42,26
398.79,140.86,42,26
404.99,140.62,42,26
413.34,139.48,42,26
422.17,140.39,42,26
433.62,140.5,42,26
450.08,139.12,42,26
464.94,138.59,42,26
484.75,138.42,42,26
504.81,137.29,42,26
527.6,137.59,42,26
