51,47,25,62
47.856,41.384,25,62
35.337,38.339,25,62
32.926,42.377,25,62
38.1,38.818,25,62
29.719,39.18,25,62
30.595,39.591,25,62
34.264,40.684,25,62
40.454,38.92,25,62
39.692,34.867,25,62
43.63,33.197,25,62
47.116,32.993,25,62
61.537,36.369,25,62
66.444,32.784,25,62
65.242,31.93,25,62
87.169,31.653,25,62
102.15,33.417,25,62
92.936,27.281,25,62
83.574,28.674,25,62
88.123,25.743,25,62
85.772,24.636,25,62
82.755,29.995,25,62
87.409,35.801,25,62
90.438,37.306,25,62
77.932,43.696,25,62
77.006,38.2,25,62
83.947,31.568,25,62
80.812,23.623,25,62
72.82,16.468,25,62
62.666,15.376,25,62
66.16,18.808,25,62
74.885,24.054,25,62
84.67,23.184,25,62
92.064,27.697,25,62
107.28,22.41,25,62
118.28,26.173,25,62
112.74,24.163,25,62
114.19,22.892,25,62
130.84,26.27,25,62
139.35,26.991,25,62
147.63,31.816,25,62
151.94,32.422,25,62
153.76,35.874,25,62
151.26,30.813,25,62
153.67,27.612,25,62
153,32.703,25,62
123.87,34.603,25,62
106.03,32.8,25,62
103.5,31.859,25,62
105.87,35.404,25,62
107.4,26.834,25,62
108.07,15.628,25,62
108.55,14.499,25,62
118.13,22.308,25,62
121.47,22.52,25,62
121.43,30.311,25,62
110.1,32.635,25,62
113.92,38.148,25,62
103.4,30.583,25,62
102.97,23.11,25,62
128.6,23.011,25,62
138.76,21.688,25,62
130.45,26.439,25,62
131.34,34.285,25,62
132.14,43.492,25,62
131.03,41.498,25,62
132.86,51.373,25,62
143.1,56.621,25,62
139.95,61.734,25,62
120.72,62.267,25,62
128.18,52.586,25,62
121.27,54.199,25,62
108.6,59.401,25,62
102.06,47.717,25,62
97.771,57.236,25,62
108.68,63.221,25,62
117.73,73.069,25,62
125.86,77.748,25,62
136.31,75.992,25,62
148.41,79.649,25,62
137.5,70.024,25,62
145.47,66.224,25,62
159.49,62.458,25,62
165.95,57.031,25,62
173.02,63.924,25,62
182.98,60.451,25,62
179.47,63.594,25,62
176.7,65.528,25,62
177.58,66.764,25,62
176.57,61.24,25,62
135.27,63.875,25,62
124.24,51.289,25,62
134.19,51.876,25,62
135.3,47.058,25,62
137.8,44.786,25,62
133.07,44.02,25,62
134.55,49.992,25,62
150.57,56.736,25,62
151.87,58.682,25,62
144,59.433,25,62
144.3,56.491,25,62
147.08,54.761,25,62
138.73,37.814,25,62
136.31,30.087,25,62
169.67,32.037,25,62
184.5,37.965,25,62
184.01,40.506,25,62
190.32,43.252,25,62
192.35,46.906,25,62
177.11,47.165,25,62
178.64,50.368,25,62
178.66,54.886,25,62
172.7,58.193,25,62
146.03,59.476,25,62
140.33,53.494,25,62
126.81,59.07,25,62
127.25,55.196,25,62
127.2,56.445,25,62
124.41,61.984,25,62
133.49,58.336,25,62
150.19,62.032,25,62
158.21,62.86,25,62
153,57.002,25,62
148.31,54.042,25,62
151.78,40.954,25,62
152.54,33.608,25,62
179.72,32.722,25,62
185.08,37.487,25,62
185.26,42.404,25,62
181.83,48.164,25,62
178.19,43.406,25,62
171.32,42.493,25,62
175.07,47.28,25,62
166.52,43.028,25,62
149.25,45.867,25,62
142.02,39.899,25,62
152.66,29.604,25,62
146.9,30.257,25,62
152.83,27.199,25,62
150.46,34.081,25,62
