40,199,61,103
39.401,199.01,61,103
39.876,198.04,61,103
39.095,198.3,61,103
39.202,198.28,61,103
38.62,196.12,61,103
38.639,195.91,61,103
37.376,196.08,61,103
37.004,194.87,61,103
36.794,192.9,61,103
36.714,190.63,61,103
36.193,188.21,61,103
36.64,185.38,61,103
36.367,179.44,61,103
35.811,175.5,61,103
35.838,169.88,61,103
36.954,164.06,61,103
38.257,156.92,61,103
37.869,150.6,61,103
40.644,144.28,61,103
41.507,138.49,61,103
44.928,131.58,61,103
46.73,124.46,61,103
50.108,118.34,61,103
55.352,114.18,61,103
59.232,106.34,61,103
65.017,103.94,61,103
69.935,97.97,61,103
74.966,91.993,61,103
84.611,84.978,61,103
92.025,80.066,61,103
99.109,74.167,61,103
107.96,71.773,61,103
117.21,65.951,61,103
126.49,62.007,61,103
136.86,58.756,61,103
144.96,57.007,61,103
156.14,53.932,61,103
165.82,53.192,61,103
175.57,45.248,61,103
185.89,44.02,61,103
195.73,42.565,61,103
204.15,41.317,61,103
212.85,37.267,61,103
219.42,42.427,61,103
227.99,45.465,61,103
234.07,44.018,61,103
241.4,45.504,61,103
247.76,47.888,61,103
252.82,49.405,61,103
258.64,51.307,61,103
261.3,52.069,61,103
266.47,56.667,61,103
270.49,58.144,61,103
275.08,59.563,61,103
279.14,64.099,61,103
282.55,67.006,61,103
284.73,68.866,61,103
288.88,71.845,61,103
293.66,77.672,61,103
297.77,80.939,61,103
302.61,87.297,61,103
305.03,90.578,61,103
311.07,93.707,61,103
313.99,100.11,61,103
319.33,103.36,61,103
324.2,109.9,61,103
329.68,113.95,61,103
333.75,122.28,61,103
337.61,125.09,61,103
343.53,132.77,61,103
346.1,137.88,61,103
352.75,146.83,61,103
355.12,150.47,61,103
358.29,157.34,61,103
361.97,164.48,61,103
363.57,171.68,61,103
366.22,176.96,61,103
367.47,183.02,61,103
368.59,190.21,61,103
370.19,194.71,61,103
369.74,198.54,61,103
370.08,202.56,61,103
368.93,206.31,61,103
367.96,208.17,61,103
366.35,209.95,61,103
367.57,208.53,61,103
365.63,210.65,61,103
364.98,209.19,61,103
364.35,207.86,61,103
364.01,205.05,61,103
365.42,202.6,61,103
364.38,198.65,61,103
365.61,195.5,61,103
367.32,193.87,61,103
367.78,189.78,61,103
369.2,186.17,61,103
370.9,182.18,61,103
371.52,175.58,61,103
372.5,171.89,61,103
372.89,165.83,61,103
372.73,162.3,61,103
373.07,154.75,61,103
373.45,147.89,61,103
370.98,142.95,61,103
369.39,139.52,61,103
365.56,135.5,61,103
362.86,130.68,61,103
358.19,127.27,61,103
352.64,124.81,61,103
348.03,124.7,61,103
340.52,122.55,61,103
335.27,121.01,61,103
328.86,119.9,61,103
321.76,121.37,61,103
314.73,120.65,61,103
307.69,120.32,61,103
300.41,119,61,103
293.17,117.87,61,103
287.24,119.71,61,103
279.37,121.6,61,103
274.38,120.89,61,103
268.25,121.68,61,103
261.51,120.15,61,103
257.88,123.65,61,103
251.94,123.89,61,103
247.54,124.79,61,103
243.98,128.02,61,103
240.48,130.38,61,103
238.35,131.99,61,103
236.46,130.74,61,103
234.93,134.06,61,103
233.86,136.53,61,103
230.87,141.85,61,103
230.86,145.03,61,103
232.38,146.98,61,103
233.83,151.38,61,103
238.22,155.88,61,103
239.43,152.74,61,103
243.13,160.55,61,103
245.9,159.43,61,103
253.04,158.83,61,103
258.13,162.45,61,103
262.9,160.21,61,103
269.77,159.04,61,103
275.22,158.81,61,103
280.08,159.11,61,103
286.76,160.98,61,103
292.46,160.78,61,103
296.98,160.03,61,103
302.86,162.87,61,103
307.73,161.46,61,103
311.1,166.32,61,103
316.38,167.7,61,103
318.69,165.4,61,103
322.13,168.34,61,103
325.36,169.77,61,103
327.13,172.68,61,103
328.94,173.69,61,103
331.02,176.09,61,103
331.82,177.01,61,103
333.27,178.82,61,103
335.99,177.6,61,103
336.7,178.28,61,103
338.7,177.07,61,103
340.74,177.88,61,103
342.72,175.53,61,103
346.37,175.83,61,103
349.27,171.59,61,103
351.71,174.61,61,103
356.06,171.55,61,103
361.01,170.81,61,103
364.36,167.09,61,103
367.96,170.32,61,103
371.48,169.59,61,103
376.72,169.51,61,103
382.27,165.3,61,103
385.68,165.31,61,103
387.45,165.14,61,103
393.45,164.28,61,103
396.77,162.53,61,103
401.33,161.35,61,103
405.23,157.82,61,103
407.5,155.84,61,103
412.73,158.31,61,103
413.5,153.71,61,103
419.53,152.44,61,103
422.22,151.21,61,103
424.41,148.57,61,103
428.85,144.52,61,103
430.1,141.86,61,103
433.53,141.78,61,103
435.98,138.04,61,103
437.16,139.81,61,103
440.67,138.12,61,103
442.48,136.69,61,103
443.57,137.95,61,103
445.69,140.33,61,103
449.01,139.89,61,103
448.33,142.49,61,103
452.02,143.75,61,103
453.8,143.81,61,103
455.31,144.93,61,103
457.6,143.86,61,103
458.22,142.53,61,103
459.14,139.62,61,103
459.84,132.48,61,103
461.01,130.07,61,103
461.05,124.78,61,103
460.28,122.02,61,103
457.16,116.62,61,103
455.27,111.28,61,103
454.39,106.11,61,103
448.05,98.345,61,103
444.02,89.819,61,103
437.65,81.387,61,103
430.79,76.728,61,103
421.71,74.025,61,103
412.55,72.126,61,103
400.33,65.34,61,103
387.97,57.432,61,103
374.57,53.592,61,103
359.87,47.659,61,103
344.7,45.575,61,103
324.25,39.358,61,103
306,37.012,61,103
290.23,35.288,61,103
275.22,31.156,61,103
259.19,29.762,61,103
242.16,29.31,61,103
222.01,24.651,61,103
207.47,24.332,61,103
190.22,21.35,61,103
177.23,16.117,61,103
163.1,14.242,61,103
150.29,12.538,61,103
138.4,11.496,61,103
127.95,13.737,61,103
115.22,10.888,61,103
104.52,14.131,61,103
94.513,16.028,61,103
87.593,22.853,61,103
79.113,26.027,61,103
71.145,28.86,61,103
63.742,35.483,61,103
58.079,42.599,61,103
52.916,48.04,61,103
48.989,54.379,61,103
44.237,59.629,61,103
41.694,68.272,61,103
38.114,75.138,61,103
34.349,83.921,61,103
30.704,90.11,61,103
26.922,97.973,61,103
25.194,104.11,61,103
23.505,108.57,61,103
21.21,116.71,61,103
19.064,119.98,61,103
15.827,126.42,61,103
14.54,132.03,61,103
13.497,134.81,61,103
12.229,137.02,61,103
12.969,138.86,61,103
13.378,144.94,61,103
12.409,149.14,61,103
14.312,150.95,61,103
13.449,155.33,61,103
14.527,158.65,61,103
17.36,162.34,61,103
18.507,167.02,61,103
22.38,169.62,61,103
22.195,175.37,61,103
24.722,179.42,61,103
27.709,182.22,61,103
29.282,187.36,61,103
32.309,192.07,61,103
33.258,197.17,61,103
35.077,200.58,61,103
37.53,203.21,61,103
39.882,206.36,61,103
42.907,209.07,61,103
44.998,211.02,61,103
45.755,214.97,61,103
48.699,219.38,61,103
47.901,221.71,61,103
51.409,222.74,61,103
49.805,224.79,61,103
52.182,228.79,61,103
52.756,231.43,61,103
54.179,231.44,61,103
55.221,234,61,103
57.022,235.45,61,103
56.448,235.47,61,103
57.671,235.52,61,103
58.397,236.7,61,103
57.24,236.26,61,103
58.704,237.07,61,103
60.045,237.16,61,103
61.477,239.58,61,103
61.603,239.16,61,103
61.573,239.9,61,103
64.499,242.76,61,103
64.464,246.63,61,103
63.872,243.98,61,103
65.479,244.11,61,103
66.105,245.85,61,103
66.636,248.06,61,103
66.423,248.74,61,103
67.522,249.73,61,103
68.083,252.2,61,103
67.361,253.23,61,103
68.187,254.26,61,103
68.099,255.87,61,103
67.834,257.74,61,103
67.718,262.44,61,103
68.302,263.35,61,103
68.17,262.17,61,103
70.118,265.25,61,103
68.048,265.41,61,103
68.167,265.27,61,103
68.196,269.34,61,103
70.158,265.08,61,103
68.801,266.11,61,103
69.962,267.13,61,103
69.915,270.51,61,103
70.488,270.95,61,103
70.602,272.12,61,103
73.584,272.51,61,103
76.419,273.6,61,103
76.9,275.96,61,103
77.306,276.64,61,103
77.365,276.21,61,103
78.199,277.13,61,103
76.506,276.41,61,103
79.093,275.25,61,103
78.08,275.2,61,103
78.064,275.2,61,103
78.221,276.49,61,103
80.206,274.52,61,103
77.983,273.65,61,103
79.592,274.56,61,103
79.011,273.62,61,103
79.015,273.83,61,103
79.258,272.44,61,103
79.146,274.42,61,103
79.343,273.37,61,103
80.381,272.49,61,103
78.453,272.34,61,103
78.291,275.61,61,103
78.515,271.63,61,103
79.272,274.19,61,103
78.405,273.62,61,103
78.576,275.59,61,103
78.398,275.25,61,103
78.226,275.35,61,103
78.938,274.11,61,103
78.742,275.84,61,103
77.019,274.87,61,103
77.888,277.39,61,103
78.449,275.8,61,103
77.919,278.68,61,103
77.537,276.88,61,103
76.321,278.11,61,103
75.603,276.48,61,103
77.133,275.51,61,103
75.371,276.4,61,103
74.871,274.85,61,103
74.633,274.87,61,103
70.27,270.39,61,103
75.149,273.68,61,103
62.984,254.66,61,103
63.46,251,61,103
61.583,247.13,61,103
62.447,242.46,61,103
60.9,234.59,61,103
59.176,224.42,61,103
59.902,216.75,61,103
59.433,206.14,61,103
59.546,198.49,61,103
58.271,187.9,61,103
57.871,180.43,61,103
59.848,173.89,61,103
60.019,165.82,61,103
60.848,157.65,61,103
63.898,154.28,61,103
65.651,145.51,61,103
67.458,140.58,61,103
70.831,135.41,61,103
75.717,129.61,61,103
80.192,124.6,61,103
85.437,120.19,61,103
93.03,117.33,61,103
102.27,109.59,61,103
108.86,106.75,61,103
116.66,102.14,61,103
126.98,100.86,61,103
139.37,99.654,61,103
150.82,99.765,61,103
160.42,96.702,61,103
173.73,100.28,61,103
189.32,100.65,61,103
200.71,101.2,61,103
211.65,102.04,61,103
224.75,102.04,61,103
237.13,105.18,61,103
248.31,106.33,61,103
258.85,111.26,61,103
269.98,115.14,61,103
279.77,121.79,61,103
285.79,124.56,61,103
294.81,128.69,61,103
300.47,133.36,61,103
305.01,143.2,61,103
309.58,146.67,61,103
309.58,153.31,61,103
309.75,158.2,61,103
313.11,164.3,61,103
311.76,167.71,61,103
306.32,172.55,61,103
304.54,177.97,61,103
300.95,182.49,61,103
298.46,182.16,61,103
295.32,183.93,61,103
291.41,185.48,61,103
290.29,186.03,61,103
284.91,188.07,61,103
282.09,190.61,61,103
281.21,189.58,61,103
277.6,191.05,61,103
274.48,192.16,61,103
272.07,191.49,61,103
269.76,193.24,61,103
269.72,193.99,61,103
267.37,196.07,61,103
266.2,199.3,61,103
263.49,201.25,61,103
263.98,201.12,61,103
262.96,204.28,61,103
259.31,204.76,61,103
261.25,206.95,61,103
259.13,207.94,61,103
257.39,210.27,61,103
256.57,211.59,61,103
256.83,213.35,61,103
254.55,216.24,61,103
253.82,215.03,61,103
252.9,218.82,61,103
250.63,219.54,61,103
250.22,222.38,61,103
249.55,222.68,61,103
247.44,223.11,61,103
246.71,223.86,61,103
244.6,222.99,61,103
243.27,221.93,61,103
244.82,217.78,61,103
242.85,213.96,61,103
241.99,208.33,61,103
243.37,200.25,61,103
243.04,191.09,61,103
240.84,182.81,61,103
241.9,173.37,61,103
241.47,165.68,61,103
242.64,154.44,61,103
244.72,146.41,61,103
244.17,137.09,61,103
247.81,128.69,61,103
248.67,124.33,61,103
251.8,118.64,61,103
252.21,114.69,61,103
258.2,110.38,61,103
262.57,113.02,61,103
265.08,108.21,61,103
271.04,108.19,61,103
274.11,106.76,61,103
279.94,107.83,61,103
287.38,104.67,61,103
292.09,105.04,61,103
294.66,106.35,61,103
298.47,108.66,61,103
299.32,110.66,61,103
298.91,116.88,61,103
301.37,122.58,61,103
296.75,127.55,61,103
294,135.56,61,103
292.02,146.16,61,103
287.28,154.11,61,103
278.79,168.87,61,103
270.8,179.92,61,103
260.95,194.09,61,103
252.05,205.41,61,103
238.62,216.34,61,103
232,224.72,61,103
223.7,229.98,61,103
215.53,235.15,61,103
209.73,238.74,61,103
202.28,233.82,61,103
198.68,232.11,61,103
196.01,223.18,61,103
194.37,213.89,61,103
191.87,208.22,61,103
192.21,194.9,61,103
193.8,187.66,61,103
195.45,178.32,61,103
200.14,169.93,61,103
203.24,160.26,61,103
205.9,155.56,61,103
213.7,150.4,61,103
220.73,143.52,61,103
227,139.96,61,103
237.21,135.98,61,103
242.74,136.71,61,103
254.95,132.56,61,103
263.8,135.3,61,103
277.16,137.91,61,103
289.05,140.04,61,103
304.76,144.75,61,103
316.44,149.55,61,103
329.08,157.01,61,103
340.58,163.41,61,103
356.09,165.87,61,103
367.07,174.7,61,103
381.05,172.38,61,103
391.63,171.41,61,103
404.02,172.87,61,103
416.89,173.23,61,103
426.04,174.33,61,103
433.74,172.58,61,103
437.58,168.84,61,103
440.97,166.36,61,103
442.51,159.26,61,103
441.54,157.15,61,103
439.24,149.53,61,103
433.38,143.51,61,103
426.02,142.5,61,103
417.03,140.7,61,103
405.37,134.73,61,103
389,128.76,61,103
371.99,125.83,61,103
350.04,118.88,61,103
329.69,118.17,61,103
301.06,122.15,61,103
279.28,119.66,61,103
254.58,113.84,61,103
217.81,120.59,61,103
191.94,120.44,61,103
167.32,124.15,61,103
137.74,127.12,61,103
105.63,127.94,61,103
81.126,133.03,61,103
56.479,131.71,61,103
36.182,127.54,61,103
16.178,125.42,61,103
-1.3404,119.35,61,103
-8.8061,114.46,61,103
-12.715,108.17,61,103
-14.687,100.96,61,103
-11.965,93.852,61,103
-4.9786,86.787,61,103
5.1487,78.466,61,103
9.7514,70.02,61,103
11.664,61.367,61,103
27.146,50.938,61,103
40.005,41.927,61,103
55.913,38.278,61,103
70.602,33.454,61,103
90.813,27.234,61,103
103.4,22.934,61,103
120.51,19.857,61,103
136.4,17.418,61,103
152.77,18.592,61,103
170.19,15.639,61,103
185.25,17.85,61,103
198.97,18.076,61,103
218.68,19.821,61,103
230.55,24.068,61,103
243.07,24.195,61,103
255.72,30.237,61,103
264.07,33.875,61,103
273.99,40.919,61,103
279.88,47.129,61,103
290.15,53.142,61,103
294.29,64.473,61,103
296.13,74.494,61,103
298.37,81.91,61,103
299.8,95.771,61,103
299.83,103.14,61,103
299.84,112.68,61,103
297.15,123.28,61,103
296.99,132.14,61,103
294.98,139.94,61,103
295.86,148.94,61,103
292.54,156.66,61,103
291.64,163.27,61,103
289.42,171.27,61,103
290.52,179.38,61,103
291.49,185.67,61,103
291.4,195.42,61,103
293.06,200.54,61,103
294.59,203.35,61,103
299.2,205.52,61,103
297.51,207.86,61,103
302.52,208.71,61,103
305.55,206.06,61,103
307.35,204.27,61,103
310.4,199.83,61,103
311.84,197.2,61,103
314.6,194.68,61,103
316.3,191.46,61,103
320.01,188.69,61,103
321.48,183.29,61,103
324.65,183.74,61,103
324.22,182.61,61,103
326.66,180.41,61,103
326.15,180.81,61,103
326.23,183.16,61,103
323.67,185.6,61,103
321,185.14,61,103
319.53,187.65,61,103
316.51,187.49,61,103
303.57,189.49,61,103
298.19,190.11,61,103
290.06,190.53,61,103
282.79,191.88,61,103
273.55,193.32,61,103
261.12,197.67,61,103
250.26,198.23,61,103
240.19,202.46,61,103
227.19,200.31,61,103
216.34,204.03,61,103
205.73,204.86,61,103
193.81,206.43,61,103
183.64,210.36,61,103
173.85,213.27,61,103
169.21,211.58,61,103
162.32,214.7,61,103
156.29,218.04,61,103
153.94,222.2,61,103
148.25,225.8,61,103
146.18,229.84,61,103
145.82,236.17,61,103
146.53,245.99,61,103
146.44,251.26,61,103
150.07,259.3,61,103
151.51,262.6,61,103
156.44,268.64,61,103
159.56,272.72,61,103
160.98,274.35,61,103
165.05,276.31,61,103
167.15,273.13,61,103
171.17,276.12,61,103
175.84,275.33,61,103
179.53,276.1,61,103
180.98,272.81,61,103
183.94,273.86,61,103
187.58,271.33,61,103
191.4,268.47,61,103
196.85,270.98,61,103
203.38,267.74,61,103
206.24,265.17,61,103
212.11,262.94,61,103
219.72,260.63,61,103
225.27,258.87,61,103
235.82,258.72,61,103
245.39,255.1,61,103
254.3,254.48,61,103
261.87,253.42,61,103
277.5,253.81,61,103
287.98,253.57,61,103
299.82,254.27,61,103
314.75,255.55,61,103
329,257.39,61,103
343.36,256.68,61,103
359.14,256.98,61,103
373.06,260.62,61,103
388.63,258.89,61,103
402.94,252.23,61,103
414.57,250.95,61,103
431.4,248.49,61,103
444.59,244.46,61,103
452.99,242.29,61,103
460.55,239.87,61,103
471,237.66,61,103
476.32,233.2,61,103
481.6,228.76,61,103
484.07,223.26,61,103
488.54,216.18,61,103
490.98,206.81,61,103
487.37,198.76,61,103
482.75,185.16,61,103
477.78,171.34,61,103
469.5,155.47,61,103
461.86,142.48,61,103
444.63,124.34,61,103
425.76,107.59,61,103
413.24,88.916,61,103
396.11,75.223,61,103
374.45,61.554,61,103
355.54,47.921,61,103
349.19,41.049,61,103
324.2,33.343,61,103
303.56,30.108,61,103
281,27.553,61,103
260.03,30.889,61,103
235.48,30.367,61,103
213.21,33.62,61,103
196.1,44.975,61,103
182.76,53.438,61,103
169.03,65.695,61,103
160.05,84.195,61,103
153.68,99.255,61,103
146.51,110.73,61,103
148.09,126.48,61,103
148.9,138.17,61,103
152.72,150.1,61,103
157.6,158.59,61,103
157.59,173.58,61,103
166.32,177.17,61,103
174.66,186.64,61,103
184.28,194.31,61,103
195.07,198.64,61,103
203.42,203.56,61,103
212.86,209.47,61,103
223.13,213.92,61,103
238.86,216.01,61,103
246.4,219.98,61,103
261.31,216.53,61,103
270.52,217.17,61,103
283.06,218.97,61,103
294.43,216,61,103
305,217.29,61,103
315.32,216.13,61,103
325.21,212.96,61,103
334.98,211.97,61,103
344,209.62,61,103
348.47,204.89,61,103
355.83,203.13,61,103
357.1,198.66,61,103
358.17,193.83,61,103
358.57,192.94,61,103
358.69,190.03,61,103
353.66,187.05,61,103
349.93,187.02,61,103
344.47,184.19,61,103
338.32,183.96,61,103
330.66,182.54,61,103
325.95,179.91,61,103
316.32,181.03,61,103
309.37,178.2,61,103
302.33,175.8,61,103
295.09,170.9,61,103
286.12,165.67,61,103
279.35,159.8,61,103
273.19,156.26,61,103
269.4,147.83,61,103
262.76,143.24,61,103
257.86,139.15,61,103
251.23,134.29,61,103
244.15,129.89,61,103
239.14,125.38,61,103
232.22,118.62,61,103
225.84,115.56,61,103
220.4,112.17,61,103
212.24,105,61,103
204.19,103.56,61,103
196.27,99.441,61,103
185.37,95.04,61,103
178.3,91.628,61,103
169.14,88.57,61,103
159.02,85.658,61,103
148.88,84.698,61,103
138.76,86.391,61,103
128.81,91.988,61,103
118.62,96.838,61,103
104.47,103.8,61,103
94.779,109.93,61,103
86.405,114.25,61,103
77.232,116.75,61,103
66.321,122.72,61,103
54.763,124.69,61,103
44.736,127.35,61,103
38.457,129.33,61,103
33.467,133.91,61,103
28.196,138.3,61,103
20.245,140.26,61,103
16.081,145.3,61,103
13.482,152.71,61,103
12.724,160.4,61,103
13.628,166.16,61,103
13.461,177.14,61,103
13.827,184.04,61,103
15.852,190.59,61,103
17.045,197.46,61,103
20.61,203.39,61,103
23.326,209.31,61,103
27.137,211.94,61,103
30.098,214.09,61,103
31.967,218.66,61,103
33.925,220.26,61,103
38.679,221.76,61,103
39.151,221.73,61,103
42.903,220.57,61,103
45.914,221.36,61,103
47.323,221.62,61,103
51.955,222.27,61,103
50.82,221.77,61,103
51.202,222.35,61,103
50.997,225.42,61,103
51.222,226,61,103
51.843,227.82,61,103
51.254,228.96,61,103
49.141,232.43,61,103
50.155,233.22,61,103
48.986,235.26,61,103
47.281,237.21,61,103
44.762,239.54,61,103
41.662,238.94,61,103
41.022,236.85,61,103
38.415,236.25,61,103
36.228,234.83,61,103
37.136,234.85,61,103
32.805,233.48,61,103
33.644,233.1,61,103
31.451,233.03,61,103
29.949,233.4,61,103
27.192,233.23,61,103
24.147,233.17,61,103
22.363,232.54,61,103
20.578,231.99,61,103
19.263,231.16,61,103
16.613,230.29,61,103
15.968,229.21,61,103
13.684,229.42,61,103
13.818,230.56,61,103
12.387,229.51,61,103
10.242,228.89,61,103
7.949,229.45,61,103
6.0296,230.26,61,103
5.429,232.34,61,103
3.2874,233.34,61,103
2.7764,233.47,61,103
2.8345,235.38,61,103
2.6895,238.21,61,103
2.5221,238.5,61,103
2.3339,238.26,61,103
2.5219,241.81,61,103
3.1108,241.59,61,103
5.3016,244.9,61,103
5.2913,246.35,61,103
6.2624,247.55,61,103
8.5531,247.92,61,103
9.0271,250.73,61,103
9.8393,251.29,61,103
11.827,252.56,61,103
13.78,255.93,61,103
14.346,256.51,61,103
18,259.44,61,103
16.525,263.49,61,103
17.862,260.95,61,103
19.816,261.32,61,103
19.796,262.55,61,103
18.209,264.48,61,103
18.611,265.16,61,103
20.098,264.56,61,103
19.58,265.81,61,103
21.667,268.75,61,103
20.532,270.18,61,103
23.082,269.59,61,103
24.249,274.37,61,103
26.446,271.07,61,103
24.958,272.27,61,103
25.233,270.4,61,103
26.614,272.15,61,103
28.89,273.57,61,103
29.995,275.86,61,103
33.175,273.27,61,103
36.545,273.51,61,103
35.77,274.03,61,103
39.012,274.54,61,103
39.18,273.66,61,103
42.266,273.91,61,103
43.348,270.22,61,103
45.234,273.15,61,103
47.815,267.42,61,103
50.769,267.91,61,103
53.415,269.49,61,103
55.491,267.37,61,103
55.783,263.17,61,103
61.173,259.91,61,103
65.152,260.5,61,103
62.708,256.72,61,103
69.333,251.93,61,103
72.332,251.68,61,103
74.88,250.15,61,103
78.183,248.47,61,103
82.828,245.87,61,103
86.269,245.41,61,103
91.675,245.46,61,103
95.464,244.96,61,103
100.6,243.84,61,103
108.22,243.2,61,103
114.64,242,61,103
120.88,242.85,61,103
125.15,241.99,61,103
131.29,244.11,61,103
139.37,243.48,61,103
144.43,241.77,61,103
151.59,239.99,61,103
158.21,239.69,61,103
165.09,238.65,61,103
170.8,239.22,61,103
174.49,237.29,61,103
181.75,232.81,61,103
187.23,230.13,61,103
192.22,227.32,61,103
197.13,223.85,61,103
201.4,219.38,61,103
207.41,217.82,61,103
211.27,213.02,61,103
214.05,213.12,61,103
219.78,207.58,61,103
221.4,203.85,61,103
227.42,203.99,61,103
234.85,203.46,61,103
237.27,198.81,61,103
242.49,200.49,61,103
246.45,200.73,61,103
250.94,203.31,61,103
253.09,198.3,61,103
255.89,199.3,61,103
258.27,200.67,61,103
261.21,201,61,103
260.34,198.72,61,103
262.6,200.59,61,103
261.82,198.72,61,103
262.42,196.52,61,103
263.52,194.66,61,103
261.42,193.58,61,103
260.83,192.22,61,103
260.36,188.87,61,103
260.47,188.16,61,103
256.47,186.24,61,103
258.35,184.89,61,103
256.43,181.16,61,103
255.8,181.19,61,103
256.16,176.5,61,103
256.99,175.3,61,103
253.99,171.67,61,103
255.32,170.22,61,103
255.73,168.76,61,103
255.56,166.54,61,103
253.77,163.03,61,103
254.52,160.7,61,103
255.3,157.05,61,103
254.43,154.98,61,103
257.01,151.33,61,103
257.68,149.75,61,103
258.47,147.61,61,103
259.98,147.97,61,103
262.01,148.26,61,103
262.28,148.62,61,103
265.53,148.48,61,103
265.55,150.53,61,103
266.25,148.56,61,103
269.36,151.07,61,103
267.26,149.16,61,103
276.47,147.64,61,103
276.73,146.74,61,103
277.94,147.02,61,103
279.77,140.66,61,103
279.79,141.43,61,103
286.01,138.2,61,103
283.29,137.06,61,103
282.64,137.46,61,103
283.38,134.31,61,103
283.58,134.12,61,103
283.43,133.14,61,103
282.63,130.05,61,103
283.47,125.81,61,103
283.61,124.18,61,103
283.73,125.46,61,103
283.02,122.8,61,103
282.74,122.66,61,103
283.91,122.17,61,103
284.01,124.41,61,103
283.56,120.6,61,103
281.77,119.79,61,103
282.45,117.61,61,103
282.62,123.91,61,103
281.38,118.65,61,103
282.82,118.36,61,103
283.17,117.29,61,103
281.24,117.96,61,103
282.04,116.2,61,103
283.36,118.16,61,103
283.14,116.23,61,103
283.51,117.67,61,103
281.72,114.87,61,103
284.29,112.58,61,103
284.18,114.12,61,103
283.37,112.04,61,103
283.72,111.27,61,103
284.99,111.77,61,103
284.79,111.34,61,103
284.85,112.93,61,103
283.9,111.84,61,103
285.03,111.46,61,103
289.1,113.82,61,103
287.86,115.33,61,103
288.12,121.72,61,103
295.98,127.73,61,103
297.67,127.25,61,103
299.96,132.25,61,103
299.56,137.23,61,103
302.81,141.24,61,103
309.42,148.92,61,103
312.43,151.61,61,103
314.66,156.5,61,103
316.99,158.68,61,103
320.26,163.84,61,103
325.73,168.9,61,103
331.91,169.37,61,103
336.77,174.22,61,103
342.28,173.92,61,103
349.57,176.5,61,103
358.74,177.84,61,103
370.34,177,61,103
377.85,178.43,61,103
388.69,177.47,61,103
401.26,176.67,61,103
414.31,178.01,61,103
424.3,180.23,61,103
439.96,178.07,61,103
447.14,175.53,61,103
459.61,174.35,61,103
465.53,174.18,61,103
473.43,172.4,61,103
480.57,168.94,61,103
490.22,165.14,61,103
499.21,159.78,61,103
499.08,161.8,61,103
505.08,160.37,61,103
502.39,157.67,61,103
501.94,155.81,61,103
496.28,152.72,61,103
488.69,152.24,61,103
483.41,149.47,61,103
475.74,146.94,61,103
462.89,145.4,61,103
453.89,143.23,61,103
445.06,137.07,61,103
434.34,138.7,61,103
423.72,134.21,61,103
411.06,132.57,61,103
402.51,131.98,61,103
392.88,128.37,61,103
381.93,125.33,61,103
374.46,122.7,61,103
370.05,119.15,61,103
363.75,116.83,61,103
360.53,112.62,61,103
358.19,113.32,61,103
355.83,112.91,61,103
351.68,109.86,61,103
353.62,108.62,61,103
353.15,108.57,61,103
351.27,109.24,61,103
351.78,108.05,61,103
351.8,110.84,61,103
351.94,112.28,61,103
349.74,112.53,61,103
350.04,112.51,61,103
348.7,119.84,61,103
347.26,121.78,61,103
340.25,128.53,61,103
331.43,135.59,61,103
334.19,134.65,61,103
326.3,141.57,61,103
318.3,152.25,61,103
315.59,159.29,61,103
304.19,164.41,61,103
298.27,170.05,61,103
287.87,172.78,61,103
279.32,171.03,61,103
273.19,169.16,61,103
262.87,165.08,61,103
254.34,156.01,61,103
251.16,147.73,61,103
244.92,141.81,61,103
246.18,129.59,61,103
244.97,127.98,61,103
241.52,120.06,61,103
241.37,111.12,61,103
250.44,103.86,61,103
253.6,99.496,61,103
255.43,91.893,61,103
252.79,81.502,61,103
253.94,78.533,61,103
252.59,72.108,61,103
253.06,70.026,61,103
256.87,70.286,61,103
258.99,65.278,61,103
254.68,61.88,61,103
255.48,60.587,61,103
250.39,62.615,61,103
250.2,62.877,61,103
247.63,63.578,61,103
241.07,65.744,61,103
233.43,65.5,61,103
221.37,69.525,61,103
215.49,68.372,61,103
210.34,69.483,61,103
203.71,69.775,61,103
196.16,68.356,61,103
187.86,63.825,61,103
183.69,69.904,61,103
173.32,62.578,61,103
169.74,61.431,61,103
166.09,57.96,61,103
161.81,60.035,61,103
159.05,57.592,61,103
155.35,59.202,61,103
155.23,53.76,61,103
153.37,52.167,61,103
152.12,54.983,61,103
152.72,52.039,61,103
152.5,53.655,61,103
153.88,50.299,61,103
154.61,48.814,61,103
157.31,47.311,61,103
159.05,45.708,61,103
158.47,49.136,61,103
161.24,47.382,61,103
161.93,48.079,61,103
163,47.52,61,103
164,47.908,61,103
163.24,50.414,61,103
163.78,53.158,61,103
163.82,52.044,61,103
162.89,52.78,61,103
163.64,56.382,61,103
163.68,54.912,61,103
162.24,56.909,61,103
159.08,54.993,61,103
158.94,55.994,61,103
158.56,60.327,61,103
157.7,59.961,61,103
157.05,60.857,61,103
155.97,62.169,61,103
153.61,62.209,61,103
154.29,65.268,61,103
154.67,68.427,61,103
152.98,71.961,61,103
150.02,74.25,61,103
151.27,76.927,61,103
151.21,79.398,61,103
149.04,81.048,61,103
146.5,80.555,61,103
144.75,84.899,61,103
146.28,84.095,61,103
145.76,83.562,61,103
145.22,84.961,61,103
141.71,83.896,61,103
141.81,83.103,61,103
143.8,84.359,61,103
142.46,82.818,61,103
142.86,83.544,61,103
141.25,78.231,61,103
139.62,79.382,61,103
142.72,78.037,61,103
141.78,80.308,61,103
144.85,78.268,61,103
141.75,73.993,61,103
141.84,73.355,61,103
144.18,73.017,61,103
144.13,71.589,61,103
145.67,70.422,61,103
145.51,73.556,61,103
143.86,70.906,61,103
147.72,70.919,61,103
146.85,69.422,61,103
145.65,69.916,61,103
150.25,66.71,61,103
150.9,67.578,61,103
154.22,67.089,61,103
155.28,68.155,61,103
157.68,66.901,61,103
159.46,64.311,61,103
161.08,61.12,61,103
164.39,62.813,61,103
164.94,61.749,61,103
166.2,56.133,61,103
169,56.461,61,103
172.23,56.882,61,103
172.85,54.728,61,103
175.08,53.421,61,103
174.89,52.857,61,103
175.9,51.176,61,103
178,52.423,61,103
178.01,52.109,61,103
179.82,50.449,61,103
178.91,48.814,61,103
180.5,50.583,61,103
179.81,49.757,61,103
180.52,46.408,61,103
181.21,48.489,61,103
181.65,49.652,61,103
182.83,47.492,61,103
183.66,44.942,61,103
185.53,43.91,61,103
185.33,46.215,61,103
185.97,44.854,61,103
187.54,44.697,61,103
187.57,41.357,61,103
191.82,43.524,61,103
193.42,45.851,61,103
195.75,44.341,61,103
197.86,45.96,61,103
198.15,45.463,61,103
199.73,45.771,61,103
200.76,47.354,61,103
203.62,45.299,61,103
204.39,47.79,61,103
205.02,48.467,61,103
206.47,48.038,61,103
206.1,47.732,61,103
208.15,47.173,61,103
208.89,47.403,61,103
210.92,46.84,61,103
210.63,46.887,61,103
211.16,45.82,61,103
211.27,46.734,61,103
211.79,43.698,61,103
211.96,44.095,61,103
213.58,45.701,61,103
212.77,45.114,61,103
212.71,46.603,61,103
213.38,45.697,61,103
211.87,45.558,61,103
211.09,47.196,61,103
210.88,44.888,61,103
209.47,46.005,61,103
209.1,47.64,61,103
208.24,47.93,61,103
209.21,49.902,61,103
207.33,48.205,61,103
207.54,46.133,61,103
206.87,48.962,61,103
207.01,49.155,61,103
205.19,48.624,61,103
206.81,47.305,61,103
206.82,47.156,61,103
207.83,48.003,61,103
207.37,47.743,61,103
208.84,46.627,61,103
209.15,49.919,61,103
210.06,48.216,61,103
211.78,48.022,61,103
213.18,44.93,61,103
215.46,45.938,61,103
216.57,42.521,61,103
217.85,44.05,61,103
218.92,46.523,61,103
220.17,45.417,61,103
221.64,48.769,61,103
223.75,44.702,61,103
225.56,43.091,61,103
227.28,43.83,61,103
228.75,44.429,61,103
230.9,42.685,61,103
232.09,41.4,61,103
233.07,41.516,61,103
234.21,43.701,61,103
237.34,46.023,61,103
239.19,45.261,61,103
242.4,44.941,61,103
244.67,46.948,61,103
248.38,51.006,61,103
249.29,56.315,61,103
253.71,55.688,61,103
257.79,56.595,61,103
260.39,59.785,61,103
266.7,62.566,61,103
271.13,65.887,61,103
275.03,68.978,61,103
281.61,74.884,61,103
285.94,78.55,61,103
291.67,86.106,61,103
299.18,89.433,61,103
302.19,93.901,61,103
307.93,102.24,61,103
315.07,109.78,61,103
319.26,116.99,61,103
322.74,122.94,61,103
328.3,129.93,61,103
330.58,134.08,61,103
332.29,140.49,61,103
334.67,145.32,61,103
336.91,147.98,61,103
336.84,153.37,61,103
337.84,157.67,61,103
337.21,159.69,61,103
335.71,165.94,61,103
334.78,166.97,61,103
333.68,170.53,61,103
332.9,175.37,61,103
331.37,179.22,61,103
327.16,182.43,61,103
327.87,184.63,61,103
327.22,187.08,61,103
324.85,190.36,61,103
322.33,194.81,61,103
321.77,199.6,61,103
322.95,200.88,61,103
322.68,203.11,61,103
323.24,205.73,61,103
323.31,208.6,61,103
325.51,211.51,61,103
326.67,216.38,61,103
328.02,216.42,61,103
331.37,217.79,61,103
334.54,219.06,61,103
336.41,222.69,61,103
338.31,222.11,61,103
343.01,223.58,61,103
342.23,224.14,61,103
346.3,225.72,61,103
349.41,228.42,61,103
348.29,226.77,61,103
348.34,225.97,61,103
350.25,227.72,61,103
348.46,225.06,61,103
349.8,228.72,61,103
349.33,226.13,61,103
346.26,227.51,61,103
345.89,226,61,103
344.03,226.15,61,103
