256,152,73,210
256.6,151.73,73,210
256.02,153.65,73,210
255.88,152.4,73,210
255.5,153.41,73,210
256.16,150.01,73,210
256.46,152.43,73,210
256.29,149.96,73,210
255.34,152.37,73,210
255.63,153.34,73,210
255.43,153.64,73,210
256.2,153.87,73,210
256.06,153.29,73,210
256.2,154.36,73,210
255.69,153.16,73,210
255.59,151.81,73,210
256.39,152.78,73,210
256.13,152.32,73,210
255.65,151.13,73,210
255.64,152.84,73,210
255.64,151.15,73,210
255.85,153.82,73,210
255.5,152.9,73,210
255.74,151.35,73,210
254.94,152.39,73,210
255.39,151.86,73,210
255.64,152.45,73,210
255.45,153.88,73,210
255.97,154.69,73,210
254.86,152.68,73,210
255.81,152.36,73,210
255.86,152.98,73,210
255.67,149.61,73,210
255.35,152.56,73,210
254.95,153.56,73,210
255.67,153.01,73,210
256.15,153.95,73,210
256.11,152.76,73,210
255.88,153.69,73,210
255.87,152.49,73,210
255.44,153.96,73,210
256.06,152.66,73,210
255.8,153.65,73,210
255.78,151.6,73,210
255.67,153.04,73,210
254.76,151.05,73,210
254.68,153.36,73,210
255.39,151.57,73,210
254.99,153.4,73,210
256.14,151.71,73,210
255.74,153.48,73,210
255.36,152.98,73,210
255.49,153.98,73,210
255,153.66,73,210
255.85,153.18,73,210
256.57,150.31,73,210
254.71,153.25,73,210
255.62,151.2,73,210
255.83,152.74,73,210
256.94,156.41,73,210
256.54,156.43,73,210
255.34,152.93,73,210
254.75,152.74,73,210
255.9,153.3,73,210
255.74,156.09,73,210
255.54,154.72,73,210
255.05,156.39,73,210
255.59,153.84,73,210
255.2,152.6,73,210
255.18,153.71,73,210
255.05,154.12,73,210
255.22,156.38,73,210
255.26,154.1,73,210
255.45,152.36,73,210
255.6,152.25,73,210
254.87,152.47,73,210
255.29,157.01,73,210
255.82,152.63,73,210
255.17,153.29,73,210
255.12,153.46,73,210
254.98,152.09,73,210
254.18,156.4,73,210
254.92,153.1,73,210
255.81,157.09,73,210
255.31,153.45,73,210
255.29,153.08,73,210
254.71,158.12,73,210
254.93,154.32,73,210
254.6,152.91,73,210
255.23,153.89,73,210
256.27,154.41,73,210
254.86,153.96,73,210
254.78,153.57,73,210
254.81,156.44,73,210
255.35,156.16,73,210
255.33,152.49,73,210
255.64,154.41,73,210
255.65,154.45,73,210
255.33,155.95,73,210
255.45,153.57,73,210
254.95,156.95,73,210
255.2,155.82,73,210
256.41,153.83,73,210
256.05,154.52,73,210
255.63,156.26,73,210
255.3,154.37,73,210
255.85,155.51,73,210
256.02,156.51,73,210
255.81,152.75,73,210
255.78,157.64,73,210
254.36,156.85,73,210
255.68,155.15,73,210
255.24,156.67,73,210
254.86,155.8,73,210
255.04,154.06,73,210
255.26,153.05,73,210
255.8,154.08,73,210
255.37,153.88,73,210
256.09,149.96,73,210
255.3,152.88,73,210
256.12,152.78,73,210
255.47,153.51,73,210
255.91,151.63,73,210
254.77,154.27,73,210
255.49,152.76,73,210
255.31,150.77,73,210
255.62,151.56,73,210
254.8,151.94,73,210
255.53,151.92,73,210
254.53,153.02,73,210
255.65,152.56,73,210
254.98,153.94,73,210
255.02,157.11,73,210
255.25,151.45,73,210
255.05,153.26,73,210
255.19,152.11,73,210
254.45,155.5,73,210
255.61,153.19,73,210
254.71,153.92,73,210
254.43,156.16,73,210
255.68,152.35,73,210
254.47,159.17,73,210
253.82,155.98,73,210
254.95,154.26,73,210
256.04,153.58,73,210
254.88,153.7,73,210
254.92,155.89,73,210
254.89,155.04,73,210
254.44,156.48,73,210
254.28,157.55,73,210
254.77,153.71,73,210
255.56,154.23,73,210
255.42,154.22,73,210
254.79,158.41,73,210
255.11,154.99,73,210
254.4,154.79,73,210
254.69,153.24,73,210
254.7,152.71,73,210
255.49,153.22,73,210
255.38,153.22,73,210
253.61,153.62,73,210
254.57,152.75,73,210
254.5,154.54,73,210
255.06,152.18,73,210
255.3,152.71,73,210
254.79,153.23,73,210
254.92,152.02,73,210
255.39,153.41,73,210
255.59,151,73,210
254.57,152.66,73,210
255.22,155.43,73,210
255.05,153.65,73,210
255.05,152.45,73,210
255.34,155.19,73,210
255.25,153.19,73,210
254.37,151.86,73,210
255.63,150.89,73,210
255.59,151.39,73,210
255.15,153.17,73,210
255.2,149.72,73,210
255.98,154.09,73,210
255,155.14,73,210
256.46,152.86,73,210
255.23,153.62,73,210
254.83,153.92,73,210
255.5,153.5,73,210
256.59,154.69,73,210
255.68,155.21,73,210
255.41,154.6,73,210
255,154.32,73,210
255.17,151.81,73,210
256.33,154.65,73,210
255.78,152.89,73,210
255.91,152.13,73,210
256.03,153.47,73,210
256.78,155.18,73,210
256.32,154.68,73,210
256.09,156.62,73,210
254.97,154.94,73,210
255.28,153.16,73,210
256.62,154.45,73,210
255.04,152.78,73,210
256.16,154.68,73,210
255.51,154.32,73,210
256.16,154.04,73,210
254.92,153.06,73,210
255.36,152.8,73,210
255,151.13,73,210
254.3,153.7,73,210
255.19,157.43,73,210
255.2,154.18,73,210
255.6,156.33,73,210
255.66,157.85,73,210
255.25,159.42,73,210
255.28,157.83,73,210
254.93,154.49,73,210
255.26,159.47,73,210
254.9,156.03,73,210
255.89,154.11,73,210
254.66,155.4,73,210
255.46,155.68,73,210
254.51,155.53,73,210
255.09,153.11,73,210
254.56,156.37,73,210
255.12,154.79,73,210
255.68,156.34,73,210
254.41,153.47,73,210
255.05,156.41,73,210
256.04,157.3,73,210
255.38,154.17,73,210
254.68,157.39,73,210
255.04,157.89,73,210
255.2,157.25,73,210
255.35,158.25,73,210
255.05,157.54,73,210
254.97,158.59,73,210
255.42,155.12,73,210
254.85,155.6,73,210
255.55,158.27,73,210
254.54,155.12,73,210
254.66,158.01,73,210
254.15,158.61,73,210
254.02,156.77,73,210
254.65,155.07,73,210
255.16,156.71,73,210
255.71,156.15,73,210
255.28,155.85,73,210
254.92,159.94,73,210
254.76,158.18,73,210
255.26,155.12,73,210
255.82,153.28,73,210
255.11,155.92,73,210
255.01,155.24,73,210
255.94,153.78,73,210
255.13,156.49,73,210
254.58,154.76,73,210
255.58,153.73,73,210
255.36,154.89,73,210
254.82,154,73,210
255.6,156.61,73,210
256.34,156.47,73,210
256.06,157.92,73,210
255.84,158.14,73,210
255.14,155.14,73,210
254.53,153.93,73,210
255.31,154.73,73,210
255.89,153.64,73,210
256.98,151.96,73,210
256.9,153.91,73,210
255.22,152.9,73,210
256.04,155.71,73,210
256.31,156.37,73,210
256.1,154.64,73,210
256.19,154.1,73,210
255.48,150.93,73,210
255.39,156.26,73,210
254.68,155.57,73,210
254.14,153.98,73,210
255.54,154.26,73,210
255.34,155.7,73,210
255.12,154.1,73,210
255.11,153.37,73,210
255.81,152.18,73,210
255.05,150.29,73,210
255.41,149.99,73,210
256.03,154.57,73,210
254.62,156.32,73,210
255.88,152.83,73,210
255.53,157.85,73,210
254.62,153.52,73,210
253.8,153.67,73,210
254.47,153.57,73,210
254.11,154.14,73,210
254.7,152.11,73,210
254.75,151.45,73,210
255.36,153.85,73,210
254.83,154.92,73,210
254.42,152.37,73,210
255.18,151.84,73,210
254.64,153.59,73,210
255.01,154.95,73,210
255.04,155.17,73,210
255.07,159.02,73,210
255.73,154.2,73,210
255.41,154.05,73,210
255.83,149.57,73,210
255.25,149.21,73,210
255.8,151.35,73,210
256.23,156.2,73,210
255.68,153.78,73,210
254.7,151.64,73,210
254.89,151.37,73,210
255.19,154.5,73,210
252.87,153.09,73,210
253.17,154.18,73,210
252.16,147.05,73,210
252.68,153.62,73,210
252.23,149.21,73,210
252.66,150.02,73,210
250.87,140.56,73,210
252.66,137.35,73,210
250.59,138.66,73,210
250.03,132.25,73,210
251.85,131.68,73,210
249.05,128.15,73,210
248.31,125.38,73,210
247.5,121.31,73,210
245.91,118.36,73,210
244.4,113.85,73,210
243.02,109.53,73,210
241.04,109.25,73,210
240.38,110.95,73,210
237.03,105.19,73,210
232.76,99.313,73,210
229.64,94.901,73,210
226.48,94.922,73,210
222.8,96.493,73,210
218.22,93.596,73,210
215.88,88.992,73,210
209.48,88.554,73,210
206.92,82.463,73,210
203.76,82.709,73,210
200.36,81.468,73,210
197.13,74.939,73,210
195.13,72.406,73,210
189.64,68.289,73,210
188.81,63.06,73,210
186.75,64.102,73,210
182.5,62.842,73,210
178.89,63.407,73,210
173.85,57.768,73,210
172.2,55.009,73,210
169,56.841,73,210
161.51,54.047,73,210
157.96,53.195,73,210
149.5,49.148,73,210
147.94,50.003,73,210
142.61,51.261,73,210
135.15,48.591,73,210
132.16,47.279,73,210
124.88,47.189,73,210
121.98,49.687,73,210
116.69,49.764,73,210
108.06,54.462,73,210
103.17,53.104,73,210
99.23,52.61,73,210
93.798,53.284,73,210
88.612,57.86,73,210
84.554,58.956,73,210
78.852,60.889,73,210
74.947,58.521,73,210
69.587,53.516,73,210
63.825,56.296,73,210
58.673,60.255,73,210
53.928,59.893,73,210
46.798,65.884,73,210
41.637,65.26,73,210
34.771,69.371,73,210
28.197,69.932,73,210
22.009,72.349,73,210
15.83,70.974,73,210
11.134,73.684,73,210
5.0704,74.552,73,210
-2.5783,72.437,73,210
-7.6274,78.872,73,210
-9.5988,87.119,73,210
-11.594,86.282,73,210
-12.382,85.083,73,210
-11.994,87.068,73,210
-12.785,91.89,73,210
-13.14,88.616,73,210
-14.268,90.631,73,210
-14.436,91.417,73,210
-12.383,99.97,73,210
-14.11,103.11,73,210
-12.428,99.841,73,210
-12.615,102.05,73,210
-12.163,99.308,73,210
-11.016,99.562,73,210
-9.8246,101.08,73,210
-8.1058,101.6,73,210
-6.0683,103.35,73,210
-10.735,96.977,73,210
-10.101,99.007,73,210
-8.1341,104.29,73,210
-7.8704,108.4,73,210
-6.8175,115.85,73,210
-3.4837,107.85,73,210
-3.8192,108.03,73,210
8.6746,114.11,73,210
18.467,120.57,73,210
21.389,121.96,73,210
28.049,120.23,73,210
33.934,118.49,73,210
40.554,117.29,73,210
49.027,126.51,73,210
57.271,123.96,73,210
60.814,128.09,73,210
69.575,123.78,73,210
76.387,123.68,73,210
85.962,119.71,73,210
93.423,115.86,73,210
104.59,117.36,73,210
115.05,117.33,73,210
126.33,114.09,73,210
137.45,116.49,73,210
144.58,112.76,73,210
154.33,113.15,73,210
166.81,114.88,73,210
177.13,116.63,73,210
186.6,112.73,73,210
195.78,113.16,73,210
205.49,110.89,73,210
212.4,116.97,73,210
218.89,117.65,73,210
226.12,115.49,73,210
231.52,117.78,73,210
235.58,128.35,73,210
239.29,125.42,73,210
244.82,130.42,73,210
245.58,129.21,73,210
247.85,132.19,73,210
248.75,134.05,73,210
250.22,136.86,73,210
250.72,135.63,73,210
252.49,137.43,73,210
252.32,140.8,73,210
252.04,141.08,73,210
252.04,145.19,73,210
251.3,141.03,73,210
251.66,146,73,210
251.96,145.91,73,210
250.53,144.1,73,210
251.22,146,73,210
251.49,144.47,73,210
251.89,143.57,73,210
251.61,144.87,73,210
252.2,146.97,73,210
252.35,149.16,73,210
252.77,147.36,73,210
252.64,148.83,73,210
253.23,148.79,73,210
252.39,148.21,73,210
251.64,144.94,73,210
251.9,146.17,73,210
253.27,149.4,73,210
252.08,145.92,73,210
252.91,150.5,73,210
253.07,147.82,73,210
252.13,147.04,73,210
251.63,147.38,73,210
251.73,149.31,73,210
253.33,144.78,73,210
251.39,145.18,73,210
252.38,146.09,73,210
252.48,148.81,73,210
252.15,148.7,73,210
251.72,145.19,73,210
252.16,146.14,73,210
252.42,147.37,73,210
252.73,147.1,73,210
252.12,145.4,73,210
252.94,144.54,73,210
252.51,145.11,73,210
251.49,146.03,73,210
251.64,147.16,73,210
252.22,144.3,73,210
251.9,145.97,73,210
251.62,141.41,73,210
251.07,139.63,73,210
252.4,146.47,73,210
251.97,146.48,73,210
251.9,144,73,210
252.13,145.35,73,210
251.86,147.88,73,210
253.26,149.46,73,210
252.36,144.97,73,210
252.06,148.86,73,210
252.25,148.94,73,210
252.76,150.36,73,210
252.22,149.89,73,210
254.98,149.24,73,210
254.27,150.54,73,210
250.26,144.53,73,210
253.12,152.64,73,210
255.12,151.57,73,210
271.79,147.1,73,210
285.12,145.35,73,210
310.22,147.97,73,210
322.81,144.76,73,210
336.93,143,73,210
355.21,139.35,73,210
371.91,142.49,73,210
394.64,146.24,73,210
409.47,139.49,73,210
417.78,134.9,73,210
431.16,132.86,73,210
443.18,130.58,73,210
451.94,139.74,73,210
461.2,140.99,73,210
467.34,141.99,73,210
471.2,142.5,73,210
472.2,142.06,73,210
471.89,146.76,73,210
471.9,145.38,73,210
465.33,143.37,73,210
464.13,146.15,73,210
459.68,148.81,73,210
454.37,153.23,73,210
454.32,152.24,73,210
451.78,153.73,73,210
452.12,158.54,73,210
455.92,156.02,73,210
457.28,156.9,73,210
457.35,153.48,73,210
457.2,153.57,73,210
455.21,154.67,73,210
454.82,154.39,73,210
455.12,155.85,73,210
456.41,160.16,73,210
457.49,158.07,73,210
455.36,158.88,73,210
456.93,157.83,73,210
457.65,161.26,73,210
455.12,160.92,73,210
457.22,155.94,73,210
456.59,159.94,73,210
457.16,159.1,73,210
456.51,152.92,73,210
456.39,150.38,73,210
457.19,157.16,73,210
457.18,153.14,73,210
457.19,157.1,73,210
456.46,154.73,73,210
457.81,154.75,73,210
456.61,155.75,73,210
457.08,151.64,73,210
456.09,155.4,73,210
457.78,155.49,73,210
459.14,149.84,73,210
458.69,148.64,73,210
457.91,145,73,210
456.53,148.95,73,210
456.8,152.17,73,210
457.74,147.58,73,210
458.23,151.77,73,210
456.44,149.1,73,210
457.78,145.44,73,210
458.38,144.88,73,210
457.47,145.33,73,210
456.73,142.84,73,210
455.88,143.96,73,210
457.28,142.7,73,210
457.14,143.12,73,210
458.45,141.93,73,210
458.5,143.11,73,210
459.16,142.41,73,210
457.78,139.71,73,210
456.71,138.63,73,210
456.21,139.11,73,210
458.56,141.21,73,210
458.6,137.26,73,210
458.43,140.81,73,210
459.27,138.35,73,210
459.65,136.92,73,210
457.64,139.75,73,210
458.61,137.02,73,210
458.23,136.24,73,210
458.53,137.68,73,210
457.85,139.03,73,210
455.83,139.2,73,210
457.41,136.87,73,210
458.42,138.61,73,210
457.18,138.64,73,210
458.98,139.27,73,210
457.96,137.41,73,210
458.54,142.84,73,210
458.56,138.03,73,210
458.46,139.8,73,210
455.07,135.59,73,210
455.83,138.78,73,210
457.89,140.36,73,210
458.23,137.31,73,210
458.07,137.46,73,210
456.76,141.81,73,210
458.34,137.23,73,210
457.99,133.44,73,210
458.31,132.78,73,210
457.54,138.82,73,210
458.7,138.99,73,210
458.61,137.98,73,210
458.69,143.22,73,210
458.72,138.11,73,210
457.29,137.26,73,210
458.45,136.74,73,210
458.68,136.06,73,210
460.07,140.02,73,210
458.78,135.3,73,210
458.64,132.74,73,210
457.89,135.86,73,210
458.54,138.27,73,210
459.93,134.74,73,210
458.77,136.85,73,210
460.12,134.42,73,210
459.78,140.12,73,210
458.48,136.27,73,210
458.73,136.75,73,210
460.58,136.79,73,210
457.95,136.44,73,210
459.26,139.77,73,210
458.15,133.06,73,210
458.93,135.3,73,210
459.29,134.9,73,210
458.92,136.67,73,210
459.48,137.03,73,210
458.83,132.74,73,210
459.67,134.21,73,210
458.87,134.3,73,210
459.37,135.43,73,210
459.71,137.26,73,210
459.03,134.66,73,210
457.78,133.77,73,210
457.84,136.32,73,210
459.13,136,73,210
458.65,133.32,73,210
459.3,136.49,73,210
459.57,131.89,73,210
459.1,133.34,73,210
459.22,139.1,73,210
458.49,137.31,73,210
458.67,140.49,73,210
460,136.5,73,210
457.77,137.75,73,210
459.63,136.75,73,210
459.3,139.5,73,210
458.48,138.43,73,210
459.82,133.34,73,210
459.07,136.38,73,210
459.28,135.79,73,210
458.45,137.98,73,210
459.99,134.14,73,210
459.27,133.99,73,210
458.1,137.05,73,210
459.65,136.61,73,210
460.23,135.36,73,210
459.77,138.42,73,210
459.39,137.61,73,210
457.94,136.96,73,210
459.82,133.39,73,210
459.2,136.79,73,210
458.74,134.84,73,210
458.87,131.94,73,210
459.39,133.26,73,210
459.4,136.72,73,210
459.45,135.94,73,210
460.53,139.11,73,210
458.61,136.39,73,210
459.93,135.27,73,210
459.51,137.52,73,210
458.93,136.29,73,210
459.29,133.38,73,210
459.71,137.02,73,210
460.27,133.32,73,210
457.56,133.92,73,210
459.16,133.57,73,210
459.46,137.46,73,210
459.51,139.48,73,210
458.37,132.8,73,210
458.88,135.97,73,210
458.66,135.87,73,210
458.8,136.48,73,210
458.72,139.16,73,210
459,139.17,73,210
459.23,137.84,73,210
460.07,135.71,73,210
458,134.38,73,210
458.37,133.05,73,210
459.75,136.83,73,210
460.01,134.12,73,210
458.95,133.27,73,210
458.34,137.3,73,210
458.27,137.59,73,210
459.21,136.23,73,210
460.43,133.27,73,210
457.91,136.31,73,210
460.12,135.25,73,210
456.66,133.03,73,210
458.4,132.8,73,210
458.28,132.64,73,210
459.91,138.34,73,210
461.55,125.55,73,210
458.51,123.63,73,210
456.49,123.77,73,210
441.3,127.78,73,210
444.44,131.67,73,210
438.55,131.93,73,210
423.01,135.06,73,210
411.06,134.98,73,210
393.18,141.16,73,210
370.19,145.8,73,210
358.44,152.65,73,210
365.68,148.25,73,210
365.74,147.53,73,210
364.48,147.34,73,210
362.28,145.42,73,210
364.03,146.83,73,210
365.9,145.29,73,210
366.8,145.88,73,210
364.71,144.74,73,210
365.19,143.46,73,210
365.34,142.34,73,210
366.09,144.31,73,210
365.82,145.08,73,210
365.67,141.29,73,210
367.4,141.68,73,210
366.21,140.25,73,210
366.33,145.87,73,210
366.28,140.78,73,210
364.9,142.35,73,210
364.12,140.29,73,210
365.69,143.41,73,210
364.79,142.06,73,210
364.88,143.08,73,210
365.5,141.74,73,210
365.93,142.15,73,210
365.8,144.05,73,210
366.53,140.01,73,210
364.74,140.38,73,210
364.64,142.09,73,210
365.2,146.94,73,210
366.44,142.4,73,210
366.05,143.46,73,210
366.24,145.52,73,210
365.8,141.75,73,210
364.96,144.14,73,210
364.88,143.23,73,210
365.74,144.65,73,210
364.73,142.86,73,210
365.49,144.89,73,210
365.12,144.92,73,210
364.8,142.77,73,210
363.91,143.49,73,210
364.39,144.04,73,210
365.58,143.14,73,210
364.59,146.87,73,210
365.64,141.83,73,210
364.57,142.35,73,210
365.34,143.96,73,210
366.98,146.51,73,210
364.73,145.19,73,210
364.61,144.55,73,210
366.87,146.32,73,210
365.74,141.98,73,210
364.12,141.43,73,210
365.72,145.36,73,210
365.74,144.53,73,210
366.11,141.67,73,210
366.39,144.31,73,210
365.4,141.47,73,210
363.93,140.23,73,210
362.97,141.55,73,210
365.1,139.77,73,210
351.89,137.06,73,210
353.38,134.55,73,210
339.82,134.74,73,210
346.71,144.15,73,210
350.67,141.01,73,210
353.85,141.43,73,210
355.46,142.59,73,210
355.62,142.4,73,210
354.09,140.3,73,210
352.03,141.45,73,210
353.05,138.87,73,210
353.92,138.4,73,210
352.72,136.83,73,210
353.05,135.75,73,210
353.2,136.48,73,210
352.1,135.69,73,210
352.44,137.69,73,210
354.48,139.37,73,210
352.46,136.46,73,210
352.78,135.09,73,210
352.53,139.09,73,210
354.84,143.57,73,210
352.34,139.42,73,210
352.39,141.87,73,210
353.56,139.35,73,210
353.08,144.79,73,210
351.98,138.54,73,210
352.72,138.08,73,210
354.88,141.28,73,210
353.99,139.42,73,210
352.58,139.44,73,210
354.3,144.43,73,210
352.53,140.15,73,210
354.13,142.5,73,210
355.65,143.71,73,210
354.02,145.59,73,210
354.17,140.65,73,210
354.96,140.3,73,210
353.47,147.86,73,210
353.35,141.53,73,210
352.37,140.33,73,210
352.42,143.12,73,210
354.77,141.87,73,210
357.82,143.67,73,210
358.28,147.14,73,210
355.38,145.66,73,210
356.41,144.32,73,210
356.41,144.08,73,210
355.45,143.1,73,210
354.16,139.95,73,210
355.29,137.71,73,210
358.4,140.69,73,210
359.48,144.97,73,210
358.8,144.81,73,210
356.84,144.07,73,210
358.02,146.53,73,210
356,147.1,73,210
357.86,144.33,73,210
357.43,142.71,73,210
358.01,143.91,73,210
355.54,145.9,73,210
356.71,139.62,73,210
358,140.97,73,210
358.01,147.77,73,210
359.3,142.48,73,210
360.4,144.15,73,210
357.79,141.49,73,210
358.04,140.7,73,210
359.86,140.62,73,210
358.76,139.56,73,210
359.38,143.55,73,210
359.42,137.44,73,210
357.27,139.96,73,210
358,140.79,73,210
359.32,139.58,73,210
357.81,142.94,73,210
358.28,144.19,73,210
358.88,140.61,73,210
361.45,138.87,73,210
360.63,140.85,73,210
359.83,141.95,73,210
360.75,142.11,73,210
361.11,142.33,73,210
361.17,140.97,73,210
361.42,143.44,73,210
363.09,143.75,73,210
363.48,139.29,73,210
357.97,141.93,73,210
358.44,142.46,73,210
365.48,144.89,73,210
359.9,142.91,73,210
356.9,145.19,73,210
361.73,144.58,73,210
360.07,145.11,73,210
361.23,143.13,73,210
361.03,143.38,73,210
362.33,145.19,73,210
360.05,144.16,73,210
363.66,147.24,73,210
361.29,144.23,73,210
361.42,141.49,73,210
362.42,144.18,73,210
362.95,146.59,73,210
362.59,144.22,73,210
363.68,143.69,73,210
362.09,144.98,73,210
362.22,142.97,73,210
361.9,146.95,73,210
363.87,141.42,73,210
364.3,142.42,73,210
363.46,142.06,73,210
362.48,147.43,73,210
363.15,143.5,73,210
363.59,143.79,73,210
362.14,143.21,73,210
364.11,142.05,73,210
363.26,143.17,73,210
364.24,142.3,73,210
361.76,145.92,73,210
363.65,145.23,73,210
362.46,145.42,73,210
362.76,141.58,73,210
363.41,143.76,73,210
363.88,147.85,73,210
363.38,145.83,73,210
363.67,142.09,73,210
362.47,139.49,73,210
364.8,142.24,73,210
363.53,141.52,73,210
362.59,142.45,73,210
362.87,145.53,73,210
364.53,140.02,73,210
360.36,140.28,73,210
361.52,142.92,73,210
361.13,145.53,73,210
360.59,144.73,73,210
358.35,144.81,73,210
359.62,145.2,73,210
359.2,145.45,73,210
361.95,148.15,73,210
362.8,154,73,210
366.31,164.34,73,210
366.23,167.34,73,210
369.61,167.03,73,210
371.91,170.32,73,210
374.72,175.18,73,210
375.33,177.39,73,210
377.96,180.88,73,210
375.29,188.56,73,210
372.11,185.89,73,210
369.66,186.31,73,210
367.4,186.09,73,210
369.91,186.71,73,210
369.7,187.17,73,210
369.1,188.54,73,210
369.34,188.11,73,210
369.74,185.64,73,210
369.32,184.11,73,210
371.47,183.84,73,210
370.59,184.26,73,210
371.35,186.75,73,210
370.84,186.86,73,210
370.18,185.04,73,210
370.83,182.89,73,210
371.2,186.37,73,210
371.21,187.14,73,210
371.83,187.78,73,210
370.93,185.39,73,210
369.3,188.97,73,210
369.65,187.09,73,210
370.31,188.22,73,210
369.65,190.18,73,210
370.88,188.59,73,210
369.04,188.42,73,210
369.9,182.13,73,210
369.61,182.39,73,210
370.13,184.08,73,210
370.76,187.1,73,210
369.59,185.77,73,210
370.5,184.75,73,210
370.26,184.24,73,210
369.79,184.16,73,210
369.85,186.85,73,210
370.85,186.11,73,210
370.63,186.33,73,210
370.21,184.52,73,210
369.4,186.62,73,210
370.67,187.39,73,210
369.44,187.62,73,210
369.81,189.85,73,210
368.7,188.05,73,210
369.99,187.47,73,210
369.66,187.25,73,210
369.07,184.6,73,210
369.96,184.31,73,210
369.4,186.56,73,210
367.63,186.9,73,210
368.78,184.31,73,210
369.59,186.06,73,210
369.19,184.47,73,210
370.2,185.25,73,210
369.72,186.49,73,210
369.07,185.93,73,210
368.61,187.45,73,210
369.04,189.68,73,210
368.09,186.08,73,210
369.62,186.37,73,210
370.36,188.93,73,210
369.48,186.67,73,210
369.68,185.24,73,210
370.8,187.34,73,210
371.51,185.43,73,210
370.26,184.65,73,210
369.63,187.38,73,210
369.91,185.87,73,210
370.04,187.42,73,210
370.98,186.27,73,210
373.54,183.42,73,210
372.61,187.29,73,210
369.52,183.31,73,210
369.5,184.85,73,210
371.08,183.87,73,210
373.06,184.18,73,210
370.56,186.01,73,210
370.61,184.06,73,210
370.01,185.92,73,210
370.93,183.25,73,210
370.78,179.98,73,210
368.99,186.89,73,210
370.92,185.65,73,210
370.04,187.82,73,210
371.69,183.8,73,210
369.55,184.53,73,210
372.13,188.8,73,210
370.64,187.26,73,210
371.73,182.8,73,210
370.67,186.25,73,210
370.67,186.41,73,210
369.39,183.06,73,210
369.44,187.98,73,210
368.32,185.46,73,210
367.7,184.71,73,210
369.88,184.23,73,210
369.75,183.17,73,210
369.5,184.46,73,210
369.02,185.92,73,210
368.57,183.9,73,210
369.79,184.17,73,210
368.99,186.23,73,210
369.61,182.44,73,210
369.21,185.66,73,210
369.88,185.62,73,210
368.96,182.9,73,210
370.41,182.78,73,210
370.34,184.39,73,210
371.19,186.84,73,210
368.87,189.61,73,210
370.04,190.51,73,210
369.72,185.4,73,210
369.35,184.41,73,210
370.35,189.16,73,210
369.24,186.92,73,210
370.21,184.45,73,210
370.03,189.32,73,210
369.87,187.88,73,210
370.11,182.7,73,210
370.47,185.34,73,210
368.86,185.24,73,210
369.79,185.15,73,210
368.31,185.98,73,210
370.2,184.7,73,210
370.1,188.37,73,210
369.17,188.26,73,210
369.38,190.24,73,210
368.98,183.29,73,210
370.2,185.67,73,210
370,183.22,73,210
369.19,183.86,73,210
369.4,185.6,73,210
367.79,186.7,73,210
369.3,187.01,73,210
369.76,182.79,73,210
369.64,185.6,73,210
368.69,190.36,73,210
366.09,188.97,73,210
368.16,186.89,73,210
366.51,190.02,73,210
365.76,182.27,73,210
366.74,185.36,73,210
365.74,183.2,73,210
365.79,181.01,73,210
364.56,180.69,73,210
366.48,184.91,73,210
366.12,180.85,73,210
365.85,185.43,73,210
365.21,184.26,73,210
364.1,183.77,73,210
365.42,186.26,73,210
365.59,182.21,73,210
362.93,186.74,73,210
364.9,185.87,73,210
362.34,184.82,73,210
365.6,184.32,73,210
363.92,184.51,73,210
363.07,185.07,73,210
361.41,184.82,73,210
360.53,188.39,73,210
360.36,185.58,73,210
357.3,191.18,73,210
360.36,185.58,73,210
351.82,193.08,73,210
349.16,189.71,73,210
359.72,189.4,73,210
359.79,185.91,73,210
358.35,185.47,73,210
358.48,188.09,73,210
357.77,188.58,73,210
360.11,188.46,73,210
359.18,185.7,73,210
360,185.01,73,210
360.66,187.26,73,210
358.73,188.92,73,210
359,193.29,73,210
358.94,188.67,73,210
359.09,189.31,73,210
359.93,189.24,73,210
359.98,187.06,73,210
360.89,186,73,210
361.26,189.71,73,210
360.71,187.04,73,210
360.79,187.08,73,210
360.04,187.78,73,210
359.36,186.66,73,210
360.16,187.62,73,210
360.42,186.24,73,210
359.5,187.97,73,210
360.67,186.31,73,210
361.72,183.14,73,210
359.91,185.3,73,210
360.14,187.32,73,210
360.35,183.88,73,210
360.84,183.91,73,210
360.74,188.37,73,210
361.45,186.34,73,210
362.17,186.79,73,210
362.92,183.71,73,210
361.37,185.07,73,210
361.17,188.37,73,210
358.99,188.45,73,210
361.7,185.65,73,210
361.09,187.97,73,210
361.7,189.25,73,210
362.06,187.27,73,210
360.65,185.44,73,210
361.35,187.85,73,210
360.66,188.07,73,210
362.05,187.07,73,210
362.29,186.06,73,210
361.5,187.04,73,210
358.67,185.05,73,210
360.4,184.38,73,210
360.16,188.5,73,210
360.9,190.35,73,210
360.32,188.07,73,210
359.5,187.5,73,210
359.81,187.77,73,210
359.79,187.73,73,210
360.93,187.46,73,210
361.15,191.63,73,210
361.1,188.27,73,210
361,188.94,73,210
360.01,187.67,73,210
359.36,189.26,73,210
361.3,192.96,73,210
362.13,193.66,73,210
359.71,189.52,73,210
359.83,189.46,73,210
360.48,189.6,73,210
360.89,186.47,73,210
359.8,190.36,73,210
361.86,190.9,73,210
360.08,189.6,73,210
361.62,191.01,73,210
360.97,187.06,73,210
360.75,189.91,73,210
362.12,191,73,210
360.09,187.37,73,210
361.61,189.33,73,210
359.22,185.84,73,210
358.18,182.34,73,210
359.46,183.28,73,210
361.24,187.54,73,210
358.96,187.24,73,210
357.9,187.94,73,210
354.63,190.8,73,210
347.83,188.12,73,210
335.85,186.78,73,210
321.84,186.55,73,210
308.68,186.71,73,210
290.51,187.21,73,210
265.57,179.39,73,210
244.58,178.11,73,210
226.9,169.87,73,210
205.69,157.34,73,210
196.79,150.04,73,210
186.9,147.17,73,210
178.95,141.28,73,210
170.82,130.88,73,210
163.78,132.48,73,210
160.83,130.66,73,210
158.28,132.69,73,210
157.54,136.71,73,210
157.26,137.91,73,210
159.98,139.65,73,210
161.96,132.83,73,210
163.62,136.72,73,210
163.25,139.33,73,210
163.5,139.77,73,210
165.05,140.33,73,210
163.12,135.38,73,210
162.72,134.36,73,210
163.54,141.52,73,210
162.11,140.83,73,210
163.72,141.2,73,210
165.73,137.21,73,210
164.53,134.35,73,210
163.58,134.65,73,210
163.69,136.87,73,210
163.07,137.18,73,210
163.45,135.89,73,210
162.61,136.43,73,210
165.37,140.88,73,210
162.74,139.89,73,210
164.49,136.74,73,210
165.01,133.82,73,210
163.74,136.28,73,210
165.36,139.21,73,210
165.25,135.74,73,210
164.87,133.31,73,210
166.24,138.15,73,210
165.37,135.52,73,210
165.99,132.22,73,210
165.07,135.59,73,210
163.36,132.94,73,210
164.35,136.94,73,210
163.26,133.36,73,210
164.89,134.22,73,210
163.92,136.15,73,210
165.02,133.56,73,210
164.83,135.31,73,210
166.55,135.5,73,210
165.02,136.55,73,210
164.02,139.31,73,210
161.26,135.34,73,210
163.45,138.65,73,210
163.47,138.1,73,210
164.95,135.09,73,210
164.74,136.28,73,210
165.66,139.9,73,210
165.06,134.57,73,210
165.85,139.76,73,210
166,142.04,73,210
166.24,133.5,73,210
165.95,136.84,73,210
166.39,138.73,73,210
166.06,138.85,73,210
167.28,139.19,73,210
165.94,134.37,73,210
166.61,137.2,73,210
165.68,134.13,73,210
165.29,138.25,73,210
166.02,134.96,73,210
165.94,137.79,73,210
166.6,134.67,73,210
166.71,135.14,73,210
165.56,136.61,73,210
165.43,133.51,73,210
166.91,139.66,73,210
165.85,137.13,73,210
166.52,138.56,73,210
167.16,134.95,73,210
164.92,139.83,73,210
167.53,141.81,73,210
167.32,136.35,73,210
165.87,141.31,73,210
166.71,139.61,73,210
165.63,140.32,73,210
165.36,134.8,73,210
166.05,133.42,73,210
165.92,135.64,73,210
166.19,134.97,73,210
167.27,136.2,73,210
165.68,138.91,73,210
167.12,135.75,73,210
165.27,135.46,73,210
165.26,135.94,73,210
166.67,139.48,73,210
166.66,135.2,73,210
166.67,138.03,73,210
165.9,134.98,73,210
167.57,135.13,73,210
165.2,136.08,73,210
166.54,136.17,73,210
165.84,134.19,73,210
165.52,133.68,73,210
166.68,130.85,73,210
166.02,122.89,73,210
150.82,120.01,73,210
133.38,122,73,210
116.03,124.01,73,210
104.53,122.6,73,210
96.11,121.11,73,210
86.219,117.03,73,210
82.613,124.19,73,210
81.03,120.16,73,210
81.143,118.81,73,210
82.887,125.19,73,210
87.213,134.04,73,210
83.132,133.98,73,210
84.727,134.47,73,210
85.065,132.66,73,210
84.642,131.23,73,210
84.219,127.82,73,210
83.855,128.69,73,210
85.207,137.76,73,210
85.356,133.34,73,210
87.111,131.91,73,210
86.74,131.21,73,210
86.49,132.63,73,210
87.622,130.33,73,210
87.138,132.67,73,210
83.464,127.21,73,210
86.878,128.05,73,210
86.756,129.72,73,210
86.874,130.21,73,210
86.307,130.55,73,210
85.033,129.67,73,210
86.498,133.43,73,210
86.821,137.07,73,210
86.893,135.07,73,210
86.623,135.41,73,210
87.53,129.73,73,210
86.102,132.12,73,210
85.312,137.11,73,210
86.596,132.31,73,210
85.203,133.86,73,210
85.499,135.62,73,210
86.551,137.48,73,210
85.406,136.5,73,210
84.419,136.9,73,210
85.768,134.74,73,210
83.328,133.64,73,210
85.689,132.04,73,210
87.268,134.87,73,210
86.589,134.64,73,210
85.654,131.65,73,210
85.24,137.33,73,210
85.336,139.6,73,210
84.678,136.78,73,210
85.909,134.28,73,210
84.959,137.69,73,210
85.336,135.43,73,210
86.195,140.8,73,210
85.843,136.67,73,210
84.367,135.59,73,210
85.326,139,73,210
85.285,137.28,73,210
86.087,134.95,73,210
86.001,131.45,73,210
85.906,141.9,73,210
86.132,136.81,73,210
84.445,135.18,73,210
85.459,136.61,73,210
85.562,133.56,73,210
86.824,141.77,73,210
87.296,136.76,73,210
85.761,139.21,73,210
85.936,139.09,73,210
86.055,138.49,73,210
86.415,139.4,73,210
85.787,135.74,73,210
85.843,134.24,73,210
86.207,138.31,73,210
88.377,139.72,73,210
86.836,135.73,73,210
87.61,138.34,73,210
84.541,136.13,73,210
86.247,140.52,73,210
86.001,135.25,73,210
85.925,140.66,73,210
85.698,140.48,73,210
87.555,142.43,73,210
83.755,135.5,73,210
87.968,140.51,73,210
86.325,142.88,73,210
85.395,137.91,73,210
85.976,137.14,73,210
86.272,137.97,73,210
86.201,140.4,73,210
85.699,141.41,73,210
86.704,137.57,73,210
87.165,139.66,73,210
86.377,130.89,73,210
85.095,136.39,73,210
86.085,137.49,73,210
85.996,137.83,73,210
86.739,136.42,73,210
84.964,133.49,73,210
86.659,136.63,73,210
85.939,135.14,73,210
85.354,135.76,73,210
87.372,134.56,73,210
86.045,132.76,73,210
87.094,138.53,73,210
86.22,136.58,73,210
84.528,134.97,73,210
86.6,138.14,73,210
86.371,132.2,73,210
84.379,135.04,73,210
86.712,138.21,73,210
84.753,136.61,73,210
83.145,137.33,73,210
85.324,133.71,73,210
86.795,135.77,73,210
85.73,135.49,73,210
85.772,139.16,73,210
86.582,136.07,73,210
85.726,134.64,73,210
85.298,135.91,73,210
86.139,138.84,73,210
85.754,139.87,73,210
85.653,133.93,73,210
85.13,133.57,73,210
86.492,140,73,210
86.174,134.64,73,210
85.284,135.34,73,210
86.56,138.72,73,210
86.833,134.56,73,210
87.335,139.67,73,210
85.045,139.16,73,210
87.409,132.12,73,210
85.954,133.98,73,210
86.593,136.02,73,210
85.577,137.31,73,210
86.393,131.19,73,210
86.854,135.96,73,210
84.995,135.56,73,210
86.695,138.29,73,210
86.113,136.87,73,210
85.062,134.87,73,210
86.805,137.6,73,210
86.788,136.32,73,210
86.017,134.17,73,210
86.36,132.95,73,210
87.797,138.32,73,210
86.387,135.06,73,210
87,137.5,73,210
86.516,135.93,73,210
86.001,133.71,73,210
86.918,133.88,73,210
85.437,137.95,73,210
86.654,134.92,73,210
85.006,138.83,73,210
86.785,138.69,73,210
83.971,132.21,73,210
86.978,138.72,73,210
85.967,139.31,73,210
86.265,135.68,73,210
85.784,135.83,73,210
85.937,138.06,73,210
85.062,136.54,73,210
83.964,134.58,73,210
85.943,130.91,73,210
85.281,132.07,73,210
85.447,137.84,73,210
84.94,137.7,73,210
85.065,132.74,73,210
85.967,133.82,73,210
85.088,135.93,73,210
86.178,138.5,73,210
86.313,140.05,73,210
85.668,136.36,73,210
85.275,136.37,73,210
85.897,133.47,73,210
85.44,138.23,73,210
85.797,138.47,73,210
84.846,130.07,73,210
86.419,135.34,73,210
86.437,137.66,73,210
86.619,139.01,73,210
86.821,135.97,73,210
86.331,133.22,73,210
87.533,135.13,73,210
87.372,137.16,73,210
86.709,138.56,73,210
87.129,133.49,73,210
85.378,137.04,73,210
87.32,138.63,73,210
87.011,135.27,73,210
86.309,138.5,73,210
87.256,137.13,73,210
88.119,139.01,73,210
85.362,135.92,73,210
85.23,135.75,73,210
87.504,137.6,73,210
85.956,142.47,73,210
86.429,136.92,73,210
87.222,135.2,73,210
85.541,134.91,73,210
85.301,130.05,73,210
87.213,133.28,73,210
85.577,134.02,73,210
85.496,135.53,73,210
88.009,142.25,73,210
87.326,136.16,73,210
85.867,138.12,73,210
86.048,137.79,73,210
85.168,132.81,73,210
85.347,132.86,73,210
85.318,135.06,73,210
86.243,135.96,73,210
87.078,138.88,73,210
87.278,137.39,73,210
87.086,138.35,73,210
85.874,132.22,73,210
87.377,133.2,73,210
86.837,139.99,73,210
85.797,136.75,73,210
86.877,135.8,73,210
86.264,132.69,73,210
85.391,132.29,73,210
85.766,129.53,73,210
86.677,135.9,73,210
87.3,137.15,73,210
86.838,136.34,73,210
85.951,134.65,73,210
86.787,142.2,73,210
87.59,136.56,73,210
86.331,135.76,73,210
87.393,137.64,73,210
85.848,134.56,73,210
85.687,138.29,73,210
86.946,137.69,73,210
86.181,138.25,73,210
87.4,137.73,73,210
85.414,135.93,73,210
87.405,138.38,73,210
86.307,140.41,73,210
86.061,138.25,73,210
86.735,141.43,73,210
85.333,141.2,73,210
85.696,136.89,73,210
86.188,133.9,73,210
85.695,136.7,73,210
86.939,139.15,73,210
85.253,138.93,73,210
84.717,142.27,73,210
87.277,140.85,73,210
86.407,141.08,73,210
85.785,141.77,73,210
84.551,140.69,73,210
85.181,139.04,73,210
86.155,140.02,73,210
86.228,140.16,73,210
84.585,141.03,73,210
86.09,140.4,73,210
85.878,140.96,73,210
87.128,141.93,73,210
85.268,136.43,73,210
84.872,137.79,73,210
87.099,137.93,73,210
86.133,140.1,73,210
86.483,140.56,73,210
86.252,143.52,73,210
85.864,138.48,73,210
86.9,139.98,73,210
85.442,138.93,73,210
86.528,137.13,73,210
85.244,134.54,73,210
86.187,135.37,73,210
86.137,137.8,73,210
85.642,135.34,73,210
86.936,136.63,73,210
85.634,132.49,73,210
85.916,132.14,73,210
86.629,136.25,73,210
85.407,131.12,73,210
84.141,135.24,73,210
85.905,136.52,73,210
84.904,133.23,73,210
86.224,136.14,73,210
84.725,136.1,73,210
87.135,137.52,73,210
85.991,140.15,73,210
86.444,137.31,73,210
86.406,133.64,73,210
84.793,135.22,73,210
86.661,137.49,73,210
85.516,139.44,73,210
85.408,137.41,73,210
84.985,135.89,73,210
85.622,139.3,73,210
85.424,137.59,73,210
86.328,136,73,210
84.117,136.23,73,210
84.998,138.51,73,210
87.265,133.38,73,210
85.82,136.36,73,210
84.395,138.61,73,210
86.135,138,73,210
85.217,137.72,73,210
84.663,135.28,73,210
84.703,138.85,73,210
82.891,136.28,73,210
77.792,140.31,73,210
73.685,140.37,73,210
66.582,142.13,73,210
57.528,141.06,73,210
50.209,143.88,73,210
50.197,140.89,73,210
52.66,136.52,73,210
65.89,132.97,73,210
83.442,127.72,73,210
102.9,124.38,73,210
128.52,124.28,73,210
154.62,124.41,73,210
152.45,132.67,73,210
153.16,132.52,73,210
155.08,133.44,73,210
154.53,133.41,73,210
155.11,131.86,73,210
155.28,128.24,73,210
153.46,131.37,73,210
154.41,129.69,73,210
154.16,127.65,73,210
155.01,129.1,73,210
154.88,128.08,73,210
154.86,127.58,73,210
155.1,132.01,73,210
155.66,129.93,73,210
154.89,132.89,73,210
152.42,132.18,73,210
153.65,133.75,73,210
152.47,132.63,73,210
155.47,128.26,73,210
155.5,134.64,73,210
156.46,133.3,73,210
152.85,132.66,73,210
154.18,132.94,73,210
153.06,129.92,73,210
152.59,129.13,73,210
149.3,128.65,73,210
150.1,127.1,73,210
148.7,133.03,73,210
150.24,127.78,73,210
146.84,131.65,73,210
148.48,131.84,73,210
148.65,128.87,73,210
148.38,129.61,73,210
147.62,128.59,73,210
147.34,132.32,73,210
149.06,133.11,73,210
148.89,132.17,73,210
148.65,131.53,73,210
147.07,131.69,73,210
147.73,129.16,73,210
149.67,130.99,73,210
149.75,131.48,73,210
148.55,130.61,73,210
148.5,129.08,73,210
148.3,132.84,73,210
147.72,127.9,73,210
148.03,126.83,73,210
149.09,129.85,73,210
147.17,130.47,73,210
148.49,129.46,73,210
150.79,127.34,73,210
150.87,129.34,73,210
148.9,128.22,73,210
149.25,128.08,73,210
148.33,133.91,73,210
149.44,131.31,73,210
146.18,130.93,73,210
147.1,127.11,73,210
146.92,128.21,73,210
146.68,128.8,73,210
147.98,132.57,73,210
146.08,133.8,73,210
147.45,133.56,73,210
146.97,138.58,73,210
148.34,138.31,73,210
147.22,133.07,73,210
146.96,133.92,73,210
146.23,134.11,73,210
146.25,135.31,73,210
148.34,134.95,73,210
148.82,135,73,210
148.14,138.4,73,210
145.85,132.1,73,210
146.42,134.09,73,210
146.34,136.04,73,210
146.91,132.14,73,210
146.77,135.43,73,210
147.93,132.21,73,210
146.31,131.78,73,210
145.73,132.58,73,210
145.81,133.46,73,210
145.27,130.82,73,210
148.1,132.12,73,210
145.61,132.18,73,210
144.39,135.01,73,210
146.49,134.31,73,210
146.92,136.1,73,210
147.13,133.37,73,210
146.57,138.24,73,210
145.8,137.53,73,210
146.29,136.69,73,210
145.53,132.84,73,210
147.34,134.46,73,210
147.29,131.59,73,210
146.73,132.44,73,210
146.97,133.47,73,210
144.93,132.61,73,210
145.42,137.69,73,210
145.5,137.15,73,210
146.17,139.75,73,210
145.99,135.2,73,210
146.69,134.41,73,210
146.63,136.74,73,210
145.57,134.25,73,210
146.34,136.29,73,210
146.36,136.91,73,210
146.22,132.12,73,210
147,135.75,73,210
146.69,135.87,73,210
147.03,133.75,73,210
147.18,132.14,73,210
146.68,131.89,73,210
147.78,132.29,73,210
146.51,135.99,73,210
145.53,134.6,73,210
146.03,133.56,73,210
147.05,137.19,73,210
146.14,135.19,73,210
147.29,134.88,73,210
144.81,134.82,73,210
146.04,133.28,73,210
145.37,135.54,73,210
146.22,139.92,73,210
147.06,135.5,73,210
146.47,135.96,73,210
147.47,135.77,73,210
146.75,138.75,73,210
146.6,131.98,73,210
145.79,134.04,73,210
146.22,132.76,73,210
146.53,133.97,73,210
146.63,134.73,73,210
145.86,137.55,73,210
