198,214,34,81
195.95,213.48,34,81
194.82,215.65,34,81
192.95,216.83,34,81
192.4,217.21,34,81
188.55,217.04,34,81
186.91,220.29,34,81
187.16,220.57,34,81
186.62,223.01,34,81
187.42,225.11,34,81
189.88,224.94,34,81
193.54,222.27,34,81
195.71,221.99,34,81
198.5,221.93,34,81
202.67,220.1,34,81
205.1,218.1,34,81
207.25,216.11,34,81
203.94,216.08,34,81
205.01,213.62,34,81
206.13,207.73,34,81
208.48,218.11,34,81
214.25,213.33,34,81
215.76,214.61,34,81
216.2,219.52,34,81
221.29,219.31,34,81
225.98,221.09,34,81
227.7,226.94,34,81
230.38,227.3,34,81
234.76,228.8,34,81
240.21,226.15,34,81
245,227.55,34,81
249.57,227.47,34,81
252.84,223.61,34,81
257.06,224.11,34,81
261.02,220.87,34,81
265.87,220.34,34,81
268.17,221.31,34,81
273.74,221.87,34,81
275.5,227.59,34,81
280.07,227.7,34,81
284.03,230.35,34,81
286.79,231.11,34,81
289.46,231.92,34,81
289.49,233.19,34,81
290.63,231.22,34,81
289.94,231.89,34,81
289.88,230.61,34,81
289.71,230.67,34,81
287.97,227.61,34,81
286.1,228.66,34,81
286.05,225.35,34,81
285.01,224.78,34,81
282.2,223.45,34,81
280.16,223.41,34,81
279.95,223.35,34,81
277.68,223.1,34,81
276.49,223.74,34,81
274.64,226.38,34,81
271.03,228.45,34,81
269.22,228.7,34,81
263.2,236.09,34,81
258.42,234.25,34,81
253.68,232.35,34,81
250.09,232.65,34,81
249.19,235.7,34,81
252.62,237.76,34,81
246.98,238.62,34,81
244.02,240.89,34,81
240.68,241.48,34,81
235.29,237.73,34,81
231.89,241.03,34,81
223.12,235.21,34,81
218.69,239.1,34,81
209.27,237.51,34,81
200.55,237.27,34,81
193.27,239.52,34,81
187.67,240.16,34,81
184.11,240.74,34,81
178.05,240.65,34,81
173.38,243.21,34,81
168.06,238.88,34,81
163.06,237.36,34,81
155.99,236.89,34,81
150.87,242.08,34,81
143.87,251.7,34,81
135.72,253.09,34,81
133.67,250.21,34,81
127.71,251.99,34,81
130.53,243.76,34,81
128.08,237.35,34,81
125.37,232.44,34,81
120.02,232.11,34,81
118.64,229.26,34,81
117.73,225.85,34,81
109.68,242.69,34,81
105.36,240.91,34,81
108.07,241.58,34,81
107.6,243.77,34,81
110.09,242.36,34,81
116.5,238.64,34,81
119.29,230.43,34,81
121.05,227.17,34,81
127,220.79,34,81
131.42,219.18,34,81
124.36,223.44,34,81
121.49,226.38,34,81
124.4,225.42,34,81
129.95,224.87,34,81
130.64,223.34,34,81
137.63,223.79,34,81
142.98,218.93,34,81
145.56,213.09,34,81
148.28,209.15,34,81
149.98,207.47,34,81
154.96,211.77,34,81
157.99,206.94,34,81
160.59,202.84,34,81
166.4,203.52,34,81
169.09,207.59,34,81
170.92,209.48,34,81
175.13,204.81,34,81
180.23,204.66,34,81
186.5,201.24,34,81
193.03,197.67,34,81
196.73,195.86,34,81
194.59,198.23,34,81
190.65,199.61,34,81
192.61,193.8,34,81
204.9,194.96,34,81
201.21,196.25,34,81
201.99,195.98,34,81
209.83,194.44,34,81
214.31,191.35,34,81
212.63,186.13,34,81
211.48,186.28,34,81
214.37,185.2,34,81
211.25,187.1,34,81
207.37,189.98,34,81
207.04,191.25,34,81
207.76,186.39,34,81
210.67,184.07,34,81
213.47,183.48,34,81
220.22,183.76,34,81
221.66,177.78,34,81
223.97,174.94,34,81
229.74,172.2,34,81
232.06,170.7,34,81
233.67,171.51,34,81
233.38,172.23,34,81
234.32,171.29,34,81
235.19,175.64,34,81
235.39,174.86,34,81
243.31,178.28,34,81
247.15,177.4,34,81
249.27,175.21,34,81
243.64,175.12,34,81
248.5,172.92,34,81
249.03,172.48,34,81
249.51,173.28,34,81
249.38,173.1,34,81
250.13,172,34,81
251.26,174.04,34,81
254.01,173.14,34,81
258.99,174.78,34,81
259.63,170.6,34,81
260.31,162.52,34,81
264.14,162.58,34,81
266.44,160.5,34,81
270.41,160.5,34,81
271.5,161.17,34,81
272.92,165.1,34,81
275.1,163.41,34,81
277.77,168.12,34,81
274.03,171.42,34,81
269.8,173.65,34,81
270.29,170.65,34,81
275.92,162.11,34,81
276.87,163.95,34,81
275.74,162.73,34,81
274.9,164.02,34,81
274.49,164.41,34,81
274.56,165.75,34,81
276.91,166.1,34,81
277.53,165,34,81
280.99,157.96,34,81
281.49,160.66,34,81
282.58,158,34,81
282.86,159.96,34,81
283.08,156.72,34,81
283.35,156.43,34,81
283.57,161.2,34,81
283.18,160.44,34,81
284.13,155.79,34,81
283.96,163.07,34,81
284.65,165.33,34,81
282.55,162.99,34,81
283.04,160.07,34,81
281.5,159.05,34,81
283.95,161.09,34,81
282.45,163.06,34,81
283.72,161.05,34,81
285.31,163,34,81
284.9,159.96,34,81
284.47,160.01,34,81
283.07,162.77,34,81
284.46,169.64,34,81
286.56,171.19,34,81
287.34,170,34,81
288.5,172.28,34,81
283.4,171.13,34,81
283.3,170.76,34,81
283.12,171.69,34,81
282.78,170.49,34,81
282.38,172.69,34,81
281.23,173.42,34,81
279.99,172.81,34,81
280.1,171.4,34,81
279.77,168.12,34,81
279.22,168.34,34,81
279.28,174.06,34,81
279.02,173.07,34,81
278.53,176.6,34,81
276.5,177.41,34,81
276.63,179.82,34,81
276.16,179.95,34,81
274.28,180.19,34,81
274.21,178.88,34,81
273.19,175.55,34,81
271.56,174.56,34,81
269.54,180.45,34,81
267.9,178.52,34,81
265.38,179.51,34,81
261.65,177.14,34,81
259.24,178.88,34,81
256.27,181.73,34,81
255.35,182.4,34,81
253.34,181.74,34,81
251.9,180.04,34,81
250.6,187.41,34,81
249.1,187.63,34,81
246.98,186.31,34,81
244.86,195.95,34,81
242.51,195.27,34,81
240.44,196.37,34,81
236.7,190.46,34,81
235.92,194,34,81
232.57,193.79,34,81
229.8,185.79,34,81
226.74,180.4,34,81
222.65,187.28,34,81
223.67,188.81,34,81
220.07,189.48,34,81
219.79,190.59,34,81
218.71,191.63,34,81
218.08,194.43,34,81
215.62,193.83,34,81
210.27,194.63,34,81
206.61,194.04,34,81
205.26,192.74,34,81
202.31,193.23,34,81
199.41,191.21,34,81
195.83,193.78,34,81
195.11,197.3,34,81
193.29,195.67,34,81
193.64,197.67,34,81
192.86,195.32,34,81
190.91,192.19,34,81
192.6,190.94,34,81
190.45,191.1,34,81
190.63,193.98,34,81
190.02,186.36,34,81
192.26,186.35,34,81
193.36,191.29,34,81
190.36,190.58,34,81
190.55,191.56,34,81
190.04,189.33,34,81
191.82,191.91,34,81
193.37,187.57,34,81
190.64,185.92,34,81
190.72,183.65,34,81
191.58,184.82,34,81
190.79,185,34,81
184.01,197.1,34,81
184.62,204.39,34,81
184.35,205.29,34,81
188.73,187.49,34,81
187.44,186.29,34,81
188.17,185.9,34,81
189.8,192.7,34,81
190.38,189.22,34,81
192.43,182.9,34,81
190.2,183.77,34,81
191.68,187.17,34,81
189.93,182.83,34,81
188.74,187.76,34,81
190.23,186.54,34,81
188.76,191.85,34,81
187.04,193.65,34,81
186.35,194.16,34,81
184.17,191.52,34,81
181.72,196.08,34,81
178.65,198.76,34,81
175.45,207.39,34,81
170.5,209.6,34,81
168.81,205.47,34,81
166,206.56,34,81
164.14,208.43,34,81
163.26,215.36,34,81
161.39,212.79,34,81
158.94,213.82,34,81
155.76,211.12,34,81
153.95,213.01,34,81
153.99,216.65,34,81
150.12,211.1,34,81
149.48,204.88,34,81
147.89,205.86,34,81
147.75,204.94,34,81
146.21,196.34,34,81
145.73,201.04,34,81
144.31,193.84,34,81
143.5,199.35,34,81
140.4,204.49,34,81
138.78,202.96,34,81
139.15,201.18,34,81
139.31,194.08,34,81
138.53,198.14,34,81
136.29,199.28,34,81
137.59,196.63,34,81
134,197.77,34,81
132.98,200.59,34,81
135.39,199.32,34,81
134.55,201.21,34,81
134.95,201.31,34,81
135.95,201.78,34,81
136.34,202.47,34,81
137.53,204.45,34,81
138.42,203.62,34,81
138.45,207.04,34,81
140.73,205.41,34,81
141.71,205.39,34,81
142.17,205.94,34,81
142.27,206.24,34,81
143.29,206.5,34,81
144.06,208.18,34,81
144.89,207.73,34,81
145.33,208.24,34,81
145.61,208.45,34,81
145.56,206.61,34,81
145.87,210.79,34,81
146.48,209.41,34,81
145.5,208.28,34,81
144.76,210.47,34,81
143.72,213.06,34,81
142.9,208.11,34,81
142.85,214.17,34,81
141.58,214.51,34,81
141.17,210.21,34,81
141.49,207.51,34,81
142.19,201.49,34,81
143.74,205.17,34,81
142.93,204.98,34,81
143.11,204.61,34,81
144.26,203.97,34,81
146.99,197.19,34,81
145.8,195.77,34,81
144,201.75,34,81
146.44,201.33,34,81
146.46,201.28,34,81
149.06,199.39,34,81
148.25,202.37,34,81
148.24,200.66,34,81
148.07,203.02,34,81
148.95,203.19,34,81
149.21,204.14,34,81
150.62,204.69,34,81
151.88,204.98,34,81
152.15,205.03,34,81
151.01,206.92,34,81
152.3,207.34,34,81
154.9,206.15,34,81
153.47,203.51,34,81
156.18,206.83,34,81
155.68,206.46,34,81
155.76,211.8,34,81
155.73,212.82,34,81
158.32,211.24,34,81
157.3,207.76,34,81
158.63,207.12,34,81
159.03,213.7,34,81
158.97,213.73,34,81
158.97,212.27,34,81
159.45,217.36,34,81
157.91,218.36,34,81
159.57,215.4,34,81
159.31,218.96,34,81
157.91,219.37,34,81
158.68,219.47,34,81
158.35,219.57,34,81
155.43,225.72,34,81
156.13,221.69,34,81
155.28,219.23,34,81
155.6,221.49,34,81
154.28,223.91,34,81
155.63,225.98,34,81
157.1,220.73,34,81
157.63,221.57,34,81
160.31,224.22,34,81
161.59,219.17,34,81
161.03,218.72,34,81
162.89,220.09,34,81
163,216.8,34,81
164.94,219.26,34,81
162.72,225.03,34,81
164.19,224.33,34,81
160.69,226.57,34,81
161.96,226.43,34,81
162.01,226.68,34,81
163.84,227.17,34,81
165.58,223.78,34,81
165.09,225.98,34,81
165.73,224.79,34,81
166.02,224.7,34,81
166.05,226.65,34,81
165.54,226.07,34,81
166.68,223.02,34,81
166.43,223.34,34,81
167.94,224.16,34,81
169.45,222.67,34,81
171.64,223.53,34,81
173.16,222.08,34,81
174.27,224.16,34,81
176.73,221.99,34,81
178,224.9,34,81
180.68,221.59,34,81
181.51,230.41,34,81
183.61,227.23,34,81
186.51,223.36,34,81
188.75,224.83,34,81
189.17,225.12,34,81
190.82,222.37,34,81
195.1,214.69,34,81
193.83,217.15,34,81
198.24,214.85,34,81
199.15,218.41,34,81
198.63,219.17,34,81
200.54,220.75,34,81
203.68,220.8,34,81
201.99,225.83,34,81
206.4,235.13,34,81
207.51,233.8,34,81
207.56,229.34,34,81
211.21,232.27,34,81
213.81,225.54,34,81
215.28,226.55,34,81
219.46,230.37,34,81
221.03,221.79,34,81
224.5,227.37,34,81
228.82,230.59,34,81
231,232.28,34,81
236.8,232.25,34,81
240.53,237.25,34,81
241.87,242.02,34,81
252.31,233.46,34,81
256.64,233.41,34,81
261.94,234.59,34,81
267.3,235.56,34,81
272.42,236.75,34,81
278.04,237.01,34,81
282.94,238.05,34,81
289.64,239.44,34,81
297.27,239.13,34,81
303.39,240.93,34,81
311.29,240.3,34,81
319.51,233.68,34,81
323.77,233.74,34,81
328.62,234.98,34,81
333.01,227.78,34,81
339.05,234.36,34,81
345.85,235.34,34,81
352.73,236.58,34,81
357.44,239.03,34,81
367.19,235.72,34,81
380.07,229.27,34,81
386.21,230.98,34,81
394.83,235.67,34,81
401.97,235.74,34,81
408.41,235.11,34,81
416.45,239.23,34,81
418.88,239.48,34,81
420.87,231.53,34,81
420.78,230.65,34,81
421.61,225.9,34,81
420.95,222.51,34,81
418.73,214.97,34,81
415.71,210.04,34,81
414.67,206,34,81
412.01,202.12,34,81
408.56,200.02,34,81
404.77,198.65,34,81
402.16,197.12,34,81
396.84,192.09,34,81
394.45,189.64,34,81
392.07,188.93,34,81
387.86,187.46,34,81
385.47,184.53,34,81
381.2,178.08,34,81
376.13,176.59,34,81
375.35,178.74,34,81
372.41,176.78,34,81
367.67,178.77,34,81
363.9,177.64,34,81
365.7,180.28,34,81
364.72,177.38,34,81
363.29,174.32,34,81
362.03,180.94,34,81
361.06,179.23,34,81
359.94,177.19,34,81
359.16,175.31,34,81
357.78,174.59,34,81
356.78,171.33,34,81
354.84,171.34,34,81
352.46,176.49,34,81
352.03,171.71,34,81
350.3,171.93,34,81
350.26,173.08,34,81
349.66,171.49,34,81
349.25,171.85,34,81
349.58,168.04,34,81
349.46,174.23,34,81
350.45,174.87,34,81
351.29,179.96,34,81
350.45,181.61,34,81
349.5,181.38,34,81
348.39,183.82,34,81
346.44,187.3,34,81
348,182.84,34,81
345.28,184.76,34,81
344.93,181.41,34,81
342.48,185.42,34,81
342.77,184.63,34,81
340.48,182.36,34,81
340.84,182.54,34,81
340.43,184.97,34,81
340.74,183.93,34,81
339.2,185.68,34,81
338.94,185.26,34,81
337.32,186,34,81
334.42,189.37,34,81
333.86,189.57,34,81
333.38,188.6,34,81
331.94,190.67,34,81
328.11,189.1,34,81
327.19,185.32,34,81
327.48,183.34,34,81
325.21,183.36,34,81
323.31,183.02,34,81
324.09,179.52,34,81
322.66,181.2,34,81
321.83,176.94,34,81
318.81,178.94,34,81
317.98,182.58,34,81
318.3,180.65,34,81
315.83,184.61,34,81
313.21,184.88,34,81
312.65,184.76,34,81
309.1,183.64,34,81
306.31,184.38,34,81
303.11,185.62,34,81
301.52,186.42,34,81
298.1,183.72,34,81
297.99,184.57,34,81
297.28,182.86,34,81
296.59,181.16,34,81
296.37,174.11,34,81
295.92,174.56,34,81
295.44,175.08,34,81
296.21,176.54,34,81
296.49,177.79,34,81
296.38,176.83,34,81
295.24,175.47,34,81
296.98,174.91,34,81
296.96,172.67,34,81
297.36,173.61,34,81
297.74,175.12,34,81
298.85,169.45,34,81
298.34,168.98,34,81
295.95,168.06,34,81
296.08,165.71,34,81
292.63,171.8,34,81
292.33,167.84,34,81
293.2,162.34,34,81
293.96,160.26,34,81
293.97,158.9,34,81
294.81,159.88,34,81
296.16,156.39,34,81
297.38,156.97,34,81
296.96,159.33,34,81
297.34,160.58,34,81
297,165.79,34,81
298.1,164.91,34,81
299.93,167.21,34,81
301.81,166.42,34,81
307.76,155.48,34,81
309.19,163.61,34,81
310.95,159.83,34,81
306.73,163.64,34,81
311.53,164.57,34,81
314.05,164.19,34,81
317.87,163.57,34,81
320.41,163.09,34,81
323.46,163.76,34,81
324.91,157.95,34,81
326.22,159.21,34,81
329.39,156.99,34,81
328.87,160.07,34,81
329.99,161.7,34,81
329.81,164.08,34,81
330.13,160.76,34,81
332.76,154.53,34,81
336.26,150.14,34,81
334.78,146.37,34,81
335.6,144.5,34,81
333.16,140.01,34,81
331.44,137.26,34,81
332.35,135.51,34,81
330.52,131.69,34,81
329.6,128.48,34,81
328.74,129.9,34,81
331.82,133.18,34,81
330.63,130.5,34,81
329.58,132.57,34,81
328.64,134.88,34,81
326.81,133.97,34,81
328.18,136.09,34,81
328.22,148.04,34,81
330.34,147.51,34,81
331.21,150.77,34,81
332.19,150.31,34,81
330.22,148.66,34,81
331.32,148.47,34,81
331,147.21,34,81
332.68,149.02,34,81
332.17,150.19,34,81
332,148.91,34,81
332.99,150.84,34,81
332.65,153.88,34,81
332.63,151.1,34,81
331.47,156.83,34,81
331.83,155.6,34,81
329.72,164.77,34,81
331.09,162.3,34,81
333.7,166.27,34,81
333.3,170.2,34,81
333.03,168.54,34,81
334.07,169.03,34,81
335.6,167.21,34,81
337,172.9,34,81
337.61,179.79,34,81
337.07,182.22,34,81
331.03,177.01,34,81
338.7,183.92,34,81
341.51,190.05,34,81
342.94,194.41,34,81
341.38,196.59,34,81
344.11,198.13,34,81
342.97,196.72,34,81
344.5,199.38,34,81
343.6,199.91,34,81
344.68,204.51,34,81
343.77,203.19,34,81
343.27,206.32,34,81
344.25,207.22,34,81
343.52,209.45,34,81
343.97,208.98,34,81
345.26,209.17,34,81
347.25,209.28,34,81
347.9,220,34,81
348.04,218.73,34,81
348.3,214.7,34,81
349.99,218.27,34,81
350.39,213.61,34,81
351.19,217.04,34,81
351.82,217.24,34,81
352.38,217.38,34,81
352.87,219.14,34,81
351.54,216.31,34,81
352.11,216.91,34,81
351.1,217,34,81
349.68,217.22,34,81
350.38,212.66,34,81
350.16,216.05,34,81
349.96,216.01,34,81
350.1,217.78,34,81
348.65,218.35,34,81
348.26,218.94,34,81
346.94,221.51,34,81
345.35,214.15,34,81
344.9,213.01,34,81
346.59,215.12,34,81
347.17,215.89,34,81
344.62,217.37,34,81
344.54,217.38,34,81
343.51,215.68,34,81
342.94,214.53,34,81
341.71,214.32,34,81
342.19,217.35,34,81
341.62,215.06,34,81
342.53,213.56,34,81
343.29,213.53,34,81
342.41,212.66,34,81
342.02,211.98,34,81
341.13,212.99,34,81
340.59,207.82,34,81
340.93,205.73,34,81
340.81,202.7,34,81
337.27,207.2,34,81
337.38,206.55,34,81
335.84,205.27,34,81
334.73,203.62,34,81
329.71,203.6,34,81
328.21,205.76,34,81
321.26,210.49,34,81
317.43,209.97,34,81
313.05,208.2,34,81
304.87,201.22,34,81
