70,51,107,87
70.557,51.178,107,87
68.768,51.844,107,87
68.787,51.308,107,87
67.245,51.999,107,87
66.787,50.497,107,87
66.965,51.541,107,87
65.54,52.526,107,87
65.692,51.96,107,87
63.661,52.445,107,87
63.043,51.783,107,87
64.821,51.154,107,87
62.685,51.367,107,87
64.075,50.247,107,87
63.847,52.222,107,87
60.926,50.972,107,87
63.072,51.171,107,87
61.025,51.768,107,87
61.713,53.006,107,87
60.965,52.703,107,87
60.358,51.183,107,87
59.366,51.873,107,87
59.97,52.163,107,87
60.498,52.28,107,87
57.772,52.881,107,87
57.804,51.507,107,87
60.076,52.287,107,87
58.092,51.287,107,87
57.949,52.048,107,87
59.089,50.875,107,87
55.6,52.234,107,87
55.852,51.266,107,87
54.907,50.842,107,87
57.48,51.311,107,87
59.452,48.968,107,87
57.059,52.126,107,87
56.643,50.659,107,87
54.517,50.108,107,87
58.294,49.883,107,87
58.757,51.106,107,87
56.962,49.919,107,87
57.945,50.092,107,87
56.212,49.643,107,87
60.002,50.197,107,87
58.649,51.151,107,87
58.756,51.186,107,87
57.702,53.796,107,87
58.611,52.037,107,87
57.975,51.287,107,87
60.638,50.318,107,87
61.291,50.673,107,87
63.624,51.618,107,87
60.95,52.686,107,87
60.493,53.727,107,87
60.909,52.094,107,87
61.76,52.919,107,87
63.352,56.313,107,87
61.022,52.769,107,87
60.546,54.732,107,87
61.985,53.984,107,87
62.978,54.047,107,87
63.655,54.116,107,87
62.933,54.499,107,87
62.921,54.972,107,87
59.671,52.302,107,87
62.618,53.564,107,87
63.298,53.626,107,87
62.023,51.527,107,87
59.711,53.728,107,87
62.515,50.565,107,87
59.507,50.159,107,87
60.179,52.434,107,87
60.707,50.795,107,87
57.835,49.012,107,87
61.494,48.42,107,87
57.671,47.684,107,87
58.254,48.48,107,87
58.161,49.31,107,87
57.366,51.541,107,87
57.276,50.993,107,87
55.662,50.06,107,87
55.357,52.533,107,87
56.422,49.45,107,87
58.949,52.894,107,87
57.317,52.153,107,87
58.623,50.702,107,87
55.223,52.144,107,87
57.432,51.61,107,87
57.236,51.76,107,87
56.397,51.961,107,87
54.692,55.103,107,87
55.151,54.086,107,87
56.036,53.975,107,87
54.719,53.692,107,87
56.686,50.938,107,87
56.323,51.897,107,87
55.401,52.715,107,87
57.987,50.676,107,87
55.594,53.119,107,87
57.159,52.489,107,87
56.092,52.083,107,87
56.117,53.365,107,87
59.18,53.292,107,87
58.533,51.216,107,87
60.87,50.933,107,87
59.517,50.02,107,87
59.77,50.585,107,87
62.12,49.355,107,87
58.516,51.509,107,87
60.388,50.463,107,87
60.89,50.794,107,87
64.444,48.733,107,87
63.126,52.712,107,87
60.13,51.396,107,87
62.533,50.91,107,87
60.03,50.301,107,87
61.863,52.31,107,87
63.267,49.76,107,87
64.801,52.397,107,87
64.203,54.04,107,87
65.17,54.712,107,87
63.607,55.489,107,87
66.049,55.971,107,87
66.812,55.116,107,87
63.938,54.677,107,87
65.154,53.74,107,87
63.731,55.437,107,87
66.311,55.02,107,87
68.22,57.576,107,87
68.008,55.43,107,87
69.183,56.504,107,87
67.192,56.596,107,87
66.947,56.439,107,87
68.54,55.309,107,87
68.777,55.39,107,87
68.638,52.756,107,87
73.801,54.177,107,87
70.161,53.829,107,87
71.164,50.705,107,87
71.547,50.002,107,87
73.105,48.36,107,87
73.473,49.016,107,87
75.408,47.719,107,87
73.929,49.043,107,87
72.791,46.967,107,87
75.357,46.704,107,87
74.783,45.186,107,87
74.292,47.273,107,87
75.669,44.732,107,87
77.439,42.997,107,87
74.762,43.921,107,87
76.228,43.68,107,87
79.501,45.36,107,87
79.388,46.253,107,87
80.111,46.013,107,87
79.476,47.056,107,87
79.631,47.389,107,87
82.251,49.25,107,87
81.938,48.914,107,87
81.933,48.133,107,87
83.099,49.837,107,87
82.227,51.408,107,87
80.415,50.207,107,87
86.834,52.299,107,87
83.548,50.24,107,87
84.862,49.717,107,87
85.006,52.713,107,87
86.873,50.064,107,87
85.944,52.097,107,87
87.427,51.988,107,87
86.376,52.146,107,87
87.041,49.849,107,87
87.379,51.422,107,87
89.29,54.145,107,87
89.193,53.888,107,87
89.223,53.674,107,87
89.689,50.718,107,87
90.687,52.46,107,87
89.358,51.118,107,87
90.961,50.712,107,87
92.938,49.246,107,87
92.683,48.252,107,87
92.076,48.785,107,87
91.749,46.551,107,87
93.42,49.35,107,87
91.248,47.62,107,87
95.402,49.512,107,87
96.007,49.598,107,87
94.247,44.237,107,87
95.021,47.835,107,87
95.272,46.993,107,87
96.627,47.158,107,87
97.116,47.358,107,87
97.045,47.455,107,87
97.304,48.571,107,87
98.029,43.635,107,87
96.508,45.171,107,87
101.08,45.981,107,87
99.304,44.936,107,87
99.772,49.009,107,87
100.46,47.973,107,87
102.74,43.871,107,87
102.77,48.57,107,87
100.84,47.623,107,87
102.53,48.123,107,87
103.66,46.797,107,87
103.27,46.361,107,87
105.21,47.695,107,87
109.88,49.86,107,87
107.83,48.086,107,87
108.25,48.27,107,87
109.19,47.642,107,87
108.09,49.081,107,87
109.55,47.619,107,87
111.73,48.388,107,87
112.73,50.041,107,87
112.38,46.055,107,87
114.29,50.149,107,87
114.32,50.736,107,87
115.34,47.373,107,87
114.89,48.701,107,87
116.95,48.067,107,87
115.47,49.447,107,87
117.11,48.696,107,87
118.47,48.758,107,87
120.33,48.234,107,87
120.35,48.898,107,87
120.92,46.867,107,87
123.43,49.725,107,87
122.03,46.627,107,87
124.21,49.09,107,87
122.38,47.816,107,87
125.55,49.843,107,87
126.42,49.352,107,87
126.82,49.752,107,87
127.94,49.786,107,87
126.56,52.879,107,87
127.83,49.751,107,87
127.59,48.673,107,87
127.78,48.243,107,87
130.3,50.618,107,87
130.35,49.552,107,87
132.58,49.682,107,87
132.68,47.51,107,87
134.4,47.359,107,87
135.28,47.543,107,87
135.37,46.629,107,87
137.61,46.414,107,87
134.75,49.914,107,87
135.52,48.67,107,87
137.11,46.817,107,87
137.81,48.974,107,87
139.38,47.811,107,87
138.65,43.558,107,87
139.32,43.998,107,87
142.32,42.372,107,87
145.18,46.251,107,87
142.24,42.698,107,87
139.48,44.983,107,87
143.32,44.149,107,87
144.84,46.053,107,87
141.53,47.016,107,87
142.32,45.359,107,87
147.01,46.405,107,87
143.02,46.582,107,87
147.49,44.572,107,87
146.64,46.281,107,87
147.28,45.644,107,87
149.63,49.133,107,87
147.19,48.775,107,87
149.44,47.429,107,87
148.44,47.589,107,87
151.84,50.275,107,87
150.36,50.137,107,87
153.98,50.363,107,87
154.3,48.942,107,87
154.74,49.579,107,87
154.07,46.374,107,87
154.38,44.605,107,87
158.49,44.537,107,87
156.08,41.992,107,87
158.47,45.636,107,87
158.53,42.668,107,87
159.46,45.683,107,87
156.05,49.127,107,87
159.39,47.824,107,87
158.31,48.474,107,87
157.63,48.975,107,87
155.45,46.69,107,87
156.19,48.517,107,87
159.45,44.396,107,87
160.48,47.104,107,87
160.15,46.021,107,87
160.07,47.228,107,87
161.01,47.66,107,87
157.96,44.388,107,87
159.39,46.929,107,87
161.65,50.287,107,87
160.6,49.381,107,87
159.56,47.422,107,87
158.86,48.705,107,87
161.1,52.229,107,87
162.27,52.895,107,87
161.8,49.891,107,87
158.13,44.592,107,87
161.69,45.302,107,87
160.88,47.996,107,87
160.68,50.6,107,87
163.66,49.844,107,87
163.63,51.023,107,87
166.68,53.587,107,87
163.19,52.733,107,87
165.27,53.135,107,87
167.2,51.262,107,87
167.74,55.281,107,87
167.16,54.45,107,87
167.06,52.247,107,87
171.4,55.408,107,87
169.48,55.834,107,87
169.94,52.217,107,87
169.81,55.579,107,87
173.49,57.414,107,87
169.87,53.885,107,87
172.69,53.868,107,87
170.95,52.077,107,87
175.97,53.159,107,87
178.18,54.693,107,87
176.44,51.717,107,87
174.12,52.55,107,87
178.86,52.961,107,87
173.55,54.095,107,87
175.73,52.523,107,87
176.89,52.607,107,87
175.74,53.532,107,87
175.94,52.963,107,87
174.99,51.903,107,87
175.29,51.721,107,87
176.3,50.854,107,87
176.52,52.565,107,87
180.14,52.775,107,87
180.04,54.099,107,87
178.03,53.038,107,87
182.83,49.417,107,87
185.51,50.144,107,87
178.6,48.373,107,87
181.63,49.718,107,87
181.09,49.36,107,87
181.31,50.624,107,87
179.39,55.421,107,87
181.43,58.466,107,87
180.86,58.618,107,87
181.14,59.161,107,87
179.96,56.564,107,87
182.3,57.531,107,87
183.36,56.681,107,87
182.93,49.411,107,87
185.13,45.143,107,87
183.12,40.484,107,87
182.77,36.832,107,87
184.12,43.356,107,87
185.22,41.383,107,87
184.79,43.116,107,87
183.96,42.457,107,87
181.13,47.068,107,87
187.13,48.539,107,87
186.74,51.783,107,87
187.05,52.785,107,87
187.71,53.348,107,87
183.49,52.022,107,87
189.39,51.073,107,87
183.59,50.949,107,87
185.19,51.641,107,87
187.22,50.763,107,87
188.17,50.803,107,87
191.1,48.846,107,87
190.83,48.601,107,87
192.77,48.919,107,87
189.59,48.013,107,87
195.37,48.369,107,87
193.02,48.494,107,87
192.01,49.985,107,87
189.29,50.08,107,87
193.15,50.993,107,87
192.95,51.762,107,87
193.39,53.611,107,87
195.39,52.782,107,87
194.76,52.73,107,87
193.05,53.386,107,87
195.4,55.004,107,87
195,56.208,107,87
195.96,55.062,107,87
191.81,55.563,107,87
192.63,52.839,107,87
192.65,48.659,107,87
194.2,51.466,107,87
192.34,51.768,107,87
194.58,49.848,107,87
194.51,54.14,107,87
194.91,52.829,107,87
189.08,55.072,107,87
191.52,55.918,107,87
193.7,53.847,107,87
191.68,51.769,107,87
193.79,51.472,107,87
192.58,52.016,107,87
194.91,47.148,107,87
195.82,49.137,107,87
192.35,48.695,107,87
195.61,46.555,107,87
191.05,47.716,107,87
193.72,46.062,107,87
192.8,49.521,107,87
194.94,52.127,107,87
192.81,50.49,107,87
192.23,51.015,107,87
193.02,53.328,107,87
194.2,53.11,107,87
192.58,55.064,107,87
191.08,51.369,107,87
188.86,51.331,107,87
187.71,52.38,107,87
191.19,51.122,107,87
191.21,50.283,107,87
190.36,52.099,107,87
187.76,51.692,107,87
186.79,53.083,107,87
188.08,52.83,107,87
188.21,52.601,107,87
188.34,51.465,107,87
185.54,51.28,107,87
187.14,51.924,107,87
183.31,50.659,107,87
185.54,51.495,107,87
187.14,52.746,107,87
187.85,50.562,107,87
182.46,52.929,107,87
182.18,49.866,107,87
180.27,49.396,107,87
182.12,52.244,107,87
180.79,52.203,107,87
179.68,51.925,107,87
182.47,50.704,107,87
178.83,50.549,107,87
178.6,50.305,107,87
177.74,52.195,107,87
180.84,48.666,107,87
182.09,50.214,107,87
178.33,49.495,107,87
178.37,52.955,107,87
180.96,48.896,107,87
177.69,51.828,107,87
176.43,53.449,107,87
173.29,51.663,107,87
175.31,53.201,107,87
173.27,51.475,107,87
178.18,49.764,107,87
176.53,51.048,107,87
174.9,51.46,107,87
171.95,50.471,107,87
174.41,52.491,107,87
174.55,51.539,107,87
173.57,51.455,107,87
173.3,52.983,107,87
173.4,51.531,107,87
171.49,46.497,107,87
171.1,49.179,107,87
174.15,47.336,107,87
171.39,49.251,107,87
170.59,48.246,107,87
170.7,47.598,107,87
171.17,49.735,107,87
173.8,49.948,107,87
169.68,53.656,107,87
170.45,50.681,107,87
172.68,50.819,107,87
169.7,50.893,107,87
168.44,49.16,107,87
170.38,52.561,107,87
170.77,53.212,107,87
172.88,50.69,107,87
170.92,51.888,107,87
172.09,50.58,107,87
170.69,49.184,107,87
171.34,52.237,107,87
170.86,51.383,107,87
170.67,48.452,107,87
169.66,50.117,107,87
169.25,49.458,107,87
170.07,50.901,107,87
169.69,49.005,107,87
170.29,49.452,107,87
168.47,50.78,107,87
167.68,49.065,107,87
168.32,51.452,107,87
169.96,51.832,107,87
170.66,50.085,107,87
172.74,50.326,107,87
172.32,50.95,107,87
172.61,51.674,107,87
167.58,50.337,107,87
166.91,51.155,107,87
167.82,49.513,107,87
167.95,50.874,107,87
169.94,50.355,107,87
165.5,52.629,107,87
169.99,48.584,107,87
165.44,52.11,107,87
168.15,50.569,107,87
166.28,47.997,107,87
166.44,46.991,107,87
167.89,47.501,107,87
168.44,48.273,107,87
165.31,48.729,107,87
165.1,47.802,107,87
166.64,49.053,107,87
166.67,49.181,107,87
167.58,48.094,107,87
167.92,49.93,107,87
167.39,49.565,107,87
168.07,47.293,107,87
168.38,49.615,107,87
167.49,49.24,107,87
171.26,49.24,107,87
167.72,49.083,107,87
168.7,47.171,107,87
170.66,49.355,107,87
171.18,50.153,107,87
170.89,51.238,107,87
167.65,51.097,107,87
165.8,52.313,107,87
164.28,52.003,107,87
166.71,52.784,107,87
166.07,51.24,107,87
168.35,53.421,107,87
167.55,52.63,107,87
168.15,53.306,107,87
169.24,52.249,107,87
172.86,52.884,107,87
169.88,51.862,107,87
167.35,51.567,107,87
167.12,51.587,107,87
166.55,52.655,107,87
168.66,53.436,107,87
170.15,52.934,107,87
171.97,53.32,107,87
169.21,54.64,107,87
170.91,52.439,107,87
168.46,55.522,107,87
167.99,54.107,107,87
171.04,53.704,107,87
171.92,54.47,107,87
170.08,54.105,107,87
169.08,54.087,107,87
171.66,54.294,107,87
171.27,54.263,107,87
174.35,50.996,107,87
172.21,51.904,107,87
174.38,54.806,107,87
173.72,48.688,107,87
174.53,49.114,107,87
176.72,53.013,107,87
175.63,52.624,107,87
173.58,52.363,107,87
177.38,52.192,107,87
177.65,51.564,107,87
176.45,52.078,107,87
179.94,51.079,107,87
177.65,52.253,107,87
181.83,53.388,107,87
178.39,50.195,107,87
180.8,53.601,107,87
180.69,54.873,107,87
180.6,54.862,107,87
182.65,54.803,107,87
186.47,55.103,107,87
184.81,53.84,107,87
185.75,55.869,107,87
186.13,55.869,107,87
186.94,55.639,107,87
186.22,55.122,107,87
186.82,52.833,107,87
187.99,54.957,107,87
189.78,54.322,107,87
193.38,55.185,107,87
192.38,56.493,107,87
190.15,55.35,107,87
191.42,56.161,107,87
191.94,55.374,107,87
194.99,54.647,107,87
195.45,58.266,107,87
196.06,56.223,107,87
195.64,55.899,107,87
198.52,52.822,107,87
200.54,57.452,107,87
200.33,52.943,107,87
201.82,54.072,107,87
199.6,56.053,107,87
202.09,53.394,107,87
205.02,56.674,107,87
205.2,56.168,107,87
205.57,57.921,107,87
208.17,54.925,107,87
209.75,54.432,107,87
210.17,56.622,107,87
210.25,55.273,107,87
214.03,51.823,107,87
212.22,53.515,107,87
215.33,53.602,107,87
216.75,51.15,107,87
216.4,52.325,107,87
216.98,53.752,107,87
218.1,51.269,107,87
219.04,49.936,107,87
220.88,48.011,107,87
224.61,46.413,107,87
222.99,51.42,107,87
224.72,51.233,107,87
224.61,49.676,107,87
226.04,52.083,107,87
226.65,50.325,107,87
230.47,50.792,107,87
231.59,51.625,107,87
230.59,50.441,107,87
231.89,51.837,107,87
231.94,53.481,107,87
232.82,50.93,107,87
231.9,52.786,107,87
233.14,53.183,107,87
234.34,54.972,107,87
234.87,55.5,107,87
239.26,54.001,107,87
239.11,54.69,107,87
239.4,55.624,107,87
243,53.735,107,87
242.83,54.533,107,87
239.32,54.205,107,87
243.29,54.789,107,87
246.51,54.415,107,87
243.7,52.321,107,87
243.75,52.428,107,87
247.24,51.262,107,87
248.91,52.582,107,87
247.43,52.103,107,87
248.52,53.213,107,87
248.62,52.29,107,87
248.23,52.742,107,87
251.19,54.06,107,87
249.09,52.554,107,87
251.53,51.412,107,87
253.74,51.107,107,87
252.87,52.86,107,87
256.87,52.595,107,87
254.21,51.667,107,87
255.91,52.299,107,87
255.76,55.028,107,87
256.09,56.669,107,87
257.44,53.507,107,87
260.34,54.714,107,87
260.74,52.874,107,87
