118,57,82,98
119.16,56.108,82,98
118.01,55.418,82,98
117.18,55.634,82,98
117.69,53.739,82,98
117.97,53.444,82,98
117.81,53.438,82,98
119.4,53.525,82,98
121.73,53.484,82,98
120.44,52.324,82,98
121.2,54.067,82,98
121.25,51.511,82,98
122.03,54.071,82,98
122.36,52.741,82,98
121.19,53.551,82,98
121.13,51.091,82,98
120.49,50.934,82,98
119.1,51.786,82,98
118.97,49.683,82,98
117.02,50.226,82,98
116.35,50.286,82,98
116.19,50.112,82,98
115.45,51.153,82,98
115.86,49.7,82,98
114.41,50.632,82,98
113.12,51.566,82,98
112.7,52.696,82,98
113.12,53.031,82,98
111.98,52.092,82,98
111.94,53.756,82,98
111.41,54.094,82,98
110.05,53.794,82,98
110.12,53.271,82,98
109.12,53.365,82,98
107.98,53.897,82,98
106.7,53.582,82,98
105.16,53.183,82,98
104.85,52.164,82,98
105.62,53.16,82,98
105.27,53.88,82,98
104.99,54.712,82,98
105.53,56.223,82,98
104.16,55.237,82,98
103.14,53.747,82,98
103.13,54.848,82,98
101.79,54.446,82,98
100.27,53.721,82,98
100.82,53.202,82,98
99.104,52.193,82,98
99.398,53.514,82,98
99.97,53.286,82,98
101.69,52.04,82,98
103.92,52.99,82,98
103.06,51.478,82,98
103.91,52.83,82,98
104.48,51.622,82,98
104.12,52.208,82,98
104.73,51.038,82,98
104.6,49.645,82,98
104.7,50.035,82,98
105.17,49.575,82,98
108.23,50.127,82,98
108.42,49.8,82,98
113.32,49.731,82,98
114.4,47.848,82,98
118.88,48.057,82,98
120.46,47.049,82,98
122.09,46.042,82,98
123.45,44.09,82,98
123.89,43.874,82,98
124.65,44.567,82,98
128.22,45.841,82,98
129.21,46.559,82,98
128.9,47.305,82,98
129.21,49.49,82,98
128.38,50.422,82,98
128.72,52.044,82,98
128.93,49.85,82,98
127.1,51.244,82,98
126.15,51.917,82,98
125.46,51.656,82,98
125.03,52.503,82,98
126.76,52.815,82,98
124.32,51.297,82,98
124.08,53.283,82,98
123.41,52.95,82,98
122.51,53.687,82,98
123.06,52.447,82,98
122.16,53.302,82,98
122.23,52.195,82,98
121.45,52.733,82,98
121.14,52.253,82,98
120.48,52.256,82,98
118.97,54.02,82,98
120.27,51.973,82,98
120.13,51.235,82,98
120,51.89,82,98
119.14,50.329,82,98
117.88,52.235,82,98
118.59,50.917,82,98
119.88,51.707,82,98
118.83,51.172,82,98
120.75,51.97,82,98
119.35,49.495,82,98
120.63,51.792,82,98
121.69,50.452,82,98
123.51,50.525,82,98
124.02,51.785,82,98
125.68,50.832,82,98
124.67,52.414,82,98
124.74,51.671,82,98
125.11,51.983,82,98
125.07,51.657,82,98
125.18,51.546,82,98
125.68,50.082,82,98
125.4,52.005,82,98
124.94,51.065,82,98
124.63,51.251,82,98
123.04,49.457,82,98
124.13,50.324,82,98
121.74,49.65,82,98
121.73,49.809,82,98
122.48,51.222,82,98
121.99,52.525,82,98
121.37,50.386,82,98
121.93,51.585,82,98
121.75,50.993,82,98
122.26,50.754,82,98
122.12,52.178,82,98
121.59,51.926,82,98
122.82,52.34,82,98
122.72,49.734,82,98
121.68,50.793,82,98
123.64,51.851,82,98
124.63,52.386,82,98
124.49,51.536,82,98
124.78,50.765,82,98
123.8,49.441,82,98
125.03,50.299,82,98
125.9,49.468,82,98
126.31,50.868,82,98
125.16,49.999,82,98
123.99,49.164,82,98
125.39,48.815,82,98
125.45,48.223,82,98
126.3,50.044,82,98
125.66,51.462,82,98
126.98,48.711,82,98
124.15,49.751,82,98
126.33,49.024,82,98
126.01,48.439,82,98
125.64,50.769,82,98
123.72,48.717,82,98
124.81,50.822,82,98
124.22,51.416,82,98
124.61,51.066,82,98
124.32,51.918,82,98
124.22,50.525,82,98
123.91,48.638,82,98
124.67,51.661,82,98
123.61,51.814,82,98
124.23,50.51,82,98
123.05,51.893,82,98
123.7,50.165,82,98
125.27,52.259,82,98
124.31,49.96,82,98
124.37,51.532,82,98
122.96,51.317,82,98
124.41,52.345,82,98
124.49,52.853,82,98
123.03,51.952,82,98
123.46,52.869,82,98
122.81,52.082,82,98
123.71,52.025,82,98
122.13,53.301,82,98
122.94,52.397,82,98
123.34,52.72,82,98
123.51,53.262,82,98
123.49,52.843,82,98
124.43,52.649,82,98
122.06,50.851,82,98
123.08,52.106,82,98
124.1,53.841,82,98
123.35,50.546,82,98
123.91,52.255,82,98
121.65,51.434,82,98
122.38,52.349,82,98
123.36,51.397,82,98
122.67,53.3,82,98
121.95,53.571,82,98
123.28,51.277,82,98
123.95,53.395,82,98
122.51,53.309,82,98
123.01,52.735,82,98
124,52.213,82,98
122.06,50.578,82,98
122.29,52.742,82,98
121.89,52.192,82,98
122.16,52.355,82,98
122.61,51.285,82,98
123.32,50.38,82,98
123.04,51.156,82,98
123.09,51.136,82,98
123.85,50.819,82,98
121.59,51.808,82,98
121.84,51.296,82,98
120.63,51.823,82,98
120.51,51.571,82,98
120.99,51.268,82,98
119.11,50.428,82,98
120.92,50.946,82,98
121.49,51.562,82,98
120.86,49.821,82,98
124.86,50.374,82,98
125.59,50.449,82,98
127.72,52.698,82,98
128.76,51.347,82,98
129.21,50.924,82,98
129.27,51.812,82,98
129.62,51.495,82,98
130.9,50.673,82,98
129.82,50.617,82,98
130.32,49.798,82,98
131.58,49.953,82,98
130.05,51.775,82,98
129.43,50.313,82,98
130.82,49.082,82,98
130.34,50.134,82,98
128.96,49.229,82,98
130.82,49.028,82,98
131.5,49.291,82,98
130.98,48.603,82,98
129.47,49.221,82,98
129.56,46.904,82,98
127.78,47.984,82,98
128.38,47.333,82,98
128.31,47.575,82,98
128.52,47.608,82,98
127.1,47.414,82,98
127.44,45.889,82,98
126.36,44.738,82,98
126.28,45.228,82,98
126.39,47.876,82,98
127.4,46.967,82,98
126.28,44.725,82,98
125.03,46.247,82,98
125.53,45.715,82,98
125.72,46.294,82,98
125.75,45.452,82,98
125.18,44.686,82,98
124.1,45.496,82,98
123.83,45.598,82,98
123.73,45.322,82,98
125.29,44.338,82,98
124.86,44.976,82,98
123.06,45.711,82,98
123.19,45.847,82,98
123.77,44.87,82,98
122.79,44.555,82,98
124.72,43.537,82,98
122.52,45.139,82,98
122.79,44.912,82,98
124.02,44.76,82,98
122.32,44.84,82,98
122.74,45.619,82,98
122.32,45.505,82,98
123.16,46.237,82,98
123.47,45.895,82,98
123.32,45.958,82,98
123.5,47.305,82,98
123.56,45.187,82,98
126.04,46.74,82,98
125.36,48.125,82,98
125.57,47.235,82,98
124.9,45.724,82,98
122.96,46.961,82,98
123.49,45.65,82,98
124.78,47.593,82,98
123.43,45.783,82,98
122.39,45.799,82,98
124.62,46.08,82,98
124.29,46.12,82,98
123.17,47.965,82,98
124.39,47.095,82,98
124.82,46.862,82,98
123.78,48.013,82,98
125.78,47.719,82,98
124.47,48.652,82,98
125.12,48.113,82,98
124.71,48.188,82,98
124.58,49.092,82,98
126.18,48.823,82,98
125.85,49.043,82,98
125.94,49.834,82,98
126.74,49.903,82,98
124.61,52.669,82,98
126.36,52.437,82,98
122.99,52.65,82,98
120.7,51.284,82,98
119.4,52.208,82,98
117.2,52.535,82,98
116.3,53.215,82,98
116.07,52.297,82,98
116.36,52.023,82,98
113.55,51.436,82,98
114.35,52.238,82,98
115.84,51.622,82,98
114.13,50.877,82,98
115.04,50.526,82,98
114.22,50.938,82,98
113.85,50.392,82,98
113.21,51.627,82,98
112.38,51.67,82,98
110.62,54.161,82,98
109.77,52.103,82,98
106.19,52.665,82,98
104.17,54.522,82,98
102.13,52.675,82,98
100.52,52.888,82,98
99.283,53.202,82,98
95.254,52.002,82,98
92.961,52.059,82,98
91.746,52.157,82,98
88.209,53.643,82,98
87.519,51.63,82,98
87.511,54.381,82,98
84.595,53.36,82,98
84.514,53.925,82,98
84.093,52.757,82,98
82.938,52.262,82,98
81.963,53.062,82,98
82.317,52.708,82,98
84.981,52.719,82,98
82.138,51.22,82,98
82.471,52.63,82,98
82.657,52.572,82,98
82.543,51.605,82,98
80.296,52.429,82,98
78.726,53.865,82,98
77.04,53.109,82,98
74.011,50.965,82,98
75.8,52.394,82,98
76.931,53.206,82,98
73.532,54.795,82,98
71.805,52.127,82,98
73.072,51.08,82,98
75.437,52.552,82,98
74.409,54.637,82,98
74.741,52.217,82,98
73.5,51.72,82,98
74.607,53.429,82,98
77.562,53.183,82,98
76.722,51.139,82,98
78.154,52.877,82,98
81.993,51.691,82,98
82.231,52.685,82,98
79.262,53.871,82,98
80.311,50.008,82,98
80.924,51.049,82,98
80.977,49.428,82,98
82.747,50.102,82,98
84.689,50.68,82,98
85.47,49.067,82,98
89.932,47.027,82,98
90.826,45.884,82,98
95.186,46.657,82,98
99.402,43.982,82,98
104.18,44.321,82,98
107.13,42.98,82,98
112.03,44.603,82,98
114.17,44.399,82,98
114.29,45.192,82,98
115.53,44.243,82,98
116.07,42.937,82,98
117.86,44.631,82,98
119.24,45.562,82,98
124.44,43.819,82,98
127.7,45.54,82,98
129.79,46.403,82,98
135.79,44.471,82,98
140.1,45.186,82,98
141.88,45.001,82,98
142.87,46.662,82,98
142.52,46.15,82,98
140.12,46.369,82,98
134.85,48.417,82,98
130.76,48.655,82,98
123.67,45.73,82,98
120.24,47.605,82,98
109.61,46.862,82,98
104.34,47.197,82,98
102.96,47.812,82,98
92.972,47.444,82,98
88.784,47.709,82,98
86.992,47.193,82,98
78.808,47.291,82,98
78.362,47.595,82,98
76.647,51.662,82,98
73.335,53.438,82,98
73.108,51.912,82,98
73.953,50.61,82,98
73.449,51.401,82,98
72.139,53.435,82,98
70.696,55.485,82,98
69.588,52.964,82,98
68.134,55.431,82,98
70.899,56.902,82,98
69.906,56.206,82,98
68.201,56.663,82,98
67.275,56.747,82,98
69.028,57.704,82,98
67.99,56.452,82,98
69.573,57.987,82,98
68.873,56.9,82,98
68.65,57.542,82,98
69.062,59.158,82,98
69.547,57.161,82,98
69.081,57.281,82,98
68.574,59.852,82,98
69.568,58.208,82,98
69.675,59.481,82,98
70.18,57.498,82,98
68.95,57.41,82,98
71.312,56.967,82,98
70.356,58.161,82,98
70.05,57.463,82,98
72.946,58.229,82,98
73.753,57.038,82,98
71.56,57.589,82,98
72.237,56.937,82,98
72.45,56.725,82,98
72.713,57.596,82,98
73.974,58.333,82,98
74.943,57.32,82,98
76.268,57.932,82,98
71.895,54.974,82,98
75.267,57.732,82,98
75.181,55.813,82,98
73.665,58.069,82,98
72.391,55.815,82,98
72.722,57.913,82,98
71.486,58.132,82,98
71.24,59.991,82,98
69.56,58.089,82,98
69.397,58.243,82,98
71.705,57.518,82,98
70.977,60.053,82,98
71.288,59.507,82,98
70.785,59.678,82,98
71.068,61.295,82,98
72.176,58.114,82,98
73.136,60.708,82,98
73.321,58.453,82,98
70.782,60.429,82,98
75.641,57.413,82,98
70.226,61.316,82,98
70.902,61.181,82,98
73.008,59.621,82,98
72.864,58.97,82,98
73.405,59.003,82,98
73.094,61.052,82,98
72.887,59.402,82,98
72.393,62.222,82,98
73.677,61.116,82,98
74.193,60.219,82,98
74.398,59.225,82,98
75.45,59.962,82,98
75.672,59.731,82,98
76.35,61.801,82,98
74.829,60.948,82,98
77.138,62.146,82,98
75.983,61.355,82,98
76.625,60.343,82,98
76.822,59.573,82,98
77.346,61.32,82,98
76.295,62.835,82,98
78.913,64.152,82,98
75.331,61.548,82,98
77.951,60.038,82,98
77.478,65.262,82,98
77.3,64.257,82,98
78.229,63.15,82,98
77.297,62.378,82,98
78.181,63.489,82,98
77.617,64.369,82,98
77.933,63.316,82,98
77.248,63.376,82,98
80.532,64.62,82,98
77.677,64.278,82,98
77.745,62.514,82,98
79.094,64.223,82,98
79.386,62.39,82,98
80.842,64.025,82,98
80.214,62.912,82,98
79.72,62.962,82,98
78.836,64.872,82,98
79.454,65.024,82,98
79.223,63.099,82,98
79.017,62.882,82,98
77.296,60.311,82,98
76.282,62.674,82,98
75.3,64.648,82,98
77.13,61.685,82,98
75.322,64.283,82,98
76.587,61.003,82,98
74.226,61.09,82,98
76.473,63.463,82,98
76.423,61.237,82,98
77.903,62.271,82,98
76.458,62.332,82,98
79.32,60.113,82,98
79.601,60.677,82,98
81.72,60.256,82,98
79.914,59.254,82,98
79.336,61.835,82,98
82.221,59.865,82,98
84.312,58.257,82,98
85.586,58.819,82,98
85.692,58.898,82,98
86.048,60.297,82,98
86.021,61.034,82,98
87.911,57.607,82,98
88.78,58.633,82,98
88.305,58.983,82,98
88.952,60.729,82,98
91.581,60.335,82,98
89.361,61.077,82,98
91.644,59.163,82,98
95.976,59.02,82,98
96.648,60.495,82,98
99.417,60.839,82,98
97.906,61.967,82,98
103.6,61.336,82,98
102.7,62.513,82,98
104.76,63.907,82,98
104.72,62.294,82,98
106.82,61.303,82,98
105.31,61.944,82,98
106.34,60.598,82,98
106.61,62.649,82,98
108.9,63.294,82,98
108.87,62.333,82,98
109.53,61.619,82,98
109.84,64.047,82,98
109.92,64.256,82,98
110.64,61.461,82,98
110.44,61.018,82,98
111.57,64.466,82,98
111.9,63.639,82,98
111.08,64.328,82,98
111.76,66.219,82,98
113.03,66.458,82,98
113.81,66.484,82,98
115.05,69.066,82,98
118.01,68.189,82,98
117.11,68.844,82,98
120.15,67.848,82,98
120.89,68.362,82,98
122.67,69.611,82,98
126.7,69.916,82,98
128.12,71.962,82,98
128.18,71.265,82,98
128.2,75.139,82,98
129.56,75.774,82,98
128.78,73.403,82,98
127.98,75.255,82,98
127.82,77.527,82,98
129.48,79.102,82,98
127.02,80.366,82,98
127.54,84.794,82,98
128.37,85.858,82,98
128.21,87.716,82,98
129.16,89.935,82,98
129.08,96.055,82,98
129.91,96.198,82,98
129.65,91.685,82,98
128.21,93.143,82,98
129.64,90.411,82,98
129.6,85.341,82,98
130.56,83.77,82,98
128.29,80.516,82,98
131.67,82.113,82,98
127.93,74.695,82,98
128.51,78.406,82,98
128.66,77.047,82,98
128.8,74.631,82,98
128.27,79.494,82,98
129.26,80.318,82,98
128.76,78.123,82,98
128.3,79.896,82,98
127.73,78.823,82,98
126.16,79.078,82,98
126.91,80.672,82,98
127.45,78.022,82,98
130.94,79.772,82,98
126.4,77.876,82,98
130.32,78.695,82,98
128.95,78.011,82,98
128.88,79.615,82,98
129.49,79.467,82,98
128.9,81.411,82,98
125.14,79.132,82,98
125.5,80.886,82,98
126.81,82.079,82,98
125.32,83.22,82,98
124.31,81.231,82,98
123.7,82.654,82,98
123.7,80.349,82,98
125.96,83.188,82,98
123.98,79.367,82,98
126.32,79.265,82,98
125.79,77.082,82,98
123.02,77.58,82,98
127.45,78.355,82,98
124.72,79.557,82,98
124.8,78.711,82,98
127.14,79.171,82,98
126.02,79.859,82,98
126.44,79.08,82,98
125.1,79.031,82,98
126.97,78.595,82,98
124.47,79.205,82,98
125.48,79.712,82,98
124.63,80.224,82,98
126.77,80.128,82,98
126.81,80.771,82,98
127.07,80.36,82,98
125.8,80.29,82,98
125.85,80.322,82,98
125.63,79.643,82,98
127.07,81.531,82,98
125.85,82.945,82,98
125.78,79.654,82,98
126.35,80.126,82,98
127.8,78.473,82,98
127.72,80.36,82,98
125.87,79.489,82,98
127.3,77.836,82,98
126.37,76.753,82,98
125.38,75.602,82,98
121.97,75.35,82,98
121.33,74.931,82,98
124.11,75.069,82,98
120.84,74.752,82,98
118.67,74.983,82,98
117.77,75.724,82,98
117.56,76.802,82,98
119.25,77.289,82,98
120.52,77.902,82,98
118.15,80.066,82,98
117.26,81.532,82,98
117.94,80.4,82,98
118.57,82.701,82,98
118.8,81.978,82,98
119.23,83.261,82,98
115.74,85,82,98
119.75,87.244,82,98
118.26,87.063,82,98
118.93,88.301,82,98
123.56,87.438,82,98
123.11,89.122,82,98
122.95,89.74,82,98
121.32,88.369,82,98
119.55,89.984,82,98
121.63,89.905,82,98
121.33,89.063,82,98
120.24,89.219,82,98
118.43,87.787,82,98
121.4,87.813,82,98
120.61,86.79,82,98
121.71,88.499,82,98
119.2,89.235,82,98
119.42,86.734,82,98
120.26,86.916,82,98
118.92,86.138,82,98
119.69,82.816,82,98
120.66,84.417,82,98
119.59,82.245,82,98
120.96,82.323,82,98
118.68,83.234,82,98
118.84,87.516,82,98
118.5,85.608,82,98
119.28,85.785,82,98
121.35,86.226,82,98
118.46,83.414,82,98
118.76,82.577,82,98
120.27,82.539,82,98
119.57,82.498,82,98
120.21,84.175,82,98
117.56,80.003,82,98
117.98,80.502,82,98
116.84,78.196,82,98
118.44,78.984,82,98
120.28,75.664,82,98
120.63,75.755,82,98
118.2,74.011,82,98
120.2,72.658,82,98
121.37,71.183,82,98
120.03,69.178,82,98
117.63,68.779,82,98
123.46,67.054,82,98
115.2,66.788,82,98
119.51,66.813,82,98
122.82,66.511,82,98
121.93,66.684,82,98
121.75,64.667,82,98
119.86,65.657,82,98
120.87,65.226,82,98
118.12,65.467,82,98
117.09,66.213,82,98
118.32,66.046,82,98
120.31,65.597,82,98
119,66.105,82,98
117.87,64.755,82,98
117.46,65.624,82,98
118.96,65.751,82,98
117.25,65.845,82,98
117.54,64.807,82,98
118.3,64.558,82,98
119.31,64.1,82,98
118.6,65.356,82,98
121.1,64.031,82,98
117.29,65.834,82,98
116.19,68.591,82,98
116.62,71.376,82,98
118.52,69.177,82,98
116.94,71.643,82,98
119.67,69.842,82,98
117.55,74.742,82,98
119.36,71.763,82,98
118.15,77.551,82,98
118.71,76.825,82,98
119.4,76.007,82,98
119.46,78.254,82,98
121.48,80.309,82,98
119.06,80.974,82,98
119.84,81.45,82,98
119.17,81.953,82,98
119.16,80.456,82,98
117.92,76.034,82,98
120,77.911,82,98
118.47,79.074,82,98
119.6,81.922,82,98
117.82,80.863,82,98
119.35,82.358,82,98
118.37,81.035,82,98
120.34,80.776,82,98
118.79,80.954,82,98
119.99,80.433,82,98
118.23,79.735,82,98
121.14,82.525,82,98
119.37,82.271,82,98
119.82,79.849,82,98
118.58,80.824,82,98
119.42,79.291,82,98
119.74,78.999,82,98
120.72,78.332,82,98
121.15,77.95,82,98
122.48,79.439,82,98
122.07,76.857,82,98
122.29,76.853,82,98
121.95,77.274,82,98
122.2,74.376,82,98
122.21,73.888,82,98
121.02,72.947,82,98
122.44,74.073,82,98
121.08,71.975,82,98
120.58,73.804,82,98
121.44,74.402,82,98
120.97,71.524,82,98
119.72,70.662,82,98
119.97,71.4,82,98
120.48,70.097,82,98
118.93,71.101,82,98
119.7,70.856,82,98
122.22,71.447,82,98
121.79,72.176,82,98
121.83,74.047,82,98
121.31,73.219,82,98
122.82,73.159,82,98
120.83,74.096,82,98
120.98,75.816,82,98
122.09,74.828,82,98
121.57,74.287,82,98
121.8,73.768,82,98
120.84,75.911,82,98
120.21,74.153,82,98
120.77,74.99,82,98
119.57,75.828,82,98
119.95,74.508,82,98
118.79,76.467,82,98
118.64,75.877,82,98
117.84,76.059,82,98
117.93,77.112,82,98
119.42,78.38,82,98
118.76,76.745,82,98
118.82,76.464,82,98
116.55,77.295,82,98
117.97,77.475,82,98
117.88,76.32,82,98
117.71,76.442,82,98
117.11,76.976,82,98
118.63,74.891,82,98
117.94,78.577,82,98
115.93,76.989,82,98
117.19,79.12,82,98
116.78,78.36,82,98
116.46,75.908,82,98
116.29,77.231,82,98
115.47,77.258,82,98
115.47,76.706,82,98
115.41,76.891,82,98
