134,55,60,88
134.23,54.427,60,88
134.03,55.053,60,88
133.7,54.551,60,88
134.55,55.428,60,88
133.78,55.047,60,88
133.37,54.938,60,88
133.73,53.55,60,88
133.87,55.38,60,88
133.63,54.882,60,88
134.39,53.329,60,88
134.44,55.538,60,88
136.02,55.398,60,88
137.92,57.073,60,88
138.98,57.224,60,88
137.77,57.136,60,88
135.9,56.46,60,88
129.59,57.554,60,88
123.27,56.194,60,88
113.23,55.82,60,88
109.27,56.298,60,88
102.57,56.762,60,88
95.247,56.788,60,88
88.773,57.661,60,88
82.745,62.408,60,88
79.088,68.264,60,88
77.859,70.406,60,88
78.81,74.602,60,88
78.069,78.84,60,88
78.423,86.414,60,88
80.211,87.456,60,88
83.347,88.024,60,88
85.85,87.722,60,88
92.217,87.886,60,88
101.76,89.689,60,88
107.9,89.441,60,88
118.01,90.396,60,88
127.61,89.931,60,88
129.24,91.69,60,88
136.37,93.462,60,88
143.5,96.351,60,88
147.43,99.232,60,88
154.02,99.143,60,88
153.52,98.051,60,88
153.79,97.629,60,88
154.6,98.949,60,88
154.45,101.18,60,88
153.66,100.78,60,88
155.5,98.269,60,88
154.7,96.376,60,88
155.08,93.965,60,88
155.51,90.727,60,88
156.12,87.733,60,88
159.41,86.454,60,88
157.66,86.483,60,88
158.19,84.831,60,88
154.71,82.525,60,88
145.64,80.291,60,88
137.63,78.28,60,88
128.36,74.618,60,88
117.15,75.92,60,88
112.61,75.962,60,88
101.94,74.41,60,88
95.188,74.407,60,88
90.797,74.503,60,88
90.47,75.286,60,88
90.978,77.033,60,88
92.037,77.443,60,88
96.669,77.924,60,88
99.985,78.77,60,88
106.07,77.925,60,88
111.29,78.601,60,88
118.36,77.533,60,88
121.63,77.937,60,88
126.75,77.546,60,88
133.02,77.391,60,88
137.27,77.413,60,88
140.09,77.187,60,88
142.25,77.343,60,88
143.07,78.277,60,88
143.45,82.212,60,88
141.07,84.227,60,88
145.52,91.837,60,88
145.28,95.212,60,88
144.37,95.649,60,88
139.52,96.613,60,88
133.91,97.08,60,88
127.24,96.459,60,88
119.13,98.338,60,88
111.18,98.167,60,88
108.63,94.896,60,88
106.39,84.948,60,88
107.77,79.123,60,88
107.37,76.804,60,88
109.43,73.95,60,88
112.75,73.21,60,88
116.3,74.564,60,88
122.15,75.27,60,88
129.01,71.805,60,88
134.85,72.084,60,88
143.63,72.564,60,88
148.47,70.397,60,88
147.49,69.076,60,88
150.02,71.548,60,88
153,77.383,60,88
150.36,78.767,60,88
144.53,75.284,60,88
142.04,76.829,60,88
132.95,73.979,60,88
123.95,77.646,60,88
117.21,80.676,60,88
111.2,82.766,60,88
110.25,86.284,60,88
111.05,90.471,60,88
112.83,92.924,60,88
116.19,94.048,60,88
123.9,95.411,60,88
130.45,96.664,60,88
137.65,98.531,60,88
138.94,99.42,60,88
142.51,98.058,60,88
143.88,94.482,60,88
145.01,88.244,60,88
143.79,82.11,60,88
144.32,76.439,60,88
143.96,74.637,60,88
146.32,69.491,60,88
146.44,67.033,60,88
148.21,69.132,60,88
147.53,66.311,60,88
144.78,64.283,60,88
142.2,65.227,60,88
136.06,63.779,60,88
129.2,63.827,60,88
117.05,61.926,60,88
105.06,59.469,60,88
100.04,57.849,60,88
91.998,56.991,60,88
87.873,66.578,60,88
88.622,71.482,60,88
88.926,73.087,60,88
91.548,76.718,60,88
95.541,77.537,60,88
100.63,75.575,60,88
109.52,74.601,60,88
118.73,78.701,60,88
127.25,78.533,60,88
133.39,77.426,60,88
136.71,77.228,60,88
139.24,77.48,60,88
139.2,73.458,60,88
140.59,72.396,60,88
144.27,72.447,60,88
143.76,68.593,60,88
143.62,67.894,60,88
141.2,68.924,60,88
138.41,67.294,60,88
131.89,68.986,60,88
122.59,68.4,60,88
112.55,64.154,60,88
109.63,65.959,60,88
101.61,62.552,60,88
93.172,64.054,60,88
86.581,68.181,60,88
84.443,74.536,60,88
83.023,82.907,60,88
83.739,90.578,60,88
87.177,94.028,60,88
93.653,95.638,60,88
99.209,97.032,60,88
108.93,97.172,60,88
112.39,99.273,60,88
122.02,99.28,60,88
130.48,98.433,60,88
140.31,97.143,60,88
144.24,95.891,60,88
147.32,92.312,60,88
148.57,90.017,60,88
150.09,89.138,60,88
151.21,86.139,60,88
152.5,79.55,60,88
152.86,74.535,60,88
153.66,74.199,60,88
155.08,72.948,60,88
153.97,71.532,60,88
151.82,70.421,60,88
146.32,70.934,60,88
142.23,68.867,60,88
132.11,66.446,60,88
130.74,66.038,60,88
126.86,64.953,60,88
118.16,64.387,60,88
109.85,64.783,60,88
101.2,63.021,60,88
101.07,63.593,60,88
93.542,63.67,60,88
86.947,62.834,60,88
83.07,64.249,60,88
80.043,70.271,60,88
79.629,77.181,60,88
80.761,77.176,60,88
82.547,81.73,60,88
83.517,81.942,60,88
87.739,84.989,60,88
95.268,85.005,60,88
102.25,82.07,60,88
108.52,82.596,60,88
115.58,82.577,60,88
125.49,82.652,60,88
130.74,81.435,60,88
136.88,82.258,60,88
141.28,84.809,60,88
142.31,86.22,60,88
143.17,81.444,60,88
144.01,80.155,60,88
144.99,76.534,60,88
145.7,73.063,60,88
146.93,75.084,60,88
147.17,76.941,60,88
143.55,74.593,60,88
139.22,73.593,60,88
131.37,72.865,60,88
124.14,71.696,60,88
119.85,72.173,60,88
114.18,71.628,60,88
106.89,71.961,60,88
102.24,72.355,60,88
98.451,70.324,60,88
95.758,72.099,60,88
95.116,72.717,60,88
94.18,69.888,60,88
96.488,70.966,60,88
97.509,72.522,60,88
102.04,72.457,60,88
106.03,73.976,60,88
109.67,71.447,60,88
115.41,71.458,60,88
121.76,71.219,60,88
128.91,72.599,60,88
134.89,70.287,60,88
139.72,71.814,60,88
142.75,73.22,60,88
142.41,75.168,60,88
143.6,80.73,60,88
147.09,90.67,60,88
146.57,94.205,60,88
141.76,95.325,60,88
138.01,95.094,60,88
130.33,96.513,60,88
119.68,99.02,60,88
108.17,98.226,60,88
103.73,100.42,60,88
100.76,97.633,60,88
98.875,92.024,60,88
97.479,86.855,60,88
97.412,83.208,60,88
98.378,81.421,60,88
95.999,77.739,60,88
97.444,77.513,60,88
97.902,72.641,60,88
98.597,73.121,60,88
102.31,72.637,60,88
105.3,66.73,60,88
112.88,69.082,60,88
116.77,67.036,60,88
122.39,66.267,60,88
129.26,64.835,60,88
134.47,65.934,60,88
138.94,65.886,60,88
141.78,66.41,60,88
143.33,65.599,60,88
146.15,68.778,60,88
146.94,64.202,60,88
146.67,63.912,60,88
147.21,62.995,60,88
149.12,63.499,60,88
150.22,64.909,60,88
149.33,63.277,60,88
147.57,63.141,60,88
143.27,61.042,60,88
137.44,61.643,60,88
133.71,61.673,60,88
126.85,60.392,60,88
118.71,59.725,60,88
106.88,61.792,60,88
98.856,62.615,60,88
94.426,61.13,60,88
91.64,61.439,60,88
87.525,56.402,60,88
83.749,56.403,60,88
80.776,58.677,60,88
81.181,56.37,60,88
83.008,56.101,60,88
81.285,57.271,60,88
83.359,57.632,60,88
88.838,56.873,60,88
93.707,57.326,60,88
103.76,56.694,60,88
117.03,54.092,60,88
121.29,56.478,60,88
131.26,54.761,60,88
140.46,54.337,60,88
144.14,56.23,60,88
145.54,59.21,60,88
145.9,73.915,60,88
149.03,80.271,60,88
147.94,90.089,60,88
145.8,99.575,60,88
142.24,102.78,60,88
133.05,102.94,60,88
129.69,106.93,60,88
113.51,106.55,60,88
101.32,108.61,60,88
89.535,109.28,60,88
82.382,105.23,60,88
77.924,98.71,60,88
78.411,90.913,60,88
76.76,83.271,60,88
79.309,78.922,60,88
82.243,74.904,60,88
88.365,73.012,60,88
97.073,68.288,60,88
101.75,68.548,60,88
114.22,70.931,60,88
126.74,71.918,60,88
139.35,70.812,60,88
145.73,72.006,60,88
152.77,72.699,60,88
153.12,71.73,60,88
154.2,74.9,60,88
153.39,82.439,60,88
156.25,90.42,60,88
153.15,93.936,60,88
144.74,94.042,60,88
140.9,95.464,60,88
131.36,93.536,60,88
121.16,96.318,60,88
111.41,96.174,60,88
105.45,93.802,60,88
104.9,92.378,60,88
101.73,88.061,60,88
99.989,84.682,60,88
99.647,80.976,60,88
100.55,77.013,60,88
104.43,74.444,60,88
107.82,73.199,60,88
116.73,69.722,60,88
125.6,68.582,60,88
134.08,70.209,60,88
141.59,68.991,60,88
145.42,67.563,60,88
146.09,70.361,60,88
146.43,74.986,60,88
145.86,79.504,60,88
140.51,79.792,60,88
133.87,80.505,60,88
127.01,81.339,60,88
121.93,79.74,60,88
109.93,80.276,60,88
99.303,79.408,60,88
94.379,79.062,60,88
89.426,78.548,60,88
86.157,77.742,60,88
84.359,80.035,60,88
84.525,81.612,60,88
87.771,86.665,60,88
89.347,86.666,60,88
95.293,89.261,60,88
98.822,90.06,60,88
107.88,87.376,60,88
117.76,87.669,60,88
124.83,88.62,60,88
132.66,89.497,60,88
138.76,90.039,60,88
141.54,87.735,60,88
144.41,85.882,60,88
144.2,83.262,60,88
146.18,77.325,60,88
148.56,76.521,60,88
146.32,78.03,60,88
145.97,76.742,60,88
137.76,74.397,60,88
129.8,72.583,60,88
122.6,70.569,60,88
111.41,67.709,60,88
100.98,67.136,60,88
98.234,67.56,60,88
88.986,65.829,60,88
80.886,65.049,60,88
78.228,68.153,60,88
77.588,73.727,60,88
78.725,76.11,60,88
80.121,77.897,60,88
84.782,80.327,60,88
90.829,82.589,60,88
99.42,85.588,60,88
109.06,84.331,60,88
113.91,84.153,60,88
125.81,85.16,60,88
135.59,85.008,60,88
143.36,85.784,60,88
148.4,84.952,60,88
151.12,85.974,60,88
152.05,87.773,60,88
153.07,86.659,60,88
151.2,83.238,60,88
150.52,82.545,60,88
145.25,77.168,60,88
138.05,73.432,60,88
132.91,70.942,60,88
124.13,65.368,60,88
115.66,63.782,60,88
106.24,63.356,60,88
100.45,62.355,60,88
91.784,62.239,60,88
88.67,60.508,60,88
85.352,61.86,60,88
85.858,65.841,60,88
88.23,67.983,60,88
89.281,74.287,60,88
95.768,75.764,60,88
97.539,77.505,60,88
105,78.732,60,88
114.44,82.837,60,88
124.79,82.387,60,88
131.62,82.389,60,88
138.39,83.05,60,88
144.76,82.887,60,88
152.97,82.274,60,88
154.96,81.656,60,88
154.48,80.54,60,88
155.28,78.634,60,88
153.24,77.508,60,88
154.08,74.982,60,88
156.23,71.183,60,88
155.93,69.709,60,88
156.14,67.428,60,88
156.82,63.577,60,88
157.08,62.691,60,88
157.36,63.166,60,88
157.57,64.56,60,88
156.82,64.728,60,88
153.47,60.279,60,88
153.83,59.119,60,88
152.69,58.486,60,88
153.19,57.832,60,88
152.37,58.934,60,88
152.59,58.692,60,88
151.1,58.502,60,88
152.01,55.269,60,88
150.99,54.499,60,88
151.11,54.381,60,88
150.38,55.019,60,88
151.21,56.1,60,88
149.98,56.063,60,88
150.79,54.951,60,88
150.81,54.65,60,88
150.45,55.9,60,88
151.96,55.008,60,88
152.16,55.465,60,88
153.06,56.333,60,88
152.92,56.161,60,88
152.37,58.025,60,88
152.49,55.82,60,88
152.49,56.997,60,88
152.03,56.044,60,88
152.74,55.994,60,88
152.24,56.313,60,88
151.33,56.102,60,88
150.45,55.487,60,88
152.63,56.097,60,88
151.3,55.116,60,88
149.67,54.208,60,88
151.43,54.876,60,88
150.71,54.33,60,88
150.55,54.018,60,88
