125,86,15,16
127.06,85.787,15,16
128.24,84.722,15,16
129.62,83.317,15,16
130.67,82.192,15,16
131.91,82.163,15,16
134.23,82.139,15,16
135.91,81.984,15,16
136.37,81.404,15,16
139.08,82.445,15,16
140.77,83.109,15,16
142.83,83.281,15,16
144.4,82.333,15,16
145.91,83.03,15,16
146.97,82.581,15,16
149.58,82.64,15,16
148.99,81.846,15,16
151.51,81.721,15,16
151.82,79.685,15,16
152.66,78.176,15,16
153.78,77.066,15,16
155.26,76.188,15,16
157.6,76.587,15,16
157.3,75.316,15,16
158.96,74.261,15,16
159.3,73.646,15,16
160.52,73.511,15,16
161.15,73.304,15,16
162.32,73.596,15,16
161.61,74.758,15,16
164.79,73.719,15,16
165.43,74.202,15,16
165.17,72.868,15,16
166.5,71.797,15,16
167.09,71.156,15,16
167.42,72.683,15,16
167.48,71.211,15,16
168.3,72.228,15,16
166.83,72.136,15,16
167.91,73.184,15,16
170.02,74.802,15,16
164.12,89.503,15,16
167.71,72.03,15,16
171.13,77.208,15,16
180.93,77.606,15,16
170.61,79.644,15,16
170.32,78.823,15,16
172.03,77.744,15,16
172.91,73.737,15,16
169.29,79.789,15,16
175.08,94.379,15,16
172.38,77.678,15,16
174.18,76.158,15,16
175.7,75.639,15,16
175.57,76.49,15,16
177.15,77.424,15,16
177.85,79.094,15,16
179.33,77.568,15,16
180.18,81.426,15,16
180.06,83.229,15,16
185.02,74.126,15,16
187.34,75.721,15,16
182.46,83.605,15,16
184.39,84.622,15,16
184.09,84.694,15,16
185.13,84.504,15,16
186.19,85.016,15,16
184.76,84.7,15,16
186.01,83.791,15,16
176.55,70.597,15,16
164.28,72.12,15,16
149.89,67.246,15,16
145.9,65.388,15,16
146.21,70.889,15,16
139.43,73.108,15,16
130.82,71.897,15,16
118.67,73.617,15,16
120.22,85.486,15,16
113.91,87.87,15,16
109,97.536,15,16
110.38,98.858,15,16
108.52,96.662,15,16
109.23,97.739,15,16
108.43,97.41,15,16
106.01,95.224,15,16
108.8,101.2,15,16
109.84,103.56,15,16
113.65,105.03,15,16
109.29,108.17,15,16
106.74,112.22,15,16
98.079,112.48,15,16
85.911,116.5,15,16
87.832,122.81,15,16
86.549,121.71,15,16
85.276,117.13,15,16
88.558,114.03,15,16
90.095,113.59,15,16
89.887,114.79,15,16
90.021,115.41,15,16
88.136,117.86,15,16
89.127,115.45,15,16
88.316,116.61,15,16
88.432,116.03,15,16
88.486,116.25,15,16
89.068,115.22,15,16
88.534,116.25,15,16
88.649,115.9,15,16
89.782,116.33,15,16
89.623,116.26,15,16
88.651,116.25,15,16
90.02,115.7,15,16
90.779,116.96,15,16
90.251,116.36,15,16
90.739,115.74,15,16
92.248,116.12,15,16
94.391,115.3,15,16
93.699,115.49,15,16
94.633,116.61,15,16
92.706,115.7,15,16
93.114,115.07,15,16
92.179,116.57,15,16
91.242,115.85,15,16
88,117.08,15,16
88.779,116.57,15,16
88.079,116.16,15,16
87.469,116.29,15,16
86.923,115.93,15,16
89.134,116.36,15,16
88.605,115.26,15,16
87.909,115.45,15,16
87.396,115.06,15,16
87.455,115.15,15,16
87.401,115.06,15,16
88.758,113.88,15,16
89.806,114.09,15,16
89.992,113.22,15,16
90.1,113.14,15,16
91.038,114.42,15,16
91.597,113.86,15,16
91.668,114.58,15,16
92.47,113.07,15,16
93.261,113.61,15,16
92.436,113.34,15,16
92.593,111.47,15,16
93.304,113.41,15,16
93.19,113.43,15,16
92.868,111.01,15,16
92.363,111.07,15,16
88.485,111.93,15,16
91.064,109.15,15,16
90.396,109.02,15,16
89.846,109.24,15,16
89.943,101.33,15,16
90.137,96.729,15,16
89.305,94.553,15,16
88.725,93.216,15,16
86.619,92.107,15,16
83.686,92.522,15,16
81.179,95.631,15,16
79.622,95.244,15,16
78.296,96.711,15,16
71.597,87.359,15,16
76.322,82.601,15,16
74.774,70.956,15,16
79.51,73.867,15,16
92.284,66.954,15,16
93.762,68.047,15,16
98.884,67.747,15,16
98.555,66.502,15,16
102.57,67.369,15,16
104.61,66.284,15,16
105.84,66.637,15,16
107.65,64.725,15,16
109.86,63.504,15,16
112.07,63.334,15,16
114.15,63.641,15,16
117.01,65.465,15,16
119.69,65.644,15,16
123.44,69.027,15,16
126.92,72.007,15,16
129.92,73.093,15,16
134.56,78.438,15,16
136.86,81.21,15,16
139.62,86.567,15,16
141.8,91.757,15,16
145.14,95.857,15,16
148.68,99.308,15,16
144.34,100.9,15,16
151.18,108.96,15,16
153.32,112.72,15,16
150.91,116.25,15,16
151.25,118.98,15,16
156.55,120.18,15,16
161.4,104.48,15,16
161.95,105.84,15,16
160.5,101.13,15,16
152.08,118.08,15,16
149.32,115.2,15,16
146,111.41,15,16
143.22,106.65,15,16
138.86,100.63,15,16
135.17,94.131,15,16
131.15,90.705,15,16
126.91,82.761,15,16
121.86,78.868,15,16
117.92,70.89,15,16
114.67,72.336,15,16
113.13,68.549,15,16
111.64,68.691,15,16
110.28,66.241,15,16
107.91,65.944,15,16
106.87,63.977,15,16
105.05,64.96,15,16
103.64,62.701,15,16
101.79,63.936,15,16
101.68,62.549,15,16
100.25,62.288,15,16
100.41,60.803,15,16
99.072,61.259,15,16
98.6,59.24,15,16
95.909,59.775,15,16
94.835,59.583,15,16
92.311,59.995,15,16
89.958,61.672,15,16
88.376,63.978,15,16
88.636,65.639,15,16
85.719,69.44,15,16
83.949,72.766,15,16
80.553,76.635,15,16
78.169,80.392,15,16
74.817,83.869,15,16
72.239,87.093,15,16
69.144,89.775,15,16
66.598,92.848,15,16
64.003,96.023,15,16
61.273,99.311,15,16
60.239,101.42,15,16
59.031,103.12,15,16
54.757,105.79,15,16
54.078,96.065,15,16
48.698,110.6,15,16
52.152,105.31,15,16
51.865,102.21,15,16
51.261,99.371,15,16
52.288,94.421,15,16
49.682,93.099,15,16
50.484,86.992,15,16
50.61,83.68,15,16
53.473,76.66,15,16
52.746,72.188,15,16
55.999,66.98,15,16
58.545,62.303,15,16
59.968,59.442,15,16
62.655,57.768,15,16
65.606,55.968,15,16
65.101,54.567,15,16
66.358,53.341,15,16
67.933,50.927,15,16
63.394,53.768,15,16
62.893,53.887,15,16
61.745,54.2,15,16
56.826,55.367,15,16
52.841,55.655,15,16
53.17,54.816,15,16
41.052,59.19,15,16
34.032,61.35,15,16
26.97,62.503,15,16
18.246,65.32,15,16
12.757,64.307,15,16
10.139,76.897,15,16
2.2801,78.492,15,16
-0.77281,75.504,15,16
0.70248,70.314,15,16
6.0844,83.048,15,16
12.766,85.509,15,16
8.5731,85.091,15,16
2.885,74.859,15,16
1.656,84.368,15,16
-0.90836,83.763,15,16
-0.93273,83.036,15,16
1.4183,80.775,15,16
1.1791,81.56,15,16
1.3311,81.59,15,16
