302,135,67,81
299.5,139.54,67,81
294.08,141.42,67,81
295.72,144.02,67,81
297.38,145.84,67,81
300.81,147.41,67,81
303.77,149.93,67,81
307.27,148.9,67,81
307.53,148.05,67,81
308.62,149.33,67,81
306.23,147.9,67,81
309,147.09,67,81
317.91,141.43,67,81
326.51,138.62,67,81
332.17,134.26,67,81
334.68,131.74,67,81
334.97,131.57,67,81
332.17,134.19,67,81
333.51,129.11,67,81
338.01,122.23,67,81
344.87,118.44,67,81
350.13,115.65,67,81
351.83,113.44,67,81
356.21,114.07,67,81
368.06,123.4,67,81
380.48,131.85,67,81
383.82,133.68,67,81
379.01,126.09,67,81
364.57,111.26,67,81
354.88,97.436,67,81
348.7,91.284,67,81
344.83,86.713,67,81
341.62,86.297,67,81
340.18,89.042,67,81
345.66,95.067,67,81
357.03,107.85,67,81
371.53,121.97,67,81
385.64,139.22,67,81
383.2,134.91,67,81
371.65,115.73,67,81
366.78,102.58,67,81
364.58,96.838,67,81
362.54,90.337,67,81
363.79,87.83,67,81
364.56,91.902,67,81
369.09,98.134,67,81
374.86,108.94,67,81
381.63,127.3,67,81
390.1,145.6,67,81
390.95,147.64,67,81
384.75,138.23,67,81
374.98,117.01,67,81
371.22,107.43,67,81
364.62,102.61,67,81
369.85,113.7,67,81
375.5,118.85,67,81
369.87,130.61,67,81
376.23,148.07,67,81
373.53,157.93,67,81
371.69,177.29,67,81
362.15,177.17,67,81
352.65,160.53,67,81
334.98,143.15,67,81
330.24,130.59,67,81
324.51,124.59,67,81
321.91,129.24,67,81
314.69,133.31,67,81
314.18,137.07,67,81
310.57,146.86,67,81
312.24,159.71,67,81
317.24,159.74,67,81
312.08,185.98,67,81
301.08,190.9,67,81
311.3,200.49,67,81
299.26,181.4,67,81
288.67,149.35,67,81
278.28,138.59,67,81
274.76,136.48,67,81
272.72,129.99,67,81
275.16,134.92,67,81
273.72,137.5,67,81
271.85,150.67,67,81
269.54,157.55,67,81
269.66,177.63,67,81
266.07,182.83,67,81
263.55,180.13,67,81
256.55,176.77,67,81
252.06,178.89,67,81
252.3,181.95,67,81
250.09,183.25,67,81
244.77,196.1,67,81
243.5,198.55,67,81
241.6,207.3,67,81
243.25,210.48,67,81
245.05,214.19,67,81
242.47,223.15,67,81
243.73,219.83,67,81
245.95,221.6,67,81
247.96,215.25,67,81
252.42,219.44,67,81
251.4,215.3,67,81
255.3,209.41,67,81
254.66,206.15,67,81
254.16,205.84,67,81
257.75,194.6,67,81
259.76,186.39,67,81
254.9,165.8,67,81
259.18,171.91,67,81
261.53,175.87,67,81
264.55,162.08,67,81
247.75,170.67,67,81
251.57,161.2,67,81
240.64,155.39,67,81
237.81,169.96,67,81
230.54,161.33,67,81
245.59,150.05,67,81
233.83,148.17,67,81
241.11,142.34,67,81
239.7,154.73,67,81
238.64,146.75,67,81
244.33,146.07,67,81
244.27,146.82,67,81
244.81,140.26,67,81
247.9,141.88,67,81
254.47,144.45,67,81
255.93,136.63,67,81
261.03,135.57,67,81
266.49,136.67,67,81
271.18,138.93,67,81
270.92,140.54,67,81
278.02,153.47,67,81
280.4,147.87,67,81
280.46,151.57,67,81
281.68,151.64,67,81
282.66,160.19,67,81
285.58,158.11,67,81
289.73,156.78,67,81
287.67,154.65,67,81
288.23,154.01,67,81
288.83,154.06,67,81
286.93,150.17,67,81
284.32,155.22,67,81
283.11,153.85,67,81
278.38,156.34,67,81
278.84,154.12,67,81
278.09,151.25,67,81
269.6,146.14,67,81
267.71,142,67,81
257.5,141.48,67,81
252.12,139.22,67,81
246.05,142.18,67,81
237.66,145.75,67,81
230.74,144.72,67,81
221.87,149.55,67,81
225.09,142.47,67,81
222.18,144.33,67,81
218.75,146.05,67,81
219.19,145.98,67,81
216.61,143.53,67,81
218.54,142.22,67,81
218.39,143.61,67,81
219.71,148.12,67,81
223,151.13,67,81
234.68,154.28,67,81
240.24,156.76,67,81
247.46,160.39,67,81
253.73,162.2,67,81
263.15,163.72,67,81
271.14,168.05,67,81
279.01,168.17,67,81
285.06,172.48,67,81
289.46,175.77,67,81
292.35,178.26,67,81
294.81,180.18,67,81
295.69,184.74,67,81
301.45,183.46,67,81
306.2,186.8,67,81
311.71,188.62,67,81
313,187.42,67,81
320.88,187.6,67,81
315.82,189.74,67,81
320.49,187.95,67,81
318.59,187.21,67,81
332.29,186.19,67,81
341.94,178.05,67,81
351.82,177.1,67,81
348.55,174.96,67,81
358.5,178.71,67,81
365.26,180.54,67,81
365.6,186.44,67,81
360.42,182.06,67,81
356.92,169.85,67,81
357.44,161.56,67,81
353.41,157.71,67,81
347.41,156.15,67,81
346.06,165.02,67,81
343.39,180.09,67,81
347.99,187.52,67,81
351.42,193.61,67,81
354.29,188.88,67,81
348.12,176.19,67,81
348.23,168.77,67,81
349.35,151.43,67,81
348.77,146.61,67,81
350.73,144.09,67,81
348.42,151.69,67,81
344.08,163.18,67,81
339.84,174.66,67,81
335.22,174.14,67,81
324.75,170.79,67,81
313.69,166.14,67,81
311.33,162.86,67,81
309.18,153.95,67,81
305.86,157.31,67,81
298.23,159.8,67,81
297.24,166.53,67,81
293.63,181.79,67,81
293.71,188.96,67,81
299.68,193.26,67,81
302.42,188.4,67,81
299.69,186.6,67,81
302.13,178.43,67,81
304.95,171.2,67,81
301.23,172.36,67,81
301.69,175.13,67,81
301.36,180.61,67,81
301.19,188.75,67,81
302,194.45,67,81
298.67,186.15,67,81
289.75,173.33,67,81
288.78,165.8,67,81
288,160.01,67,81
288.54,159.61,67,81
287.16,163.16,67,81
285.38,168.83,67,81
288.48,178.89,67,81
287.6,184.08,67,81
288.53,186.26,67,81
289.78,169.05,67,81
292.39,172.89,67,81
296.42,180.96,67,81
299.31,184.46,67,81
299.92,180.97,67,81
299.87,176.72,67,81
298.78,163.56,67,81
296.12,156.19,67,81
296.23,148.12,67,81
299.89,142.03,67,81
299.76,140.08,67,81
298.77,142.59,67,81
297.29,149.14,67,81
298.09,151.99,67,81
300.8,149.48,67,81
300.4,143.57,67,81
298.21,133.25,67,81
301.52,123.11,67,81
300.39,120.08,67,81
301.86,114.6,67,81
301.25,116.32,67,81
297.66,121.24,67,81
297.53,125.4,67,81
294.39,130.94,67,81
292.72,130.88,67,81
289.41,130.17,67,81
287.46,119.99,67,81
288.04,111.34,67,81
284.82,113.36,67,81
287.44,115.88,67,81
282.95,120.71,67,81
280.07,128.59,67,81
279.7,137.74,67,81
281.04,139.97,67,81
277.13,143.71,67,81
276.73,139.94,67,81
278.33,138.39,67,81
280,132.38,67,81
282.28,134.9,67,81
281.82,135.7,67,81
283.36,141.86,67,81
284.76,148.57,67,81
284.36,148.22,67,81
285.38,151.56,67,81
285.39,142.72,67,81
280.55,138.88,67,81
284.3,141.57,67,81
286.62,135.1,67,81
283.86,136.86,67,81
282.57,140.64,67,81
282.87,138.08,67,81
287.37,141.18,67,81
287.45,141.41,67,81
285.78,134.94,67,81
288.32,130.99,67,81
290.27,125.05,67,81
296.05,118.2,67,81
295.96,123.95,67,81
297.8,129.26,67,81
298.65,131.41,67,81
297.62,132.69,67,81
299.86,132.49,67,81
294.15,133.45,67,81
296.12,123.47,67,81
296.43,122.8,67,81
299.47,118.16,67,81
301.76,114.56,67,81
295.15,121.98,67,81
295.68,131.48,67,81
292.55,132.74,67,81
296.23,136.23,67,81
302.18,140.47,67,81
303.96,134.24,67,81
303.12,127.68,67,81
302.97,127,67,81
304.02,129.86,67,81
304.41,125.87,67,81
304.34,129.6,67,81
303.78,135.79,67,81
303.92,137.68,67,81
304.25,135.89,67,81
302.29,135.63,67,81
303.06,128.21,67,81
302.01,118.05,67,81
298.83,113.01,67,81
297.37,113.6,67,81
295.86,113.98,67,81
295.99,121.36,67,81
293.82,123.38,67,81
292.09,125.4,67,81
289.33,129.19,67,81
287,129.3,67,81
286.58,122.66,67,81
286.53,114.91,67,81
286.99,114.03,67,81
284.8,115.19,67,81
289.25,116.23,67,81
288.61,122.4,67,81
288.16,131.96,67,81
289.23,137.45,67,81
291.8,136.45,67,81
295.2,127.03,67,81
294.12,126.34,67,81
301.28,116.29,67,81
301.62,114.15,67,81
303.12,113.02,67,81
306.21,113.94,67,81
308.42,123.85,67,81
309.61,126.16,67,81
306.5,128.22,67,81
305.37,126.54,67,81
305.25,130.04,67,81
301,134.23,67,81
304.75,131.44,67,81
310.21,125.76,67,81
309.7,127.12,67,81
306.13,120.38,67,81
305.87,127.51,67,81
307.69,127.24,67,81
306.65,124.98,67,81
305.1,119.34,67,81
305.14,122.16,67,81
307.91,124.43,67,81
305.14,122.9,67,81
301.32,127.98,67,81
305.12,126.75,67,81
303.42,124.81,67,81
302.34,123.69,67,81
301.33,123.49,67,81
302.06,124.41,67,81
300.31,125.01,67,81
299.89,127.3,67,81
300.12,129,67,81
297.55,128.8,67,81
303.14,127.13,67,81
300.62,130.07,67,81
304.27,130.64,67,81
303.83,135,67,81
303.83,133.18,67,81
306.32,138.92,67,81
309.76,140.26,67,81
316.15,145.25,67,81
317.76,147.87,67,81
320.59,155.27,67,81
319.85,167.78,67,81
318.71,175.92,67,81
324.82,175.16,67,81
325.93,179.86,67,81
324.92,185.94,67,81
325.48,192.03,67,81
329.35,197.62,67,81
327.91,205.91,67,81
326.97,208.48,67,81
326.36,208.17,67,81
