32,60,68,78
38.249,62.651,68,78
41.029,67.291,68,78
46.923,73.201,68,78
56.628,78.227,68,78
68.063,81.712,68,78
79.228,85.059,68,78
86.18,85.22,68,78
95.93,92.087,68,78
105.73,96.527,68,78
113.67,96.5,68,78
123.32,95.105,68,78
128.05,92.758,68,78
133.65,91.302,68,78
139.08,87.94,68,78
144.52,84.512,68,78
148.08,81.194,68,78
153.98,77.936,68,78
162.75,78.074,68,78
177.17,75.817,68,78
192.42,72.097,68,78
212.78,73.181,68,78
227.1,74.472,68,78
242.71,72.257,68,78
256.89,74.78,68,78
271.82,74.453,68,78
282.29,74.468,68,78
292.56,72.883,68,78
294.26,69.753,68,78
293.8,69.125,68,78
288.22,68.578,68,78
274.31,69.68,68,78
260.95,69.929,68,78
250.25,66.918,68,78
232.39,67.145,68,78
220.17,68.735,68,78
204.16,68.529,68,78
193.13,73.783,68,78
176.83,76.186,68,78
167.94,80.068,68,78
158.85,87.371,68,78
150.91,88.85,68,78
141.27,90.199,68,78
134.57,93.122,68,78
130,90.145,68,78
125.83,91.999,68,78
122.34,92.293,68,78
119.3,93.105,68,78
115.52,92.115,68,78
114.15,88.96,68,78
109.18,87.05,68,78
115.12,87.419,68,78
120.74,89.896,68,78
138.98,88.489,68,78
155.24,85.542,68,78
171.54,85.994,68,78
191.36,82.755,68,78
209.66,80.998,68,78
225.54,80.408,68,78
246.37,79.478,68,78
263.09,78.32,68,78
273.52,79.246,68,78
286.74,76.142,68,78
295.84,70.041,68,78
306.71,67.508,68,78
310.02,64.474,68,78
310.24,62.908,68,78
306.29,62.57,68,78
298.95,66.687,68,78
284.73,71.809,68,78
267.18,78.643,68,78
247.4,82.75,68,78
232.86,88.828,68,78
211.68,88.69,68,78
177.39,95.941,68,78
152.15,97.103,68,78
136.76,94.793,68,78
113.22,88.707,68,78
95.982,84.622,68,78
79.504,78.827,68,78
59.875,73.486,68,78
34.221,72.509,68,78
15.028,77.036,68,78
-0.85518,81.178,68,78
-6.7295,80.692,68,78
-11.461,82.173,68,78
-10.34,85.116,68,78
-10.039,82.343,68,78
-7.4539,80.406,68,78
0.79786,75.726,68,78
3.9198,69.501,68,78
10.583,70.982,68,78
11.956,70.675,68,78
16.963,79.352,68,78
24.575,82.893,68,78
35.152,85.17,68,78
41.523,88.777,68,78
53.8,91.883,68,78
65.235,93.951,68,78
73.448,95.18,68,78
90.106,98.191,68,78
105.83,102.2,68,78
124.56,108.04,68,78
144.54,107.77,68,78
152.93,109.04,68,78
179.2,104.73,68,78
205.16,103.69,68,78
231.37,114.87,68,78
252.26,118.11,68,78
277.33,113.86,68,78
300.34,112.34,68,78
324.21,109.88,68,78
340.05,108.02,68,78
350.54,103.23,68,78
358.1,100.18,68,78
358.83,94.255,68,78
358.82,93.035,68,78
350.43,92.22,68,78
344.56,88.92,68,78
333.59,84.426,68,78
317.07,77.492,68,78
300.08,78.348,68,78
289.54,80.701,68,78
282.24,74.643,68,78
289.21,64.532,68,78
287.99,70.629,68,78
272.92,78.317,68,78
261.78,93.789,68,78
254.36,92.854,68,78
245.14,87.596,68,78
229.77,81.786,68,78
208.65,81.127,68,78
190.98,79.077,68,78
169.36,82.371,68,78
161.14,84.642,68,78
167.29,87.477,68,78
189.46,82.333,68,78
207.4,87.996,68,78
220.71,90.45,68,78
237.68,89.852,68,78
255.03,102.2,68,78
259.13,99.398,68,78
262,98.833,68,78
258.38,99.041,68,78
257.09,100.77,68,78
250.44,104.32,68,78
246.96,104.83,68,78
238.83,104.07,68,78
234.59,103.07,68,78
228.87,95.97,68,78
223.1,90.905,68,78
232.02,84.411,68,78
243.08,85.425,68,78
262.06,85.025,68,78
278.64,88.093,68,78
291.92,82.795,68,78
297.93,81.071,68,78
308.44,70.354,68,78
311.59,64.566,68,78
308.13,57.385,68,78
310.53,53.972,68,78
303.75,62.28,68,78
295.39,73.223,68,78
287.21,84.503,68,78
278.08,102.41,68,78
270.41,109.44,68,78
268.46,112.22,68,78
265.49,110.24,68,78
253.85,97.739,68,78
242.59,90.86,68,78
231.66,85.224,68,78
221.12,75.936,68,78
210.11,77.436,68,78
215.94,75.756,68,78
220.99,73.499,68,78
217.49,75.881,68,78
202.81,75.371,68,78
186.6,78.325,68,78
170.35,83.797,68,78
154.26,102.32,68,78
164.92,102.22,68,78
177.59,94.874,68,78
173.32,96.358,68,78
174.51,93.241,68,78
184.65,94.692,68,78
201.56,89.754,68,78
208.92,89.183,68,78
210.6,83.818,68,78
213.09,79.027,68,78
221.4,74.605,68,78
225.59,71.167,68,78
219.01,65.441,68,78
218.36,66.795,68,78
219.01,67.31,68,78
223.63,70.718,68,78
220.07,72.489,68,78
222.14,74.869,68,78
224.16,76.857,68,78
219.36,84.367,68,78
227.57,76.954,68,78
230.42,79.483,68,78
240.58,77.392,68,78
257.7,84.531,68,78
269.97,82.156,68,78
280.45,79.497,68,78
271.88,74.511,68,78
257.21,74.642,68,78
247.7,77.08,68,78
241.4,81.465,68,78
245.13,83.006,68,78
245.42,84.317,68,78
245.35,80.927,68,78
235.1,80.689,68,78
215.8,83.805,68,78
196.87,84.338,68,78
173.41,91.285,68,78
159.28,98.655,68,78
149.22,105.77,68,78
150.49,109.68,68,78
156.93,109.49,68,78
166.92,106.38,68,78
176.78,97.652,68,78
184.65,88.144,68,78
190.46,79.226,68,78
199.36,70.031,68,78
215.43,65.234,68,78
230.33,63.606,68,78
239.13,59.068,68,78
243.91,65.129,68,78
243.22,66.926,68,78
241.92,72.439,68,78
228.17,73.783,68,78
221.56,77.382,68,78
207.42,90.476,68,78
191.26,95.431,68,78
178.79,96.818,68,78
182.96,96.449,68,78
186.04,103.46,68,78
191.04,94.773,68,78
203.4,89.717,68,78
212.55,83.365,68,78
226.06,82.343,68,78
232.57,81.618,68,78
238.13,83.087,68,78
235.31,85.655,68,78
241.71,87.004,68,78
243.86,93.679,68,78
243.18,95.192,68,78
236.83,94.577,68,78
226.35,93.556,68,78
215.27,96.481,68,78
210.4,95.463,68,78
204.37,104.22,68,78
198.86,109.68,68,78
197.83,120.17,68,78
199.77,121.5,68,78
204.26,122.25,68,78
212.84,116.78,68,78
221.33,110.25,68,78
231.11,101.01,68,78
234.66,95.997,68,78
231.88,92.223,68,78
224.01,90.191,68,78
212.54,80.191,68,78
197.37,92.039,68,78
193.77,93.219,68,78
192.34,78.346,68,78
196.57,68.675,68,78
201.12,54.143,68,78
213.58,66.618,68,78
215.04,65.708,68,78
209.67,59.043,68,78
205.44,59.101,68,78
202.04,59.177,68,78
193.75,59.457,68,78
184.72,58.996,68,78
173,60.248,68,78
157.75,65.858,68,78
143.17,71.975,68,78
134.89,73.031,68,78
130.53,73.272,68,78
141.3,62.58,68,78
151.4,59.122,68,78
171.74,56.071,68,78
197.83,56.126,68,78
217.41,66.949,68,78
231.33,74.181,68,78
249.44,76.339,68,78
261.72,81.144,68,78
276.47,81.899,68,78
275.69,85.882,68,78
266.8,80.032,68,78
258.09,75.469,68,78
256.19,67.189,68,78
246.08,73.361,68,78
246.97,73.916,68,78
247.6,77.447,68,78
242.11,77.043,68,78
233.16,79.009,68,78
221.55,76.953,68,78
211.08,77.913,68,78
205.46,81.547,68,78
211.24,85.892,68,78
222.35,99.193,68,78
239.04,105.79,68,78
253.62,103.98,68,78
261.83,103.4,68,78
261.31,96.288,68,78
255.64,92.735,68,78
251.26,86.406,68,78
250.04,87.806,68,78
246.16,82.67,68,78
240.11,81.253,68,78
209.59,75.874,68,78
182.12,74.142,68,78
170.03,74.08,68,78
170.95,74.685,68,78
187.78,75.958,68,78
208.33,71.451,68,78
239.73,74.98,68,78
273.57,72.344,68,78
297.06,69.037,68,78
294.3,67.602,68,78
281.31,66.957,68,78
242.82,73.142,68,78
205.11,74.016,68,78
187.2,84.177,68,78
173.62,84.534,68,78
173.15,88.68,68,78
177.91,84.115,68,78
171.64,85.819,68,78
174.61,84.23,68,78
175.19,81.793,68,78
176.01,86.175,68,78
175.34,84.905,68,78
174.23,85.609,68,78
172.37,88.522,68,78
173.47,85.034,68,78
174.79,84.258,68,78
173.8,85.377,68,78
173.11,86.438,68,78
170.95,87.474,68,78
172.18,88.378,68,78
173.04,85.907,68,78
173.05,86.855,68,78
171.95,89.797,68,78
172.43,87.518,68,78
171.35,88.808,68,78
180.56,82.124,68,78
161.08,87.843,68,78
140.26,95.56,68,78
136.45,102.55,68,78
136.7,113.79,68,78
165.52,128.69,68,78
180.08,128.96,68,78
198.27,126.61,68,78
208.62,121.36,68,78
198.93,109.95,68,78
174.69,96.092,68,78
151.68,94.212,68,78
138.43,95.237,68,78
126.71,101.26,68,78
130.51,103.92,68,78
146.26,99.622,68,78
163.5,85.839,68,78
