250,168,106,105
250.02,170.63,106,105
246.37,176.42,106,105
242.16,183.48,106,105
237.32,190.48,106,105
229.87,200.25,106,105
227.78,197.63,106,105
225.87,195.7,106,105
224.99,197.99,106,105
224.2,199.01,106,105
225.69,199.52,106,105
225.94,199.72,106,105
227.84,202.71,106,105
226.16,203.29,106,105
224.48,202.72,106,105
221.98,202.47,106,105
223.56,204.82,106,105
223.02,205,106,105
224.6,201.67,106,105
223.4,203.34,106,105
220.35,203.8,106,105
219.18,203.4,106,105
218.62,203.97,106,105
217.93,203.55,106,105
219.13,202.18,106,105
221.07,203.33,106,105
219.07,203.06,106,105
219.29,201.56,106,105
218.19,200.61,106,105
218.11,197.7,106,105
218.82,196.91,106,105
218.7,197.58,106,105
219.28,197.53,106,105
220.39,194.38,106,105
222.61,193,106,105
222.06,193.57,106,105
221.02,193.32,106,105
220.92,192.63,106,105
220.02,192.98,106,105
220.54,193.53,106,105
219.68,194.52,106,105
218.08,196.54,106,105
218.15,196.37,106,105
220.43,198.65,106,105
219.35,198.99,106,105
219.67,197.44,106,105
221.23,198.14,106,105
219.6,200.98,106,105
222.68,200.56,106,105
224.66,200.56,106,105
224.85,199.39,106,105
226.02,197.68,106,105
228.1,199.48,106,105
227.51,198.94,106,105
228.42,196.01,106,105
228.1,195.44,106,105
228.28,195.94,106,105
229.27,196.65,106,105
229.42,197.07,106,105
225.6,197.6,106,105
223.83,201.58,106,105
223.25,200.5,106,105
226.5,199.68,106,105
228.49,199.15,106,105
225.22,197.13,106,105
227.54,196.8,106,105
226.89,195.65,106,105
226.59,195.14,106,105
228.38,194.86,106,105
229.95,194.79,106,105
231.35,195.44,106,105
232.14,193.11,106,105
235.61,193.93,106,105
236.09,192.45,106,105
236.6,189.01,106,105
236.03,189.29,106,105
236.99,188.64,106,105
239.13,190.55,106,105
238.32,191.01,106,105
239.96,190.36,106,105
240.14,189.98,106,105
237.74,190.45,106,105
235.2,191.22,106,105
235.09,190.87,106,105
233.55,191.99,106,105
236.02,193.37,106,105
236.49,196.7,106,105
238.85,193.68,106,105
240.32,195.08,106,105
238.85,193.44,106,105
237.25,195.72,106,105
236.42,196.63,106,105
236.05,195.79,106,105
235.62,198,106,105
237,199.98,106,105
238.38,204.2,106,105
238.79,206.47,106,105
238.01,206.43,106,105
237.75,206.46,106,105
238.54,203.39,106,105
238.4,203.47,106,105
238.26,205.08,106,105
239.77,203.71,106,105
242.58,203.18,106,105
241.65,203.81,106,105
243.78,201.9,106,105
243.22,203.09,106,105
244.04,199.52,106,105
245.71,197.7,106,105
245.12,196.16,106,105
242.11,196.1,106,105
240.98,199.88,106,105
241.78,202.03,106,105
240.34,202,106,105
239.96,202.71,106,105
239.11,201.29,106,105
239.14,200.97,106,105
238.79,205.61,106,105
237.34,206.79,106,105
236.54,203.69,106,105
238.73,201.46,106,105
240.9,204.73,106,105
240.59,207.45,106,105
241,206.96,106,105
238.14,207.24,106,105
238.28,205.04,106,105
237.7,205.55,106,105
237.28,206.46,106,105
236.78,205.78,106,105
234.91,204.96,106,105
233.98,208.46,106,105
233.84,208.17,106,105
231.79,207.35,106,105
230.07,206.9,106,105
228.54,203.26,106,105
226.77,204.05,106,105
226.39,207.26,106,105
226.21,207.02,106,105
223.29,205.55,106,105
223.03,207.05,106,105
224.08,208.19,106,105
226.15,208.41,106,105
229.18,208.91,106,105
231.41,213.92,106,105
230.7,215.01,106,105
230.26,216.32,106,105
229.76,216.17,106,105
229.36,215.86,106,105
228.37,215.85,106,105
227.69,217.9,106,105
226.22,218.5,106,105
226.35,216.17,106,105
227.85,215.95,106,105
230.29,217.04,106,105
231.3,214.85,106,105
229.85,214.35,106,105
231.16,216.22,106,105
230.29,216.26,106,105
228.83,216.98,106,105
227.6,220.12,106,105
225.14,219.62,106,105
225.99,218.21,106,105
227.64,216.98,106,105
228.25,215.35,106,105
228.9,215,106,105
229.77,213.05,106,105
232.05,211.39,106,105
233.22,210.92,106,105
232.93,211.81,106,105
234.43,209.38,106,105
235.8,207.34,106,105
235.09,206.36,106,105
235.75,206.83,106,105
233.06,206.64,106,105
232.21,207.53,106,105
230.39,208.07,106,105
229.38,208.47,106,105
228.81,208.76,106,105
230.45,207.03,106,105
229.7,206.36,106,105
227,207.52,106,105
227,208.52,106,105
226.04,209.55,106,105
228.92,210.45,106,105
229.16,210.1,106,105
230.45,208.2,106,105
229.22,209.38,106,105
227.82,209.35,106,105
226.85,207.88,106,105
225.24,207.04,106,105
222.74,206.77,106,105
222.37,208.07,106,105
224.47,207.6,106,105
226.68,207.36,106,105
228.6,205.75,106,105
228.08,204.9,106,105
230.22,202.49,106,105
230.99,204.55,106,105
230.18,205.94,106,105
229.4,204.78,106,105
227.93,204.92,106,105
226.66,205.66,106,105
229.17,205.21,106,105
228.99,204.73,106,105
227.82,203.5,106,105
228.63,201.73,106,105
228.72,200.86,106,105
227.67,200.5,106,105
226.37,198.66,106,105
226.88,197.97,106,105
224.96,195.46,106,105
223.71,198.19,106,105
224.27,200.35,106,105
224.89,201.14,106,105
224.48,202.21,106,105
222.98,202.04,106,105
221.3,199.25,106,105
219.55,199.07,106,105
219.42,198.99,106,105
219.29,198.7,106,105
217.57,200.64,106,105
217.62,200.17,106,105
219.16,197.69,106,105
219.75,196.74,106,105
218.68,194.29,106,105
218.74,195.43,106,105
218.61,196.67,106,105
216.45,200.44,106,105
214.5,202.8,106,105
212.32,198.96,106,105
212.77,200.59,106,105
213.26,198.52,106,105
214.03,195.87,106,105
212.36,197.9,106,105
213.92,199.49,106,105
217.61,199.79,106,105
218.25,199.72,106,105
218.68,201.04,106,105
220.67,203.62,106,105
219.15,202.72,106,105
219.91,202.6,106,105
219.71,204.28,106,105
221.41,204.1,106,105
222.14,203.94,106,105
221.59,205.88,106,105
221.85,206.32,106,105
222.72,205.04,106,105
224.24,205.77,106,105
225.85,206.39,106,105
227.49,205.35,106,105
227.66,203.04,106,105
226.96,203.77,106,105
227.14,204.81,106,105
226.33,204.69,106,105
225.5,205.15,106,105
226.46,205.11,106,105
224.66,204.15,106,105
224.2,204.38,106,105
223.92,200.33,106,105
224,199.06,106,105
221.77,198.17,106,105
224.58,199.17,106,105
225.47,199.33,106,105
225.24,199.33,106,105
226.27,196.15,106,105
226.56,195.82,106,105
225.52,194.74,106,105
225.23,191.86,106,105
226.65,188.86,106,105
229.18,186.67,106,105
231.29,186.07,106,105
230.83,190.17,106,105
229.44,190.6,106,105
228.81,191.77,106,105
229.15,191.88,106,105
228.45,189.48,106,105
231.22,187.34,106,105
232.13,188.54,106,105
230.7,189.23,106,105
231.16,193.34,106,105
232.87,195.15,106,105
229.45,195.76,106,105
228.5,198.59,106,105
229.19,199.34,106,105
228.3,197.8,106,105
229.16,199.74,106,105
226.96,198.88,106,105
226.21,198.93,106,105
227.69,199.02,106,105
228.18,196.87,106,105
230.47,194.65,106,105
232.13,194.07,106,105
232.05,194.31,106,105
234.03,194.6,106,105
234.52,196.24,106,105
236.23,195.53,106,105
236.64,194.26,106,105
234.52,194.61,106,105
234.72,193.7,106,105
235.46,194.74,106,105
235.87,195.94,106,105
236.97,198.22,106,105
236.9,200.9,106,105
237.53,200.2,106,105
243.19,200.29,106,105
244.36,199.94,106,105
243.34,199.58,106,105
243.54,200.52,106,105
243.71,200.87,106,105
245.17,204.34,106,105
246.95,207.01,106,105
247.77,208.24,106,105
246.72,208.91,106,105
247.36,208.48,106,105
247,210.37,106,105
249.83,209.08,106,105
251.04,208.47,106,105
250.19,207.69,106,105
252.92,207.75,106,105
255.38,207.81,106,105
255.51,207.51,106,105
253.44,207.85,106,105
254.74,207.57,106,105
253.91,209.73,106,105
250.45,209.43,106,105
250.06,210.75,106,105
250.22,211.78,106,105
248.77,212.64,106,105
246.7,211.35,106,105
245.79,214.5,106,105
245.63,213.58,106,105
245.3,214.52,106,105
246.88,213.04,106,105
247.96,214.68,106,105
246.65,214.39,106,105
247.9,213.81,106,105
249.81,215.1,106,105
250.55,216.45,106,105
250.09,217.18,106,105
250.53,216.06,106,105
249.02,216.29,106,105
249.91,214.88,106,105
246.81,214.62,106,105
244.48,216.57,106,105
245.15,217.1,106,105
247.47,218.97,106,105
245.86,220.51,106,105
247.01,220.38,106,105
249.06,222.28,106,105
249.97,226.49,106,105
249.9,226.02,106,105
252.14,223.91,106,105
253.95,224.71,106,105
253.4,227.14,106,105
253.4,226.99,106,105
255.81,228.25,106,105
255.28,229.01,106,105
256.06,231.58,106,105
256.74,231.24,106,105
256.46,228.93,106,105
256.39,224.2,106,105
257.49,226.67,106,105
258.1,226.64,106,105
258.98,225.92,106,105
257.87,225.34,106,105
258.07,222.71,106,105
260.26,219.37,106,105
260.92,218.39,106,105
259.98,216.88,106,105
259.64,217.24,106,105
259.24,213.45,106,105
259.01,213.43,106,105
257.56,211.62,106,105
256.37,211.56,106,105
256.07,210.65,106,105
256.9,211.16,106,105
258.12,209.47,106,105
256.55,212.3,106,105
256.04,213.85,106,105
256.72,214.74,106,105
255.09,216.35,106,105
254.9,215.87,106,105
254.55,214.3,106,105
255.3,215.57,106,105
254.96,214.07,106,105
255.27,210.71,106,105
256.73,211.4,106,105
256.51,207.12,106,105
255.24,206.38,106,105
254.01,207.19,106,105
252.38,207.59,106,105
250.62,208.18,106,105
250.17,208.42,106,105
251.02,208.13,106,105
251.44,209.51,106,105
250.46,209.97,106,105
250.45,208.93,106,105
251.64,209.79,106,105
250.83,210.01,106,105
249.23,212.45,106,105
249.59,212.58,106,105
250.78,211.55,106,105
252.53,210.34,106,105
250.37,207.6,106,105
248.56,208.84,106,105
247.04,209.15,106,105
245.9,210.6,106,105
245.07,210.17,106,105
244.33,212.25,106,105
244.24,211.39,106,105
246.36,211.83,106,105
246.91,212.67,106,105
246.61,212.19,106,105
245.26,211.12,106,105
243.99,209.54,106,105
241.26,209.07,106,105
239.89,206.97,106,105
239.7,207.77,106,105
240.88,207.1,106,105
239.19,206.4,106,105
239.24,205.82,106,105
238.47,206.62,106,105
239.12,209.04,106,105
240.22,208.56,106,105
239.61,209.16,106,105
238.98,209.16,106,105
238.78,207.86,106,105
238.18,206.36,106,105
238.93,206.38,106,105
238.42,209.22,106,105
236.18,209.86,106,105
235.54,211.5,106,105
235.33,210.33,106,105
234.57,208.88,106,105
233.86,206.71,106,105
231.73,206.36,106,105
232.1,202.42,106,105
232.1,203.15,106,105
230.97,205.33,106,105
229.11,204.85,106,105
226.7,204.2,106,105
227.59,202.96,106,105
226.05,202.75,106,105
223.7,202.02,106,105
224.89,202.14,106,105
222.84,203.29,106,105
223.84,203.77,106,105
225.03,203.97,106,105
223.99,205.07,106,105
222.08,203.23,106,105
219.46,203.42,106,105
221.59,201.81,106,105
220.68,202.92,106,105
218.53,204.59,106,105
219.86,204.98,106,105
220.59,205.09,106,105
219.76,204.73,106,105
218.26,204.74,106,105
218.85,204.79,106,105
219.27,204.87,106,105
218.66,207.16,106,105
217.1,207.87,106,105
219.72,206.4,106,105
220.31,203.01,106,105
220.97,202.02,106,105
219.56,202.75,106,105
218.47,201.3,106,105
219.36,198.89,106,105
221.4,199.9,106,105
221.61,200.1,106,105
221.4,199.23,106,105
222.78,198.61,106,105
222.69,199.47,106,105
222.15,197.72,106,105
222.49,198.8,106,105
222.17,197.78,106,105
222.72,198.7,106,105
222.51,199.89,106,105
224.81,200.86,106,105
225.11,200.44,106,105
227.29,199.48,106,105
228.43,202.46,106,105
228.47,201.49,106,105
229.32,200.12,106,105
229.68,196.33,106,105
231.38,193.97,106,105
229.75,193.45,106,105
228.91,193.18,106,105
228.13,193.83,106,105
229.24,193.5,106,105
229.7,189.96,106,105
228.2,190.45,106,105
227.12,187.63,106,105
226.96,186.79,106,105
227.06,186.42,106,105
226.3,185.75,106,105
223.7,183.23,106,105
225.42,182.2,106,105
223.34,183.67,106,105
222.66,183.53,106,105
221.37,184.03,106,105
220.94,184.24,106,105
220.48,184.34,106,105
219.12,184.42,106,105
222.44,185.83,106,105
221.02,185.36,106,105
222.3,185.58,106,105
221.94,186.72,106,105
222.25,185.75,106,105
222.67,186.45,106,105
222.42,188.59,106,105
223.4,190.06,106,105
222.79,191.96,106,105
222.76,191.89,106,105
223.49,192.15,106,105
223.51,190.71,106,105
223.16,191.12,106,105
223.99,192.48,106,105
223.48,191.86,106,105
224.17,192.52,106,105
223.73,191.2,106,105
223.19,191.44,106,105
222.5,191.47,106,105
221.75,190.63,106,105
221.77,191.45,106,105
220.67,193.9,106,105
219.74,192.46,106,105
218.53,191.63,106,105
218.19,191.61,106,105
216.72,191.4,106,105
216.29,192.77,106,105
217.55,194.95,106,105
217.42,194.77,106,105
217.23,196.27,106,105
219.17,197.17,106,105
219.87,195.8,106,105
220.74,195.24,106,105
219.86,196.29,106,105
219.92,196.45,106,105
218.75,194.38,106,105
216.35,196.05,106,105
216.85,195.32,106,105
218.28,196.02,106,105
218.14,196.49,106,105
217.91,198.39,106,105
219.54,199.92,106,105
220.67,202.18,106,105
220.53,202.29,106,105
222.02,199.99,106,105
224.07,200.12,106,105
225.67,198.87,106,105
224.76,199.21,106,105
225.82,199.15,106,105
229.16,198.19,106,105
229.47,198.83,106,105
232.01,198.54,106,105
233.59,201.41,106,105
234.14,201.66,106,105
234.43,204.04,106,105
235.51,204.79,106,105
236.19,205.41,106,105
238.75,206.43,106,105
240.31,205.22,106,105
241.12,206.49,106,105
239.84,207.64,106,105
239.19,205.08,106,105
239.97,205.52,106,105
238.45,205.39,106,105
237.71,205.04,106,105
238.37,206.46,106,105
236.66,204.79,106,105
236.7,203.85,106,105
238.12,203.62,106,105
238.27,202.55,106,105
241.39,201.66,106,105
241.25,202.5,106,105
242.89,201.07,106,105
244.62,198.73,106,105
246.33,201.08,106,105
246.43,201.65,106,105
246.93,202.72,106,105
248.2,201.99,106,105
249.44,202.57,106,105
251.55,202.93,106,105
249.44,204.41,106,105
250.31,202.02,106,105
249.51,203.92,106,105
251.07,201.5,106,105
251.43,202.95,106,105
252.23,204.66,106,105
253.3,203.62,106,105
254.05,202.09,106,105
253.87,202.54,106,105
252.92,199.27,106,105
253.35,202.33,106,105
251.58,202.5,106,105
251.95,202.4,106,105
254.52,202.87,106,105
255.42,202,106,105
255.33,200.94,106,105
254.6,200.36,106,105
254.57,199.96,106,105
257.03,199.88,106,105
256.23,201.02,106,105
255.37,199.93,106,105
255.37,199.61,106,105
253.3,200.38,106,105
253.87,202.41,106,105
256.27,202.14,106,105
257.18,200.92,106,105
256.01,201.01,106,105
257.26,201.13,106,105
257.93,200.92,106,105
256.92,200.22,106,105
258.36,198.76,106,105
259.58,197.34,106,105
260.15,193.81,106,105
259.46,194.02,106,105
257.61,194.48,106,105
257.44,195.21,106,105
257.67,196.09,106,105
254.55,196.74,106,105
256.23,197.59,106,105
253.79,201.99,106,105
253.79,202.86,106,105
254.06,201.69,106,105
253.01,202.58,106,105
252.47,201.56,106,105
250.94,200.35,106,105
250.16,202.57,106,105
249.31,203.59,106,105
246.4,205.14,106,105
246.88,204.33,106,105
244.14,204.91,106,105
243.02,205.57,106,105
240.98,205.42,106,105
241.15,207.22,106,105
241.42,209.21,106,105
240.71,210.59,106,105
240.7,212.21,106,105
241.76,213.13,106,105
242.44,212.3,106,105
241.45,212.97,106,105
242.59,213.56,106,105
245.16,214.13,106,105
246.65,214.36,106,105
247.86,215.57,106,105
246.17,217.7,106,105
244.59,216.64,106,105
244.75,217.02,106,105
243.96,216.6,106,105
242.28,215.98,106,105
241.6,217.65,106,105
241.31,218.28,106,105
241.29,220.29,106,105
244.31,221.07,106,105
245.62,220.41,106,105
245.23,218.42,106,105
244.5,219,106,105
242.24,217.23,106,105
239.67,215.35,106,105
240.48,214.29,106,105
240.31,214.33,106,105
240.97,214.96,106,105
240.26,214.77,106,105
240.62,212.71,106,105
241.77,211.41,106,105
240.97,211.26,106,105
240.09,207.71,106,105
240.32,205.73,106,105
240.59,206.35,106,105
239.89,207.01,106,105
239.12,208.16,106,105
238.13,208.54,106,105
238.8,210.42,106,105
239.34,210.51,106,105
242,210.61,106,105
241.63,210.68,106,105
241.59,211.54,106,105
241.23,208.86,106,105
240.03,207.97,106,105
238.97,207.99,106,105
239.38,208.95,106,105
236.33,208.07,106,105
236.51,210.47,106,105
237.15,210.17,106,105
238.51,210.86,106,105
238.2,210.16,106,105
236.43,211.45,106,105
236.91,212.16,106,105
237.27,213.14,106,105
238.16,209.54,106,105
238.3,209.01,106,105
238.73,208.84,106,105
241,205.81,106,105
238.57,205.18,106,105
238.27,202.64,106,105
240.35,200.51,106,105
241.22,199.54,106,105
241.54,200.31,106,105
242.19,198.89,106,105
244.21,198.05,106,105
245.81,198.51,106,105
246.5,199,106,105
245.37,198.39,106,105
244.29,199.24,106,105
242.28,196.97,106,105
243.14,198.98,106,105
243.39,198.66,106,105
243.95,199.74,106,105
244.68,199.31,106,105
247.19,197.05,106,105
249.08,196.25,106,105
251.25,194.15,106,105
252.27,194.99,106,105
254.08,197.08,106,105
252.16,199.22,106,105
252.84,199.61,106,105
254.32,200.12,106,105
254.04,198.88,106,105
254.84,201.27,106,105
255.23,199.86,106,105
254.92,200.48,106,105
255.63,201.25,106,105
256.52,199.74,106,105
257.86,197.45,106,105
258.22,195.58,106,105
260.17,195.8,106,105
259.63,196.26,106,105
257.74,196.94,106,105
255.85,198.42,106,105
252.55,199.3,106,105
250.37,198.09,106,105
248.49,199.12,106,105
247.85,198.57,106,105
250.78,198.41,106,105
250.83,198.28,106,105
249.12,199.78,106,105
249.65,200.17,106,105
253.4,201.75,106,105
255.75,200.83,106,105
257.04,197.76,106,105
