352,197,56,100
353.18,196.15,56,100
353.88,194.85,56,100
354.56,193.44,56,100
356.14,192.9,56,100
356.74,193.12,56,100
357.05,193.22,56,100
356,193.15,56,100
356.43,192.54,56,100
355.98,191.82,56,100
355.02,191.45,56,100
354.01,190.19,56,100
353.77,189.15,56,100
354.09,188.79,56,100
353.54,185.3,56,100
354.84,183.09,56,100
356.43,178.67,56,100
358.12,177.38,56,100
361.14,174.62,56,100
363.41,172.8,56,100
364.2,173.93,56,100
364.49,176.22,56,100
363.08,176.36,56,100
360.54,178.37,56,100
360.16,179.92,56,100
358.72,181.07,56,100
354.54,181.67,56,100
355.91,181.01,56,100
358.8,183.93,56,100
360.85,186.14,56,100
360.81,183.94,56,100
359.35,183.25,56,100
357.45,180.16,56,100
354.41,178.89,56,100
346.97,181.29,56,100
344.55,180.55,56,100
345.12,179.44,56,100
345.75,179.73,56,100
348.34,179.94,56,100
344.35,180.64,56,100
344.13,179.05,56,100
343.92,177.74,56,100
344.18,177.28,56,100
344.42,175.85,56,100
340.96,177.21,56,100
340.61,178.33,56,100
339.13,179.29,56,100
337.74,179.28,56,100
339.76,180.35,56,100
339.05,182.03,56,100
339.23,182.28,56,100
339.2,179.83,56,100
339.43,179.8,56,100
340.74,177.69,56,100
344.53,177.2,56,100
342.19,179.6,56,100
340.93,179.41,56,100
338.19,181.75,56,100
337.91,180.31,56,100
339.56,178.44,56,100
343.76,177.56,56,100
343.73,177.8,56,100
341.39,176.15,56,100
341.73,178.07,56,100
343,178.16,56,100
343.3,179.4,56,100
343.91,178.99,56,100
344.62,177.56,56,100
344.42,178.05,56,100
343.42,176.41,56,100
342.44,178.79,56,100
341.96,181.35,56,100
342.65,184.36,56,100
341.54,185.21,56,100
340.83,184.51,56,100
340.16,185.34,56,100
338.34,188.42,56,100
335.36,187.86,56,100
334.68,186.89,56,100
335.14,187.55,56,100
334.52,188.66,56,100
334.51,188.22,56,100
332.29,187.71,56,100
332.24,188.2,56,100
333.95,189.73,56,100
334.54,189.72,56,100
333.13,188.32,56,100
331.56,188.06,56,100
329.04,191.19,56,100
330.75,191.39,56,100
329.69,191.35,56,100
327.36,191.58,56,100
326.32,191.14,56,100
325.17,190.47,56,100
322.71,192.08,56,100
322.6,192.35,56,100
322.41,194.42,56,100
320.3,195.02,56,100
318.83,195.64,56,100
314.7,193.72,56,100
315.05,190.15,56,100
314.04,190.81,56,100
312.94,190.36,56,100
310.26,190.94,56,100
310.48,191.85,56,100
313.81,189.2,56,100
313.75,187.85,56,100
313.94,188.37,56,100
317.04,189.77,56,100
317.49,190.03,56,100
315.08,190.02,56,100
315.79,187.92,56,100
318.13,188.12,56,100
317.1,186.95,56,100
317.29,185.07,56,100
316.74,183.12,56,100
316.49,183.73,56,100
315.74,182.92,56,100
313.49,182.91,56,100
313.07,184.05,56,100
314.35,182.54,56,100
312.28,183.81,56,100
312.3,184.02,56,100
312.7,183.75,56,100
313.15,186.93,56,100
314.42,190.12,56,100
316.27,193.64,56,100
315.16,194.72,56,100
315.56,194.19,56,100
314.74,193.97,56,100
315.08,195.99,56,100
313.38,199.16,56,100
313.94,198.53,56,100
314.68,198.27,56,100
314.41,198.16,56,100
313.32,197.03,56,100
314.66,196.43,56,100
314.41,197.15,56,100
313.35,198.16,56,100
316.85,199.01,56,100
316.51,196.79,56,100
316.54,196.64,56,100
316.61,195.45,56,100
317.54,197.05,56,100
319.32,197.27,56,100
317.28,197.41,56,100
319.48,199.05,56,100
319.26,199.59,56,100
318.7,201.64,56,100
315.78,200.13,56,100
314.44,202.57,56,100
313.32,202.43,56,100
312.03,202.46,56,100
310.92,202.66,56,100
308.09,202.44,56,100
309.82,204.77,56,100
308.56,206.17,56,100
306.94,205.11,56,100
306.42,205.02,56,100
308.48,204.16,56,100
307.67,204.54,56,100
307.08,203.87,56,100
305.16,205.68,56,100
306.22,207.68,56,100
309.28,208.5,56,100
308.74,206.13,56,100
310.6,205.55,56,100
308.33,205.43,56,100
307.42,205.76,56,100
307.87,207.21,56,100
306.51,210.16,56,100
305.4,211.72,56,100
305.21,211.19,56,100
306.29,212.58,56,100
303.77,211.48,56,100
301.77,211.43,56,100
301.28,211.15,56,100
302.96,212.94,56,100
304.19,215.1,56,100
305.3,216.36,56,100
306.79,215.15,56,100
307.66,215.43,56,100
305.14,215.29,56,100
304.61,214.42,56,100
304.58,215.24,56,100
304.58,215.07,56,100
303.16,214.87,56,100
302.18,216.33,56,100
302.53,216.3,56,100
304.11,216.69,56,100
303.83,216.34,56,100
302.91,215.38,56,100
304.1,214.52,56,100
303.58,214.53,56,100
304.47,214.18,56,100
305.23,213.8,56,100
308.53,214.44,56,100
306.56,214.61,56,100
307.29,214.98,56,100
310.63,214.62,56,100
310.98,214.78,56,100
312.86,214.13,56,100
315.39,213.44,56,100
313.52,211.36,56,100
312.79,210.8,56,100
313.81,212.66,56,100
316.37,212.39,56,100
318.49,213.56,56,100
319.12,215.76,56,100
319.46,214.9,56,100
319.53,215.28,56,100
317.54,216.79,56,100
314.64,218.04,56,100
313.51,219.01,56,100
313.03,217.3,56,100
312.52,218.1,56,100
311.1,216.93,56,100
310.77,217.38,56,100
309.11,218.3,56,100
309.13,218.07,56,100
308.51,218.9,56,100
310.01,218.23,56,100
308.19,219.08,56,100
303.18,219.44,56,100
299.82,217.28,56,100
297.19,215.41,56,100
295.27,216.22,56,100
295.97,217.42,56,100
294.52,217.49,56,100
293.57,217.78,56,100
290.64,216.72,56,100
290.27,216.1,56,100
288.44,216.17,56,100
289.25,218.33,56,100
288.68,216.48,56,100
288.86,216.36,56,100
288.72,214.88,56,100
288.23,215.37,56,100
288.44,215.49,56,100
287.67,214.09,56,100
290.5,211.98,56,100
296.29,210.82,56,100
297.04,211.64,56,100
296.08,211.31,56,100
295.5,210.99,56,100
296.58,209.57,56,100
300.34,206.62,56,100
301.29,205.54,56,100
302.47,209.01,56,100
301.01,209.18,56,100
301.17,210.56,56,100
302.63,213.44,56,100
302.63,213.68,56,100
303.88,214.71,56,100
304.25,215,56,100
306.98,216.43,56,100
311.86,215.42,56,100
309.57,215.94,56,100
306.67,216.37,56,100
307.02,216.65,56,100
308.38,216.63,56,100
306.53,217.87,56,100
306.49,217.69,56,100
309.19,218.28,56,100
308.23,219.57,56,100
310.13,221.67,56,100
309.42,222.02,56,100
310.28,223.43,56,100
310.79,227.03,56,100
309.94,225.21,56,100
308.64,225.47,56,100
309.11,223.91,56,100
308.44,224.1,56,100
312.17,224.58,56,100
311.01,225.63,56,100
311.57,225.95,56,100
311.28,228.41,56,100
311.11,230.57,56,100
306.35,232.16,56,100
305.51,231.35,56,100
305.39,228.53,56,100
306.82,228.85,56,100
305.81,231.9,56,100
305.08,234.13,56,100
306.26,231.67,56,100
304.73,232.16,56,100
305.45,232.78,56,100
307.16,232.15,56,100
308.46,230.12,56,100
308.09,228.66,56,100
307.13,227.8,56,100
305.98,229.36,56,100
307.68,231.85,56,100
308.98,234.22,56,100
309.04,234.65,56,100
308.3,233.76,56,100
306.02,234.56,56,100
305.95,232.62,56,100
306.53,232.04,56,100
309.14,230.63,56,100
303.71,231.07,56,100
303.72,232.08,56,100
302.69,231.16,56,100
304.93,230.67,56,100
309.34,231.57,56,100
311.64,231.68,56,100
314.42,227.76,56,100
315.45,225.88,56,100
314.09,227.67,56,100
311.93,227.25,56,100
312.46,228.58,56,100
313.09,227.75,56,100
312.6,229.67,56,100
315.28,227.17,56,100
319.7,225.87,56,100
320.98,226.7,56,100
321.99,227.21,56,100
321.06,227.5,56,100
319.58,225.54,56,100
318.28,224.87,56,100
316.26,224.1,56,100
317.97,229.32,56,100
318.32,231.05,56,100
321.29,228.43,56,100
326.5,228.58,56,100
327.35,231.52,56,100
329.1,233.52,56,100
330.14,231.69,56,100
328.69,229.45,56,100
323.91,228.84,56,100
322.29,230.61,56,100
322.13,230.3,56,100
321.55,230.05,56,100
317.71,231.23,56,100
317.82,231.49,56,100
320.23,230.46,56,100
319.47,230.62,56,100
319.56,230.54,56,100
317.93,231.16,56,100
315.33,230.32,56,100
316.38,229.32,56,100
315.19,231,56,100
315.3,229,56,100
314.02,227.14,56,100
314.88,224.77,56,100
315.65,224.26,56,100
317.02,222.99,56,100
316.94,223.46,56,100
314.45,225.81,56,100
315.34,224.75,56,100
314.08,225.73,56,100
317.2,227.13,56,100
318.67,226.68,56,100
321.17,228.73,56,100
322.29,227.78,56,100
320.48,227.05,56,100
321.85,230.76,56,100
321.75,232.55,56,100
322.46,231.92,56,100
322.51,231.27,56,100
323.25,232.64,56,100
324.19,233.53,56,100
326.25,236.82,56,100
328.65,234.08,56,100
328.72,232.47,56,100
328,235.08,56,100
326.23,236.45,56,100
327.16,236.58,56,100
326.97,235.96,56,100
329.74,234.21,56,100
330.54,231.34,56,100
331.45,231.94,56,100
332.87,232.77,56,100
335.38,234.7,56,100
336.58,236.18,56,100
336.85,236.78,56,100
336.5,236.16,56,100
335.32,234.1,56,100
336.56,235.69,56,100
335.7,236.45,56,100
334.28,237.15,56,100
333.97,237.4,56,100
335.1,236.92,56,100
334.38,236.72,56,100
335.03,236.46,56,100
337.64,236.31,56,100
338.27,235.81,56,100
337.97,235.08,56,100
338.22,234.36,56,100
338.79,232.29,56,100
337.72,233.19,56,100
335.63,232.03,56,100
334.65,231.6,56,100
333.73,229.96,56,100
335.57,229.35,56,100
337.63,230.11,56,100
337.92,231.56,56,100
336.36,230.89,56,100
335.52,232.32,56,100
335.2,235.32,56,100
334.74,233.74,56,100
332.91,233.52,56,100
332.25,235.84,56,100
331.78,233.83,56,100
328.78,234.44,56,100
329.55,236.14,56,100
329.84,234.67,56,100
330.69,233.91,56,100
327.83,233.56,56,100
328.07,234.13,56,100
326.53,231.85,56,100
329.39,232,56,100
328.25,233.58,56,100
326.96,235.26,56,100
323.54,236.71,56,100
320.53,236.12,56,100
320.01,235.72,56,100
319.05,237.11,56,100
319.24,237.95,56,100
319.18,239,56,100
319.64,238.66,56,100
323.95,237.48,56,100
325.79,238.05,56,100
325.45,236.71,56,100
325.48,237.85,56,100
325.73,239.67,56,100
324.88,241.22,56,100
327.19,242.37,56,100
327.33,241.68,56,100
327.98,242.46,56,100
328.96,242.85,56,100
332.26,241.5,56,100
334.7,240.94,56,100
335.22,241.25,56,100
336.78,241.54,56,100
334.93,243.5,56,100
333.96,243.68,56,100
333.39,244.96,56,100
332.93,244.07,56,100
334.66,245.66,56,100
335.99,245.72,56,100
335.85,246.4,56,100
337.03,246.74,56,100
337.92,248.39,56,100
337.87,246.78,56,100
337.38,244.75,56,100
335.9,245.13,56,100
334.98,245.36,56,100
335.68,244.88,56,100
335.99,243.07,56,100
336.4,240.5,56,100
338.36,239.15,56,100
337.08,239.45,56,100
336.04,239.48,56,100
338.31,238.1,56,100
339.49,240.71,56,100
341.17,240.46,56,100
341.13,241.9,56,100
340.14,241.67,56,100
340.66,242.92,56,100
341.5,239.97,56,100
340.86,237.77,56,100
341.33,239.33,56,100
341.73,241.35,56,100
341.97,241.91,56,100
344.02,240.95,56,100
346.91,239.97,56,100
347.97,240.78,56,100
347.01,241.68,56,100
344.72,242.95,56,100
344.17,242.32,56,100
343.91,241.26,56,100
344.7,240.9,56,100
345.1,241.44,56,100
343.95,240.29,56,100
344.79,241.91,56,100
347.13,240.03,56,100
347.89,240.02,56,100
350.22,240.41,56,100
352.09,239.18,56,100
351.97,237.92,56,100
352.84,236.43,56,100
351.46,237.47,56,100
350.11,238.29,56,100
351.44,239.15,56,100
352.87,237.44,56,100
351.47,237.78,56,100
351.32,238.05,56,100
350.77,238.1,56,100
350.19,236.34,56,100
348.74,236.08,56,100
348.59,236.8,56,100
344.65,233.09,56,100
341.47,233.82,56,100
339.16,235.26,56,100
338.57,234.59,56,100
337.63,235,56,100
335.86,234.65,56,100
333.18,234.52,56,100
334.81,235.35,56,100
334.8,234.45,56,100
333.71,234.16,56,100
331.19,234.33,56,100
332.38,234.79,56,100
330.54,236.45,56,100
329.78,234.61,56,100
331.46,235.68,56,100
330.51,234.91,56,100
330.37,235.35,56,100
330.84,235.21,56,100
330.16,237.89,56,100
330.49,236.42,56,100
328.68,235.77,56,100
328.28,235.65,56,100
328.65,236.59,56,100
328.24,234.4,56,100
326.26,236.18,56,100
328.86,235.2,56,100
329.23,236.24,56,100
328.46,237.88,56,100
326.91,236.88,56,100
326.49,236.39,56,100
327.67,236.41,56,100
326.91,239.28,56,100
326.09,239.82,56,100
324.37,240.72,56,100
326.58,241.32,56,100
325.18,240.8,56,100
324.96,238.2,56,100
324.69,237.36,56,100
325.74,239.35,56,100
324.44,240.47,56,100
324.62,239.32,56,100
323.57,236.49,56,100
324.27,237.92,56,100
322.89,235.79,56,100
324.96,235.19,56,100
325.76,235.69,56,100
325.6,236.23,56,100
323.24,237.28,56,100
321.86,236.94,56,100
322.15,237.66,56,100
321.43,235.89,56,100
320.36,237.16,56,100
317.16,238.05,56,100
314.77,234.64,56,100
315.34,236.95,56,100
315.66,237.61,56,100
315.7,237.81,56,100
316.88,234.3,56,100
318.46,236.65,56,100
317.86,236.62,56,100
316.99,236.9,56,100
315.82,237.7,56,100
315.02,236.59,56,100
312.77,236.76,56,100
310.44,239.08,56,100
308.15,240.35,56,100
307.82,238.41,56,100
305.79,238.03,56,100
303.53,237.91,56,100
302.77,237.07,56,100
303.43,237.08,56,100
306.42,236.99,56,100
309.03,239.18,56,100
310.79,239.03,56,100
311.23,239.73,56,100
311.9,240.26,56,100
310.01,240.49,56,100
308.38,241.57,56,100
309.97,240.06,56,100
308.99,238.07,56,100
310.12,237.77,56,100
310.57,239.87,56,100
310.19,240.81,56,100
305.77,241.39,56,100
306.64,243.67,56,100
307.17,242.12,56,100
307.87,241.55,56,100
306.9,239.21,56,100
309.23,236.64,56,100
306.41,236.21,56,100
303.9,236.46,56,100
303.31,235.52,56,100
300.67,235.79,56,100
300.96,233.78,56,100
300.28,234.63,56,100
298.47,230.57,56,100
295.44,228.85,56,100
295.07,228.13,56,100
295.56,229.32,56,100
296.45,228.94,56,100
295.73,226.96,56,100
293.34,224.72,56,100
293.59,226.31,56,100
294.69,225.65,56,100
296.85,224.72,56,100
299.01,224.07,56,100
301.58,224.35,56,100
301.21,223.79,56,100
301.94,224.14,56,100
304.35,224.78,56,100
305.96,223.62,56,100
305.75,223.13,56,100
306.5,222.53,56,100
305.79,221.4,56,100
305.67,221.33,56,100
304.83,221.13,56,100
305.03,220.43,56,100
304.5,220.15,56,100
305.16,222.81,56,100
302.94,223.28,56,100
302.78,221.92,56,100
303.59,219.71,56,100
303.45,219.33,56,100
300.9,220.08,56,100
303.43,221.18,56,100
304.07,222.12,56,100
303.28,223.1,56,100
304.6,222.21,56,100
305.43,222.48,56,100
306.04,222.58,56,100
306.96,222.81,56,100
311.92,218.52,56,100
311.46,221.16,56,100
312.14,221.55,56,100
314.8,223.13,56,100
313.23,224.54,56,100
310.48,225.33,56,100
311.33,225.99,56,100
311.09,228.26,56,100
