227,207,122,99
233.62,207.08,122,99
243.61,210.19,122,99
250.16,216.28,122,99
254.19,224.26,122,99
254.53,231.51,122,99
251.92,234.89,122,99
247.29,240.49,122,99
247.62,244.3,122,99
249.66,248.27,122,99
251.81,251.37,122,99
252.55,252.75,122,99
252.19,255.39,122,99
252.54,259.22,122,99
256.31,260.75,122,99
259.4,265.25,122,99
262.78,268.56,122,99
263.02,269.46,122,99
260.23,270.12,122,99
256.87,270.41,122,99
253.82,268.42,122,99
254.54,266.92,122,99
254.81,266.4,122,99
256.35,268.4,122,99
256.57,270.67,122,99
255.8,270.65,122,99
255.87,272.57,122,99
257.88,271.12,122,99
259.1,269.03,122,99
258.91,270.03,122,99
261.74,271.89,122,99
263.16,269.85,122,99
263.99,269.74,122,99
262.44,269.98,122,99
259.07,268.96,122,99
258.99,268.06,122,99
257.62,265.34,122,99
257.68,266.09,122,99
257.96,267.18,122,99
257.34,266.69,122,99
253.93,265.6,122,99
253.63,265.61,122,99
255.97,266.09,122,99
256.15,263.35,122,99
258.12,259.7,122,99
257.42,259.04,122,99
257.85,257.58,122,99
254.63,254.31,122,99
253.11,255.01,122,99
251.86,255.84,122,99
251.55,256.88,122,99
250.73,259.49,122,99
250.95,258.13,122,99
252.62,257.27,122,99
253.84,257.13,122,99
253.84,257.22,122,99
253.41,254.55,122,99
253.64,253.1,122,99
253.32,249.77,122,99
252.09,249.24,122,99
251.79,250.83,122,99
249.89,251.37,122,99
248.86,249.52,122,99
248.76,247.25,122,99
251.33,243.77,122,99
251.12,242.27,122,99
252.52,240.34,122,99
251.78,236.84,122,99
250.53,236.32,122,99
246.45,234.71,122,99
246.41,233.19,122,99
245.89,233.05,122,99
246.94,232.91,122,99
244.68,234.26,122,99
245.82,231.59,122,99
247.94,230.94,122,99
248.01,228.72,122,99
246.72,226.68,122,99
245.44,223.8,122,99
247.58,221.85,122,99
248.26,221.54,122,99
247.5,222.28,122,99
249.13,221.81,122,99
246.6,224.73,122,99
245.47,225.95,122,99
243.67,224.43,122,99
242.58,224.36,122,99
241.24,224.31,122,99
239.1,226.21,122,99
237.69,222.1,122,99
235.3,221.85,122,99
233.98,221.86,122,99
232.3,220.88,122,99
229.37,222.03,122,99
230.02,222.46,122,99
231.28,221.49,122,99
235.91,220.89,122,99
235.41,223.31,122,99
238.3,226.03,122,99
237.85,226.9,122,99
236.57,225.98,122,99
238.06,225.11,122,99
241.57,224.56,122,99
242.18,223.86,122,99
244.03,220.59,122,99
247.85,222.1,122,99
250.81,223.36,122,99
252.42,226.22,122,99
252.14,226.88,122,99
250.86,227.71,122,99
255.01,227.3,122,99
255.08,224.95,122,99
255.4,225.39,122,99
253.89,223.56,122,99
252.08,224.39,122,99
253.08,220.48,122,99
253.76,219.4,122,99
254.68,219.09,122,99
254.76,220.1,122,99
252.78,218.36,122,99
252.89,219.13,122,99
256.44,219.05,122,99
256.93,219.89,122,99
257.73,219.72,122,99
258.31,221.72,122,99
258.61,222.22,122,99
258.93,223.28,122,99
257.76,224.78,122,99
260,222.37,122,99
262.45,218.15,122,99
263.09,219.08,122,99
263.28,220.59,122,99
264.04,219.99,122,99
263.48,218.82,122,99
262.67,218,122,99
261.32,218.08,122,99
259.36,215.13,122,99
259.09,214.33,122,99
258.92,214.09,122,99
258.67,214.28,122,99
258.5,211.46,122,99
258.01,209.84,122,99
258.53,207.93,122,99
260.01,206.83,122,99
261.78,205.72,122,99
261.5,204.22,122,99
260.27,202.52,122,99
260.14,201.36,122,99
259.68,200.28,122,99
261.64,198.01,122,99
262.17,196.96,122,99
258.58,196.74,122,99
256.21,194.35,122,99
255.9,193.28,122,99
254.82,191.25,122,99
251.41,190.62,122,99
252.59,188.41,122,99
254.63,186.96,122,99
256.83,184.67,122,99
259.49,184.87,122,99
260.61,184.05,122,99
261.81,184.83,122,99
265.09,187.01,122,99
266.29,191.96,122,99
266,191.69,122,99
268.27,192.34,122,99
269.17,193.4,122,99
269.38,195.94,122,99
268.74,197.28,122,99
269.05,198.67,122,99
268.59,201.9,122,99
268.86,201.61,122,99
266.92,199.57,122,99
266.51,199.34,122,99
269.19,198.02,122,99
271.6,194.47,122,99
272.71,194.11,122,99
275.23,193.31,122,99
275.07,193.3,122,99
274.84,194.93,122,99
273.2,196.89,122,99
274.91,198.59,122,99
275.25,200.58,122,99
277.05,200.91,122,99
275.87,199.2,122,99
274.02,196.45,122,99
272.21,195.33,122,99
272.7,194.74,122,99
272.53,195.28,122,99
273.51,196.7,122,99
272.47,195.44,122,99
271.84,196.71,122,99
272.31,198.27,122,99
271.02,197.92,122,99
273.36,200.23,122,99
273.92,200.83,122,99
272.79,202.19,122,99
274.38,202.66,122,99
276.37,202.65,122,99
278.53,202.16,122,99
279.18,203.12,122,99
278.53,202.93,122,99
280.06,205.71,122,99
277.94,209.82,122,99
277.69,207.87,122,99
275.28,208.59,122,99
275.5,209.75,122,99
274.68,211.42,122,99
274.02,212.81,122,99
276.09,214.43,122,99
278.11,215.79,122,99
278.23,215.97,122,99
278.72,216.75,122,99
279.6,217.19,122,99
280.44,216.64,122,99
280.78,215.25,122,99
280.22,215.81,122,99
281.74,217.55,122,99
284.55,218.33,122,99
285.71,216.9,122,99
287.52,216.33,122,99
286.12,215.67,122,99
284.78,217.46,122,99
283.83,218.82,122,99
284.03,219.03,122,99
283.47,220.78,122,99
280.93,219.42,122,99
281.28,219.57,122,99
280.45,221.57,122,99
280.02,225.44,122,99
280.84,229.38,122,99
279.63,232.72,122,99
278.21,232.75,122,99
277.17,230.97,122,99
276.92,231.53,122,99
276.63,230.09,122,99
276.06,228.35,122,99
279.34,226.8,122,99
282.12,226.12,122,99
282.2,223.9,122,99
281.25,224.42,122,99
281.99,223.33,122,99
281.55,221.86,122,99
282.74,220.43,122,99
280.82,222.09,122,99
277.75,222.76,122,99
274.61,222.97,122,99
277.48,224.96,122,99
277.4,226.07,122,99
274.49,225.71,122,99
272.87,227.12,122,99
273.01,224.13,122,99
271.97,222.16,122,99
271.32,223.53,122,99
271.27,222.91,122,99
270.87,224.37,122,99
272.37,223.24,122,99
270.77,222.75,122,99
269.64,223.59,122,99
268.7,222.69,122,99
269.15,223.36,122,99
267.35,223.85,122,99
266.05,224.33,122,99
263.37,226.17,122,99
260.67,223.92,122,99
259.07,224.64,122,99
258.58,224.47,122,99
256.15,224.52,122,99
256.12,224.8,122,99
253.52,227.39,122,99
250.54,228.8,122,99
249.48,222.59,122,99
249.97,219.12,122,99
251.07,217.71,122,99
253.1,216,122,99
256.21,213.13,122,99
258.51,209.96,122,99
260.81,207.16,122,99
259.66,205.01,122,99
259.67,201.46,122,99
260.87,202.51,122,99
262.47,201.72,122,99
264.49,202.39,122,99
265.66,203.83,122,99
267.15,204.6,122,99
267.93,204.8,122,99
267.94,203.28,122,99
268.94,202.07,122,99
266.26,200.77,122,99
264.53,200.5,122,99
265.44,203.06,122,99
266.67,200.69,122,99
267.97,202.33,122,99
270.07,201.11,122,99
268.88,200.22,122,99
269.04,199.39,122,99
270.28,198.7,122,99
272.9,198.92,122,99
274.21,200.47,122,99
271.48,200.27,122,99
270.51,199.08,122,99
267.59,199.11,122,99
266.63,197.33,122,99
264.31,198.62,122,99
264.58,198.17,122,99
264.47,198.34,122,99
263.36,198.83,122,99
263.71,198.68,122,99
261.99,198.31,122,99
262.49,198.8,122,99
263.16,197.75,122,99
262.02,201.33,122,99
261.45,202.71,122,99
260.54,202.53,122,99
262.48,203.19,122,99
263.97,203.97,122,99
263.91,206.61,122,99
261.91,208.21,122,99
261.77,208.87,122,99
262.78,209.79,122,99
265.85,210.55,122,99
266.48,208.79,122,99
263.62,209.73,122,99
260.21,210.77,122,99
258.7,207.99,122,99
258.28,205.15,122,99
259.91,208.2,122,99
258.89,208.38,122,99
261.57,208.86,122,99
259.95,207.5,122,99
258.6,208.82,122,99
257.19,207.62,122,99
256.71,208.98,122,99
259.1,209.76,122,99
260.62,211.67,122,99
261.76,209.92,122,99
261.1,210.9,122,99
258.29,212.03,122,99
261.48,211.4,122,99
261.82,212.4,122,99
263.44,210.7,122,99
264.22,210.78,122,99
265.54,214.15,122,99
266.46,215.67,122,99
267.92,216.08,122,99
267.6,216.7,122,99
266.33,214.44,122,99
265.11,215.94,122,99
264.94,218.04,122,99
263.55,215.59,122,99
262.56,216.41,122,99
260.86,214.73,122,99
262.04,212.29,122,99
263.15,209.53,122,99
264,211.58,122,99
264.49,214.09,122,99
262.93,212.99,122,99
263.86,213.59,122,99
263.98,214.24,122,99
262.84,216.51,122,99
262.02,217.39,122,99
260.94,218.66,122,99
260.22,216.97,122,99
258.2,214.62,122,99
260.32,214.67,122,99
263.03,214.22,122,99
262.65,218.56,122,99
262.21,219.97,122,99
261.81,219.13,122,99
261.78,220.57,122,99
260.77,219.55,122,99
261.54,218.96,122,99
262.08,221.14,122,99
264.08,224.7,122,99
262.74,223.79,122,99
263.16,222.94,122,99
263.79,222.91,122,99
261.83,223.4,122,99
260.15,224.46,122,99
259.57,226.15,122,99
261.81,226.89,122,99
262.23,229.16,122,99
262.76,230.3,122,99
265.38,233.31,122,99
268.39,232.01,122,99
270.96,229.97,122,99
269.68,229.73,122,99
270.47,230.78,122,99
269.48,231.13,122,99
270.34,231.21,122,99
270.6,231.47,122,99
273.35,229.08,122,99
273.02,227.18,122,99
271.9,226.45,122,99
269.6,227.19,122,99
269.3,225.57,122,99
268.74,224.44,122,99
270.99,224,122,99
271.85,220.42,122,99
273.77,217.17,122,99
274.65,217,122,99
275.05,215.26,122,99
277.9,214.33,122,99
278.96,212.91,122,99
279.49,211.2,122,99
278.26,210.59,122,99
276.1,209.26,122,99
276.66,209.93,122,99
278.05,209.37,122,99
277.05,209.31,122,99
277.12,207.36,122,99
275.99,208.51,122,99
276.59,205.54,122,99
278.95,206.55,122,99
279.19,206.55,122,99
278.16,206.78,122,99
280.25,205.72,122,99
281.63,204.22,122,99
282.93,202.47,122,99
281.38,202.97,122,99
282.31,202.96,122,99
282.58,202.2,122,99
281.52,199.02,122,99
281.9,199.13,122,99
281.6,199.64,122,99
278.9,202.07,122,99
281.26,200.69,122,99
280.34,200.49,122,99
279.4,197.75,122,99
276.98,196.51,122,99
275.75,195.26,122,99
276.39,196.38,122,99
277.39,194.58,122,99
278.89,192.26,122,99
281.21,191.83,122,99
284.59,188.65,122,99
287.51,188.37,122,99
288.83,186.17,122,99
290.18,186.58,122,99
290.35,187.7,122,99
291.05,187.23,122,99
291.37,186.89,122,99
288.98,187.69,122,99
287.35,187.6,122,99
287.61,188.16,122,99
286.84,189.32,122,99
288.29,189.26,122,99
285.23,189.75,122,99
283.7,187.85,122,99
285.29,188.57,122,99
284.73,192.01,122,99
282.48,194.44,122,99
284.46,194.19,122,99
287.95,191.4,122,99
287.65,191.43,122,99
289.72,193.1,122,99
289.93,196.35,122,99
288.97,198.21,122,99
290.41,196.29,122,99
290.68,197.45,122,99
290.97,198.64,122,99
292.01,196.24,122,99
294.18,198.57,122,99
294.82,197.52,122,99
296.58,197.99,122,99
294.79,198.39,122,99
294.18,196.35,122,99
290.89,192.79,122,99
289.82,192.4,122,99
289.59,192.3,122,99
288.69,194,122,99
287.7,193.59,122,99
285.24,193.69,122,99
285.68,192.62,122,99
283.35,189.51,122,99
284.25,190.14,122,99
282.13,189.43,122,99
281.86,191.19,122,99
284.25,187.76,122,99
285.32,188.19,122,99
285.97,188.14,122,99
285.28,188.45,122,99
289.51,189.8,122,99
287.79,191,122,99
286.07,192.65,122,99
285.09,193.84,122,99
284.39,195.78,122,99
284.32,196.73,122,99
281.97,198.14,122,99
280.06,201.25,122,99
279.03,202.78,122,99
277.06,204.16,122,99
275.67,204.18,122,99
275.98,206.4,122,99
275.5,205.22,122,99
277.16,204.34,122,99
278.41,202.74,122,99
277.78,203.74,122,99
279.87,202.34,122,99
280.48,199.73,122,99
279.01,197.75,122,99
279.18,196.31,122,99
279.12,197.44,122,99
278.23,198.3,122,99
276.15,197.42,122,99
275.22,197.52,122,99
275.23,200.01,122,99
277.1,200.77,122,99
277.39,200.12,122,99
279.56,200.19,122,99
282.19,202.75,122,99
280.7,205.09,122,99
279.37,208.79,122,99
277.53,209.25,122,99
278.25,207.57,122,99
277.1,206.88,122,99
274.26,207.16,122,99
273.48,208.12,122,99
273.57,208.63,122,99
275.37,205.72,122,99
281.05,205.7,122,99
281.16,205.56,122,99
281.49,204.16,122,99
282.11,201.21,122,99
278.01,198.99,122,99
278.68,197.5,122,99
278.64,195.42,122,99
279.53,192.23,122,99
279.13,188.85,122,99
278.45,191.04,122,99
281.16,188.96,122,99
278.43,189.25,122,99
280.05,191.57,122,99
282.25,191.68,122,99
281.79,191.3,122,99
281.12,193.79,122,99
278.85,195.52,122,99
275.43,196.4,122,99
275.43,198.11,122,99
272.65,197.66,122,99
272.28,194.6,122,99
274.57,191.7,122,99
274.61,189.52,122,99
273.5,187.08,122,99
271.55,184.93,122,99
271.55,182.89,122,99
269.44,183.09,122,99
270.32,184.8,122,99
268.42,185.9,122,99
267.1,185.47,122,99
269.24,185.67,122,99
271.64,188.26,122,99
271.13,188.28,122,99
271.01,189,122,99
270.8,190.19,122,99
271.13,192.56,122,99
272.68,194.75,122,99
270.81,195.72,122,99
270.3,198,122,99
271.12,199.72,122,99
268.6,199.22,122,99
267.15,198.78,122,99
265.15,199.08,122,99
263.51,199.88,122,99
262.01,201.16,122,99
262.39,199.34,122,99
262.35,198.26,122,99
263.68,197.49,122,99
262.99,199.71,122,99
261.38,200.79,122,99
263.78,201.93,122,99
262.32,202.53,122,99
261.07,201.69,122,99
260.73,204.22,122,99
260.69,205.29,122,99
258.77,206.45,122,99
257.86,207.31,122,99
256.42,207.95,122,99
256.31,208.61,122,99
255.75,210.28,122,99
252.35,208.23,122,99
249.63,207.38,122,99
250.81,208.05,122,99
252.42,209.42,122,99
253.35,208.68,122,99
