23,88,66,55
23.55,88.266,66,55
23.918,88.137,66,55
24.693,89.244,66,55
24.509,90.426,66,55
23.55,91.006,66,55
24.643,89.695,66,55
23.823,89.04,66,55
23.498,88.352,66,55
23.526,88.191,66,55
23.685,87.79,66,55
22.605,87.524,66,55
24.757,87.127,66,55
24.956,86.511,66,55
25.612,85.385,66,55
25.049,83.076,66,55
25.172,82.885,66,55
26.162,82.158,66,55
24.852,81.101,66,55
25.668,80.396,66,55
25.83,80.725,66,55
25.115,80.966,66,55
24.751,81.477,66,55
24.829,83.109,66,55
23.537,83.551,66,55
25.791,82.673,66,55
25.912,82.148,66,55
25.999,81.839,66,55
26.289,83.121,66,55
27.48,82.43,66,55
28.726,82.692,66,55
30.483,83.131,66,55
29.954,82.303,66,55
30.611,81.767,66,55
30.496,82.191,66,55
31.604,81.344,66,55
32.617,80.688,66,55
32.363,79.335,66,55
32.174,78.096,66,55
33.472,78.628,66,55
34.329,77.831,66,55
36.493,77.753,66,55
35.776,78.676,66,55
37.276,78.778,66,55
36.84,77.812,66,55
35.658,78.874,66,55
37.616,80.941,66,55
38.079,82.161,66,55
38.296,84.167,66,55
37.973,83.22,66,55
37.324,84.444,66,55
37.954,85.642,66,55
35.63,86.247,66,55
37.154,86.444,66,55
37.009,84.61,66,55
37.435,84.229,66,55
36.902,84.998,66,55
37.84,84.531,66,55
38.777,84.333,66,55
37.299,85.507,66,55
38.414,84.739,66,55
37.983,85.084,66,55
37.482,86.041,66,55
38.803,85.737,66,55
38.851,86.233,66,55
35.418,84.819,66,55
38.129,86.761,66,55
39.904,85.321,66,55
40.601,83.134,66,55
40.708,82.885,66,55
39.78,81.596,66,55
41.545,78.906,66,55
40.535,79.706,66,55
40.517,80.359,66,55
41.657,80.314,66,55
40.084,80.018,66,55
40.67,78.524,66,55
40.439,78.631,66,55
40.382,77.604,66,55
42.526,76.876,66,55
41.354,77.046,66,55
42.518,77.844,66,55
41.338,76.895,66,55
43.599,76.4,66,55
44.58,77.132,66,55
42.196,76.61,66,55
40.525,75.856,66,55
40.074,77.926,66,55
42.406,77.653,66,55
41.941,76.149,66,55
40.648,74.845,66,55
41.047,73.832,66,55
40.733,76.443,66,55
41.37,75.591,66,55
41.118,75.345,66,55
40.959,73.815,66,55
41.444,75.268,66,55
40.309,76.19,66,55
40.725,75.723,66,55
39.721,73.577,66,55
39.853,73.476,66,55
40.754,74.752,66,55
41.937,74.31,66,55
39.849,74.814,66,55
40.041,74.671,66,55
38.596,74.447,66,55
38.308,72.391,66,55
39.084,70.355,66,55
40.094,71.411,66,55
41.091,68.198,66,55
41.608,67.532,66,55
42.243,68.221,66,55
41.751,68.308,66,55
42.486,69.119,66,55
43.12,68.332,66,55
41.795,68.756,66,55
43.257,68.074,66,55
42.695,69.486,66,55
43.262,72.255,66,55
41.961,72.257,66,55
39.901,74.525,66,55
41.297,75.487,66,55
39.602,74.262,66,55
39.855,74.478,66,55
37.19,74.821,66,55
37.985,72.366,66,55
37.466,73.725,66,55
36.31,74.138,66,55
36.971,71.988,66,55
35.417,70.966,66,55
33.798,70.53,66,55
35.61,70.484,66,55
36.172,71.929,66,55
38.176,71.116,66,55
38.058,71.332,66,55
36.709,71.719,66,55
36.184,71.939,66,55
35.092,70.542,66,55
37.223,70.294,66,55
37.195,70.816,66,55
37.871,71.652,66,55
37.335,69.055,66,55
37.077,70.814,66,55
37.794,70.236,66,55
37.637,71.257,66,55
38.694,71.068,66,55
39.954,71.874,66,55
40.958,69.723,66,55
40.314,70.347,66,55
38.763,69.009,66,55
38.885,69.296,66,55
38.497,70.634,66,55
38.347,70.541,66,55
37.71,71.03,66,55
37.595,71.283,66,55
37.49,69.345,66,55
39.09,69.677,66,55
38.487,68.016,66,55
38.582,67.887,66,55
37.346,65.374,66,55
37.2,67.056,66,55
37.151,69.098,66,55
36.105,68.596,66,55
37.077,70.672,66,55
36.92,70.205,66,55
36.167,70.783,66,55
34.801,71.891,66,55
34.03,72.236,66,55
31.943,71.087,66,55
30.048,72.227,66,55
30.611,72.339,66,55
33.435,73.094,66,55
32.333,73.577,66,55
31.291,72.913,66,55
27.977,74.075,66,55
26.485,73.577,66,55
27.379,72.695,66,55
26.516,72.86,66,55
21.743,74.184,66,55
23.672,74.095,66,55
24.026,73.809,66,55
22.954,75.219,66,55
22.504,73.932,66,55
20.376,75.277,66,55
18.545,75.932,66,55
17.091,74.287,66,55
16.546,75.523,66,55
15.48,76.137,66,55
13.217,72.81,66,55
13.071,74.248,66,55
12.789,76.133,66,55
11.974,75.839,66,55
12.767,77.165,66,55
10.438,77.666,66,55
9.361,77.607,66,55
7.9227,78.949,66,55
8.6112,78.721,66,55
9.3314,79.938,66,55
7.6017,80.343,66,55
5.622,78.903,66,55
5.4075,80.513,66,55
5.0266,82.164,66,55
5.7519,82.751,66,55
6.2052,82.046,66,55
5.2907,82.701,66,55
5.3461,82.825,66,55
4.8429,82.439,66,55
4.1682,83.773,66,55
2.9975,83.247,66,55
2.8911,80.39,66,55
2.4531,81.138,66,55
4.4724,82.144,66,55
5.7525,79.978,66,55
4.457,78.981,66,55
3.4041,78.982,66,55
4.7756,78.147,66,55
5.5742,77.52,66,55
7.154,77.703,66,55
7.9816,77.79,66,55
9.7115,80.952,66,55
7.4599,79.899,66,55
5.8434,79.267,66,55
6.8054,77.637,66,55
7.617,77.296,66,55
9.304,77.423,66,55
10.065,75.604,66,55
10.038,76.588,66,55
8.3344,76.823,66,55
9.097,75.403,66,55
8.9009,75.591,66,55
11.089,76.283,66,55
12.032,75.584,66,55
13.32,76.691,66,55
12.532,78.109,66,55
12.475,78.931,66,55
13.096,81.706,66,55
10.644,80.028,66,55
11.056,81.035,66,55
11.527,83.511,66,55
10.825,84.357,66,55
10.833,81.486,66,55
11.682,80.798,66,55
10.65,80.358,66,55
8.2037,80.021,66,55
9.2007,80.371,66,55
8.5286,80.065,66,55
9.3873,82.15,66,55
10.654,82.8,66,55
10.234,83.656,66,55
9.2257,85.714,66,55
9.522,85.891,66,55
10.448,86.1,66,55
9.9746,87.216,66,55
11.258,89.101,66,55
9.7166,88.805,66,55
9.9623,91.192,66,55
9.3269,91.316,66,55
9.9709,91.859,66,55
7.3185,93.584,66,55
9.3008,93.856,66,55
10.519,96.558,66,55
9.1168,98.386,66,55
8.7233,97.165,66,55
11.043,97.392,66,55
11.811,98.389,66,55
10.777,99.639,66,55
8.8315,99.476,66,55
10.638,98.154,66,55
12.901,97.873,66,55
14.232,98.59,66,55
14.209,98.436,66,55
13.294,97.43,66,55
13.321,98.353,66,55
13.853,96.623,66,55
15.482,98.274,66,55
14.861,96.898,66,55
14.457,96.994,66,55
14.282,97.657,66,55
12.987,96.19,66,55
12.818,97.247,66,55
11.744,95.891,66,55
12.509,97.442,66,55
12.61,99.429,66,55
12.199,99.634,66,55
13.183,100.22,66,55
14.599,101.28,66,55
13.888,104.25,66,55
14.031,103.52,66,55
17.238,104.75,66,55
18.567,105.42,66,55
17.993,107.22,66,55
18.081,107.92,66,55
16.93,108.33,66,55
17.125,106.96,66,55
16.529,108.92,66,55
16.029,108,66,55
16.926,109.23,66,55
15.876,107.41,66,55
14.788,107.87,66,55
14.477,110.1,66,55
14.192,107.04,66,55
13.978,107.58,66,55
15.55,110.4,66,55
16.836,111.89,66,55
17.563,114.26,66,55
17.606,116.22,66,55
17.879,117.24,66,55
20.033,120.86,66,55
21.768,120.31,66,55
20.343,123.96,66,55
23.273,122.62,66,55
22.107,122.97,66,55
24.139,123.8,66,55
25.533,123.6,66,55
24.636,124.98,66,55
25.827,123.01,66,55
25.128,123.77,66,55
26.466,124.71,66,55
29.548,127.39,66,55
27.983,127.91,66,55
29.422,128.73,66,55
28.228,130.49,66,55
28.365,132.1,66,55
27.092,134.88,66,55
27.236,135.05,66,55
26.828,135.31,66,55
24.991,138.73,66,55
24.985,139.3,66,55
24.48,139.81,66,55
25.389,140.83,66,55
24.679,143.73,66,55
26.147,145.75,66,55
24.501,147.41,66,55
25.562,147.98,66,55
25.113,151.11,66,55
27.642,152.22,66,55
28.714,154.72,66,55
26.602,157.86,66,55
26.156,158.6,66,55
28.66,159.52,66,55
29.247,158.11,66,55
30.231,157.01,66,55
29.751,157.48,66,55
30.131,159.6,66,55
30.807,160.45,66,55
31.67,161.88,66,55
32.339,164.03,66,55
33.174,164.8,66,55
32.278,165.13,66,55
31.516,166.82,66,55
31.867,167.2,66,55
31.144,166.81,66,55
31.565,167.5,66,55
31.131,167.57,66,55
31.83,167.59,66,55
33.738,167.62,66,55
34.01,169.11,66,55
34.74,169.77,66,55
37.2,173.62,66,55
36.442,172.1,66,55
38.444,171.98,66,55
39.69,171.41,66,55
40.711,173.34,66,55
42.37,173.2,66,55
44.49,173.98,66,55
45.277,169.76,66,55
45.696,170.98,66,55
44.585,172.46,66,55
46.347,173.77,66,55
45.901,175.17,66,55
45.362,174.92,66,55
46.427,175.53,66,55
46.07,176.7,66,55
46.369,175.64,66,55
46.221,179.23,66,55
45.038,178,66,55
44.316,175.04,66,55
44.763,173.51,66,55
47.891,172.5,66,55
49.739,171.55,66,55
52.67,171.38,66,55
55.519,170.02,66,55
57.549,171.25,66,55
60.816,171.4,66,55
64.311,170.18,66,55
65.644,165.44,66,55
66.274,162.38,66,55
65.834,161.02,66,55
65.061,161.68,66,55
65.147,161.11,66,55
65.455,161.48,66,55
64.06,162.13,66,55
64.629,163.4,66,55
64.825,165.18,66,55
64.476,164,66,55
64.09,163.64,66,55
63.106,162.7,66,55
61.726,164.88,66,55
61.764,165.85,66,55
61.764,165.3,66,55
60.259,165.15,66,55
61.477,165.88,66,55
62.685,165.25,66,55
59.835,165.37,66,55
63.013,164.93,66,55
63.473,164.63,66,55
63.509,164.82,66,55
64.075,165.11,66,55
62.315,164.17,66,55
63.904,163.04,66,55
67.475,164.52,66,55
65.594,167.05,66,55
64.998,167.16,66,55
64.737,166.51,66,55
63.206,166.3,66,55
64.235,166.84,66,55
65.889,167.67,66,55
65.739,167.37,66,55
67.932,167.51,66,55
67.914,168.26,66,55
69.822,170.47,66,55
71.167,173.92,66,55
69.776,174.42,66,55
70.068,175.83,66,55
72.495,172.71,66,55
71.974,170.79,66,55
72.947,171.85,66,55
74.055,172,66,55
73.214,169.91,66,55
75.727,169.53,66,55
76.449,170.22,66,55
76.055,172.62,66,55
74.883,174.21,66,55
75.412,170.3,66,55
75.169,169.35,66,55
77.961,169.23,66,55
78.696,169.76,66,55
80.295,170.05,66,55
81.174,172.33,66,55
80.911,171.66,66,55
80.433,168.34,66,55
78.968,167.45,66,55
80.111,167.08,66,55
79.024,166.11,66,55
77.99,164.43,66,55
80.923,164.06,66,55
80.48,164.83,66,55
80.212,166.46,66,55
81.874,167.68,66,55
81.173,166.34,66,55
80.246,165.51,66,55
80.099,167.22,66,55
81.759,164.17,66,55
83.028,160.92,66,55
83.083,163.26,66,55
80.825,163.2,66,55
80.829,163.56,66,55
80.475,164.09,66,55
82.869,164.58,66,55
83.208,163.6,66,55
86.483,163.02,66,55
87.811,164.58,66,55
87.666,165.16,66,55
89.407,165.01,66,55
91.536,164.56,66,55
94.231,161.38,66,55
95.585,160.44,66,55
94.443,161.59,66,55
94.879,162.92,66,55
94.789,165.05,66,55
96.241,166.43,66,55
97.073,163.08,66,55
99.727,162.05,66,55
100.04,162.56,66,55
100.46,163,66,55
99.495,162.8,66,55
101.57,164.07,66,55
101.16,164.41,66,55
99.784,166.24,66,55
101.59,168.92,66,55
104.2,169.76,66,55
105.17,168.23,66,55
106.78,169.59,66,55
108.82,169.22,66,55
109.35,169.77,66,55
111.44,170.97,66,55
110.55,172.73,66,55
108.44,173.41,66,55
108.55,172.57,66,55
107.86,171.64,66,55
108.83,170.04,66,55
110.32,169.38,66,55
110.2,170.17,66,55
111.48,170.82,66,55
108.64,172.41,66,55
108.42,173.07,66,55
108.57,173.72,66,55
111.86,172.87,66,55
111.79,173.95,66,55
112.74,176.02,66,55
114.73,178.38,66,55
114.14,179.04,66,55
112.77,179.32,66,55
112.12,180.4,66,55
113.04,181.46,66,55
112.81,182.63,66,55
110.72,182.81,66,55
108.92,182.1,66,55
109.46,181.5,66,55
111.04,182.5,66,55
110.34,181.65,66,55
109.61,182.7,66,55
110.09,181.68,66,55
107.74,183.52,66,55
108.06,181.08,66,55
108.43,182.05,66,55
109.79,182.01,66,55
110.84,182.31,66,55
109.68,181.76,66,55
110.04,182.2,66,55
110.02,183.93,66,55
110.44,184.93,66,55
107.91,183.48,66,55
107.78,184.33,66,55
109.15,184.59,66,55
110.44,183.63,66,55
110.06,184.61,66,55
106.92,186.32,66,55
107.54,186.21,66,55
107.64,188.06,66,55
108,187.39,66,55
107.23,188.93,66,55
107.89,190.17,66,55
107.06,189.9,66,55
103.87,190.65,66,55
103.05,192.23,66,55
102.9,193.34,66,55
100.76,194.12,66,55
101.26,193.57,66,55
102.71,194.51,66,55
102.51,194.34,66,55
102.44,195.51,66,55
103.59,194.77,66,55
102.9,194.41,66,55
100.21,194.51,66,55
98.01,194.37,66,55
98.046,194.55,66,55
99.594,195.29,66,55
100.7,195.45,66,55
99.784,196.02,66,55
98.782,193.27,66,55
98.861,194.06,66,55
99.161,194.91,66,55
98.478,194.59,66,55
97.799,194.47,66,55
96.821,195.1,66,55
96.264,196.99,66,55
95.969,197.48,66,55
96.224,197.38,66,55
97.007,197.04,66,55
97.543,196.84,66,55
97.869,197.64,66,55
99.003,197.68,66,55
101.38,197.65,66,55
100.19,197.12,66,55
100.73,197.1,66,55
99.033,196.94,66,55
100.3,197.53,66,55
100.55,199.39,66,55
102.3,197.54,66,55
102.11,197.3,66,55
101.98,197.07,66,55
102.96,196.28,66,55
102.56,198.09,66,55
103.05,197.34,66,55
103.22,198.6,66,55
101.6,198.47,66,55
102.24,196.62,66,55
101.49,197.25,66,55
101.57,195.82,66,55
101.91,196.45,66,55
102.72,196.75,66,55
102.44,196.56,66,55
103.33,196.98,66,55
103.72,197.03,66,55
106.55,199.02,66,55
105.78,198.11,66,55
106.47,197.66,66,55
103.9,197.72,66,55
100.78,196.72,66,55
100.15,196.09,66,55
103.4,195.8,66,55
102.75,195.27,66,55
102.48,195.62,66,55
101.7,195.91,66,55
103.71,196.26,66,55
103.27,194,66,55
102.86,194.78,66,55
103.63,195.61,66,55
104.11,194.73,66,55
103.51,194.28,66,55
102.11,194.93,66,55
103.6,195.69,66,55
102.17,194.67,66,55
102.59,194.24,66,55
104.2,195.09,66,55
103.64,195.85,66,55
104.99,196.07,66,55
102.38,197.71,66,55
103.58,198.22,66,55
102.18,199.09,66,55
100.68,197.71,66,55
99.838,197.6,66,55
101.31,197.28,66,55
103.76,196.8,66,55
104.51,198.08,66,55
104.97,196.11,66,55
105.34,194.75,66,55
103.92,196.61,66,55
107.46,196.61,66,55
106.87,195.75,66,55
104.46,195.23,66,55
106.02,194.55,66,55
109.68,195.28,66,55
109.68,193.22,66,55
108.13,195.08,66,55
106.74,195.28,66,55
109.01,196.27,66,55
108.88,195.42,66,55
110.32,197.38,66,55
111.28,196.95,66,55
110.62,197.8,66,55
112.82,197.78,66,55
111.64,195.96,66,55
110.74,195.75,66,55
109.59,195.88,66,55
110.56,195.75,66,55
112.13,196.83,66,55
111.72,199.19,66,55
113.22,199.79,66,55
112.07,198.85,66,55
113.86,197.99,66,55
115.56,198.23,66,55
116.72,198.32,66,55
116.09,197.53,66,55
116.66,196.03,66,55
116.5,196.51,66,55
118.1,196.79,66,55
116.96,197.43,66,55
116.02,196.81,66,55
116.08,197.04,66,55
113.77,197.91,66,55
114.19,199.43,66,55
116.4,199.28,66,55
117.89,199.56,66,55
119.12,199.6,66,55
116.56,198.45,66,55
115.6,198.08,66,55
113.49,199.09,66,55
112.72,198.65,66,55
112.68,197.61,66,55
110.87,197.53,66,55
109.08,197.52,66,55
110.84,195.7,66,55
109.49,195.25,66,55
111.07,195.13,66,55
110.39,195.71,66,55
110.01,195.63,66,55
110.21,195.74,66,55
108.65,197.58,66,55
107.12,197.8,66,55
107.27,198.74,66,55
106.85,195.6,66,55
107.39,193.24,66,55
108.3,191.3,66,55
106.46,192.19,66,55
106.95,194.01,66,55
107.32,194.38,66,55
106.17,194.68,66,55
105.26,195.68,66,55
107.02,195.46,66,55
108.97,195.79,66,55
108.97,198.29,66,55
109.06,198.2,66,55
106.86,201.49,66,55
106.71,199.73,66,55
103.93,200.4,66,55
104.03,198.66,66,55
103.51,200.6,66,55
103.85,197.44,66,55
105.14,198.56,66,55
104.64,197.49,66,55
104.42,196.9,66,55
104.33,197.04,66,55
104.68,198.9,66,55
104.21,198.52,66,55
104.67,197.74,66,55
104.75,198.8,66,55
103.23,197.67,66,55
102.63,196.77,66,55
102.8,197.64,66,55
102.48,198.83,66,55
102.27,198.03,66,55
102.15,198.43,66,55
100.7,197.14,66,55
100.02,196.63,66,55
98.507,198.55,66,55
99.347,199.29,66,55
99.354,199.55,66,55
99.59,199.25,66,55
98.063,199.99,66,55
99.891,201.47,66,55
98.677,200.54,66,55
100.35,200.81,66,55
101.32,200.88,66,55
100.3,200.96,66,55
100.53,200.49,66,55
98.139,200.97,66,55
98.131,201.59,66,55
99.595,201.51,66,55
98.392,202.37,66,55
97.507,201.51,66,55
98.873,200.5,66,55
99.516,201.91,66,55
99.933,196.61,66,55
101.61,196.84,66,55
105.69,196.68,66,55
103.01,197.36,66,55
103.02,196.65,66,55
100.67,197.11,66,55
99.97,196.02,66,55
101.55,196.05,66,55
101.06,197.34,66,55
99.065,197.52,66,55
99.181,196.87,66,55
98.612,195.85,66,55
101.17,197.95,66,55
98.387,199.15,66,55
96.979,199.25,66,55
96.329,195.62,66,55
97.254,193.8,66,55
97.942,194.79,66,55
98.011,195.53,66,55
98.273,195.78,66,55
97.926,195.54,66,55
98.096,194.8,66,55
97.216,196.27,66,55
97.239,197.18,66,55
95.956,196.82,66,55
94.856,195.12,66,55
94.949,194.62,66,55
95.109,195.17,66,55
96.396,195.83,66,55
97.421,195.54,66,55
99.233,195.01,66,55
98.629,195.62,66,55
97.55,194.15,66,55
100.27,194.91,66,55
100.44,194.83,66,55
100.64,195.57,66,55
100.41,196.18,66,55
100.12,197.14,66,55
99.358,197.95,66,55
100.43,198.76,66,55
99.433,196.99,66,55
98.203,196.74,66,55
99.623,197.08,66,55
100.48,198.81,66,55
100.47,197.78,66,55
100.61,199.32,66,55
102.25,198.72,66,55
102.83,198.44,66,55
103.32,197.14,66,55
103.15,196.09,66,55
104.01,195.51,66,55
106.24,193.92,66,55
107.01,192.33,66,55
107.8,193.98,66,55
107.92,195.36,66,55
109.89,194.14,66,55
110.53,194.82,66,55
113.51,194.75,66,55
114.64,195.92,66,55
113.38,195.72,66,55
112.31,196.43,66,55
110.62,196.51,66,55
109.56,196.12,66,55
109.08,194.8,66,55
109.33,196.03,66,55
110.46,196.1,66,55
108.82,196.26,66,55
106.57,196.61,66,55
105.31,196.22,66,55
103.52,196.28,66,55
104.77,195.57,66,55
102.24,197.56,66,55
100.51,196.6,66,55
99.083,196.11,66,55
99.251,196.26,66,55
99.536,194.71,66,55
99.555,194.77,66,55
97.876,194.59,66,55
98.119,194.57,66,55
98.74,195.7,66,55
102.27,195.21,66,55
99.848,196.64,66,55
99.581,196.94,66,55
99.692,196.66,66,55
100.57,197.21,66,55
98.181,197.65,66,55
98.836,198.02,66,55
100.24,196.91,66,55
101.35,197.78,66,55
100,197.84,66,55
101.07,195.33,66,55
100.2,193.72,66,55
100.79,195.09,66,55
99.064,193.93,66,55
97.37,194.94,66,55
98.643,196.04,66,55
98.983,195.91,66,55
99.632,196.14,66,55
99.686,196.64,66,55
98.261,196.24,66,55
98.461,195.94,66,55
96.533,196.31,66,55
95.651,198.21,66,55
94.787,199.19,66,55
94.05,199.57,66,55
90.671,199.53,66,55
91.073,199.27,66,55
89.874,200.76,66,55
89.816,201.43,66,55
88.763,199.67,66,55
90.357,199,66,55
90.657,198.69,66,55
90.999,197.62,66,55
92.204,197.75,66,55
91.638,196.72,66,55
89.29,195.94,66,55
91.309,194.71,66,55
91.447,195.02,66,55
94.5,196.56,66,55
93.815,196.65,66,55
94.98,197.93,66,55
93.169,196.38,66,55
95.708,196.28,66,55
96.606,196.96,66,55
95.559,196.34,66,55
100.34,197.31,66,55
99.768,197.27,66,55
100.4,196.13,66,55
98.94,196.7,66,55
99.268,197.77,66,55
99.143,198.62,66,55
97.669,198.64,66,55
98.998,199.16,66,55
98.214,198.56,66,55
98.584,200.26,66,55
98.879,200.63,66,55
96.175,199.58,66,55
94.425,198.32,66,55
94.902,196.35,66,55
92.238,195.97,66,55
93.551,195.79,66,55
93.744,195.93,66,55
92.006,195.44,66,55
93.323,196.22,66,55
93.173,196.14,66,55
94.722,196.08,66,55
93.67,196.9,66,55
92.013,196.04,66,55
91.039,197.58,66,55
91.758,198.96,66,55
91.516,197.5,66,55
90.912,198.74,66,55
90.72,199.4,66,55
91.544,198.45,66,55
92.214,197.41,66,55
89.896,195.38,66,55
91.293,195.8,66,55
89.447,196.3,66,55
90.78,197.77,66,55
90.884,197.88,66,55
90.385,197.38,66,55
88.298,197.61,66,55
88.764,199.22,66,55
88.917,199.45,66,55
91.103,198.51,66,55
91.233,197.91,66,55
91.661,197.45,66,55
92.62,195.97,66,55
95.551,196.43,66,55
96.807,196.55,66,55
96.099,195.29,66,55
93.357,195.47,66,55
93.728,196.26,66,55
94.016,197.14,66,55
93.748,195.55,66,55
94.428,195.07,66,55
93.661,197.13,66,55
94.774,197.88,66,55
96.406,197.31,66,55
96.571,197.07,66,55
95.906,198,66,55
95.548,196.33,66,55
97.549,196.09,66,55
99.273,196.81,66,55
95.674,197.04,66,55
93.75,197.78,66,55
94.926,196.46,66,55
94.538,195.85,66,55
97.834,196.33,66,55
99.083,195.54,66,55
99.93,196.5,66,55
100.06,197.39,66,55
101.33,199.94,66,55
101.54,199.07,66,55
100.33,198.03,66,55
100.74,197.81,66,55
98.822,200.15,66,55
98.517,199.96,66,55
99.113,200.76,66,55
95.596,196.73,66,55
95.264,193.92,66,55
96.569,194.62,66,55
98.609,198.22,66,55
99.915,196.84,66,55
102.1,197.76,66,55
103.52,199.32,66,55
104.64,201.32,66,55
106.93,200.86,66,55
104.74,199.58,66,55
103.39,197.77,66,55
102.13,198.14,66,55
103.27,196.86,66,55
102.16,198.41,66,55
101.92,197.18,66,55
100.63,196.28,66,55
101.1,197.25,66,55
99.938,196.87,66,55
99.334,198.59,66,55
97.631,197.45,66,55
97.755,195.78,66,55
96.516,194.9,66,55
96.466,195.09,66,55
97.553,196.38,66,55
97.271,197.89,66,55
97.837,196.97,66,55
97.355,196.75,66,55
98.333,195.68,66,55
96.239,196.22,66,55
95.854,194.93,66,55
99.194,197.54,66,55
100.6,197.36,66,55
102.07,196.81,66,55
101.45,198.75,66,55
100.71,197.98,66,55
103.95,196.58,66,55
102.14,197.42,66,55
101.63,197.05,66,55
102.5,198.65,66,55
101.7,200.26,66,55
101.36,197.29,66,55
102.5,197.07,66,55
103.86,197.93,66,55
105.72,198.29,66,55
105.42,198.01,66,55
105.42,199.02,66,55
106.42,200.63,66,55
108.47,201.35,66,55
107.64,199.77,66,55
106.59,199.48,66,55
106.18,198.93,66,55
104.3,198.81,66,55
104.99,200.76,66,55
104.05,200.44,66,55
102.2,199.49,66,55
99.621,196.08,66,55
100.99,193.79,66,55
102.28,195.43,66,55
102.31,195.77,66,55
102.5,196.73,66,55
101.21,197.23,66,55
101.59,196.93,66,55
101.92,197.53,66,55
100.46,197.77,66,55
100.28,196.47,66,55
99.24,197.02,66,55
100.06,195.76,66,55
101.38,197.72,66,55
99.141,196.29,66,55
99.12,196.95,66,55
97.872,196.23,66,55
97.694,196.59,66,55
96.512,197.15,66,55
97.861,197.8,66,55
98.977,197.35,66,55
98.673,195.78,66,55
97.249,196.18,66,55
96.981,196.21,66,55
97.616,196.27,66,55
97.515,196.47,66,55
98.6,196.79,66,55
96.498,197.22,66,55
97.116,195.93,66,55
98.033,195.59,66,55
99.652,195.68,66,55
99.131,195.95,66,55
97.973,196.76,66,55
100.09,196.84,66,55
101.1,197.4,66,55
99.673,197.45,66,55
100.27,197.81,66,55
101.32,195.9,66,55
100.95,196.8,66,55
101.15,195.34,66,55
102.03,194.99,66,55
99.508,195.96,66,55
98.576,196.69,66,55
