160,83,56,65
162.74,83.164,56,65
168.3,82.342,56,65
172.39,79.635,56,65
176.9,78.398,56,65
182.98,76.632,56,65
185.73,71.59,56,65
183.79,70.744,56,65
180.7,68.463,56,65
180.38,66.952,56,65
177.83,66.625,56,65
176.49,68.257,56,65
174.63,68.08,56,65
174.12,65.573,56,65
173.57,66.815,56,65
171.22,67.372,56,65
171.89,69.031,56,65
173.59,71.526,56,65
175.2,73.438,56,65
174.48,72.783,56,65
173.85,74.195,56,65
174.72,75.961,56,65
173.41,76.758,56,65
170.62,78.31,56,65
167.79,77.373,56,65
165.91,76.391,56,65
163.74,76.415,56,65
163.65,78.298,56,65
165.09,76.767,56,65
163.68,76.392,56,65
161.33,77.645,56,65
159.89,75.837,56,65
157.95,76.248,56,65
156.04,72.959,56,65
153.56,70.431,56,65
154.3,68.189,56,65
155.45,68.158,56,65
156.36,70.965,56,65
156.66,73.481,56,65
158.45,73.339,56,65
160.44,71.792,56,65
158.78,68.753,56,65
157.69,67.266,56,65
156.48,68.778,56,65
155.04,68.754,56,65
152.82,68.028,56,65
154.69,68.9,56,65
154.87,68.729,56,65
155.23,70.353,56,65
154.26,72.084,56,65
153.52,75.801,56,65
156.83,78.134,56,65
153.31,77.07,56,65
152.02,75.99,56,65
148.64,77.249,56,65
147.37,76.01,56,65
149.42,75.778,56,65
149.96,78.301,56,65
148.57,77.315,56,65
150.11,75.427,56,65
149.99,75.996,56,65
150.02,75.686,56,65
149.31,75.442,56,65
150.45,76.299,56,65
150.62,74.642,56,65
152.64,70.068,56,65
152.9,69.255,56,65
154.22,72.436,56,65
152.91,70.923,56,65
150.03,70.19,56,65
148.88,71.336,56,65
150,72.565,56,65
152.46,74.821,56,65
154.58,72.867,56,65
157.45,70.243,56,65
161.05,70.766,56,65
162.34,70.058,56,65
163.75,69.486,56,65
164.55,68.832,56,65
166.01,68.836,56,65
167.2,69.448,56,65
165.94,68.722,56,65
166.53,67.641,56,65
167.55,67.174,56,65
167.91,65.913,56,65
167.45,64.061,56,65
166.9,61.123,56,65
166.41,61.852,56,65
166.66,61.467,56,65
167.59,62.307,56,65
169.19,64.41,56,65
171.39,66.789,56,65
171.14,66.518,56,65
171.25,66.993,56,65
171.58,66.588,56,65
172.71,66.276,56,65
171.72,63.668,56,65
172.35,62.698,56,65
172.6,63.578,56,65
172.53,63.017,56,65
171.48,63.28,56,65
175.09,61.815,56,65
176.95,61.693,56,65
175.52,64.212,56,65
172.85,66.164,56,65
170.59,69.153,56,65
169.52,71.839,56,65
167.77,76.049,56,65
167.42,77.99,56,65
169.64,78.613,56,65
171.16,79.766,56,65
168.74,77.945,56,65
169.42,77.592,56,65
