118,69,114,162
117.54,70.209,114,162
117.77,68.249,114,162
117.26,66.45,114,162
116.15,65.88,114,162
116.28,65.61,114,162
116.2,65.234,114,162
116.68,63.227,114,162
115.82,64.368,114,162
115.06,65.766,114,162
114.94,65.876,114,162
114.76,66.293,114,162
115.11,67.127,114,162
115.3,67.257,114,162
114.65,66.844,114,162
113.47,68.603,114,162
112.36,70.121,114,162
109.03,70.243,114,162
106.53,69.9,114,162
102.44,71.462,114,162
100.75,70.446,114,162
97.803,70.207,114,162
96.229,69.689,114,162
94.543,71.402,114,162
94.017,72.596,114,162
92.74,73.46,114,162
93.014,73.87,114,162
91.618,73.217,114,162
91.418,72.554,114,162
91.852,71.643,114,162
91.096,71.337,114,162
91.342,69.505,114,162
89.519,67.304,114,162
89.965,66.857,114,162
88.705,65.703,114,162
88.878,65.037,114,162
89.597,64.476,114,162
89.846,63.93,114,162
89.613,64.852,114,162
91.473,64.085,114,162
94.415,63.772,114,162
93.375,65.491,114,162
93.947,65.702,114,162
95.655,65.993,114,162
94.933,64.691,114,162
98.187,63.843,114,162
99.879,64.509,114,162
103.02,63.213,114,162
105.82,63.888,114,162
107.22,64.091,114,162
111.65,64.252,114,162
113.21,63.536,114,162
113.5,64.328,114,162
114.83,64.108,114,162
115.83,64.727,114,162
117.13,64.054,114,162
118.56,65.705,114,162
121.58,65.918,114,162
122.75,66.688,114,162
123.14,69.419,114,162
125.65,70.362,114,162
127.07,70.929,114,162
127.34,72.24,114,162
128.38,72.996,114,162
128.04,74.91,114,162
129.38,74.656,114,162
129.26,75.495,114,162
129.98,76.284,114,162
130.79,77.426,114,162
131.69,78.297,114,162
132.98,78.463,114,162
133.27,77.38,114,162
133.68,78.631,114,162
134.13,77.674,114,162
133.49,77.353,114,162
134.72,77.058,114,162
135.07,75.613,114,162
134.76,75.977,114,162
134.39,76.426,114,162
133.39,75.34,114,162
132.1,74.757,114,162
130.42,75.308,114,162
128.32,74.521,114,162
128.02,75.365,114,162
126.49,75.18,114,162
124.5,75.185,114,162
125.47,74.591,114,162
125.75,74.494,114,162
124.79,76.305,114,162
123.52,76.058,114,162
122.12,75.404,114,162
122.84,75.318,114,162
122.04,74.48,114,162
120.34,75.879,114,162
117.77,76.969,114,162
118.44,76.673,114,162
116.91,76.844,114,162
116.99,75.916,114,162
116.29,75.614,114,162
116.67,76.404,114,162
114.75,78.427,114,162
113.73,77.747,114,162
112.99,77.772,114,162
111.79,80.593,114,162
110.13,80.449,114,162
109.56,80.317,114,162
110.14,79.814,114,162
108.29,81.79,114,162
107.05,82.457,114,162
108.21,80.225,114,162
110.03,80.316,114,162
110.16,81.881,114,162
110,82.082,114,162
108.45,82.614,114,162
108.12,81.814,114,162
108.99,80.081,114,162
108.08,80.246,114,162
107.36,80.449,114,162
107.28,81.655,114,162
106.96,83.11,114,162
107.17,83.927,114,162
106.16,84.758,114,162
106.33,82.485,114,162
107.88,81.099,114,162
107.52,83.474,114,162
106.15,82.878,114,162
106.67,80.993,114,162
106.55,81.369,114,162
107.75,81.201,114,162
107.61,82.12,114,162
107,83.648,114,162
107.15,82.067,114,162
107.47,81.253,114,162
108.14,80.326,114,162
107.38,78.938,114,162
107.45,79.857,114,162
108.31,79.095,114,162
109.65,80.16,114,162
109.34,78.096,114,162
109.01,77.861,114,162
108.76,75.859,114,162
109.88,75.87,114,162
111.42,76.114,114,162
109.35,76.288,114,162
108.25,75.958,114,162
108.75,75.384,114,162
106.66,74.967,114,162
106.81,73.077,114,162
106.74,73.959,114,162
104.94,74.909,114,162
104.98,74.08,114,162
103.78,73.536,114,162
102.97,73.831,114,162
104.02,73.213,114,162
103.8,72.212,114,162
102.2,72.896,114,162
102.15,72.249,114,162
101.84,72.362,114,162
102.08,71.313,114,162
102.33,71.096,114,162
101.43,70.526,114,162
100.62,69.838,114,162
100.55,69.575,114,162
101.71,69.973,114,162
101.17,70.236,114,162
101.05,71.127,114,162
101.78,71.475,114,162
101.28,71.73,114,162
102.49,73.274,114,162
103.2,74.158,114,162
102.27,74.172,114,162
102.84,73.945,114,162
103.26,73.719,114,162
103.34,73.897,114,162
103.83,75.53,114,162
104.16,75.468,114,162
106.48,74.731,114,162
106.85,74.934,114,162
106.37,76.148,114,162
105.54,76.11,114,162
104.21,77.425,114,162
104.95,77.248,114,162
105.21,77.287,114,162
105.28,77.665,114,162
105.08,77.167,114,162
106.34,79.198,114,162
106.19,79.728,114,162
104.61,80.178,114,162
104.64,80.786,114,162
104.7,81.612,114,162
105.33,82.255,114,162
104.69,81.301,114,162
106.42,83.838,114,162
107.06,82.022,114,162
105.88,81.729,114,162
105,80.546,114,162
104.51,78.819,114,162
106.14,77.703,114,162
106.13,78.205,114,162
106.36,79.707,114,162
106.5,80.95,114,162
105.09,81.252,114,162
104.66,82.099,114,162
104.67,81.99,114,162
104.93,80.842,114,162
105.16,82.77,114,162
105.66,83.064,114,162
106.2,83.175,114,162
106.35,80.946,114,162
105.71,81.377,114,162
103.24,83.53,114,162
101.85,84.949,114,162
102.07,86.53,114,162
103.89,88.26,114,162
103.54,87.953,114,162
102.85,88.726,114,162
104.43,89.466,114,162
105.07,88.898,114,162
104.2,88.796,114,162
102.39,89.654,114,162
102.76,87.544,114,162
103.75,87.98,114,162
102.74,87.794,114,162
102.8,86.002,114,162
103.7,83.456,114,162
103.65,79.221,114,162
103.34,76.392,114,162
103.09,75.428,114,162
103.76,72.256,114,162
106.27,70.643,114,162
105.4,69.931,114,162
105.6,69.186,114,162
105.72,67.658,114,162
105.65,64.567,114,162
104.36,63.695,114,162
104.58,60.471,114,162
104.72,59.597,114,162
105.49,57.784,114,162
105.78,57.072,114,162
105.1,57.478,114,162
104.81,55.623,114,162
104.01,53.954,114,162
104.05,53.732,114,162
104.81,54.056,114,162
106.39,54.422,114,162
106.9,56.148,114,162
107.47,56.283,114,162
106.7,57.539,114,162
108.14,59.576,114,162
108.55,59.484,114,162
109.34,59.535,114,162
108.79,61.559,114,162
109.75,61.55,114,162
111.04,60.811,114,162
111.87,60.913,114,162
110.14,61.492,114,162
110.46,63.191,114,162
110.02,64.45,114,162
111.16,64.835,114,162
109.89,64.303,114,162
108.37,65.106,114,162
109.28,67.296,114,162
109.11,69.393,114,162
110.04,69.364,114,162
109.59,70.142,114,162
109.18,71.621,114,162
109.19,72.918,114,162
108.35,72.548,114,162
107.77,71.661,114,162
108.23,73.064,114,162
107.57,73.088,114,162
106.81,72.615,114,162
107.14,72.694,114,162
107.49,74.352,114,162
108.09,72.719,114,162
108.69,75.036,114,162
108.88,75.306,114,162
108.66,75.326,114,162
107.36,74.696,114,162
106.8,74.306,114,162
107.22,74.536,114,162
107.25,76.302,114,162
104.29,75.866,114,162
102.56,77.302,114,162
102.59,77.465,114,162
101.23,79.838,114,162
101.89,78.172,114,162
101.25,78.684,114,162
101.27,79.957,114,162
100.27,82.224,114,162
97.685,84.866,114,162
98.537,83.517,114,162
98.386,82.966,114,162
97.343,83.754,114,162
98.623,83.58,114,162
96.3,84.013,114,162
96.17,84.858,114,162
96.349,84.162,114,162
95.726,83.665,114,162
96.435,84.615,114,162
98.363,83.983,114,162
98.339,83.168,114,162
95.993,81.424,114,162
97.966,82.011,114,162
97.615,82.584,114,162
97.128,83.058,114,162
96.002,83.595,114,162
95.125,82.558,114,162
94.684,82.262,114,162
95.982,82.429,114,162
96.332,81.442,114,162
95.871,80.612,114,162
96.518,81.888,114,162
96.692,80.425,114,162
95.834,80.964,114,162
94.29,82.696,114,162
93.568,82.176,114,162
94.891,80.842,114,162
95.717,82.022,114,162
97.229,83.095,114,162
95.517,83.505,114,162
96.03,80.037,114,162
96.408,79.346,114,162
95.817,79.012,114,162
96.971,79.415,114,162
96.682,78.368,114,162
96.938,78.239,114,162
96.222,77.846,114,162
95.833,78.146,114,162
94.262,78.288,114,162
95.002,77.273,114,162
93.434,75.434,114,162
92.462,76.932,114,162
92.679,77.28,114,162
91.9,78.135,114,162
91.195,75.672,114,162
91.524,75.392,114,162
90.241,73.726,114,162
89.101,72.944,114,162
89.119,74.179,114,162
88.436,75.559,114,162
86.149,74.731,114,162
84.166,74.007,114,162
83.809,74.227,114,162
82.352,75.555,114,162
79.607,78.225,114,162
76.914,79.009,114,162
75.704,77.171,114,162
74.597,77.687,114,162
73.21,79.672,114,162
72.09,78.657,114,162
69.701,80.264,114,162
71.876,79.92,114,162
71.412,78.123,114,162
69.497,78.727,114,162
70.614,78.886,114,162
69.278,80.726,114,162
69.718,79.318,114,162
70.553,79.783,114,162
71.495,78.593,114,162
71.52,79.22,114,162
69.95,81.504,114,162
69.996,80.562,114,162
70.043,80.306,114,162
69.52,79.813,114,162
69.591,79.853,114,162
69.362,79.071,114,162
70.772,78.115,114,162
70.38,79.111,114,162
70.942,78.205,114,162
71.605,79.243,114,162
73.693,78.455,114,162
74.229,77.724,114,162
74.459,78.706,114,162
76.462,79.314,114,162
76.236,79.059,114,162
78.439,77.298,114,162
78.375,76.215,114,162
80.541,77.207,114,162
81.034,77.893,114,162
82.635,75.556,114,162
82.721,74.412,114,162
83.006,74.905,114,162
83.319,73.772,114,162
82.137,74.339,114,162
82.161,73.629,114,162
83.156,72.874,114,162
84,72.244,114,162
84.536,70.174,114,162
85.081,70.196,114,162
85.282,70.413,114,162
87.339,71.507,114,162
87.082,72.578,114,162
87.622,72.279,114,162
87.841,71.775,114,162
87.393,71.408,114,162
86.62,70.801,114,162
87.769,71.671,114,162
89.266,72.983,114,162
90.425,72.192,114,162
90.345,74.078,114,162
90.19,73.811,114,162
92.374,70.795,114,162
92.924,69.104,114,162
93.121,68.413,114,162
93.488,69.006,114,162
94.78,68.668,114,162
94.532,69.85,114,162
93.611,69.568,114,162
93.814,69.213,114,162
93.568,69.339,114,162
93.56,67.817,114,162
94.327,68.541,114,162
93.907,67.888,114,162
93.7,68.857,114,162
93.255,70.014,114,162
94.255,70.014,114,162
93.031,70.126,114,162
92.559,70.768,114,162
92.417,72.229,114,162
92.083,74.139,114,162
92.094,77.23,114,162
92.253,78.16,114,162
92.972,78.65,114,162
92.036,79.227,114,162
91.561,80.511,114,162
92.085,81.423,114,162
90.429,82.166,114,162
89.782,81.085,114,162
90.519,80.988,114,162
90.978,80.543,114,162
91.386,80.386,114,162
91.833,80.203,114,162
91.014,79.929,114,162
92.152,81.428,114,162
92.069,82.691,114,162
90.538,81.749,114,162
92.397,80.062,114,162
92.297,78.735,114,162
91.72,79.849,114,162
94.185,79.259,114,162
95.315,80.39,114,162
94.481,79.046,114,162
93.736,80.75,114,162
93.107,82.132,114,162
93.131,81.128,114,162
93.285,80.204,114,162
95.952,81.131,114,162
95.093,80.318,114,162
97.176,81.308,114,162
97.531,79.089,114,162
96.715,79.991,114,162
97.213,79.871,114,162
96.709,81.273,114,162
97.466,80.75,114,162
97.352,80.022,114,162
97.833,78.373,114,162
96.747,80.22,114,162
96.579,79.959,114,162
97.285,78.62,114,162
99.572,79.258,114,162
100.22,79.589,114,162
97.866,79.42,114,162
98.187,79.623,114,162
96.2,79.946,114,162
97.22,79.323,114,162
96.48,82.291,114,162
97.269,80.282,114,162
96.387,80.072,114,162
95.56,79.681,114,162
96.039,81.428,114,162
96.306,81.788,114,162
94.561,83.573,114,162
95.779,83.71,114,162
95.185,83.194,114,162
94.032,84.743,114,162
94.327,83.531,114,162
94.942,82.978,114,162
94.988,84.443,114,162
95,84.838,114,162
95.66,85.333,114,162
93.186,85.236,114,162
93.535,86.113,114,162
93.487,86.539,114,162
95.015,85.742,114,162
94.997,87.585,114,162
94.651,85.639,114,162
94.272,86.915,114,162
93.703,85.188,114,162
94,86.091,114,162
94.663,86.383,114,162
93.326,85.06,114,162
93.746,83.235,114,162
93.333,82.926,114,162
94.263,81.895,114,162
92.827,82.006,114,162
92.495,82.755,114,162
92.53,83.024,114,162
93.083,81.276,114,162
93.212,82.815,114,162
92.031,83.981,114,162
91.877,82.615,114,162
94.471,82.283,114,162
93.704,82.799,114,162
93.834,83.857,114,162
93.721,83.379,114,162
93.393,82.677,114,162
94.638,83.131,114,162
93.029,83.927,114,162
92.854,84.533,114,162
93.914,85.153,114,162
94.496,86.026,114,162
95.698,87.146,114,162
94.46,85.469,114,162
93.73,86.492,114,162
93.075,85.024,114,162
94.76,85.375,114,162
93.121,85.937,114,162
94.037,85.61,114,162
94.113,85.967,114,162
93.511,87.238,114,162
93.555,86.86,114,162
94.552,85.617,114,162
93.702,86.215,114,162
94.971,88.035,114,162
95.878,87.197,114,162
96.32,86.792,114,162
95.991,88.273,114,162
97.064,88.199,114,162
98.877,88.679,114,162
97.49,87.443,114,162
99.141,87.582,114,162
99.268,87.832,114,162
97.455,87.022,114,162
97.107,87.35,114,162
96.659,86.807,114,162
96.061,85.988,114,162
94.509,87.011,114,162
95.897,88.459,114,162
98.161,90.299,114,162
98.595,90.906,114,162
98.838,90.1,114,162
97.934,90.149,114,162
97.135,91.003,114,162
96.983,91.302,114,162
95.974,91.027,114,162
95.423,91.395,114,162
97.091,92.476,114,162
97.713,91.87,114,162
96.191,93.608,114,162
95.591,93.966,114,162
95.133,92.216,114,162
96.038,92.18,114,162
95.058,92.05,114,162
96.316,92.768,114,162
96.541,92.348,114,162
95.859,90.193,114,162
94.936,91.374,114,162
93.276,92.5,114,162
93.193,90.823,114,162
92.565,91.091,114,162
93.032,92.321,114,162
94.265,90.75,114,162
92.951,91.893,114,162
93.003,91.205,114,162
93.61,90.859,114,162
93.46,90.29,114,162
94.114,89.283,114,162
94.161,90.398,114,162
95.302,88.721,114,162
94.989,89.244,114,162
95.047,90.206,114,162
94.386,90.03,114,162
94.59,89.78,114,162
96.12,90.313,114,162
95.597,89.895,114,162
96.74,91.463,114,162
96.272,89.826,114,162
96.667,89.593,114,162
95.467,89.202,114,162
95.678,88.886,114,162
96.079,87.347,114,162
96.958,87.325,114,162
97.54,89.465,114,162
96.22,90.579,114,162
96.568,91.233,114,162
95.491,92.599,114,162
94.537,93.718,114,162
95.972,93.382,114,162
95.485,92.671,114,162
94.164,91.386,114,162
94.163,92.983,114,162
95.055,93.669,114,162
96.696,93.631,114,162
96.95,92.106,114,162
97.035,90.924,114,162
97.388,89.788,114,162
97.553,90.218,114,162
96.883,88.308,114,162
97.116,88.269,114,162
98.471,88.921,114,162
99.188,88.278,114,162
98.648,88.791,114,162
99.902,88.745,114,162
98.601,89.053,114,162
97.38,89.748,114,162
98.922,89.675,114,162
98.6,90.505,114,162
100.18,90.784,114,162
101.17,91.586,114,162
101.19,92.097,114,162
101.48,91.749,114,162
101.59,92.845,114,162
100.52,93.685,114,162
101,94.458,114,162
100.53,93.239,114,162
101,92.174,114,162
100.32,92.828,114,162
99.633,94.589,114,162
98.911,94.459,114,162
101.98,93.325,114,162
101.95,94.309,114,162
100.57,93.43,114,162
99.975,94.67,114,162
101.05,94.906,114,162
100.77,93.878,114,162
99.643,94.13,114,162
101.65,93.336,114,162
101.56,94.571,114,162
101.13,92.022,114,162
100.75,90.775,114,162
99.973,91.079,114,162
100.74,91.961,114,162
101.54,93.304,114,162
101.85,93.206,114,162
101.56,92.915,114,162
100.39,92.523,114,162
100.56,92.205,114,162
99.347,90.15,114,162
98.277,88.661,114,162
98.875,88.18,114,162
98.115,90.993,114,162
98.034,92.295,114,162
99.206,92.325,114,162
99.808,91.086,114,162
99.327,90.186,114,162
101.25,91.769,114,162
98.742,91.847,114,162
98.107,91.432,114,162
99.312,89.758,114,162
100.1,90.595,114,162
100.75,90.532,114,162
101.97,88.05,114,162
101.03,87.319,114,162
99.989,88.509,114,162
100.36,88.268,114,162
100.77,88.489,114,162
99.497,88.981,114,162
99.259,87.644,114,162
98.666,89.842,114,162
99.219,90.736,114,162
99.84,90.904,114,162
100.14,92.395,114,162
100.65,90.036,114,162
101.71,90.142,114,162
101.71,89.526,114,162
100.73,89.782,114,162
101.66,90.667,114,162
101.36,89.785,114,162
101.52,88.768,114,162
102.05,87.392,114,162
101.39,88.273,114,162
102.27,87.851,114,162
100.05,88.306,114,162
97.281,87.497,114,162
98.003,88.676,114,162
95.826,89.808,114,162
92.768,88.546,114,162
90.169,89.281,114,162
89.241,88.91,114,162
87.867,89.494,114,162
84.634,87.615,114,162
84.38,87.391,114,162
84.048,86.182,114,162
81.475,87.378,114,162
79.472,88.821,114,162
78.698,88.081,114,162
77.578,86.85,114,162
76.249,85.088,114,162
74.419,85.62,114,162
72.617,83.585,114,162
72.04,84.045,114,162
69.679,83.801,114,162
71.073,84.974,114,162
69.567,85.157,114,162
69.58,86.321,114,162
69.403,85.928,114,162
67.354,88.166,114,162
66.613,86.781,114,162
66.98,87.409,114,162
65.411,91.304,114,162
65.024,90.58,114,162
66.466,88.921,114,162
65.243,89.277,114,162
64.224,87.485,114,162
65.166,88.746,114,162
65.158,87.978,114,162
66.416,88.3,114,162
66.491,87.889,114,162
65.113,86.801,114,162
65.743,86.421,114,162
64.817,86.555,114,162
63.414,85.742,114,162
63.808,85.768,114,162
62.606,84.995,114,162
63.732,84.391,114,162
64.36,85.084,114,162
64.78,86.33,114,162
64.749,86.019,114,162
64.105,84.758,114,162
65.108,85.766,114,162
65.786,85.783,114,162
66.86,83.933,114,162
64.801,83.107,114,162
65.173,83.908,114,162
65.472,85.342,114,162
67.008,84.289,114,162
68.471,84.398,114,162
67.983,85.807,114,162
68.656,83.967,114,162
69.136,83.707,114,162
71.497,84.609,114,162
74.111,82.086,114,162
74.044,79.905,114,162
73.059,80.676,114,162
74.569,80.525,114,162
76.123,78.824,114,162
75.855,76.117,114,162
77.353,76.752,114,162
78.787,77.4,114,162
81.672,78.273,114,162
83.923,78.569,114,162
84.284,78.081,114,162
84.721,76.89,114,162
85.052,77.68,114,162
87.309,79.391,114,162
87.015,78.785,114,162
84.773,77.249,114,162
85.505,77.241,114,162
85.272,77.419,114,162
86.178,78.052,114,162
86.474,75.75,114,162
86.656,75.832,114,162
87.873,74.541,114,162
89.357,75.127,114,162
88.756,74.347,114,162
89.372,74.824,114,162
90.385,73.529,114,162
90.18,73.852,114,162
89.956,72.525,114,162
89.931,72.302,114,162
91.603,71.086,114,162
89.857,69.395,114,162
89.327,69.248,114,162
90.544,68.134,114,162
91.283,68.171,114,162
91.443,68.606,114,162
88.966,67.577,114,162
89.111,69.246,114,162
89.056,66.985,114,162
89.491,68.219,114,162
90.153,69.261,114,162
90.294,68.262,114,162
90.489,67.428,114,162
91.246,67.919,114,162
91.43,67.259,114,162
92.299,67.562,114,162
91.112,65.678,114,162
91.626,66.739,114,162
91.51,66.594,114,162
92.441,66.916,114,162
91.248,65.901,114,162
91.991,65.755,114,162
90.542,66.466,114,162
90.014,67.022,114,162
91.311,67.592,114,162
91.387,68.398,114,162
92.069,68.988,114,162
92.246,68.112,114,162
91.667,68.308,114,162
92.226,66.933,114,162
92.784,68.03,114,162
93.187,70.575,114,162
92.662,69.942,114,162
93.107,69.796,114,162
93.364,67.562,114,162
94.966,67.827,114,162
95.13,69.753,114,162
95.95,68.872,114,162
96.419,68.318,114,162
97.715,67.822,114,162
99.959,69.798,114,162
99.493,70.692,114,162
99.9,69.986,114,162
100.22,69.625,114,162
101.11,69.947,114,162
102.75,69.296,114,162
102.2,69.68,114,162
104,70.915,114,162
104.95,70.478,114,162
105.33,69.127,114,162
105.23,69.199,114,162
106.62,71.152,114,162
107.87,70.652,114,162
109.17,72.666,114,162
110.57,71.912,114,162
113.11,71.507,114,162
115.08,72.573,114,162
116.99,73.465,114,162
119.03,74.9,114,162
120.86,73.828,114,162
121.47,74.538,114,162
121.8,74.808,114,162
124.31,73.01,114,162
126.35,71.47,114,162
128.12,72.189,114,162
129.22,72.381,114,162
129.66,72.478,114,162
132.17,72.947,114,162
133.58,73.618,114,162
133.6,75.373,114,162
134.82,76.258,114,162
134.78,76.958,114,162
136.37,77.053,114,162
137.2,76.509,114,162
137.23,76.881,114,162
138.7,79.201,114,162
137.25,80.463,114,162
138.27,80.498,114,162
139.22,77.43,114,162
141.21,76.912,114,162
141.05,77.939,114,162
141.44,79.256,114,162
140.63,78.325,114,162
138.06,77.248,114,162
137.12,77.554,114,162
136.41,78.023,114,162
137.74,76.453,114,162
138.03,76.714,114,162
137.45,78.303,114,162
137,79.702,114,162
137.22,80.389,114,162
137.36,80.482,114,162
138.57,81.7,114,162
138.54,81.658,114,162
138.92,81.179,114,162
139.31,79.749,114,162
135.97,80.563,114,162
133.19,81.477,114,162
132.82,81.349,114,162
131.58,82.335,114,162
128.01,80.387,114,162
128.21,78.486,114,162
127.21,80.665,114,162
126.96,80.702,114,162
124.88,80.756,114,162
124.33,78.513,114,162
122.75,78.311,114,162
121.8,76.434,114,162
120.82,76.623,114,162
120.04,78.159,114,162
119.15,76.541,114,162
117.29,74.617,114,162
115.04,74.164,114,162
113.54,74.226,114,162
112.21,73.873,114,162
111.03,73.511,114,162
109.91,72.611,114,162
106.54,70.951,114,162
104.84,69.402,114,162
104.31,69.855,114,162
103.05,69.024,114,162
104.43,67.663,114,162
103.37,65.676,114,162
104,65.933,114,162
103.79,67.279,114,162
103.25,69.068,114,162
103.71,70.102,114,162
104.09,71.259,114,162
103.43,72.504,114,162
103.81,73.014,114,162
102.3,72.471,114,162
