125,86,15,16
123.29,87.169,15,16
123.5,89.619,15,16
124.54,87.421,15,16
123.44,85.556,15,16
125.21,87.822,15,16
125.19,91.973,15,16
126.36,94.106,15,16
127.97,95.174,15,16
128.3,96.688,15,16
130.55,100.5,15,16
130.65,102.11,15,16
133.22,102.79,15,16
133.77,102.61,15,16
135.29,101.66,15,16
133.86,101.33,15,16
134.27,101.26,15,16
136.36,100.5,15,16
137.05,100.17,15,16
139.68,100.01,15,16
142.87,98.769,15,16
142.26,98.542,15,16
142.58,99.052,15,16
142.91,97.283,15,16
143.09,95.402,15,16
146.58,94.911,15,16
147.35,94.882,15,16
148.17,94.89,15,16
147.09,96.527,15,16
147.21,98.908,15,16
148.66,98.469,15,16
151.4,97.973,15,16
151.69,97.835,15,16
153.21,97.671,15,16
153.79,94.333,15,16
154.99,93.194,15,16
155.83,93.863,15,16
155.58,93.359,15,16
156.22,90.946,15,16
157.47,92.517,15,16
156.21,93.314,15,16
155.75,96.184,15,16
159.53,99,15,16
163.1,100.98,15,16
165.81,101.15,15,16
167.49,100.33,15,16
171.1,102.21,15,16
171.97,103.34,15,16
173.03,105.76,15,16
172.63,105.8,15,16
173.13,106.44,15,16
173.6,103.61,15,16
176.08,103.02,15,16
175.64,101.03,15,16
174.11,99.468,15,16
174.33,100.17,15,16
174.48,99.694,15,16
175.94,98.56,15,16
178.2,98.535,15,16
179.49,96.786,15,16
179.69,95.416,15,16
181.2,95.5,15,16
178.79,92.568,15,16
179.24,92.069,15,16
180.59,91.28,15,16
179.49,91.062,15,16
178.44,91.308,15,16
180.18,88.453,15,16
181.1,85.731,15,16
181,83.642,15,16
182.43,83.534,15,16
183.38,82.057,15,16
184.84,80.04,15,16
183.99,78.371,15,16
184.75,78.845,15,16
184.47,77.854,15,16
183.86,77.439,15,16
185.04,76.46,15,16
185.86,76.585,15,16
187.73,75.784,15,16
186.16,75.915,15,16
185.56,77.413,15,16
184.05,76.303,15,16
184.06,78.179,15,16
184.77,77.061,15,16
185.78,75.658,15,16
185.08,76.575,15,16
183.1,77.809,15,16
182.25,78.845,15,16
180.74,78.952,15,16
180.46,79.364,15,16
179.22,77.962,15,16
178.93,77.672,15,16
178.57,77.001,15,16
178.09,77.539,15,16
178.94,78.047,15,16
177.11,78.774,15,16
177.08,79.134,15,16
176.19,77.322,15,16
175.66,78.507,15,16
174.37,78.205,15,16
173.44,78.713,15,16
174.92,79.657,15,16
174.75,81.03,15,16
176.65,81.663,15,16
176.71,81.957,15,16
177.82,80.702,15,16
177.68,81.808,15,16
179.02,83.077,15,16
178.08,81.445,15,16
180.18,81.632,15,16
180.42,80.144,15,16
179.68,79.814,15,16
179.65,79.166,15,16
178.8,79.818,15,16
177.91,77.886,15,16
177.97,78.914,15,16
177.33,79.34,15,16
175.69,79.606,15,16
176.21,78.241,15,16
174.04,79.287,15,16
175.07,80.056,15,16
172.57,81.35,15,16
172.55,80.406,15,16
170.96,80.458,15,16
169.29,79.2,15,16
168.73,78.844,15,16
169.97,79.285,15,16
170.19,78.25,15,16
170.91,77.308,15,16
169.24,79.708,15,16
171.97,81.5,15,16
172.78,81.091,15,16
170.79,80.317,15,16
170.22,79.324,15,16
172.04,79.16,15,16
174.02,78.781,15,16
175.35,79.239,15,16
173.61,77.172,15,16
173.02,77.625,15,16
171.01,78.073,15,16
169.8,77.167,15,16
169.25,77.097,15,16
165.75,76.276,15,16
164.22,73.91,15,16
163.27,75.72,15,16
161.82,75.457,15,16
161.99,75.473,15,16
165.66,75.782,15,16
167.06,74.434,15,16
166.38,74.838,15,16
167.17,76.141,15,16
167.36,73.556,15,16
165.59,76.136,15,16
167.41,76.24,15,16
166.56,76.814,15,16
165.57,76.408,15,16
164.04,77.638,15,16
164.96,76.976,15,16
165.77,76.831,15,16
165.06,76.763,15,16
164.74,77.635,15,16
163.98,78.732,15,16
162.91,79.753,15,16
161.93,78.844,15,16
159.59,78.161,15,16
161.55,75.738,15,16
162.25,75.965,15,16
163.39,77.487,15,16
163.99,76.544,15,16
163.04,74.64,15,16
163.27,74.013,15,16
163.65,75.167,15,16
162.4,75.544,15,16
162.04,75.626,15,16
163.38,75.23,15,16
164.65,74.903,15,16
165.09,74.524,15,16
164.02,75.644,15,16
164.33,74.615,15,16
163.08,73.445,15,16
162.53,75.32,15,16
163.95,74.089,15,16
164.8,73.664,15,16
162.91,75.317,15,16
164.44,74.524,15,16
164.02,75.213,15,16
163.07,74.059,15,16
164.81,73.521,15,16
166.44,73.447,15,16
168.34,73.587,15,16
169.65,73.829,15,16
169.27,75.515,15,16
169.57,74.303,15,16
171.21,73.191,15,16
168.45,72.651,15,16
167.97,73.98,15,16
166.31,73.698,15,16
165.49,73.593,15,16
165.32,72.866,15,16
165.37,73.276,15,16
166.83,74.385,15,16
165.96,74.259,15,16
166.44,73.263,15,16
167.73,74.969,15,16
168.27,74.804,15,16
167.74,73.946,15,16
166.17,72.152,15,16
166.93,71.082,15,16
163.71,72.126,15,16
164.01,72.051,15,16
163.62,71.406,15,16
163.61,72.235,15,16
164.72,71.469,15,16
165.19,68.273,15,16
164.51,70.546,15,16
166.52,71.744,15,16
166.23,71.219,15,16
163.58,70.596,15,16
165.19,71.682,15,16
166.08,73.093,15,16
163.84,72.58,15,16
162.67,73.475,15,16
163.32,72.29,15,16
164.21,72.116,15,16
163.77,72.133,15,16
162.93,73.615,15,16
161.16,73.514,15,16
163.47,72.868,15,16
162.69,72.022,15,16
163.63,69.745,15,16
164.54,70.811,15,16
166.58,70.615,15,16
166.69,71.218,15,16
166.91,72.775,15,16
168.79,73.35,15,16
168.31,72.027,15,16
168.03,73.277,15,16
167.75,73.447,15,16
165.73,73.815,15,16
164.9,74.106,15,16
167.41,74.229,15,16
168.14,74.859,15,16
168.67,73.602,15,16
165.45,74.851,15,16
165.53,73.008,15,16
166.27,71.847,15,16
167.01,71.133,15,16
167.69,71.592,15,16
169.31,72.419,15,16
168.94,73.356,15,16
169.7,73.85,15,16
168.23,75.342,15,16
169.58,73.818,15,16
170.57,73.874,15,16
171.61,72.493,15,16
170.54,72.728,15,16
172.05,73.797,15,16
171.56,72.972,15,16
172.3,72.93,15,16
170.74,74.724,15,16
168.87,73.189,15,16
171.19,72.357,15,16
171.47,73.597,15,16
170.66,72.196,15,16
168.44,70.498,15,16
169.03,72.12,15,16
169.82,73.232,15,16
168.52,72.615,15,16
168.84,73.125,15,16
167.92,73.015,15,16
167.3,74.702,15,16
167.9,76.032,15,16
168.82,74.878,15,16
169.53,73.812,15,16
168.73,76.242,15,16
169.48,75.982,15,16
168.39,75.808,15,16
167.89,76.144,15,16
169.53,76.089,15,16
171.36,75.266,15,16
169.18,76.52,15,16
171.14,74.446,15,16
