245,64,12,13
246.16,66.229,12,13
246.45,68.659,12,13
245.63,69.284,12,13
246.03,67.19,12,13
246.51,67.105,12,13
246.06,69.519,12,13
245.95,69.957,12,13
246.96,72.124,12,13
249.52,73.371,12,13
247.86,76.181,12,13
246.84,77.116,12,13
245.76,75.8,12,13
246.39,78.558,12,13
247.78,78.805,12,13
249.81,79.479,12,13
249.62,79.433,12,13
249.88,78.779,12,13
248.9,78.785,12,13
249.36,78.245,12,13
246.74,76.798,12,13
248.57,75.994,12,13
247.84,75.232,12,13
247.37,74.978,12,13
247.65,77.694,12,13
247.19,77.702,12,13
247.66,77.549,12,13
246.93,79.527,12,13
246.88,78.944,12,13
247.19,81.257,12,13
247.45,82.13,12,13
246.37,84.002,12,13
245.63,85.251,12,13
245.5,84.015,12,13
246.05,84.643,12,13
245.52,85.831,12,13
244.61,86.881,12,13
243.53,87.881,12,13
243.02,87.43,12,13
240.55,87.779,12,13
239.17,85.988,12,13
238.58,85.416,12,13
236.08,86.107,12,13
235.68,87.428,12,13
234.73,89.028,12,13
232.06,90.431,12,13
230.71,88.929,12,13
229.6,87.237,12,13
230.23,87.94,12,13
228.29,86.995,12,13
230.13,86.84,12,13
230.96,87.168,12,13
230.97,89.404,12,13
230.9,89.95,12,13
229.71,90.857,12,13
231.04,89.225,12,13
230.47,87.457,12,13
230.43,89.248,12,13
232.98,89.05,12,13
233.66,91.625,12,13
233.56,91.822,12,13
233.15,92.784,12,13
231.17,93.007,12,13
232.56,93.637,12,13
232.73,94.882,12,13
232.08,94.196,12,13
233.11,95.005,12,13
234.15,95.133,12,13
234.16,96.487,12,13
234.94,95.573,12,13
234.36,94.9,12,13
236.47,96.814,12,13
236.48,96.362,12,13
237.59,97.535,12,13
236.81,96.685,12,13
237.42,99.226,12,13
235.64,100.28,12,13
233.43,100.51,12,13
233.06,102.18,12,13
231.75,102.63,12,13
230.32,105.14,12,13
231.03,104.46,12,13
230.78,104.03,12,13
230.41,103.64,12,13
232.28,103.17,12,13
233.52,103.36,12,13
234.32,103.77,12,13
232.38,103.51,12,13
232.62,101.37,12,13
234.08,100.52,12,13
234.74,101.93,12,13
233.64,99.691,12,13
234.41,99.639,12,13
234.96,99.207,12,13
233.91,101.14,12,13
234.03,99.962,12,13
231.24,99.764,12,13
229.17,99.874,12,13
229.69,101.79,12,13
230.58,101.89,12,13
229.4,100.82,12,13
226.42,98.804,12,13
226.45,97.54,12,13
226.44,96.913,12,13
227.07,95.127,12,13
227.04,94.238,12,13
223.95,95.04,12,13
223.51,94.578,12,13
225.93,95.44,12,13
226.18,97.013,12,13
227.15,95.801,12,13
227.78,95.221,12,13
226.28,96.65,12,13
226.58,94.264,12,13
226.45,92.865,12,13
225.99,92.069,12,13
228.27,92.004,12,13
226.54,91.374,12,13
226.22,91.088,12,13
224.99,90.7,12,13
224.02,90.541,12,13
225.39,89.308,12,13
225.79,89.614,12,13
229.02,90.55,12,13
227.94,91.908,12,13
228.78,90.89,12,13
227.19,89.822,12,13
226.21,86.912,12,13
226.65,87.857,12,13
227.26,88.531,12,13
226.76,89.962,12,13
227.38,90.084,12,13
226.48,91.767,12,13
227.22,92.038,12,13
226.79,93.346,12,13
227.31,95.83,12,13
227.74,95.735,12,13
224.87,96.012,12,13
223.97,95.874,12,13
223.99,98.164,12,13
222.85,98.091,12,13
223.12,101.07,12,13
223.66,102.62,12,13
223.6,101.23,12,13
224.44,101.18,12,13
224.34,101.31,12,13
223.19,101.11,12,13
221.96,100.83,12,13
220.55,101.71,12,13
220.6,102.37,12,13
220.49,103.45,12,13
220.29,104.43,12,13
218.84,103.01,12,13
217.98,102.22,12,13
218.25,102.11,12,13
218.05,102.83,12,13
218.06,103.86,12,13
220.11,105.05,12,13
221.03,103.25,12,13
221.1,104.87,12,13
221.37,104.62,12,13
220.79,104.39,12,13
220.63,105.07,12,13
221.2,103.83,12,13
220.58,104.43,12,13
219.69,101.9,12,13
220.45,102.17,12,13
218.91,102.51,12,13
218.88,101.57,12,13
217.77,101.35,12,13
217.85,101.09,12,13
219.66,100.31,12,13
220.03,100.73,12,13
220.39,100.49,12,13
221.82,102.35,12,13
219.36,102.24,12,13
220.55,100.84,12,13
219.6,100.49,12,13
218.93,101.58,12,13
220.14,102.3,12,13
219.97,101.19,12,13
221.2,100.95,12,13
224.14,100.13,12,13
223.81,99.379,12,13
224.49,97.372,12,13
225.25,98.921,12,13
223.83,97.434,12,13
223.85,95.733,12,13
225.39,95.277,12,13
226.16,94.868,12,13
225.17,95.559,12,13
225.74,96.298,12,13
225.03,95.317,12,13
224.19,91.874,12,13
223.15,91.726,12,13
224.13,93.197,12,13
225.59,92.581,12,13
224.99,93.273,12,13
225.52,93.299,12,13
225.75,92.876,12,13
225.63,93.344,12,13
224.92,94.827,12,13
225.63,96.667,12,13
225.07,97.202,12,13
223.92,98.143,12,13
223.17,98.986,12,13
224.13,98.784,12,13
223.77,98.312,12,13
223.31,98.913,12,13
223.46,98.676,12,13
222.4,99.999,12,13
222.89,100.47,12,13
223.58,100.64,12,13
224.61,100.77,12,13
224.62,99.322,12,13
226.82,99.104,12,13
228.31,96.831,12,13
228.58,95.99,12,13
228.56,96.299,12,13
226.69,98.508,12,13
226.6,98.39,12,13
226.64,97.096,12,13
226.29,97.659,12,13
225.19,96.461,12,13
224.45,96.455,12,13
224.73,96.971,12,13
224.28,96.747,12,13
224.93,97.855,12,13
223.63,97.814,12,13
223.23,96.48,12,13
222.06,98.25,12,13
221.77,98.385,12,13
221.04,98.898,12,13
222.04,100.45,12,13
222.28,98.597,12,13
220.5,97.95,12,13
221.9,98.036,12,13
221.2,96.431,12,13
220.55,98.412,12,13
219.92,97.735,12,13
220.82,96.234,12,13
220.03,93.95,12,13
220.64,95.674,12,13
221.25,96.323,12,13
223.08,96.324,12,13
223.12,96.942,12,13
221.83,99.917,12,13
220.2,98.597,12,13
220.43,98.808,12,13
220.92,96.047,12,13
222.73,95.498,12,13
222.72,94.887,12,13
223.01,94.223,12,13
222.43,95.305,12,13
222.97,96.421,12,13
222.67,95.296,12,13
222.6,92.608,12,13
222.79,90.527,12,13
224.82,90.475,12,13
223.75,91.695,12,13
226.18,93.964,12,13
224.7,94.576,12,13
223.08,93.427,12,13
223.36,92.94,12,13
222.42,92.743,12,13
222.38,91.959,12,13
220.24,90.898,12,13
219.88,88.641,12,13
219.57,87.183,12,13
219.74,88.695,12,13
219.28,89.961,12,13
218.72,89.577,12,13
218.34,89.034,12,13
217.59,89.492,12,13
217.52,89.462,12,13
217.85,87.711,12,13
220.59,87.964,12,13
222.12,88.882,12,13
222.09,89.127,12,13
222.59,86.898,12,13
222.89,87.476,12,13
222.69,87.213,12,13
222.3,88.909,12,13
224.65,87.944,12,13
227.22,87.227,12,13
226.16,87.772,12,13
224.7,87.301,12,13
224.2,88.518,12,13
221.88,87.715,12,13
221.82,85.72,12,13
223.07,85.581,12,13
224.17,86.816,12,13
222.81,85.623,12,13
222.7,86.014,12,13
224.7,85.712,12,13
223.29,84.505,12,13
223.77,83.87,12,13
222.4,84.047,12,13
222.24,83.854,12,13
223.39,84.28,12,13
223.4,84.34,12,13
224.02,86.34,12,13
223.51,84.876,12,13
223.29,82.826,12,13
226.22,82.398,12,13
225.88,83.751,12,13
227.98,81.096,12,13
227.75,82.083,12,13
227.88,81.162,12,13
227.66,81.825,12,13
228.81,81.181,12,13
228.25,81.265,12,13
230.19,79.499,12,13
230.28,81.656,12,13
230.64,80.735,12,13
229.32,81.025,12,13
228.87,80.923,12,13
228.76,80.387,12,13
228.51,77.965,12,13
227.66,77.472,12,13
228.9,78.786,12,13
231.09,79.312,12,13
231.29,76.336,12,13
229.42,77.004,12,13
230.7,77.55,12,13
229.27,75.683,12,13
228.41,73.74,12,13
229.77,76.49,12,13
231.33,74.344,12,13
230.66,74.54,12,13
230.95,76.056,12,13
229.92,74.945,12,13
230.38,75.891,12,13
234.63,76.905,12,13
235.94,76.212,12,13
235.76,75.848,12,13
236.49,78.503,12,13
234.93,77.885,12,13
234.93,77.864,12,13
234.69,78.598,12,13
233.17,79.727,12,13
233.15,78.882,12,13
235.78,77.252,12,13
235.78,77.545,12,13
234.86,78.296,12,13
235.79,78.546,12,13
235.16,79.249,12,13
233.45,79.531,12,13
233.05,79.721,12,13
233.31,78.468,12,13
232.2,78.21,12,13
231.65,78.146,12,13
232.81,79.677,12,13
233.64,81.205,12,13
233.93,82.724,12,13
234.37,83.796,12,13
234.54,86.388,12,13
235.68,85.092,12,13
234.61,84.452,12,13
234.96,82.9,12,13
235.75,81.868,12,13
235.77,79.638,12,13
236.02,79.1,12,13
235.1,78.418,12,13
233,78.496,12,13
231.11,78.149,12,13
230.81,75.864,12,13
230.09,75.747,12,13
231.19,76.419,12,13
230.97,77.602,12,13
231.42,77.631,12,13
231.07,77.23,12,13
229.69,78.097,12,13
231.04,80.059,12,13
231.02,79.663,12,13
232.35,81.556,12,13
233,80.157,12,13
233.55,80.176,12,13
231.98,79.663,12,13
231.93,82.204,12,13
230.14,82.92,12,13
228.24,83.055,12,13
229.02,84.186,12,13
230.55,84.516,12,13
229.43,86.39,12,13
228.89,88.682,12,13
229.96,88.059,12,13
228.91,86.301,12,13
230.35,84.78,12,13
228.83,85.278,12,13
227.67,84.924,12,13
229.15,84.915,12,13
227.96,85.077,12,13
226.44,85.374,12,13
227.46,87.648,12,13
228.82,88.739,12,13
227.11,88.194,12,13
227.97,91.071,12,13
229.78,89.505,12,13
228.93,89.245,12,13
230.82,88.145,12,13
230.71,87.85,12,13
229.01,87.002,12,13
227.93,87.821,12,13
228.8,87.796,12,13
227.04,87.295,12,13
225.64,86.713,12,13
225.09,86.056,12,13
224.65,82.817,12,13
223.91,80.083,12,13
224.29,79.234,12,13
224.98,75.948,12,13
224.08,74.753,12,13
224.18,76.865,12,13
225.46,77.606,12,13
224.42,76.985,12,13
225.12,75.391,12,13
223.04,75.241,12,13
222.12,75.241,12,13
222.96,75.734,12,13
221.45,77.08,12,13
223.14,74.721,12,13
222.37,74.759,12,13
222.11,77.113,12,13
222.51,75.651,12,13
221.73,75.86,12,13
221.68,77.485,12,13
221.59,78.534,12,13
220.99,78.083,12,13
223.16,77.428,12,13
224.16,74.1,12,13
224.86,74.735,12,13
222.12,76.217,12,13
224,78.693,12,13
222.8,80.089,12,13
222.37,79.056,12,13
221.44,78.774,12,13
220.47,79.103,12,13
220.18,76.493,12,13
219.13,77.66,12,13
217.5,75.157,12,13
217.77,74.574,12,13
217.8,75.471,12,13
216.66,76.015,12,13
217.06,77.117,12,13
218.09,78.86,12,13
217.14,80.329,12,13
217.27,78.559,12,13
217.61,78.718,12,13
217.3,78.383,12,13
215.59,79.582,12,13
217.74,79.493,12,13
218.8,77.528,12,13
220.73,77.397,12,13
220.54,77.778,12,13
218.92,76.895,12,13
218.64,77.612,12,13
221.8,78.235,12,13
220.3,78.03,12,13
220.35,74.875,12,13
