117,68,122,125
115.22,65.539,122,125
114.39,61.896,122,125
114.51,58.843,122,125
116.08,56.214,122,125
117.1,55.705,122,125
119.23,55.901,122,125
120.98,54.605,122,125
122.85,53.716,122,125
123.3,54.013,122,125
125.36,52.751,122,125
126.48,55.035,122,125
131.14,57.295,122,125
133,56.766,122,125
134.95,57.188,122,125
137.28,58.715,122,125
136.34,57.73,122,125
139.41,60.758,122,125
140.69,63.485,122,125
140.66,67.521,122,125
138.39,67.143,122,125
138.4,67.321,122,125
140.33,68.689,122,125
140.36,68.99,122,125
139.14,70.583,122,125
138.02,70.941,122,125
138.49,72.406,122,125
137.04,74.729,122,125
137.26,74.438,122,125
138.37,77.035,122,125
137.55,76.935,122,125
134.78,75.728,122,125
133.96,76.185,122,125
131.59,74.637,122,125
131.44,76.339,122,125
133.39,77.798,122,125
134.1,76.72,122,125
133.83,76.917,122,125
131.29,75.893,122,125
130.67,76.35,122,125
129.59,75.126,122,125
130.04,73.698,122,125
129.77,73.78,122,125
131.11,74.734,122,125
128.51,75.503,122,125
129.88,76.249,122,125
130.61,78.242,122,125
130.39,81.16,122,125
129.41,85.035,122,125
131.14,87.551,122,125
132.03,89.923,122,125
135.55,93.309,122,125
135.24,95.723,122,125
137.58,96.93,122,125
137.34,101.97,122,125
136.46,102.34,122,125
136.53,103.03,122,125
136.15,103.2,122,125
134.42,102.96,122,125
132.06,101.8,122,125
129.62,98.749,122,125
129.53,99.114,122,125
125.15,99.071,122,125
124.48,99.806,122,125
121.65,99.482,122,125
121.4,100.02,122,125
121.52,99.387,122,125
117.63,99.796,122,125
117.21,100.8,122,125
117.91,101,122,125
116.93,103.68,122,125
116.18,105.9,122,125
115.88,107.2,122,125
115.22,107.08,122,125
114.84,107.7,122,125
115.15,106.65,122,125
114.46,108.35,122,125
111.29,107.89,122,125
109.73,108.7,122,125
109.43,108.91,122,125
109.59,110.34,122,125
111.27,111.58,122,125
111.12,111.53,122,125
112.08,110.79,122,125
113.11,113.32,122,125
113.67,116.24,122,125
112.85,117.66,122,125
111.7,118.28,122,125
112.06,118.52,122,125
112.77,119.19,122,125
114.51,119.48,122,125
112.93,121.67,122,125
111.53,124.04,122,125
108.87,127.47,122,125
109.1,129.25,122,125
112.03,128.46,122,125
111.97,129.16,122,125
110.75,129.29,122,125
111.36,128.98,122,125
112.01,128.57,122,125
110.96,129.05,122,125
109.28,128.81,122,125
106.23,126.7,122,125
104.28,126.36,122,125
104.78,125.6,122,125
106.84,126.03,122,125
105.24,125.85,122,125
103.75,126.26,122,125
103.74,126.53,122,125
101.98,126.13,122,125
101.03,122.88,122,125
101.72,119.55,122,125
102.03,117.37,122,125
102.67,116.52,122,125
102.28,113.09,122,125
102.13,110.7,122,125
100.25,108.2,122,125
101.58,105.77,122,125
100.83,104.61,122,125
98.82,103.8,122,125
98.373,105.77,122,125
95.818,105.29,122,125
96.816,106.98,122,125
97.965,108.17,122,125
96.618,107.52,122,125
95.587,107.5,122,125
93.043,107.01,122,125
90.735,104.78,122,125
89.191,103.5,122,125
87.956,99.799,122,125
88.588,99.156,122,125
92.452,100.31,122,125
90.301,98.524,122,125
88.355,98.301,122,125
87.86,100.34,122,125
88.137,98.293,122,125
90.343,96.942,122,125
90.551,94.648,122,125
89.104,92.376,122,125
88.178,91.991,122,125
88.424,91.962,122,125
87.667,92.025,122,125
87.521,91.682,122,125
85.976,91.493,122,125
86.83,91.172,122,125
87.457,91.642,122,125
87.382,90.11,122,125
87.507,90.791,122,125
87.331,91.803,122,125
88.721,90.007,122,125
90.869,89.825,122,125
90.654,89.08,122,125
89.848,88.03,122,125
89.511,88.049,122,125
89.589,88.536,122,125
91.131,90.493,122,125
91.507,91.916,122,125
92.15,91.44,122,125
91.719,90.886,122,125
91.276,89.256,122,125
89.783,89.701,122,125
88.781,87.336,122,125
88.759,85.59,122,125
86.813,83.451,122,125
