58,100,28,23
59.844,100.18,28,23
60.76,100.43,28,23
62.737,101.12,28,23
63.217,101.4,28,23
65.841,101.56,28,23
70.276,101.76,28,23
71.866,101.89,28,23
71.463,102.22,28,23
74.402,102.72,28,23
74.463,103.58,28,23
75.869,103.95,28,23
76.711,103.85,28,23
76.892,103.14,28,23
77.435,104.56,28,23
75.029,104.79,28,23
75.272,105.98,28,23
74.328,104.57,28,23
74.117,104.38,28,23
71.943,105.12,28,23
70.351,105.27,28,23
71.711,105.68,28,23
70.737,104.31,28,23
69.891,104.99,28,23
70.85,105.67,28,23
70.078,105.82,28,23
70.668,105.21,28,23
73.559,106.26,28,23
76.247,105.08,28,23
77.075,107.01,28,23
79.886,107.58,28,23
82.371,107.34,28,23
85.803,108.15,28,23
85.789,108.18,28,23
85.564,109.26,28,23
88.25,108.95,28,23
88.638,109.13,28,23
90.502,109.05,28,23
91.441,109.55,28,23
92.274,109.23,28,23
93.603,109.54,28,23
92.516,110.06,28,23
90.734,109.85,28,23
92.732,110.91,28,23
95.731,109.91,28,23
98.496,109.95,28,23
97.527,110.14,28,23
96.952,110.28,28,23
97.844,109.46,28,23
97.622,107.41,28,23
97.456,107,28,23
97.895,107.11,28,23
98.958,105.08,28,23
98.04,102.53,28,23
97.021,99.944,28,23
99.123,99.528,28,23
99.137,99.749,28,23
100.05,98.251,28,23
99.919,98.303,28,23
98.919,98.377,28,23
100.64,97.791,28,23
103.35,96.614,28,23
103.16,94.426,28,23
102.02,95.791,28,23
101.71,95.542,28,23
102.8,96.601,28,23
102.35,95.852,28,23
103.02,95.082,28,23
103.56,95.994,28,23
103.52,95.941,28,23
101.92,97.418,28,23
102.35,98.924,28,23
101.33,99.111,28,23
101.04,97.983,28,23
101.75,99.646,28,23
101.74,101.2,28,23
101.38,102.29,28,23
101.18,101.97,28,23
101.47,103.04,28,23
101.17,102.24,28,23
101.42,101.71,28,23
103.23,101.69,28,23
102.79,101.7,28,23
103.28,100.75,28,23
104.29,101.45,28,23
103.47,102.26,28,23
102.66,102.33,28,23
102.86,101.83,28,23
103.22,101.33,28,23
102.45,103.55,28,23
101.65,106.08,28,23
100.44,104.23,28,23
100.94,104.37,28,23
101.17,104.27,28,23
101.22,103.39,28,23
101.54,104.2,28,23
99.556,105.29,28,23
98.723,105.84,28,23
99.623,105.09,28,23
99.935,103.62,28,23
99.667,103.77,28,23
98.384,105.57,28,23
99.661,104.87,28,23
97.769,105.16,28,23
98.817,105.9,28,23
98.687,105.56,28,23
101.09,105.82,28,23
101.27,103.73,28,23
100.92,103.05,28,23
99.798,103.17,28,23
99.15,103.46,28,23
100.84,103.32,28,23
102.81,104.08,28,23
103.81,105.31,28,23
105.05,103.95,28,23
106.1,103.78,28,23
107.69,102.77,28,23
105.21,103.4,28,23
106.11,103.11,28,23
106.93,102,28,23
103.84,100.94,28,23
103.77,100.71,28,23
104.29,100.1,28,23
104.2,99.71,28,23
102.85,98.927,28,23
104.56,98.89,28,23
104.45,100.46,28,23
104.36,101.51,28,23
103.51,103.54,28,23
104.51,103.13,28,23
104.47,102.78,28,23
104.48,102.86,28,23
103.77,101.49,28,23
105.45,101,28,23
106.56,103.38,28,23
105.87,101.66,28,23
105.72,101.6,28,23
106.18,101.91,28,23
104.31,102,28,23
102.75,102.67,28,23
102.24,103.56,28,23
101.11,104.87,28,23
99.83,104.93,28,23
100.67,105.2,28,23
100.47,104.43,28,23
100.29,104.14,28,23
101.53,104.22,28,23
99.652,104.32,28,23
99.979,105.58,28,23
99.141,104.93,28,23
100.58,106.33,28,23
100.86,106.27,28,23
99.495,105.26,28,23
98.147,104.53,28,23
98.944,105.02,28,23
100.12,105.49,28,23
99.793,103.94,28,23
98.035,105.67,28,23
98.765,105.94,28,23
99.264,104.59,28,23
99.606,106.66,28,23
101.05,104.86,28,23
100.57,104.29,28,23
100.45,103.46,28,23
103.36,102.11,28,23
103.86,103.26,28,23
104.21,103.82,28,23
104.02,102.53,28,23
103.83,103.76,28,23
104.11,103.99,28,23
104.72,106.13,28,23
106.71,105.68,28,23
109.52,105.22,28,23
108.31,105.17,28,23
109.75,103.03,28,23
110.76,102.53,28,23
112.33,102.19,28,23
110.43,102.14,28,23
109.97,103.33,28,23
109.45,104.16,28,23
109.05,103.2,28,23
107.59,103.22,28,23
107.55,102.14,28,23
107.62,102.53,28,23
107.81,101.18,28,23
108.51,100.49,28,23
109.62,101.78,28,23
110.06,100.52,28,23
110.72,99.302,28,23
113.33,97.047,28,23
113.24,96.599,28,23
115.03,96.764,28,23
115.26,96.749,28,23
112.51,95.254,28,23
112.05,96.432,28,23
111.43,97.167,28,23
112.18,97.341,28,23
113.21,97.655,28,23
111.74,96.394,28,23
111.99,96.54,28,23
114.55,95.26,28,23
115.33,94.749,28,23
114.5,93.862,28,23
114.12,92.253,28,23
116.27,90.988,28,23
114.97,92.568,28,23
114.67,91.488,28,23
111.59,92.104,28,23
110.36,92.928,28,23
109.33,93.529,28,23
108.14,94.573,28,23
108.26,92.318,28,23
108.2,93.816,28,23
107.98,94.572,28,23
106.71,94.322,28,23
105.97,93.657,28,23
106.45,93.55,28,23
105.81,92.206,28,23
106.1,91.061,28,23
108,91.987,28,23
108.19,89.242,28,23
107.75,90.102,28,23
106.11,90.754,28,23
104.37,89.805,28,23
104.12,91.07,28,23
104.69,93.46,28,23
102.42,93.669,28,23
102.82,91.969,28,23
103.27,91.559,28,23
103.11,90.879,28,23
103.49,87.702,28,23
106.59,90.008,28,23
106.28,88.931,28,23
106.07,92.825,28,23
106.57,92.762,28,23
106.91,92.141,28,23
109.23,92.158,28,23
109.18,91.555,28,23
109.08,91.525,28,23
110.53,90.549,28,23
111.05,93.074,28,23
111.37,92.451,28,23
112.34,93.029,28,23
113.29,90.097,28,23
113.45,89.969,28,23
113.93,90.721,28,23
115.46,90.471,28,23
115.06,92.48,28,23
115.74,91.132,28,23
116.08,92.598,28,23
114.68,91.675,28,23
113.48,90.849,28,23
115.36,91.09,28,23
114.13,91.05,28,23
113.75,91.344,28,23
114.19,93.365,28,23
113.57,91.893,28,23
114.64,91.172,28,23
114.48,90.344,28,23
113.44,90.028,28,23
115.05,87.741,28,23
115.51,87.849,28,23
116.66,88.862,28,23
115.36,90.489,28,23
116.77,89.159,28,23
115.56,86.706,28,23
114.87,91.587,28,23
113.52,91.411,28,23
114.49,92.875,28,23
114.46,93.644,28,23
114.81,90.725,28,23
113.68,94.007,28,23
114.62,94.466,28,23
112.82,94.49,28,23
113.24,95.115,28,23
113.25,93.45,28,23
112.82,92.811,28,23
111.66,94.635,28,23
110.1,93.921,28,23
110.9,96.421,28,23
108.89,97.041,28,23
108.95,97.385,28,23
109.29,98.822,28,23
109.92,100.92,28,23
109.86,101.71,28,23
110.47,102.02,28,23
111,103.84,28,23
108.68,105.49,28,23
106.73,104.79,28,23
105.82,105.12,28,23
102.91,108.11,28,23
101.83,109.2,28,23
102.96,109.63,28,23
102.2,111.42,28,23
99.952,113.69,28,23
100.2,112.73,28,23
100.54,111.67,28,23
100.5,111.55,28,23
101,110.77,28,23
102.94,111.39,28,23
101.73,110.39,28,23
103.51,111.19,28,23
103.51,111.64,28,23
103.32,111.18,28,23
101.09,111.69,28,23
103.32,111.35,28,23
103.83,111.69,28,23
106.95,112.73,28,23
108.82,113.46,28,23
109.02,112.3,28,23
111.42,110.25,28,23
109.46,110.38,28,23
110.88,111.45,28,23
111.76,111.65,28,23
111.26,109.58,28,23
110.7,107.73,28,23
111.16,108.77,28,23
111.57,108.24,28,23
110.49,110.31,28,23
111.57,110.61,28,23
111.63,108.95,28,23
111.18,109.85,28,23
111.45,109.73,28,23
110.74,110.24,28,23
109.61,110.34,28,23
110.97,111.73,28,23
110.12,110.9,28,23
112.88,111.61,28,23
113.38,111.76,28,23
112.16,110.85,28,23
112.48,112.54,28,23
113.13,113.18,28,23
112.67,113.42,28,23
112.94,113.8,28,23
112.38,112.91,28,23
112.44,112.24,28,23
112.1,112.83,28,23
112.09,113.63,28,23
112.41,114.46,28,23
113.58,112.18,28,23
115.33,112.42,28,23
114.13,111.49,28,23
112.37,112.45,28,23
112.74,113.23,28,23
112.77,113.05,28,23
111.3,114.01,28,23
110.92,115.53,28,23
110.69,117.01,28,23
113.17,117.5,28,23
113.54,118.68,28,23
113.76,119.85,28,23
113.32,120.02,28,23
113.45,121.06,28,23
114.4,119.41,28,23
114.36,120.64,28,23
114.71,120.14,28,23
113.62,120.96,28,23
113.88,121.38,28,23
111.68,122.29,28,23
110.61,123.43,28,23
111.54,123.58,28,23
112.4,122.43,28,23
111.76,124.38,28,23
111.77,127.12,28,23
110.59,127.11,28,23
109.55,127.25,28,23
110.72,126.81,28,23
108.82,126.58,28,23
110.68,126.25,28,23
109.13,126.42,28,23
109.22,127.36,28,23
109.7,128.66,28,23
111.2,127.87,28,23
110.89,128.93,28,23
109.26,129.47,28,23
110.74,129.53,28,23
109.57,128.72,28,23
108.52,130.7,28,23
106.61,130.52,28,23
107.22,130.54,28,23
109,133.25,28,23
110.34,136.31,28,23
111.19,137.85,28,23
110.71,140.59,28,23
111.39,141.27,28,23
110.82,140.88,28,23
112.96,142.07,28,23
112.49,141.99,28,23
114.5,140.61,28,23
114.86,140.59,28,23
114.59,139.91,28,23
112.69,140.91,28,23
114.73,141.49,28,23
114.47,141.54,28,23
113.93,144.13,28,23
113.1,144.75,28,23
112.98,145.61,28,23
113.74,146.04,28,23
113.01,146.17,28,23
113.98,144.91,28,23
113.74,146.13,28,23
112.89,146.38,28,23
112.04,146.35,28,23
114.24,147.62,28,23
115.16,149.18,28,23
116.67,149.67,28,23
115.88,150.53,28,23
116.92,150.68,28,23
117.1,151.43,28,23
118.79,152.71,28,23
118.18,154.25,28,23
117.2,154.97,28,23
117.91,157.31,28,23
119.54,156.56,28,23
117.83,158.94,28,23
118.52,158.13,28,23
119.73,159.42,28,23
118.14,159.72,28,23
117.75,158.3,28,23
119.78,159.55,28,23
121.4,159.53,28,23
121.93,162.94,28,23
120.86,164.27,28,23
119.15,163.94,28,23
118.88,165.63,28,23
120.33,166.1,28,23
120.71,168.52,28,23
121.02,172.34,28,23
119.6,173.68,28,23
119.63,175.49,28,23
121.24,176.73,28,23
121.4,176.05,28,23
123.3,177.58,28,23
122.77,179.08,28,23
124.02,182.62,28,23
123.41,184.46,28,23
122.12,187.07,28,23
121.38,185.79,28,23
121.46,186,28,23
120.78,186.53,28,23
121.16,189.22,28,23
121.64,187.67,28,23
122,187.22,28,23
121.64,187.45,28,23
122.7,186.75,28,23
123,187.87,28,23
122.28,185.21,28,23
121.81,185.1,28,23
123.44,187.47,28,23
122.86,186.4,28,23
123.31,186.52,28,23
122.28,185.22,28,23
124.29,186.14,28,23
124.21,185.61,28,23
124.17,186.28,28,23
125.11,185.72,28,23
126.83,181.9,28,23
125.92,182.96,28,23
124.3,184.03,28,23
124.9,185.42,28,23
127.55,185,28,23
128.99,185.21,28,23
126.85,184.08,28,23
125.74,183.91,28,23
124.99,187.14,28,23
124.25,187.43,28,23
124.07,186.65,28,23
124.54,186.49,28,23
124.32,186.45,28,23
124.44,187.72,28,23
123.27,187.62,28,23
122.82,188.97,28,23
123.44,188.81,28,23
123.92,187.94,28,23
124.26,189.23,28,23
125.36,189.24,28,23
125.58,188.76,28,23
126.89,188.95,28,23
127.67,189.48,28,23
128.94,189.65,28,23
127.59,190.15,28,23
127.37,189.47,28,23
129.15,189.92,28,23
129.77,187.42,28,23
127.82,186.95,28,23
126.26,187.14,28,23
127.77,186.64,28,23
127.52,185.42,28,23
129.04,187.29,28,23
125.69,187.24,28,23
127.29,187.18,28,23
128.68,187.62,28,23
130.39,188.22,28,23
131.36,190.25,28,23
132.2,190.44,28,23
131.4,188.92,28,23
132.45,187.62,28,23
131.5,188.42,28,23
131.52,188.23,28,23
131.02,188.12,28,23
130.7,187.43,28,23
130.81,187.81,28,23
131.8,188.46,28,23
131.8,189.44,28,23
132.09,188.19,28,23
132.03,186.89,28,23
131.03,186.52,28,23
132.06,188.14,28,23
132.92,187.32,28,23
132.1,187.86,28,23
129.04,187.49,28,23
127.66,186.48,28,23
128.5,188.62,28,23
129.75,188.43,28,23
128.72,189.6,28,23
129.94,189.14,28,23
130.68,188.19,28,23
131.08,188.28,28,23
131.91,189.88,28,23
129.17,189.88,28,23
130.5,191.75,28,23
130.33,190.55,28,23
129.58,191.54,28,23
129.84,189.83,28,23
128.7,190.21,28,23
127.2,190.25,28,23
128.59,191.9,28,23
128.6,192.77,28,23
129.97,192.57,28,23
129.1,190.92,28,23
130.39,193.26,28,23
132.75,193.32,28,23
132.16,194.66,28,23
132.26,195.74,28,23
133.6,195.76,28,23
132.04,196.43,28,23
131.05,195.71,28,23
129.06,194.66,28,23
130.6,196.01,28,23
132.37,196.71,28,23
131.81,197.44,28,23
131.3,196.38,28,23
133.16,194.93,28,23
134.24,195.8,28,23
133.89,193.13,28,23
135.37,194.67,28,23
134.68,195.06,28,23
135.92,195.74,28,23
137.13,193.61,28,23
137.52,192.72,28,23
137.57,191.36,28,23
136.14,192.07,28,23
135.9,192.54,28,23
137.86,195.61,28,23
136.2,196.85,28,23
135.92,195.77,28,23
136.19,195.4,28,23
135.56,195.79,28,23
136.05,196.77,28,23
136.15,194.82,28,23
137.03,194.43,28,23
137.34,194.55,28,23
138.47,194.31,28,23
139.23,195.08,28,23
140.5,191.89,28,23
142.64,191.6,28,23
141.59,191.26,28,23
140.09,189.86,28,23
138.56,189.27,28,23
138.75,189.05,28,23
138.1,188.49,28,23
139.68,189.14,28,23
138.58,190.37,28,23
138.4,190.47,28,23
136.56,190.4,28,23
135.81,191.01,28,23
136.37,192.17,28,23
137.24,191.33,28,23
135.88,190.55,28,23
135.66,192.98,28,23
137.03,192.57,28,23
137.93,193.13,28,23
138.6,193.65,28,23
137.08,191.65,28,23
135.71,191.65,28,23
133.34,189.07,28,23
134.53,188.39,28,23
135.16,188.05,28,23
136.67,191.7,28,23
138.18,189.56,28,23
138.7,192.3,28,23
137.39,191.82,28,23
135.4,192.72,28,23
137.37,191.79,28,23
136.81,191.06,28,23
136.59,192.83,28,23
135.48,190.43,28,23
134.57,190.11,28,23
134.34,192.4,28,23
131.23,192.3,28,23
131.4,193.02,28,23
132.98,193.24,28,23
132.77,191.38,28,23
134.14,189.57,28,23
132.14,190.4,28,23
129.93,190.36,28,23
130.35,189.48,28,23
131.39,190.52,28,23
132.79,190.91,28,23
133.48,188.87,28,23
133.13,189.65,28,23
132.44,188.26,28,23
133.11,188.9,28,23
133.14,190.81,28,23
132.29,190.38,28,23
133.82,191.04,28,23
132.59,191.59,28,23
133.12,189.26,28,23
130.78,189.79,28,23
129.44,189.39,28,23
128.11,188.14,28,23
127.06,187.49,28,23
126.61,188.82,28,23
126.34,189.2,28,23
125.05,188.36,28,23
126.62,188.21,28,23
125.09,187.94,28,23
125.51,188.4,28,23
124.7,189.25,28,23
125.46,188.05,28,23
122.15,186.6,28,23
120.82,184.93,28,23
120.21,185.12,28,23
121.29,186.85,28,23
122.41,184.57,28,23
122.42,184.87,28,23
120.73,185.29,28,23
119.56,184.17,28,23
118.2,184.79,28,23
118.12,184.85,28,23
119.78,186.17,28,23
120.58,186.69,28,23
121.12,186.95,28,23
123.15,185.42,28,23
122.63,187.09,28,23
125.13,187.85,28,23
126.59,187.41,28,23
128.06,186.61,28,23
127.66,186.21,28,23
127.38,186.79,28,23
128.71,187.8,28,23
128.95,189.76,28,23
128.44,189.46,28,23
129.47,188.62,28,23
131.13,188.47,28,23
131.73,189.34,28,23
130.92,189.94,28,23
132.45,189.26,28,23
132.76,188.26,28,23
132.44,186.74,28,23
130.04,187.27,28,23
131.8,186.95,28,23
131.25,187.02,28,23
130.05,187.75,28,23
128.98,187.93,28,23
131.41,188.71,28,23
130.11,187.92,28,23
132.56,187.44,28,23
133.01,187.64,28,23
131.45,187.75,28,23
131.27,186.61,28,23
131.67,186.75,28,23
132.43,186.37,28,23
132.81,186.74,28,23
133.52,186.71,28,23
134.27,186.53,28,23
135.49,184.08,28,23
135.2,182.99,28,23
133.95,185,28,23
134.12,186.65,28,23
135.1,187.52,28,23
134.46,188.2,28,23
132.05,187.51,28,23
133.65,186.24,28,23
134.39,187.02,28,23
134.52,185.66,28,23
133.58,186.02,28,23
132.6,185.81,28,23
134.52,186.52,28,23
135.25,187.38,28,23
134.58,187.62,28,23
134.42,186.79,28,23
133.04,186.84,28,23
131.05,186.28,28,23
132.37,185.56,28,23
133.63,184.06,28,23
135.09,182.87,28,23
135.8,184.48,28,23
134.64,183.21,28,23
133.37,181.77,28,23
131.64,182.87,28,23
130.96,184.27,28,23
131.47,184.02,28,23
129.02,184.01,28,23
128.09,183.68,28,23
127.08,182.06,28,23
125.48,181.53,28,23
126.95,181.52,28,23
127.74,182.17,28,23
127.24,181.83,28,23
125.76,180.61,28,23
126.61,181.27,28,23
124.77,179.72,28,23
125.15,181.11,28,23
124.13,179.3,28,23
124.5,180.81,28,23
123.51,181.51,28,23
122.04,181.51,28,23
121.8,182.45,28,23
122.58,183.56,28,23
123.07,180.38,28,23
121.39,181.37,28,23
121.46,180.71,28,23
120.22,181.49,28,23
121.16,181.11,28,23
123.09,182.54,28,23
124.15,182.63,28,23
121.54,181.43,28,23
122.33,181.54,28,23
123.5,182.03,28,23
123.97,182.84,28,23
122.67,181.39,28,23
123.02,179.98,28,23
122.76,180.22,28,23
122.03,179.44,28,23
122.38,179.25,28,23
122.94,178.06,28,23
121.98,177.9,28,23
120.74,180.59,28,23
120.65,181.88,28,23
118.17,180.87,28,23
118.72,178.63,28,23
120.13,179.03,28,23
120.61,179.84,28,23
120.29,180.52,28,23
120.78,179.52,28,23
119.97,180.77,28,23
119.57,181.02,28,23
119.93,182.08,28,23
120.84,182.36,28,23
120.55,180.66,28,23
121.52,181.59,28,23
119.71,183.63,28,23
119.89,183.77,28,23
119.39,184.39,28,23
119.17,184.88,28,23
119.17,184.49,28,23
120.13,184.87,28,23
121.63,185.18,28,23
120.33,183.64,28,23
120.97,185.3,28,23
122.7,186.25,28,23
122.61,185.3,28,23
122.14,184.93,28,23
122.05,185.86,28,23
120.85,185.41,28,23
120.99,186.38,28,23
120.59,188.27,28,23
120.48,187.05,28,23
121.12,188.05,28,23
121.48,188.08,28,23
119.77,186.88,28,23
119.14,185.74,28,23
119.95,186.4,28,23
120.54,186.79,28,23
121.58,185.22,28,23
121.6,186.07,28,23
123.51,185.45,28,23
122.7,184.35,28,23
121.78,185.63,28,23
124.95,186.64,28,23
124.61,187.58,28,23
125.23,188.08,28,23
124.59,189.03,28,23
124.87,187.72,28,23
123.9,189.85,28,23
123.95,189.81,28,23
122.85,188.05,28,23
124.06,186.82,28,23
125.51,187.61,28,23
125.48,186.35,28,23
126.39,188.17,28,23
126.57,188.92,28,23
125.93,188.25,28,23
123.96,187.54,28,23
126.47,189.69,28,23
123.46,189.85,28,23
123.6,189.29,28,23
123.52,189.82,28,23
123.74,189.91,28,23
125.5,188.82,28,23
126.26,187.96,28,23
126.34,188.09,28,23
127.94,187.32,28,23
127.32,186.57,28,23
127.58,187.9,28,23
126.29,187.09,28,23
125.79,189.22,28,23
126.11,186.82,28,23
124.6,187.68,28,23
124.98,188.78,28,23
124.51,189.86,28,23
125.32,188.62,28,23
124.71,186.84,28,23
124.42,186.59,28,23
125.5,185.32,28,23
125.19,182.83,28,23
125.76,182.18,28,23
126.29,181.48,28,23
126.5,180.64,28,23
125.89,181.07,28,23
125.32,179.9,28,23
125.98,179.03,28,23
125.02,176.49,28,23
124.75,177.07,28,23
124.74,176.67,28,23
123.25,178.39,28,23
123.14,177.38,28,23
124.94,176.98,28,23
124.8,176.86,28,23
125.95,178.55,28,23
125.91,178.31,28,23
128.47,176.16,28,23
129.47,176.98,28,23
127.95,178.34,28,23
126.85,179.69,28,23
130.1,177.39,28,23
129.02,178.8,28,23
129.24,178.2,28,23
131.3,177.71,28,23
132.86,176.62,28,23
133.32,178.21,28,23
132.13,178.3,28,23
131.27,180.22,28,23
128.96,180.28,28,23
129.72,181.44,28,23
129.6,181.37,28,23
130.83,182.19,28,23
128.53,181.11,28,23
128.5,182,28,23
126.6,180.76,28,23
125.91,181.58,28,23
124.6,183.87,28,23
124.48,185.41,28,23
125.29,184.07,28,23
125.43,185.12,28,23
125.7,184.71,28,23
125.15,186.36,28,23
126.1,185.55,28,23
126.14,184.73,28,23
125.1,182.66,28,23
125.16,182.9,28,23
124.24,181.61,28,23
125.34,182.01,28,23
123.59,182.65,28,23
121.33,181.07,28,23
121.51,180.06,28,23
123.12,181.09,28,23
123.92,180.89,28,23
123.79,180.65,28,23
123.91,179.8,28,23
124.73,181.5,28,23
123.26,182.9,28,23
122.07,183.19,28,23
123.15,182.36,28,23
123.15,184.5,28,23
122.72,186.44,28,23
121.11,183.91,28,23
121.44,184.08,28,23
120.73,184.71,28,23
120.65,183.29,28,23
121.29,183.48,28,23
121.95,182.29,28,23
120.04,181.16,28,23
120.75,182.36,28,23
120.38,183.98,28,23
121,185.25,28,23
122.44,185.96,28,23
123.23,187.89,28,23
122.25,189.07,28,23
120.88,189.63,28,23
121.64,189.18,28,23
121,188.36,28,23
122.97,189.05,28,23
123.79,188.98,28,23
125.35,189.9,28,23
127.29,189.33,28,23
126.82,187.5,28,23
125.24,188.35,28,23
124.52,189.19,28,23
125.84,189.35,28,23
126.13,190.35,28,23
126.59,188.07,28,23
125.54,187.65,28,23
124.43,187.59,28,23
124.25,188.08,28,23
125.3,187.91,28,23
125.32,189.78,28,23
127.16,189.22,28,23
127.59,188.29,28,23
126,187.48,28,23
124.24,187.44,28,23
124.96,187.99,28,23
124.68,185.47,28,23
126.12,185.84,28,23
126.79,183.94,28,23
126.88,183.21,28,23
125.36,182.62,28,23
126.93,182.26,28,23
126.36,180.49,28,23
125.96,180.75,28,23
126.81,179.66,28,23
125.73,181.51,28,23
124.91,181.01,28,23
124.09,180.79,28,23
123.59,179.57,28,23
123.61,180.13,28,23
124.5,182.63,28,23
125.13,183.18,28,23
125.57,183.21,28,23
125.71,182.98,28,23
125.47,181.52,28,23
125.99,180.03,28,23
124.27,179.68,28,23
122.52,180.19,28,23
122.88,179.87,28,23
121.13,180.24,28,23
118.21,181.76,28,23
118.76,181.16,28,23
121.98,182.32,28,23
119.58,183.74,28,23
119.54,185.23,28,23
118.11,186,28,23
118.28,186.59,28,23
118.92,187.28,28,23
117.7,186.55,28,23
117.65,185.69,28,23
119.64,186.44,28,23
122.94,187.81,28,23
123.9,186.54,28,23
122.92,184.16,28,23
124.27,184.71,28,23
126.55,186.97,28,23
125.16,187.4,28,23
124.79,186.69,28,23
125.13,185.25,28,23
124.86,185.15,28,23
126.26,186.27,28,23
125.69,187.74,28,23
122.99,187.63,28,23
125.38,187.49,28,23
125.48,188.23,28,23
125.71,187.33,28,23
127.39,186.34,28,23
127.26,186.85,28,23
127.58,187.21,28,23
128.75,186.22,28,23
129.6,185.36,28,23
130.88,186.82,28,23
131.94,186.65,28,23
131.86,187.51,28,23
131.81,187.81,28,23
130.52,188.25,28,23
129.92,188.84,28,23
129.59,190.17,28,23
129.49,189.27,28,23
130.47,190.27,28,23
129.88,189.92,28,23
131.75,193.6,28,23
131.34,194.59,28,23
133.73,193.8,28,23
134.02,193.96,28,23
133.59,194.59,28,23
136.14,195.21,28,23
138.3,197.26,28,23
138.73,196.96,28,23
141.4,196.41,28,23
140.88,198.26,28,23
142.32,199.12,28,23
142.62,200.31,28,23
145.8,201.35,28,23
145.75,203.71,28,23
146.68,204.96,28,23
144.32,205.74,28,23
142.78,207.22,28,23
143.07,207.35,28,23
144.2,208.15,28,23
145.38,209.83,28,23
145.57,209.62,28,23
147.07,209.36,28,23
