197,87,38,18
198.68,87.028,38,18
199.04,86.908,38,18
200.64,87.157,38,18
200.06,87.599,38,18
200.03,86.602,38,18
201.77,88.369,38,18
198.62,88.144,38,18
197.81,87.541,38,18
196.47,86.501,38,18
195.14,87.104,38,18
194.55,87.677,38,18
195.58,89.372,38,18
194.08,90.06,38,18
195.19,88.494,38,18
195.65,88.497,38,18
197.76,89.764,38,18
196.86,89.625,38,18
193.13,89.747,38,18
191.63,89.394,38,18
192.68,89.265,38,18
192.57,88.036,38,18
195.17,88.23,38,18
191.85,88.74,38,18
193.12,87.969,38,18
192.98,89.458,38,18
191.26,90.455,38,18
191.19,91.043,38,18
190.26,91.909,38,18
189.98,92.039,38,18
191.27,92.288,38,18
189.95,91.691,38,18
191.07,91.335,38,18
188.77,91.169,38,18
191.63,92.683,38,18
190.65,90.037,38,18
190.08,89.682,38,18
189.89,88.466,38,18
189.74,89.264,38,18
189.15,88.822,38,18
188.7,90.821,38,18
189.48,89.897,38,18
189.68,89.391,38,18
188.59,88.69,38,18
187.48,88.695,38,18
188.47,88.312,38,18
190.13,87.756,38,18
189.97,87.311,38,18
190.16,86.638,38,18
188.29,86.24,38,18
187.49,88.401,38,18
185.61,90.289,38,18
184.33,90.888,38,18
185.19,89.959,38,18
185.5,90.956,38,18
184.55,90.56,38,18
183.07,88.98,38,18
182.62,88.577,38,18
182.26,88.867,38,18
180.07,88.687,38,18
179.68,89.545,38,18
179.28,88.695,38,18
178.1,89.808,38,18
176.83,89.321,38,18
177.99,89.155,38,18
177.79,89.954,38,18
178.52,91.661,38,18
177.22,92.175,38,18
177.51,93.043,38,18
176.52,93.526,38,18
177.71,92.187,38,18
178.01,91.036,38,18
179.13,92.037,38,18
179.52,92.884,38,18
178.2,92.441,38,18
179.84,93.112,38,18
180.45,93.412,38,18
180.81,93.61,38,18
180.75,91.316,38,18
182.18,90.255,38,18
181.12,91.467,38,18
179.61,92.267,38,18
179.25,92.774,38,18
179.71,93.59,38,18
180.51,93.811,38,18
180.93,94.334,38,18
181.97,94.757,38,18
181.3,96.513,38,18
181.55,96.185,38,18
181.53,95.321,38,18
179.65,95.138,38,18
182.27,96.777,38,18
183.02,97.551,38,18
183.14,97.216,38,18
183.04,95.904,38,18
183.82,95.214,38,18
183.97,95.302,38,18
182.06,94.507,38,18
180.83,95.894,38,18
182.37,96.547,38,18
183.05,95.938,38,18
184.56,98.101,38,18
183.89,100.45,38,18
181.38,99.718,38,18
181.09,99.782,38,18
183.7,100.7,38,18
183.97,100.9,38,18
186.47,100.97,38,18
185.96,100.71,38,18
186.05,98.551,38,18
184.9,94.916,38,18
184.41,95.27,38,18
184.08,92.958,38,18
182.77,92.605,38,18
181.57,92.533,38,18
183.36,91.57,38,18
185.04,89.87,38,18
186.03,91.521,38,18
185.2,91.685,38,18
185.02,92.602,38,18
182.37,90.961,38,18
182.14,89.787,38,18
181.13,90.054,38,18
182.14,90.426,38,18
183.59,90.984,38,18
182.47,92.104,38,18
180.32,91.471,38,18
181.06,90.868,38,18
181.73,92.272,38,18
182.91,92.592,38,18
182.88,93.969,38,18
181.68,95.356,38,18
180.42,94.424,38,18
180.97,93.911,38,18
181.68,95.408,38,18
180.92,95.617,38,18
182.34,95.144,38,18
183.19,95.4,38,18
183.31,92.653,38,18
183.92,92.878,38,18
184.61,92.189,38,18
185.27,92.623,38,18
184.26,92.238,38,18
184.43,91.133,38,18
184.53,91.49,38,18
183.44,91.638,38,18
182.73,92.214,38,18
180.44,89.736,38,18
183.01,89.759,38,18
184.02,89.916,38,18
185.41,89.27,38,18
186.25,90.686,38,18
186.14,92.421,38,18
183.97,92.68,38,18
180.87,93.565,38,18
180.51,92.904,38,18
179.99,91.961,38,18
181.9,92.044,38,18
182.13,92.046,38,18
180.68,91.66,38,18
178.46,94.57,38,18
177.29,94.742,38,18
175.74,94.696,38,18
177.45,94.845,38,18
178.19,94.442,38,18
178.85,95.917,38,18
179.67,92.905,38,18
181.87,92.626,38,18
181.39,93.299,38,18
182.61,93.2,38,18
182.73,91.833,38,18
184.05,92.444,38,18
182.86,92.614,38,18
184.06,92.238,38,18
184.49,91.732,38,18
183.9,89.902,38,18
183.22,88.543,38,18
182.34,88.618,38,18
181.58,88.995,38,18
181.22,88.388,38,18
181.28,88.283,38,18
183.46,88.946,38,18
185.04,88.373,38,18
185.13,88.686,38,18
184.89,89.528,38,18
181.42,89.94,38,18
180.72,89.776,38,18
179.58,88.943,38,18
178.55,88.904,38,18
178.86,89.565,38,18
180.95,90.782,38,18
181.39,90.853,38,18
180.22,89.55,38,18
180.29,90.845,38,18
180.58,90.949,38,18
180.5,89.442,38,18
181.37,86.513,38,18
182.64,86.806,38,18
181,86.97,38,18
181.26,86.419,38,18
181.33,85.633,38,18
180.33,85.988,38,18
181.7,85.617,38,18
180.18,86.538,38,18
181.1,86.083,38,18
183.06,87.509,38,18
183.7,85.825,38,18
184.78,85.47,38,18
184.62,87.095,38,18
184.74,86.66,38,18
186.07,86.509,38,18
185.01,87.842,38,18
185.89,89.963,38,18
185.46,91.057,38,18
185.4,89.814,38,18
183.2,89.606,38,18
182.18,90.122,38,18
181.05,88.537,38,18
180.59,89.493,38,18
181.92,86.86,38,18
180.77,87.832,38,18
179.84,87.803,38,18
179.55,87.757,38,18
179.03,88.9,38,18
180.5,88.316,38,18
182.78,88.45,38,18
183.88,87.023,38,18
181.45,87.407,38,18
183.52,86.973,38,18
183.28,88.626,38,18
182.84,89.266,38,18
181.99,89.461,38,18
182,89.266,38,18
184.22,87.786,38,18
184.88,88.232,38,18
186.44,87.607,38,18
185.46,87.971,38,18
184.88,87.532,38,18
184.38,87.567,38,18
185.4,87.1,38,18
186.7,87.357,38,18
185.6,87.413,38,18
185.29,85.767,38,18
185.86,85.404,38,18
185.18,85.253,38,18
187.21,85.458,38,18
188.73,86.424,38,18
186.62,87.326,38,18
188.67,87.631,38,18
189.61,88.614,38,18
187.53,89.691,38,18
186.72,90.009,38,18
186.81,90.472,38,18
187.05,93.047,38,18
187.2,90.816,38,18
188.24,92.246,38,18
189.59,91.407,38,18
189.01,90.124,38,18
188.73,90.163,38,18
187.88,89.776,38,18
188.03,88.188,38,18
189.64,88.313,38,18
189.74,89.034,38,18
190.58,88.716,38,18
189.02,90.218,38,18
189.56,89.728,38,18
188.01,89.964,38,18
187.68,93.177,38,18
187.03,92.655,38,18
191.89,95.077,38,18
195.27,96.43,38,18
196.62,97.745,38,18
196.52,98.831,38,18
196.41,99.838,38,18
196.19,100.51,38,18
196.55,101.69,38,18
196.21,103.09,38,18
195.6,102.42,38,18
198.61,103.94,38,18
198.48,103.12,38,18
200.42,103.91,38,18
199.23,105.66,38,18
198.07,105.63,38,18
199.29,105.6,38,18
198.82,104.9,38,18
196.84,105.12,38,18
197.89,103.36,38,18
197.33,103.89,38,18
195.66,102.63,38,18
193.3,104.75,38,18
194.1,102.82,38,18
195.03,103.62,38,18
194.09,103.58,38,18
193.85,102.94,38,18
194.47,102.18,38,18
194.82,103.25,38,18
195.36,102.65,38,18
195.26,102.06,38,18
196.67,102.69,38,18
198.92,101.44,38,18
198.5,101.95,38,18
197.96,103.34,38,18
198.22,102.51,38,18
196.84,102.9,38,18
195.41,104.37,38,18
194.75,102.84,38,18
193.7,101.69,38,18
193.71,101.58,38,18
194.38,102.52,38,18
195.36,101.94,38,18
194.13,101.55,38,18
195.13,100.05,38,18
191.64,99.285,38,18
190.15,98.718,38,18
191.43,98.013,38,18
192.24,99.381,38,18
195.94,100.56,38,18
196.22,101.1,38,18
195.85,98.356,38,18
194.21,98.001,38,18
192.88,96.693,38,18
194.94,99.11,38,18
195.41,98.733,38,18
197.82,100.62,38,18
197.15,101.87,38,18
197.49,101.86,38,18
197.03,102.62,38,18
195.45,106.49,38,18
194.43,106.61,38,18
195.74,105.14,38,18
194.06,105.33,38,18
192.9,105.93,38,18
192.96,105.84,38,18
191.86,106.66,38,18
193.04,108.88,38,18
192.34,107.83,38,18
193.6,108.9,38,18
195.54,107.77,38,18
194.1,110.04,38,18
194,107.87,38,18
193.7,107.49,38,18
192.35,107.49,38,18
192.65,106.89,38,18
193.08,106.25,38,18
194.87,106.67,38,18
194.19,107.6,38,18
195.32,106.83,38,18
191.22,107.99,38,18
192.24,108.07,38,18
195.09,108.77,38,18
195.09,107.53,38,18
192.78,107.05,38,18
194.47,105.79,38,18
196.2,105.66,38,18
197.66,104.3,38,18
197.49,107.27,38,18
197.46,107.03,38,18
198.32,104.78,38,18
199.88,104.99,38,18
197.47,105.61,38,18
198.15,106.01,38,18
197.13,105.96,38,18
195.49,106.08,38,18
194.96,102.87,38,18
194.49,102.77,38,18
193.26,102.88,38,18
193.09,102.61,38,18
192.72,102.66,38,18
192.65,104.89,38,18
191.21,101.89,38,18
192.37,101.07,38,18
191.11,104.97,38,18
191.67,102.08,38,18
193.64,103.1,38,18
193.27,102.28,38,18
193.7,103.19,38,18
193.32,103.24,38,18
193.1,102.45,38,18
195.07,100.13,38,18
195.03,98.58,38,18
194.54,96.895,38,18
194.75,96.018,38,18
195.12,98.153,38,18
195.58,98.015,38,18
195.81,97.068,38,18
197.23,96.257,38,18
198.82,95.516,38,18
200.62,96.391,38,18
200.68,95.87,38,18
200.74,96.276,38,18
198.99,97.124,38,18
197.82,96.364,38,18
198,95.698,38,18
196.81,96.384,38,18
196.02,96.235,38,18
194.2,97.175,38,18
195.6,97.043,38,18
196.43,97.024,38,18
194.15,98.451,38,18
195.37,98.613,38,18
196.28,97.669,38,18
196.49,95.669,38,18
196.68,95.529,38,18
197.02,96.276,38,18
198.21,96.351,38,18
198.6,95.706,38,18
198.76,94.945,38,18
200.66,93.754,38,18
203.14,92.957,38,18
202.1,92.732,38,18
201.35,89.668,38,18
200.73,90.419,38,18
198.95,89.554,38,18
199.79,88.381,38,18
200.16,88.597,38,18
199.03,87.168,38,18
201.47,87.643,38,18
202.51,87.583,38,18
203.35,88.701,38,18
203.04,88.824,38,18
200.95,87.002,38,18
200.39,87.247,38,18
200.36,87.58,38,18
199.59,87.457,38,18
197.84,86.823,38,18
196.12,87.803,38,18
197.63,87.672,38,18
197.71,88.26,38,18
196.34,87.61,38,18
195.19,89.736,38,18
190.64,92.532,38,18
191.53,92.827,38,18
192.53,92.636,38,18
191.33,92.265,38,18
190.58,91.794,38,18
191.42,91.364,38,18
190.59,90.58,38,18
190.56,89.906,38,18
188.74,91.203,38,18
188.62,91.717,38,18
188.48,92.536,38,18
189.23,94.95,38,18
188.89,94.345,38,18
185.35,93.121,38,18
186.57,92.824,38,18
186.02,92.455,38,18
186.32,93.869,38,18
187.95,91.959,38,18
190.12,92.524,38,18
189.44,92.316,38,18
187.82,91.51,38,18
187.55,92.023,38,18
186.94,92.689,38,18
189.08,92.566,38,18
187.42,90.007,38,18
187.44,91.393,38,18
187.32,90.748,38,18
188.39,89.63,38,18
188.37,89.617,38,18
187.93,90.222,38,18
190.74,91.038,38,18
190.32,90.433,38,18
190.62,90.98,38,18
188.5,92.004,38,18
189.69,91.112,38,18
189.66,92.73,38,18
188.72,93.088,38,18
189.72,92.686,38,18
188.69,92.557,38,18
188.17,92.954,38,18
188.58,93.558,38,18
187.89,93.649,38,18
187.66,95.827,38,18
187.4,95.887,38,18
187.77,93.367,38,18
190.16,94.457,38,18
190.31,93.947,38,18
190.58,95.295,38,18
193.48,92.743,38,18
192.53,91.689,38,18
190.8,93.04,38,18
189.12,91.286,38,18
189.11,89.271,38,18
188.29,91.545,38,18
187.48,91.504,38,18
188.42,91.001,38,18
188.97,91.477,38,18
189.77,91.631,38,18
190.81,89.975,38,18
191.54,90.234,38,18
190.99,88.662,38,18
191.65,88.713,38,18
191.34,87.801,38,18
189.6,88.202,38,18
190.33,87.136,38,18
190.81,87.284,38,18
193.29,86.966,38,18
192.55,86.525,38,18
190.23,86.273,38,18
190.43,85.336,38,18
189.33,83.16,38,18
190.39,83.012,38,18
191.72,84.102,38,18
192.73,84.771,38,18
192.2,83.738,38,18
191.34,85.561,38,18
190.68,84.357,38,18
191.57,87.004,38,18
190.04,86.957,38,18
189.72,86.837,38,18
189.5,85.034,38,18
188.8,85.279,38,18
189.55,86.948,38,18
188.86,87.831,38,18
189.69,87.766,38,18
188.91,87.249,38,18
187.63,86.09,38,18
187.95,86.131,38,18
187.86,86.906,38,18
188.65,86.804,38,18
189.39,87.635,38,18
187.4,87.139,38,18
185.55,89.143,38,18
186.04,89.496,38,18
184.91,88.168,38,18
186.39,88.337,38,18
182.41,87.717,38,18
183.57,87.735,38,18
183.57,84.984,38,18
185.78,83.542,38,18
186.75,83.177,38,18
187.45,83.592,38,18
188.64,85.899,38,18
187.89,85.469,38,18
187.83,85.048,38,18
188.31,82.471,38,18
189.75,82.151,38,18
188.98,82.002,38,18
188.84,78.908,38,18
187.6,78.504,38,18
186.58,80.448,38,18
186.33,82.189,38,18
187.2,83.566,38,18
189.7,82.928,38,18
189.96,81.255,38,18
190.04,79.868,38,18
190.93,80.966,38,18
191.85,82.699,38,18
191.58,82.727,38,18
189.6,83.227,38,18
189.71,82.161,38,18
188.03,82.413,38,18
185.94,81.244,38,18
185.98,81.361,38,18
185.69,83.174,38,18
185.57,81.416,38,18
187.21,82.516,38,18
186.77,83.207,38,18
187.91,84.52,38,18
187.48,83.74,38,18
187.12,82.699,38,18
186.32,82.773,38,18
188.85,81.964,38,18
189.9,83.462,38,18
192.23,84.14,38,18
191.95,85.356,38,18
191.48,87.07,38,18
190.9,86.857,38,18
193.19,87.025,38,18
192.87,85.853,38,18
194.93,85.856,38,18
194.95,85.056,38,18
194.85,84.55,38,18
195.56,85.035,38,18
196.86,86.076,38,18
196.51,85.147,38,18
197.3,84.431,38,18
197.52,84.03,38,18
200.45,83.294,38,18
200.23,82.952,38,18
199.87,82.196,38,18
198.21,81.928,38,18
196.96,82.223,38,18
196.94,82.27,38,18
195.97,82.337,38,18
196.62,82.583,38,18
195.12,83.061,38,18
192.53,83.85,38,18
193.99,84.353,38,18
191.45,84.646,38,18
191.95,85.703,38,18
189.65,84.785,38,18
189.3,86.913,38,18
190.68,86.003,38,18
189.61,82.743,38,18
188.47,84.398,38,18
188.64,85.401,38,18
188.83,84.311,38,18
189.21,85.475,38,18
190.81,83.698,38,18
190.26,83.651,38,18
191.72,84.669,38,18
190.33,85.737,38,18
191.37,84.128,38,18
189.78,83.032,38,18
188.93,81.994,38,18
188.82,82.796,38,18
188.09,85.663,38,18
187.92,85.097,38,18
187.89,84.898,38,18
187.68,83.331,38,18
185.41,83.273,38,18
185.32,84.341,38,18
185.12,83.549,38,18
185.65,83.367,38,18
185.43,83.996,38,18
185.4,84.734,38,18
187.49,86.567,38,18
188.07,85.535,38,18
187.19,85.375,38,18
185.71,86.501,38,18
184.58,85.031,38,18
183.11,84.115,38,18
184.37,84.04,38,18
185.77,83.339,38,18
186.88,84.351,38,18
186.38,83.905,38,18
184.62,84.077,38,18
184.87,83.477,38,18
183.3,81.666,38,18
182.91,80.248,38,18
181.39,84.008,38,18
181.86,85.794,38,18
181.27,87.042,38,18
179.83,87.835,38,18
178.58,89.332,38,18
177.1,88.964,38,18
177.15,91.195,38,18
178.51,92.08,38,18
176.54,90.266,38,18
176.4,92.265,38,18
177.13,92.626,38,18
178.45,94.117,38,18
178.44,93.923,38,18
178.56,92.139,38,18
178.61,91.101,38,18
178.28,92.861,38,18
178.86,91.989,38,18
179.1,92.495,38,18
177.73,93.047,38,18
176.1,94.731,38,18
174.98,94.527,38,18
173.76,94.701,38,18
174.45,96.264,38,18
176.07,95.442,38,18
176.52,95.64,38,18
176.2,98.044,38,18
175.83,99.743,38,18
176.54,100.38,38,18
177.48,99.101,38,18
176.19,102.24,38,18
175.99,101.53,38,18
175.39,102.24,38,18
174.11,101.69,38,18
175.12,104.56,38,18
173.12,106.27,38,18
173.75,106.58,38,18
173.97,108.43,38,18
173,108.11,38,18
171.23,106.96,38,18
170.8,108.57,38,18
171.57,107.35,38,18
170.43,107.59,38,18
171.58,111.04,38,18
171.57,111.34,38,18
172.21,109.95,38,18
174.94,109.9,38,18
174.88,111.75,38,18
174.95,109.9,38,18
172.13,109.75,38,18
171.91,109.5,38,18
172.16,109.87,38,18
169.82,109.68,38,18
171.72,111.2,38,18
171.33,110.59,38,18
170.59,110.41,38,18
170.43,110.87,38,18
170.35,111.73,38,18
170.15,112.53,38,18
169.68,115.24,38,18
170.32,114.38,38,18
169.28,114.97,38,18
169.1,115.38,38,18
167.69,117.14,38,18
168.19,119.24,38,18
165.86,118.99,38,18
166.95,119.99,38,18
165.29,120.87,38,18
163.97,121.53,38,18
164.39,121.74,38,18
165.23,121.73,38,18
164.53,120.85,38,18
164.81,122.59,38,18
163.2,123.31,38,18
164.32,121.49,38,18
165.23,122.7,38,18
161.81,124.18,38,18
161.1,125.35,38,18
159.76,122.4,38,18
160.26,120.68,38,18
159.95,119.64,38,18
159.72,120.13,38,18
158.59,119.6,38,18
157.96,118.51,38,18
160.18,120.1,38,18
159.41,120.27,38,18
160.05,121.32,38,18
160,120.93,38,18
160.27,122.05,38,18
161.54,124.84,38,18
161.28,127.7,38,18
161.45,128.34,38,18
162.74,129.15,38,18
163.06,128.69,38,18
162.14,129.77,38,18
161.26,132.99,38,18
160.46,133.2,38,18
162.07,134.51,38,18
162.84,133.82,38,18
162.59,133.08,38,18
159.89,131.22,38,18
161.85,131.38,38,18
161.45,131.91,38,18
160.44,130.1,38,18
159.76,129.89,38,18
159.02,130.69,38,18
161.15,129.43,38,18
161.23,129.28,38,18
159.43,128.49,38,18
161.5,128.4,38,18
158.49,126.45,38,18
159.22,125.4,38,18
160.51,124.58,38,18
159.92,123.29,38,18
159.67,122.89,38,18
159.29,123.46,38,18
158.55,125.19,38,18
158.36,123.7,38,18
160.97,124.08,38,18
160.59,126.73,38,18
156.66,128.28,38,18
156.41,128.21,38,18
157.36,129.07,38,18
157.03,131.38,38,18
155.42,131,38,18
154.74,132.21,38,18
156.11,130.16,38,18
156.3,129.51,38,18
154.65,127.43,38,18
154.64,128.14,38,18
152.93,130.17,38,18
153.88,129.46,38,18
153.52,128.97,38,18
154.26,129.05,38,18
155.93,127.27,38,18
154.47,125.79,38,18
154.11,125.89,38,18
152.65,126.76,38,18
153.72,127.66,38,18
154.4,128.46,38,18
154.36,128.67,38,18
153.77,129.78,38,18
154.97,131.24,38,18
156.93,128.87,38,18
157.37,126.37,38,18
158.06,127.03,38,18
157.93,127.26,38,18
158.67,127.4,38,18
157.45,127.82,38,18
157.94,126.67,38,18
155.28,126.13,38,18
155.66,126.14,38,18
156.49,126.2,38,18
158.15,125.38,38,18
160.44,126.6,38,18
162.31,127,38,18
161.29,126.21,38,18
160.09,127.28,38,18
160.41,127.75,38,18
159.79,128.58,38,18
159.02,127.77,38,18
159.59,128.86,38,18
162.49,129.97,38,18
163.29,131.21,38,18
162.42,132.13,38,18
162.44,130.7,38,18
162.01,128.98,38,18
161.51,127.43,38,18
161.38,127.64,38,18
161.55,127.81,38,18
161.07,129.21,38,18
162.5,129.48,38,18
162.74,129.76,38,18
163.02,130.63,38,18
162.12,131.08,38,18
164.19,131.54,38,18
164.14,131.83,38,18
161.67,133.36,38,18
160.86,134.4,38,18
163.03,134.54,38,18
164.63,133.77,38,18
166.23,134.4,38,18
166.02,134.82,38,18
168.01,133.38,38,18
170.37,134.18,38,18
170.48,133.76,38,18
171.31,133.88,38,18
173.34,134.67,38,18
172.26,136.37,38,18
172.35,136.35,38,18
173.76,134.11,38,18
173.89,134.57,38,18
175.74,133.81,38,18
174.91,133.57,38,18
175.91,134.85,38,18
173.23,136.2,38,18
173.02,135.13,38,18
173.07,133.11,38,18
173.42,134.31,38,18
170.48,135.15,38,18
170.6,135.88,38,18
171.9,135.62,38,18
172.06,136.04,38,18
170.65,134.49,38,18
168.12,134.78,38,18
169.97,136.91,38,18
170.43,137.15,38,18
171.16,136.41,38,18
170.74,136.91,38,18
171.75,137.3,38,18
172.48,137.71,38,18
172.37,138.88,38,18
172,138.93,38,18
172.97,139.59,38,18
174.34,140.55,38,18
173.12,139.35,38,18
174.98,139.92,38,18
175.46,139.58,38,18
177.25,138.91,38,18
177.24,138.18,38,18
178.1,137.45,38,18
177.59,136.42,38,18
176.27,137.13,38,18
178.07,137.81,38,18
178.17,137.73,38,18
177.83,136.71,38,18
176.74,136.1,38,18
176.38,136.52,38,18
176.66,136.21,38,18
175.02,135.19,38,18
175.43,134.11,38,18
175.6,135.66,38,18
174.63,135.82,38,18
174.74,135.67,38,18
175.63,137.38,38,18
173.38,137.42,38,18
174.23,137.41,38,18
174.09,135.6,38,18
175.33,135.66,38,18
175.04,134.97,38,18
174.55,134.79,38,18
176.99,133.4,38,18
175.6,133.89,38,18
176.23,134.85,38,18
173.67,134.3,38,18
173.04,133.2,38,18
174.5,131.85,38,18
173,128.65,38,18
172.7,129.83,38,18
172.29,130.37,38,18
172.43,130.12,38,18
173.13,129.63,38,18
172.89,128.86,38,18
173.79,129.44,38,18
175.46,130.05,38,18
176.97,128.01,38,18
175.88,125.9,38,18
175.87,124.51,38,18
175.66,122.54,38,18
177.19,121.98,38,18
176.89,120.71,38,18
177.59,120.23,38,18
178.59,119.88,38,18
179.08,119.19,38,18
180.2,119.32,38,18
179.62,120.21,38,18
179.77,122.85,38,18
177.76,124.26,38,18
176.98,123.65,38,18
179.81,125.54,38,18
178.7,125.77,38,18
180,123.42,38,18
177.18,121.88,38,18
174.29,120.83,38,18
176.91,122.19,38,18
177.06,121.35,38,18
176.23,120.95,38,18
176.12,122.34,38,18
175.34,122.87,38,18
173.61,123.37,38,18
173.08,124.12,38,18
171.62,122.91,38,18
172.25,123.09,38,18
171.15,123.52,38,18
167.84,125.43,38,18
167.86,125.8,38,18
168.22,126.55,38,18
168.64,128.08,38,18
169.66,127.23,38,18
170.89,125.6,38,18
170.49,125.76,38,18
169.99,125.3,38,18
167.93,124.06,38,18
167.02,125.34,38,18
166.86,125.65,38,18
166.44,125.56,38,18
165.91,125.68,38,18
167.16,125.46,38,18
168.69,125.32,38,18
167.69,122.61,38,18
165.17,122.43,38,18
164.85,123.54,38,18
166.44,123.72,38,18
167.6,125.26,38,18
169.22,125.61,38,18
170.55,126.33,38,18
171.14,126.24,38,18
170.72,126.99,38,18
171.28,128.51,38,18
170.15,126.74,38,18
166.74,126.58,38,18
167.45,127.52,38,18
165.42,128.74,38,18
164.9,127.74,38,18
164.83,128.83,38,18
165.44,127.13,38,18
165.53,125.76,38,18
166.03,124.66,38,18
166.83,123.16,38,18
167.72,122.95,38,18
166.68,123.85,38,18
168.09,123.27,38,18
166.9,123.58,38,18
166.75,123.93,38,18
167.22,124.83,38,18
166.15,123.22,38,18
167.01,123.31,38,18
168.06,123.51,38,18
169.11,124.2,38,18
169.55,122.5,38,18
170.84,123.1,38,18
170.3,121.98,38,18
171.24,123.48,38,18
171.63,122.98,38,18
173.02,122.77,38,18
174.83,124.45,38,18
173.7,123.96,38,18
175.7,123.59,38,18
176.46,121.13,38,18
175.84,121.19,38,18
176.14,122.63,38,18
177.84,122.38,38,18
177.97,122.92,38,18
176.23,125.27,38,18
172.56,125.28,38,18
172.81,128.5,38,18
172.42,127.78,38,18
171.4,127.82,38,18
170.16,127.78,38,18
172.42,127.18,38,18
174.68,125.8,38,18
172.65,126.14,38,18
171.7,128.52,38,18
172.5,128.52,38,18
172.68,128.19,38,18
173.89,127.31,38,18
174.13,127.92,38,18
174.53,125.52,38,18
174.31,128.41,38,18
176.1,127.33,38,18
176.94,129.51,38,18
178.61,129.91,38,18
177.63,129.05,38,18
177.66,129,38,18
176.6,130.5,38,18
175.83,129.95,38,18
178.34,131.6,38,18
177.79,132.45,38,18
177.95,132.13,38,18
178.66,134.73,38,18
179.35,135.16,38,18
180.08,134.81,38,18
181.2,134.73,38,18
179.36,134.58,38,18
183.05,135.73,38,18
183.16,137,38,18
179.94,136.67,38,18
177.73,136.75,38,18
178.2,134.55,38,18
179.17,133.31,38,18
178.11,134.26,38,18
180.03,133.19,38,18
178.72,133.29,38,18
177.24,133.62,38,18
176.59,130.7,38,18
180.05,130.71,38,18
179.15,131.22,38,18
178.96,130.79,38,18
178.96,132.09,38,18
178.11,132.77,38,18
181.76,132.14,38,18
181.09,130.36,38,18
182.29,131.33,38,18
179.92,130.43,38,18
180.58,132.6,38,18
180.23,133.8,38,18
182.52,133.89,38,18
181.73,134.81,38,18
180.16,134.22,38,18
180.32,133.78,38,18
180.73,132.02,38,18
182.08,131.39,38,18
181.83,130.45,38,18
182.49,132.45,38,18
182.64,131.34,38,18
182.78,130.54,38,18
182.07,129.07,38,18
180.2,130.42,38,18
180.64,130.32,38,18
180.44,128.64,38,18
181.33,129.48,38,18
180.89,129.62,38,18
181.62,129.86,38,18
182.96,129.73,38,18
181.53,126.36,38,18
180.53,128.23,38,18
182.79,125.55,38,18
181.45,126.06,38,18
181.56,127.31,38,18
181.61,126.84,38,18
178.27,127.43,38,18
177.96,127.6,38,18
177.59,128,38,18
178.2,128.42,38,18
181.39,130.09,38,18
182.69,130.69,38,18
182.75,131.48,38,18
180.68,131.97,38,18
181.3,131.24,38,18
179.15,133.34,38,18
181.39,133.16,38,18
181.17,133.79,38,18
179.98,133.1,38,18
179.4,129.18,38,18
180.77,128.77,38,18
181.49,129.53,38,18
182.19,129.26,38,18
183.15,129.84,38,18
181.04,130.44,38,18
180.67,128.26,38,18
178.75,130.03,38,18
178.68,128.95,38,18
178.95,129.59,38,18
179.71,129.94,38,18
178.49,129.1,38,18
178.63,129.83,38,18
178.51,129.84,38,18
177.04,130.46,38,18
178.41,129.98,38,18
179.14,127.38,38,18
180.12,127.63,38,18
180.68,128.41,38,18
180.23,128.59,38,18
180.22,128.8,38,18
180.71,127.88,38,18
180.83,128.49,38,18
182.93,127.79,38,18
182.35,129.35,38,18
182.58,129.66,38,18
182.58,127.62,38,18
180.93,124.72,38,18
181.36,124.44,38,18
181.94,125.23,38,18
182.95,124.54,38,18
183.05,123.62,38,18
184.31,126.21,38,18
184.49,126.1,38,18
185.29,126.71,38,18
184.68,129.04,38,18
184.58,130.69,38,18
184.33,132.07,38,18
183.74,133.44,38,18
182.75,131.85,38,18
182.67,132.41,38,18
182.65,131.79,38,18
182.98,132.73,38,18
183.12,133.17,38,18
183.99,136.81,38,18
182.84,134.07,38,18
184.22,136.47,38,18
185.1,134.48,38,18
184.93,135.35,38,18
184.54,138.37,38,18
186.59,137.46,38,18
189.35,136.58,38,18
191.43,138.98,38,18
191.44,139.44,38,18
191.88,137.96,38,18
194.17,137.43,38,18
194.25,136.88,38,18
194.65,138.28,38,18
196.65,136.8,38,18
195.6,136.68,38,18
194.74,137.82,38,18
195.19,136.35,38,18
195.53,137.42,38,18
195.26,139.81,38,18
197.17,139.44,38,18
196.79,138.63,38,18
198.83,141.05,38,18
198.23,141.18,38,18
200.2,142.33,38,18
199.56,142.07,38,18
199.67,141.03,38,18
200.75,139.58,38,18
199.77,139.97,38,18
201.4,139.39,38,18
201.98,138.17,38,18
202.46,137.28,38,18
201.53,137.67,38,18
200.97,138.01,38,18
200.74,136.93,38,18
200.02,137.64,38,18
198.18,137.47,38,18
199.37,137.37,38,18
197.56,136.46,38,18
197.75,136.94,38,18
197.47,135.92,38,18
198.64,134.11,38,18
196.64,134.31,38,18
195.6,133.2,38,18
193.68,134.46,38,18
192.68,133.92,38,18
194.1,135.25,38,18
193.84,135.07,38,18
193.74,133.71,38,18
193.28,134.61,38,18
192.76,135.27,38,18
193.01,136.24,38,18
194.32,136.75,38,18
193.33,135.3,38,18
194.11,134.84,38,18
193.08,133.31,38,18
192.72,135.09,38,18
191.85,133.53,38,18
191.87,133.35,38,18
190.02,133.85,38,18
188.12,134.05,38,18
185.99,133.6,38,18
184.91,134.95,38,18
185.01,135.71,38,18
184.63,133.77,38,18
183.08,135.27,38,18
181.42,134.72,38,18
183.26,134.39,38,18
181.75,132.64,38,18
182.68,131.27,38,18
185.33,130.06,38,18
184.5,128.27,38,18
181.49,129.31,38,18
180.74,130.22,38,18
179.48,130.05,38,18
179.59,130.36,38,18
179.09,129.01,38,18
177.96,128.7,38,18
178.04,130.23,38,18
178.45,129.37,38,18
179.17,129.71,38,18
179.88,129.8,38,18
180.05,128.93,38,18
178.59,131.14,38,18
176.48,130.67,38,18
176.14,130.19,38,18
176.69,132.98,38,18
176.45,133.24,38,18
177.08,134.1,38,18
179.17,135.22,38,18
179.11,134.57,38,18
181.76,134.49,38,18
183.51,133.26,38,18
181.51,135,38,18
181.16,133.26,38,18
182.33,133.35,38,18
181.49,133.63,38,18
182.29,134.38,38,18
182.29,135.27,38,18
182.96,134.39,38,18
181.95,133.22,38,18
179.88,134.6,38,18
180.88,135.86,38,18
181.4,136.07,38,18
180.83,136.5,38,18
181.69,135.92,38,18
181.4,136.02,38,18
182.02,135.88,38,18
182.28,137.34,38,18
181.48,136.77,38,18
181.25,138.15,38,18
181.59,138.37,38,18
181.16,136.2,38,18
182.24,135.18,38,18
182.8,134.71,38,18
182.05,134.1,38,18
183.02,132.49,38,18
184.12,131.74,38,18
183.72,132.31,38,18
185.03,132.32,38,18
185.63,133.43,38,18
184.1,131.54,38,18
182.81,129.86,38,18
185.63,131.52,38,18
185.76,134.84,38,18
186.61,133.32,38,18
186.92,132.72,38,18
186.18,133.34,38,18
184.54,132.68,38,18
185.41,133.17,38,18
183.23,133.51,38,18
183.62,130.91,38,18
182.99,131.29,38,18
184.3,132.24,38,18
184.62,132.52,38,18
183.88,130.71,38,18
184.28,131.34,38,18
184.14,132.32,38,18
184.39,131.86,38,18
183.55,132.33,38,18
182.67,131.32,38,18
183.51,131.32,38,18
184.41,131.12,38,18
186.05,133.05,38,18
185.85,131.49,38,18
185.57,131.13,38,18
185.52,130.18,38,18
185.42,130.72,38,18
186.26,130.8,38,18
185.05,131.94,38,18
185.4,134.45,38,18
184.9,135.5,38,18
184.99,133.68,38,18
183.81,133.24,38,18
184.11,132.61,38,18
182.86,133.37,38,18
183.92,132.34,38,18
186.5,134.6,38,18
187.73,133.47,38,18
188.24,133.98,38,18
187.32,133.06,38,18
188.19,132.66,38,18
189.74,131.6,38,18
188.74,132.16,38,18
190.28,132.14,38,18
189.05,130.1,38,18
191.13,129.45,38,18
190.04,129.94,38,18
189.08,129.93,38,18
190.41,130.74,38,18
188.22,131.23,38,18
190.45,131.87,38,18
189.9,131.96,38,18
188.29,131.66,38,18
189,132.07,38,18
188.44,130.14,38,18
187.52,129.8,38,18
188.34,128.82,38,18
190.96,128.11,38,18
190.15,127.35,38,18
188.47,129.44,38,18
187.91,127.81,38,18
190.35,129.74,38,18
189.97,128.97,38,18
189.44,130.4,38,18
191.27,130.22,38,18
189.21,129.47,38,18
189.28,127.41,38,18
189.31,128.38,38,18
189.52,129.55,38,18
188.14,128.73,38,18
188.36,128.76,38,18
188.25,128.56,38,18
190.24,129.31,38,18
192.22,128.33,38,18
192.62,128.26,38,18
191.27,128.52,38,18
190.71,130.04,38,18
191.07,132.52,38,18
190.87,130.67,38,18
190.76,129.39,38,18
189.75,127.84,38,18
190.59,128.54,38,18
190.45,126.73,38,18
190.78,125.4,38,18
190.79,125.12,38,18
191.86,124.62,38,18
191.81,124.73,38,18
191.7,122.53,38,18
191.87,121.87,38,18
190.68,121.55,38,18
189.67,120.26,38,18
188.49,120.98,38,18
188.52,120.94,38,18
189.22,119.47,38,18
190.46,118.18,38,18
190.87,117.02,38,18
190.15,116.38,38,18
187.8,116.92,38,18
187.9,115.06,38,18
189.68,115.38,38,18
191.36,117.21,38,18
190.62,116.65,38,18
191.27,114.76,38,18
189.76,114.74,38,18
190.17,114.49,38,18
190.97,114.87,38,18
192.92,116.54,38,18
193.15,116.72,38,18
194.41,117.59,38,18
196.16,118.08,38,18
194.19,117.9,38,18
193.86,118.42,38,18
193.18,118.91,38,18
192.06,117.48,38,18
191.86,119.63,38,18
189.68,120.25,38,18
188.38,119.51,38,18
188.59,119.33,38,18
188.51,116.47,38,18
188.54,116.42,38,18
188.71,115.84,38,18
189.61,116.66,38,18
190.58,114.52,38,18
190.68,114.43,38,18
191.68,113.34,38,18
191.43,113.28,38,18
190.9,114.97,38,18
190.76,114.48,38,18
189.44,112.4,38,18
189.68,112.76,38,18
190.07,111.11,38,18
189.43,108.91,38,18
188.87,109.44,38,18
190.76,109.99,38,18
189.79,110.88,38,18
188.4,110.21,38,18
186.13,111.51,38,18
187.28,112.86,38,18
186.19,111.16,38,18
184.51,108.95,38,18
186.13,109.05,38,18
186.3,108.57,38,18
185.78,110.17,38,18
184.98,109.76,38,18
185.33,109.29,38,18
186.28,107.41,38,18
186.59,107,38,18
186.09,105.64,38,18
186,104.82,38,18
185.1,102.81,38,18
185.67,100.56,38,18
185.87,100.73,38,18
187.35,101.84,38,18
185.87,102.31,38,18
187.66,102.15,38,18
186.4,102.97,38,18
186.13,104.97,38,18
184.34,104.12,38,18
182.8,103.07,38,18
183.96,103.53,38,18
185.14,102.69,38,18
185.73,103.74,38,18
185.5,104.48,38,18
185.71,104.14,38,18
186.63,105.94,38,18
187.46,108.17,38,18
186.22,106.89,38,18
187.17,105.71,38,18
184.51,106.51,38,18
185.58,105.42,38,18
184.63,104.82,38,18
183.74,106.2,38,18
183.74,104.95,38,18
182.74,105.07,38,18
180.04,104.38,38,18
178.07,103.62,38,18
178.1,103.38,38,18
178.38,103.12,38,18
179.38,102.86,38,18
178.37,103.25,38,18
177.6,101.64,38,18
180.27,100.93,38,18
179.47,100.9,38,18
177.21,101.29,38,18
178.74,103.01,38,18
178.58,103.79,38,18
178.75,104.22,38,18
177.3,103.89,38,18
177.79,103.13,38,18
177.5,102.98,38,18
177.13,102.14,38,18
178.97,100.27,38,18
178.9,100.05,38,18
178.88,98.104,38,18
180.57,99.639,38,18
180.5,99.655,38,18
178.37,98.111,38,18
176.92,99.802,38,18
177.29,97.711,38,18
177.29,98.295,38,18
175.55,98.343,38,18
176.53,98.918,38,18
176.33,99.618,38,18
174.43,100.61,38,18
173.69,99.938,38,18
173.95,101.3,38,18
174.34,100.27,38,18
173.97,101.12,38,18
172.8,100.89,38,18
170.8,100.56,38,18
171.79,100.49,38,18
173.23,100.64,38,18
174.23,100.61,38,18
172.1,101.96,38,18
171.46,100.66,38,18
173.08,101.29,38,18
173.62,100.11,38,18
174.01,99.891,38,18
172.75,98.085,38,18
171.51,99.906,38,18
170.77,102.27,38,18
169.61,102.21,38,18
170.43,103.1,38,18
171.05,103.92,38,18
170.96,102.7,38,18
170.23,104.21,38,18
169.12,102.83,38,18
169.87,101.37,38,18
169.74,101.12,38,18
169.61,100.53,38,18
169.86,99.987,38,18
169.91,99.563,38,18
171.23,97.852,38,18
170.87,100.14,38,18
169.7,99.946,38,18
169.99,101.47,38,18
168.18,98.857,38,18
167.1,98.339,38,18
169.09,97.72,38,18
166.18,96.729,38,18
162.57,93.589,38,18
163.05,93.751,38,18
163.31,92.957,38,18
163.97,94.723,38,18
163.23,92.712,38,18
162.54,93.524,38,18
163.81,95.692,38,18
160.46,96.845,38,18
159.42,98.144,38,18
156.32,101.33,38,18
156.6,101.51,38,18
157.37,102.69,38,18
158.03,100.5,38,18
156.9,101.81,38,18
155.94,102.81,38,18
154.28,101.82,38,18
154.81,99.71,38,18
155.37,98.989,38,18
153.88,100.45,38,18
153.05,102.72,38,18
152.92,104.3,38,18
153.43,103.69,38,18
153.87,105.18,38,18
153.33,107.32,38,18
154.41,108.31,38,18
154.36,107.47,38,18
155.08,107.56,38,18
153.99,109.01,38,18
154.32,108.72,38,18
156.31,108.39,38,18
156.13,108.55,38,18
156.24,108.59,38,18
156.25,109.14,38,18
154.93,109.37,38,18
156.79,108.01,38,18
156.96,108.41,38,18
155.42,109.75,38,18
153.77,109.06,38,18
153.36,108.47,38,18
151.6,107.77,38,18
150.62,106.16,38,18
151.49,105.16,38,18
152.71,104.23,38,18
154.13,104.75,38,18
152.76,104.36,38,18
156.19,104.93,38,18
156.68,106.77,38,18
158.96,107.16,38,18
161.51,106.77,38,18
161.79,107.65,38,18
162.72,109.23,38,18
159.93,110.73,38,18
159.5,108.67,38,18
160.18,106.63,38,18
160.06,105.78,38,18
161.39,105.52,38,18
160.69,104.86,38,18
160.69,103.9,38,18
160.58,105.1,38,18
160.95,100.12,38,18
161.58,96.833,38,18
163.72,98.534,38,18
163.78,99.175,38,18
163.64,99.426,38,18
163.49,102.54,38,18
162.84,100.61,38,18
165.15,100.72,38,18
162.55,101.98,38,18
163.7,103.53,38,18
164.05,102.61,38,18
164.43,102.32,38,18
164.71,103.42,38,18
165.4,104.32,38,18
164.95,105.48,38,18
165.08,105.83,38,18
165.82,107.21,38,18
164.57,106.94,38,18
164.85,106,38,18
165.03,103.29,38,18
165.86,102.45,38,18
166.01,102.23,38,18
167.85,100.8,38,18
167.37,100.18,38,18
169.63,97.642,38,18
167.26,100.35,38,18
167.47,99.665,38,18
167.02,99.992,38,18
167.13,101.2,38,18
168.6,101.38,38,18
171.11,102.02,38,18
170.64,104.12,38,18
169.04,103.21,38,18
167.87,103.52,38,18
170.02,103.39,38,18
168.89,103.14,38,18
167.77,103.68,38,18
170.59,104.86,38,18
170.81,105.29,38,18
170.33,105.63,38,18
169.37,103.2,38,18
170.19,104.4,38,18
169.23,104.72,38,18
169.49,106.77,38,18
168.96,106.82,38,18
168.36,106.07,38,18
167.01,105.27,38,18
167.75,105.05,38,18
165.78,105.38,38,18
165.54,104.55,38,18
165.92,103.01,38,18
166.78,104.92,38,18
168.8,104.81,38,18
169.68,106.73,38,18
169.99,107.53,38,18
171.09,110.41,38,18
171.6,110.62,38,18
173.07,108,38,18
172.62,108.42,38,18
173.92,107.38,38,18
174.17,105.22,38,18
174.57,105.21,38,18
173.39,107.37,38,18
172.49,107.9,38,18
173.86,107.59,38,18
173.02,109.45,38,18
171.45,109.85,38,18
168.68,108.48,38,18
169.61,109.08,38,18
171.11,108.56,38,18
171.2,108.75,38,18
173.16,107.43,38,18
173.78,106.25,38,18
171,107.21,38,18
170.31,107.79,38,18
171.37,110.26,38,18
171.51,111.69,38,18
170.52,110.99,38,18
169.18,109.53,38,18
168.46,111.65,38,18
167.01,113.67,38,18
166.28,112.27,38,18
166.02,110.52,38,18
166.57,112.72,38,18
166.35,114.56,38,18
165.63,115.79,38,18
164.66,115.85,38,18
164.83,116.66,38,18
165.41,115.7,38,18
163.94,115.95,38,18
163.81,117.53,38,18
164.4,117.26,38,18
163.79,116.56,38,18
164.73,114.59,38,18
164.93,113.61,38,18
164.13,113.1,38,18
166.08,113.26,38,18
165.35,113.34,38,18
163.93,114.13,38,18
163.6,115.68,38,18
162.93,115.81,38,18
162.79,115.67,38,18
163.78,114.22,38,18
164.34,115.33,38,18
163.17,113.99,38,18
164.09,115.45,38,18
165.93,115.72,38,18
165.61,115.18,38,18
166.28,115.38,38,18
164.07,114.69,38,18
162.89,113.33,38,18
162.94,114.22,38,18
164.8,113.14,38,18
164.09,111.6,38,18
161.36,114.9,38,18
163.26,114.59,38,18
161.34,114.63,38,18
160.07,115.12,38,18
158.04,115.49,38,18
156.41,116.99,38,18
156.24,116.46,38,18
157.78,117.46,38,18
157.74,116.04,38,18
156.26,115.08,38,18
156.4,115.57,38,18
156.44,115.6,38,18
158.71,114.94,38,18
156.28,113.35,38,18
157.69,110.35,38,18
156.67,112.79,38,18
156.49,114.47,38,18
154.39,113.35,38,18
155.36,113.08,38,18
153.5,113.4,38,18
154.05,112.23,38,18
153.66,110.75,38,18
151.59,112.8,38,18
152.16,112.51,38,18
155.23,113.03,38,18
155.33,110.6,38,18
155.13,110.78,38,18
155.89,109.26,38,18
159.13,111.3,38,18
158.27,111.1,38,18
158.1,109.3,38,18
158.12,107.79,38,18
156.62,107.27,38,18
154.18,107.34,38,18
154.33,105.79,38,18
153.24,105.7,38,18
152.82,106.76,38,18
152.91,105.65,38,18
153.54,106.25,38,18
152.5,105.52,38,18
150.56,104.74,38,18
151.43,105.47,38,18
152,103.37,38,18
151.22,103.05,38,18
151.83,102.48,38,18
153.02,102.38,38,18
152.78,102.28,38,18
151.82,99.806,38,18
151.09,99.141,38,18
152.07,98.7,38,18
151.51,100.09,38,18
151.63,102.69,38,18
151.47,102.44,38,18
152.75,103.64,38,18
152.38,101.57,38,18
151.98,101.31,38,18
152.51,100.84,38,18
152.32,100.95,38,18
152.52,100.95,38,18
152.3,98.899,38,18
151.97,98.945,38,18
151.45,99.093,38,18
150.79,98.927,38,18
151.75,96.299,38,18
150.16,95.231,38,18
150.47,96.347,38,18
148.95,96.439,38,18
149.8,98.412,38,18
148.73,98.245,38,18
148.5,100.76,38,18
149.1,102.78,38,18
150.18,102.01,38,18
150.21,102.88,38,18
150.84,102.17,38,18
152.34,101.98,38,18
153.39,102.6,38,18
156.59,101.68,38,18
158.38,100.93,38,18
160.07,100.84,38,18
159.92,100.65,38,18
158.98,100.16,38,18
157.56,97.518,38,18
156.34,98.623,38,18
157.3,95.958,38,18
160.31,95.017,38,18
160.41,95.384,38,18
159.2,93.5,38,18
160.32,93.846,38,18
162.25,92.342,38,18
161.7,91.301,38,18
163,89.898,38,18
161.25,89.986,38,18
161.84,88.698,38,18
161.07,88.384,38,18
162.05,86.792,38,18
162.13,85.471,38,18
161.74,85.449,38,18
162.52,84.409,38,18
163.44,83.112,38,18
162,81.606,38,18
160.15,81.858,38,18
159.22,82.069,38,18
157.3,82.68,38,18
158.46,81.209,38,18
159.49,78.9,38,18
159.22,80.628,38,18
159.39,80.64,38,18
159.08,81.814,38,18
158.24,82.675,38,18
157.85,80.098,38,18
156.95,80.384,38,18
157.75,79.273,38,18
158.44,78.459,38,18
158.3,78.813,38,18
161.14,79.091,38,18
160.85,75.417,38,18
160.44,77.894,38,18
160.86,77.107,38,18
159.28,74.227,38,18
161.84,74.74,38,18
160.2,74.518,38,18
161.62,73.663,38,18
162.56,75.421,38,18
162.71,74.107,38,18
162.77,71.191,38,18
161.93,70.509,38,18
162.26,68.047,38,18
162.54,69.143,38,18
160.54,71.763,38,18
158.18,72.061,38,18
157.28,71.597,38,18
158.27,69.051,38,18
158.07,70.04,38,18
157.71,68.743,38,18
156.58,67.352,38,18
158.25,66.576,38,18
161.74,67.357,38,18
162.11,69.706,38,18
160.58,70.652,38,18
161.21,67.722,38,18
159.19,66.576,38,18
158.52,67.412,38,18
157.68,68.164,38,18
155.83,65.647,38,18
155.97,63.165,38,18
158.09,64.379,38,18
154.95,64.631,38,18
156.48,64.942,38,18
156.68,62.939,38,18
154.88,65.454,38,18
155.05,63.815,38,18
156.13,64.29,38,18
156.62,64.357,38,18
157.33,65.285,38,18
156.69,64.708,38,18
158.21,65.614,38,18
158.48,63.83,38,18
157.73,62.305,38,18
160.05,61.999,38,18
158.8,60.551,38,18
157.58,57.191,38,18
156.48,57.93,38,18
156.35,57.824,38,18
158.55,56.555,38,18
158.37,55.077,38,18
159.48,55.39,38,18
160.93,54.492,38,18
159.04,51.765,38,18
156.83,49.87,38,18
156.76,49.353,38,18
156.25,47.635,38,18
158.22,47.535,38,18
156.32,47.217,38,18
155.21,48.287,38,18
155.63,44.899,38,18
157.07,42.747,38,18
156.38,41.075,38,18
157.88,41.836,38,18
158.15,42.678,38,18
157.91,44.533,38,18
155.52,43.969,38,18
154.39,42.4,38,18
156.58,43.644,38,18
156.48,42.866,38,18
154.35,44.17,38,18
153.08,43.111,38,18
153.34,45.304,38,18
153.02,46.838,38,18
153.85,47.812,38,18
152.17,47.707,38,18
154.49,47.466,38,18
153.4,47.879,38,18
154.07,48.191,38,18
153.91,51.822,38,18
153.19,49.947,38,18
154.61,48.156,38,18
155.42,48.05,38,18
156.19,45.871,38,18
155.55,44.122,38,18
155.21,42.205,38,18
155.05,40.249,38,18
154.25,41.021,38,18
154.04,39.251,38,18
155.04,38.896,38,18
154.01,38.043,38,18
154.19,37.667,38,18
153.56,36.941,38,18
153.12,38.612,38,18
154.24,37.92,38,18
156.5,39.39,38,18
156.01,39.881,38,18
154.51,39.27,38,18
155.83,36.249,38,18
156.09,35.256,38,18
152.95,34.004,38,18
152.56,36.688,38,18
152.45,34.777,38,18
151.44,36.235,38,18
150.8,35.543,38,18
149.86,36.235,38,18
149.18,36.401,38,18
148.86,35.305,38,18
150,36.565,38,18
151.19,37.958,38,18
150.41,40.337,38,18
149.7,40.029,38,18
150.72,40.075,38,18
150.9,41.029,38,18
151.14,41.565,38,18
149.22,41.982,38,18
149.04,40.505,38,18
148.46,41.687,38,18
149.62,40.571,38,18
149.18,39.927,38,18
146.69,39.182,38,18
147.24,41.373,38,18
148.16,39.675,38,18
146.13,40.135,38,18
147.99,40.033,38,18
150.55,41.488,38,18
149.93,41.302,38,18
146.99,42.819,38,18
147.26,43.057,38,18
146.22,42.507,38,18
144.9,44.538,38,18
144.4,44.22,38,18
147.14,44.036,38,18
147.1,44.786,38,18
146.62,44.394,38,18
148.94,44.384,38,18
148.95,42.293,38,18
149.58,41.691,38,18
150.63,41.95,38,18
150.25,43.925,38,18
149.95,43.315,38,18
149.86,41.906,38,18
148.03,41.842,38,18
147.8,40.75,38,18
149.33,41.694,38,18
149.17,40.739,38,18
148.03,40.063,38,18
145.95,40.895,38,18
144.63,37.18,38,18
144.17,35.512,38,18
142.96,35.93,38,18
145.02,35.286,38,18
145.95,36.198,38,18
146.03,35.374,38,18
148.73,34.689,38,18
149.7,33.125,38,18
147.94,33.586,38,18
150.63,32.498,38,18
150.56,30.753,38,18
151.68,31.029,38,18
152.85,30.736,38,18
152.79,30.47,38,18
153.91,29.289,38,18
