225,135,61,71
224.29,135.8,61,71
223.77,134.65,61,71
225.87,135.73,61,71
226.15,133.16,61,71
225.82,134.3,61,71
225.29,135.13,61,71
223.77,134.77,61,71
222.28,132.72,61,71
220.57,127.86,61,71
218.06,125.74,61,71
216.25,124.25,61,71
215.51,122.41,61,71
213.85,118,61,71
213.41,117.11,61,71
213.86,116.59,61,71
212.93,118.25,61,71
215.07,119.21,61,71
217.21,119.25,61,71
220.51,117.66,61,71
222.08,117.92,61,71
223.63,118.54,61,71
221.97,120.94,61,71
221.69,121.04,61,71
223.24,121.22,61,71
224.22,121.24,61,71
223.76,124.3,61,71
224.27,124.4,61,71
224.93,127.39,61,71
225.1,129.28,61,71
225.74,132.33,61,71
227.6,132.06,61,71
228.29,129.77,61,71
228.53,129.62,61,71
229.88,127.95,61,71
231.91,126.96,61,71
232.44,126.48,61,71
234.82,124.83,61,71
238.05,121.61,61,71
237.37,119.66,61,71
236.12,117.76,61,71
235.15,117.28,61,71
236.63,116.4,61,71
238.88,117.74,61,71
239.44,118.39,61,71
240.11,123.29,61,71
239.5,122.92,61,71
237.55,123.95,61,71
239.55,123.93,61,71
237.01,123.32,61,71
235.63,122.86,61,71
233.34,123.02,61,71
233.18,124.36,61,71
233.51,124.32,61,71
233.37,124.49,61,71
237,120.64,61,71
239,121.35,61,71
239.46,118.88,61,71
239.2,118.14,61,71
239,119.77,61,71
240.95,122.47,61,71
241.56,124.05,61,71
240.11,124.04,61,71
238.84,123.21,61,71
240.19,124.42,61,71
241.23,124.5,61,71
240.89,123.69,61,71
240.83,127.06,61,71
241.89,128.38,61,71
241.33,130.04,61,71
242.22,131.81,61,71
243.05,130.42,61,71
243.76,128.66,61,71
246.06,126.2,61,71
247.22,124.89,61,71
248.96,123.64,61,71
248.36,123.98,61,71
248.22,121.03,61,71
250.1,120.26,61,71
251.11,121.39,61,71
249.87,122.15,61,71
249.7,122.53,61,71
251.38,120.79,61,71
255.37,117.33,61,71
257.16,117.58,61,71
257.45,116.94,61,71
256.64,115.25,61,71
258.32,114.21,61,71
258.88,113.02,61,71
257.52,113.57,61,71
258.49,112.47,61,71
259.43,113.06,61,71
261.12,114.99,61,71
260.6,114.88,61,71
262.06,113.92,61,71
262.25,117.07,61,71
261.68,117.64,61,71
260.97,118.37,61,71
258.42,115.03,61,71
256.75,117.03,61,71
255.52,119.21,61,71
255.28,119.24,61,71
254.85,117.73,61,71
253.72,119.48,61,71
253.02,119.22,61,71
251.72,116.9,61,71
250.08,114.89,61,71
251.48,112.79,61,71
253.1,111.39,61,71
254.67,111.2,61,71
256.68,112.14,61,71
256.47,112.53,61,71
257.25,111.39,61,71
257.96,112.29,61,71
257.79,112.98,61,71
257.82,112.79,61,71
258.42,114.99,61,71
255.91,117,61,71
256.12,117.37,61,71
255.07,117.21,61,71
254.97,118.07,61,71
252.57,116.84,61,71
251.39,117.95,61,71
250.68,118.65,61,71
252.06,118.43,61,71
251.6,120.44,61,71
253.22,121.34,61,71
252.98,123.25,61,71
256.17,121.41,61,71
256.96,121.65,61,71
259.18,120.89,61,71
259.25,120.07,61,71
259.61,120.69,61,71
263.74,120.03,61,71
265.13,121.81,61,71
266.39,120.97,61,71
268.92,121.57,61,71
269.12,122.56,61,71
269.08,123.27,61,71
269.52,124.38,61,71
268.84,126.51,61,71
268.17,128.11,61,71
266.96,130.98,61,71
266.76,133.77,61,71
267.38,133.05,61,71
266.94,136.03,61,71
266.47,134.81,61,71
263.58,135.69,61,71
263.64,135.37,61,71
263.75,135.69,61,71
267.4,133.91,61,71
266.32,132.25,61,71
265.09,133.73,61,71
266.5,134.53,61,71
265.79,133.17,61,71
265.74,135.08,61,71
264.43,133.11,61,71
264.13,134.76,61,71
264.75,135.56,61,71
265.67,135.09,61,71
266.88,135.77,61,71
265.96,135.66,61,71
265.8,135.64,61,71
264.53,136.03,61,71
262.94,137.87,61,71
263.03,140.23,61,71
261.34,139.55,61,71
260.04,139.84,61,71
260.19,139.2,61,71
258.98,139.95,61,71
258.36,138.82,61,71
259.36,139.74,61,71
261.6,142.4,61,71
261.54,144.57,61,71
262.46,143.6,61,71
263.34,141.62,61,71
262.49,140.8,61,71
262.01,137.67,61,71
261.54,135.3,61,71
260.62,133.41,61,71
259.54,131.2,61,71
258.9,133.23,61,71
258.49,133.11,61,71
259.45,132.17,61,71
259.06,132.26,61,71
259.53,132.88,61,71
258.75,133.32,61,71
258.28,131.26,61,71
259.38,133.47,61,71
258.78,133.48,61,71
257.26,136.23,61,71
256.07,137.89,61,71
253.53,140.82,61,71
252.69,139.85,61,71
252.59,141.25,61,71
251.08,143.69,61,71
250.85,145.08,61,71
252.65,146.78,61,71
250.31,149.39,61,71
249.68,150.23,61,71
249.99,151.4,61,71
248.62,152.92,61,71
247.77,152.28,61,71
247.09,152.09,61,71
247.04,152.4,61,71
246.04,152.57,61,71
245.62,154.81,61,71
243.64,155.62,61,71
243.61,156.66,61,71
244.9,155.91,61,71
247.95,158.26,61,71
247.64,160.02,61,71
248.42,158.5,61,71
249.23,157.37,61,71
250.06,155.99,61,71
250.3,154.94,61,71
248.47,156.2,61,71
250.32,160.69,61,71
250.55,163.71,61,71
251.8,165.73,61,71
253.28,167.92,61,71
253.66,167.5,61,71
253.43,166.93,61,71
256.08,166.87,61,71
257.28,164.21,61,71
256.71,163.94,61,71
256.77,163.29,61,71
256.69,161.94,61,71
256.91,158.99,61,71
257.79,156.44,61,71
257.75,155.82,61,71
260.52,154.49,61,71
258.93,153.5,61,71
257.89,153.75,61,71
259.6,155.5,61,71
261.56,152.43,61,71
260.81,149.99,61,71
259.93,150.31,61,71
259.01,152.14,61,71
260.86,153.96,61,71
261.83,155.4,61,71
262.16,157.75,61,71
262.06,157,61,71
261.46,158.37,61,71
263.02,160.12,61,71
263.84,159.45,61,71
263.86,159.34,61,71
261.04,159.73,61,71
258.8,157.7,61,71
258.16,156.47,61,71
256.26,153.65,61,71
254.48,154.58,61,71
253.04,155.87,61,71
251.17,153.76,61,71
248.24,152.97,61,71
245.82,151.5,61,71
243.77,149.87,61,71
244.72,149,61,71
242.29,148.47,61,71
240.72,147.3,61,71
242.01,148.54,61,71
241.13,150.14,61,71
239.24,151.27,61,71
239.35,154.68,61,71
237.45,157.14,61,71
234.67,158.69,61,71
233.39,161.62,61,71
230.28,163.58,61,71
232.27,163.68,61,71
230.14,160.94,61,71
230.81,159.24,61,71
232.45,157.46,61,71
232.97,156.79,61,71
234.46,155.48,61,71
235.84,153.99,61,71
234.62,153.23,61,71
235.89,152.82,61,71
234.94,151.32,61,71
233.09,149.6,61,71
232.37,148.25,61,71
235.49,148.01,61,71
235.04,149.21,61,71
235.54,149.32,61,71
235.46,150,61,71
236.58,151,61,71
237.84,152.88,61,71
238.8,152.59,61,71
239.91,149.39,61,71
241.05,150.42,61,71
244.92,151.33,61,71
246.48,152.8,61,71
246.33,154.87,61,71
246.51,155.71,61,71
244.82,154.53,61,71
245.02,154.77,61,71
244.77,155.28,61,71
243.46,156.42,61,71
245.04,155.12,61,71
243.13,155.78,61,71
244.38,156.59,61,71
241.84,156.88,61,71
242.25,157.86,61,71
242.49,157.61,61,71
241.97,157.43,61,71
240.54,159.01,61,71
240.28,160.23,61,71
239,163.05,61,71
238.4,164.44,61,71
239.87,163.79,61,71
239.48,164.68,61,71
239.38,167.19,61,71
237.74,170.39,61,71
236.43,170.18,61,71
236.4,172.31,61,71
238.28,175.2,61,71
239.75,175.67,61,71
239.68,172.54,61,71
241.25,171.41,61,71
241.51,170.76,61,71
243.09,170.56,61,71
243.47,170.41,61,71
243.45,169.91,61,71
243.12,169.32,61,71
243.98,169.07,61,71
245.01,168.56,61,71
246.21,168.73,61,71
246.32,167.97,61,71
243.49,163.85,61,71
242.84,165.16,61,71
243.87,166.36,61,71
244.72,167.05,61,71
244.82,167.72,61,71
245.4,168.06,61,71
243.44,167.27,61,71
242.24,167.31,61,71
243.11,166.13,61,71
245.08,165.78,61,71
241.94,164.3,61,71
240.44,163.7,61,71
241.56,163.72,61,71
239.98,164.16,61,71
237.02,163.95,61,71
234.47,165.38,61,71
235,164.58,61,71
235.35,162.61,61,71
236.07,162.23,61,71
240.19,163.37,61,71
242.81,165.02,61,71
245.24,164.94,61,71
247.72,166.29,61,71
249.58,165.87,61,71
249.99,164.85,61,71
248.55,165.55,61,71
245.55,163.99,61,71
244.51,161.93,61,71
244.99,161.41,61,71
245.4,162.38,61,71
243.47,162.63,61,71
243.49,163.63,61,71
240.76,164.66,61,71
241.63,163.96,61,71
240.76,165.9,61,71
241.06,167.31,61,71
238.27,167.85,61,71
237.83,169.48,61,71
