122,51,51,61
121.3,51.481,51,61
122.41,51.723,51,61
121.96,52.263,51,61
122.16,52.634,51,61
122.87,52.554,51,61
123.2,55.42,51,61
123.06,56.07,51,61
123.09,56.078,51,61
121.9,57.578,51,61
122.34,59.239,51,61
122.79,59.002,51,61
121.13,59.646,51,61
122.34,59.761,51,61
121.55,60.863,51,61
121.57,61.072,51,61
122.14,61.121,51,61
121.74,60.163,51,61
122.29,60.685,51,61
121.18,61.506,51,61
121.71,61.238,51,61
120.35,62.005,51,61
120.05,62.694,51,61
119.51,62.09,51,61
120.6,62.8,51,61
121.84,63.272,51,61
120.51,62.226,51,61
120.98,63.047,51,61
120.37,61.448,51,61
118.71,62.388,51,61
118.62,63.148,51,61
117.53,63.415,51,61
116.87,62.462,51,61
114.14,62.282,51,61
112.38,61.529,51,61
111.58,61.03,51,61
110.5,60.072,51,61
110.22,57.828,51,61
107.13,57.108,51,61
105.98,57.642,51,61
105.87,58.334,51,61
105.49,57.468,51,61
106.15,56.467,51,61
106.25,56.455,51,61
108.01,54.332,51,61
108,54.025,51,61
109.34,51.321,51,61
110.66,51.697,51,61
111.48,51.512,51,61
112.41,50.605,51,61
112.75,51.394,51,61
114.27,52.98,51,61
113.38,54.738,51,61
114.27,56.139,51,61
115.03,58.708,51,61
114.66,61.764,51,61
114.45,65.787,51,61
115.88,67.72,51,61
116.13,69.44,51,61
116.13,71.526,51,61
116.61,73.055,51,61
115.47,74.595,51,61
116,75.7,51,61
116.07,77.264,51,61
114.33,78.34,51,61
113.59,79.914,51,61
115.42,81.735,51,61
116.72,81.595,51,61
117.09,82.332,51,61
118.64,82.216,51,61
119.59,81.551,51,61
120.51,82.911,51,61
122.1,83.345,51,61
123.82,83.834,51,61
125.19,82.779,51,61
125.76,83.435,51,61
124.89,82.069,51,61
124.51,79.651,51,61
125.72,77.27,51,61
125.82,76.863,51,61
125.7,75.287,51,61
125.26,74.201,51,61
125.05,73.103,51,61
124.9,70.68,51,61
124.66,71.353,51,61
123.21,69.657,51,61
123.46,69.437,51,61
124.15,67.839,51,61
124.56,68.007,51,61
124.98,67.816,51,61
124.09,67.351,51,61
123.29,65.511,51,61
122.39,63.079,51,61
119.66,62.448,51,61
116.29,61.539,51,61
115.4,60.802,51,61
114.28,57.692,51,61
111.22,55.922,51,61
111.05,57.097,51,61
108.25,56.248,51,61
106.47,55.219,51,61
105.06,54.68,51,61
103.7,55.68,51,61
103.34,56.169,51,61
103.33,55.897,51,61
102.74,53.941,51,61
101.57,53.894,51,61
102.37,54.132,51,61
102.82,53.781,51,61
102.56,55.366,51,61
104.22,54.356,51,61
105.85,54.512,51,61
104.9,55.037,51,61
105.33,55.927,51,61
106.48,57.377,51,61
108.04,57.732,51,61
108.72,58.865,51,61
110.83,61.042,51,61
111.89,61.371,51,61
113.48,61.319,51,61
113.69,62.914,51,61
111.11,64.409,51,61
113.16,64.76,51,61
113.06,64.803,51,61
112.33,66.438,51,61
113.59,68.089,51,61
114.88,66.802,51,61
114.88,69.141,51,61
113.8,69.736,51,61
112.92,68.092,51,61
113.43,67.834,51,61
115.24,67.344,51,61
115.29,67.258,51,61
113.86,67.72,51,61
114.31,67.235,51,61
113.52,69.479,51,61
114.54,68.329,51,61
112.21,69.354,51,61
113.45,67.87,51,61
113.65,66.814,51,61
111.06,66.912,51,61
110.79,67.128,51,61
110.27,67.211,51,61
108.98,67.029,51,61
107.27,67.838,51,61
107.7,66.798,51,61
105.69,67.12,51,61
104.31,68.583,51,61
104.46,68.835,51,61
103.11,68.041,51,61
104.45,67.775,51,61
104.59,67.302,51,61
104.02,66.86,51,61
104.33,67.653,51,61
105.82,69.386,51,61
106.18,68.933,51,61
107.83,68.71,51,61
107.32,69.482,51,61
106.72,68.158,51,61
107.42,67.223,51,61
106.75,67.579,51,61
106.96,67.344,51,61
107.14,67.202,51,61
107.5,66.173,51,61
109.12,65.677,51,61
109.43,66.337,51,61
108.42,66.089,51,61
108.46,66.436,51,61
108.8,65.972,51,61
107.44,66.989,51,61
107.37,66.409,51,61
107.74,66.371,51,61
106.58,65.914,51,61
106.95,66.041,51,61
104.67,66.429,51,61
105.46,65.988,51,61
105.34,65.167,51,61
105.33,65.786,51,61
104.82,65.243,51,61
103.91,65.06,51,61
103.91,65.002,51,61
102.85,65.437,51,61
102.71,66.041,51,61
102.36,65.915,51,61
101.58,64.984,51,61
101.83,63.785,51,61
101.4,65.118,51,61
102.72,65.07,51,61
101.69,65.946,51,61
101.79,66.561,51,61
100.84,67.163,51,61
101.21,66.11,51,61
102.25,66.799,51,61
102.87,66.875,51,61
101.97,67.857,51,61
103.22,66.749,51,61
103.82,69.47,51,61
104.2,69.466,51,61
104.54,68.495,51,61
103.58,69.623,51,61
103.96,69.731,51,61
104.43,71.313,51,61
104.84,71.484,51,61
104.99,71.583,51,61
105.94,71.243,51,61
105.32,73.638,51,61
104.67,73.854,51,61
105.45,73.404,51,61
104.75,72.927,51,61
104.64,72.762,51,61
104.57,72.426,51,61
104.35,73.205,51,61
103.68,74.227,51,61
104.74,73.515,51,61
104.04,74.212,51,61
103.27,74.646,51,61
102.91,74.658,51,61
104.01,75.626,51,61
104.13,75.355,51,61
103.92,75.542,51,61
103.69,75.19,51,61
102.91,72.669,51,61
102.67,73.1,51,61
103.33,72.627,51,61
102.86,72.13,51,61
102.56,72.757,51,61
102.03,73.562,51,61
100.98,73.772,51,61
100.59,73.208,51,61
99.707,72.826,51,61
100.44,72.431,51,61
99.666,73.816,51,61
100.04,74.404,51,61
100.41,74.214,51,61
101.13,72.661,51,61
101.17,76.066,51,61
102.07,76.337,51,61
100.87,76.324,51,61
101.72,75.184,51,61
101.4,75.982,51,61
101.28,73.926,51,61
100.12,73.815,51,61
99.419,73.252,51,61
99.818,72.672,51,61
100.68,74.859,51,61
100.81,74.442,51,61
99.459,73.647,51,61
99.361,73.688,51,61
101.28,73.346,51,61
100.69,73.502,51,61
100.71,73.95,51,61
100.55,72.621,51,61
101.98,72.663,51,61
99.739,73.738,51,61
98.063,70.254,51,61
98.283,72.221,51,61
97.73,67.694,51,61
98.108,67.46,51,61
99.417,65.999,51,61
99.694,64.614,51,61
99.392,62.305,51,61
99.889,60.921,51,61
100.05,55.639,51,61
100.37,55.055,51,61
100,53.342,51,61
100.5,51.373,51,61
100.02,51.004,51,61
98.678,48.957,51,61
98.501,48.38,51,61
98.821,47.027,51,61
99.257,43.503,51,61
99.723,44.441,51,61
99.756,45.353,51,61
98.35,46.351,51,61
99.946,44.354,51,61
100.84,44.962,51,61
103.26,44.461,51,61
102.92,46.164,51,61
103.73,47.007,51,61
104.62,48.189,51,61
106.02,49.106,51,61
108.86,49.464,51,61
110.01,51.332,51,61
110.06,52.487,51,61
110.89,53.402,51,61
113.12,53.768,51,61
113.92,53.921,51,61
113.64,55.002,51,61
112.57,57.314,51,61
113.28,56.003,51,61
112.51,56.629,51,61
114.2,57.476,51,61
115.38,59.183,51,61
115.88,61.688,51,61
116.48,60.58,51,61
116.88,62.48,51,61
118.86,62.497,51,61
118.29,64.708,51,61
117.02,64.657,51,61
118.7,64.761,51,61
120.47,68.587,51,61
119.35,70.399,51,61
120.24,71.887,51,61
118.28,71.713,51,61
118.34,72.832,51,61
115.73,74.673,51,61
116.64,75.144,51,61
117.6,76.045,51,61
117.24,75.385,51,61
116.87,75.669,51,61
115.56,75.477,51,61
115.08,75.267,51,61
115.4,75.194,51,61
115.34,77.081,51,61
115.06,77.348,51,61
114.22,76.473,51,61
115.53,75.605,51,61
113.83,76.384,51,61
113.15,76.574,51,61
110.67,75.751,51,61
110.43,75.65,51,61
108.69,75.226,51,61
106.87,74.086,51,61
104.9,75.912,51,61
103.93,74.648,51,61
101.1,72.254,51,61
100.33,70.566,51,61
99.205,69.839,51,61
98.57,70.443,51,61
97.008,69.876,51,61
95.627,69.734,51,61
91.382,69.637,51,61
90.046,70.747,51,61
88.884,70.57,51,61
86.378,69.96,51,61
85.275,67.501,51,61
82.903,68.741,51,61
80.978,69.024,51,61
80.159,69.328,51,61
79.888,68.27,51,61
77.705,68.554,51,61
78.556,68.881,51,61
75.456,71.533,51,61
73.099,69.657,51,61
72.71,69.06,51,61
71.018,67.877,51,61
69.167,68.187,51,61
69.874,68.499,51,61
69.248,67.178,51,61
67.671,66.174,51,61
66.425,68.276,51,61
65.922,68.61,51,61
64.505,66.976,51,61
62.633,67.212,51,61
61.072,67.433,51,61
61.76,67.098,51,61
60.436,66.929,51,61
60.222,68.975,51,61
58.835,69.053,51,61
58.679,69.852,51,61
57.649,70.496,51,61
56.866,72.009,51,61
57.548,70.719,51,61
59.505,69.237,51,61
60.532,67.356,51,61
59.625,65.044,51,61
60.124,64.963,51,61
62.521,65.703,51,61
63.384,66.944,51,61
64.221,66.437,51,61
64.536,64.1,51,61
65.151,61.367,51,61
67.5,59.338,51,61
68.032,56.156,51,61
68.143,54.431,51,61
69.344,54.617,51,61
68.245,53.075,51,61
68.297,49.945,51,61
68.533,49.218,51,61
71.879,47.979,51,61
72.713,46.232,51,61
73.728,45.908,51,61
75.401,42.805,51,61
78.348,41.273,51,61
81.06,40.339,51,61
82.477,38.449,51,61
84.563,36.757,51,61
86.436,38.94,51,61
89.872,40.188,51,61
90.498,39.603,51,61
92.065,42.134,51,61
94.517,43.262,51,61
95.689,43.181,51,61
97.732,44.963,51,61
98.888,48.517,51,61
100.33,49.532,51,61
102.12,51.004,51,61
103.82,52.909,51,61
103.62,56.039,51,61
103.38,56.65,51,61
103.42,60.282,51,61
104.83,61.275,51,61
105.44,63.557,51,61
105.72,64.947,51,61
104.51,67.36,51,61
102.87,70.165,51,61
103.89,72.732,51,61
105.28,73.97,51,61
106.76,76.672,51,61
107.75,78.417,51,61
106.38,80.318,51,61
106.55,82.191,51,61
108.03,83.062,51,61
107.03,84.707,51,61
107.21,86.886,51,61
107.97,90.248,51,61
109.58,89.939,51,61
108.24,93.37,51,61
107.5,94.449,51,61
107.97,93.942,51,61
108.09,95.493,51,61
108.4,96.057,51,61
108.65,96.927,51,61
107.33,100.17,51,61
106.45,99.952,51,61
107.01,100.15,51,61
108.18,101.34,51,61
107.49,101.93,51,61
108.51,104.82,51,61
106.78,107.97,51,61
104.59,110.19,51,61
104.92,110.89,51,61
105.2,110.43,51,61
105.58,111.24,51,61
105.14,111.33,51,61
105.28,113.65,51,61
105.95,113.69,51,61
104.29,114.64,51,61
104.38,115.23,51,61
102.26,116.81,51,61
102.16,120.26,51,61
102.36,121.77,51,61
102.89,123.98,51,61
102.21,126.81,51,61
101.84,128.29,51,61
100.41,129.6,51,61
100.34,130.21,51,61
100.71,131.46,51,61
101.03,132.79,51,61
98.609,133.33,51,61
98.276,135.21,51,61
98.295,134.59,51,61
98.404,136.43,51,61
98.49,137.26,51,61
97.962,138.9,51,61
99.333,138.63,51,61
98.108,138.28,51,61
95.778,138.37,51,61
95.816,140.36,51,61
96.438,140.02,51,61
93.5,138.75,51,61
94.048,139.02,51,61
93.77,136.85,51,61
93.97,133.59,51,61
93.301,130.08,51,61
91.134,127.14,51,61
91.452,125.34,51,61
91.858,120.13,51,61
91.939,119.8,51,61
94.019,118.59,51,61
95.145,115.62,51,61
95.291,110.21,51,61
96.09,106.49,51,61
96.73,104.9,51,61
96.959,104.75,51,61
96.921,101.88,51,61
97.249,100.53,51,61
96.565,99.865,51,61
93.458,99.049,51,61
93.828,98.044,51,61
95.837,96.515,51,61
96.47,95.72,51,61
97.511,95.482,51,61
99.722,93.508,51,61
101.51,93.564,51,61
104.28,94.96,51,61
107,93.927,51,61
105.5,93.967,51,61
105.71,91.962,51,61
107.34,92.794,51,61
108.8,91.821,51,61
112.22,91.567,51,61
115.22,90.523,51,61
117.05,90.908,51,61
120.2,89.266,51,61
121.95,88.731,51,61
125.24,87.36,51,61
126.06,87.786,51,61
127.48,87.505,51,61
129.15,87.229,51,61
131.35,85.68,51,61
134.76,84.434,51,61
136.21,86.244,51,61
138.18,87.719,51,61
138.27,85.503,51,61
138.46,84.342,51,61
140.88,84.849,51,61
142.59,83.666,51,61
144.96,86.029,51,61
146.39,87.01,51,61
147.48,87.953,51,61
147.94,89.947,51,61
150.31,92.586,51,61
151.3,93.431,51,61
153.25,94.985,51,61
153.85,96.406,51,61
155.08,95.775,51,61
157.31,98.014,51,61
157.88,98.69,51,61
160.11,98.723,51,61
161.44,101.12,51,61
162.41,101.68,51,61
162.57,102.02,51,61
162.54,100.61,51,61
160.97,100.84,51,61
160.91,100.55,51,61
161.27,95.343,51,61
161.11,93.145,51,61
161.41,89.804,51,61
162.57,88.302,51,61
163.46,85.903,51,61
162.33,85.625,51,61
161.96,84.156,51,61
163.45,83.494,51,61
163.19,80.023,51,61
162.38,76.709,51,61
163.08,76.266,51,61
163.35,74.029,51,61
163.92,75.178,51,61
163.4,73.339,51,61
163.24,69.527,51,61
163.33,70.786,51,61
164.23,70.863,51,61
163.51,70.573,51,61
163.28,66.596,51,61
161.99,63.63,51,61
161.49,63.81,51,61
163.42,63.571,51,61
161.33,63.334,51,61
161.95,63.309,51,61
160.04,64.61,51,61
160.07,65.376,51,61
160.46,64.301,51,61
160.26,63.639,51,61
160.33,62.679,51,61
159.72,62.077,51,61
157.17,62.22,51,61
157.33,62.342,51,61
154.56,62.588,51,61
152.24,63.235,51,61
150.19,63.667,51,61
148.64,63.682,51,61
145.56,64.162,51,61
141.37,64.006,51,61
140.61,64.648,51,61
136.83,66.798,51,61
133.82,66.976,51,61
131.01,69.533,51,61
132.35,70.111,51,61
131.35,69.978,51,61
126.59,72.151,51,61
126.4,71.485,51,61
128.09,72.331,51,61
129.79,70.323,51,61
134.25,68.16,51,61
134.48,68.224,51,61
135.68,69.683,51,61
136.81,70.876,51,61
137.66,70.487,51,61
136.86,70.82,51,61
136.26,70.906,51,61
136.6,70.353,51,61
136.17,70.032,51,61
135.78,70.671,51,61
135.68,68.904,51,61
134.38,68.915,51,61
134.19,69.893,51,61
132.81,70.099,51,61
131.76,72.69,51,61
132.66,72.582,51,61
131.07,71.493,51,61
131.2,71.155,51,61
130.2,72.028,51,61
127.51,74.734,51,61
126.18,76.956,51,61
124.49,74.575,51,61
122.85,76.288,51,61
121.26,78.225,51,61
119.81,79.637,51,61
119.89,83.154,51,61
120.7,83.482,51,61
119.94,84.18,51,61
120.03,85.355,51,61
118.77,88.308,51,61
120.47,88.006,51,61
119.23,88.367,51,61
117.88,87.428,51,61
116.44,89.386,51,61
113.73,89.001,51,61
111.72,89.233,51,61
112.74,90.559,51,61
112.6,89.034,51,61
110.32,89.658,51,61
110.89,90.544,51,61
110.37,89.517,51,61
108.94,90.586,51,61
108.91,90.671,51,61
108.01,90.067,51,61
107.71,92.001,51,61
105.79,92.139,51,61
105.1,92.933,51,61
103.84,91.653,51,61
103.95,92.848,51,61
103.52,93.814,51,61
103.4,94.132,51,61
101.97,94.67,51,61
101.87,94.827,51,61
102.08,93.533,51,61
99.866,92.375,51,61
101.33,93.077,51,61
100.75,92.979,51,61
99.498,91.639,51,61
98.408,91.754,51,61
98.973,90.016,51,61
99.467,88.362,51,61
99.171,85.737,51,61
100.18,82.55,51,61
99.336,81.006,51,61
98.315,79.991,51,61
98.735,77.03,51,61
99.684,74.113,51,61
101.63,72.976,51,61
102.22,71.785,51,61
102.62,69.666,51,61
101.88,66.824,51,61
101.09,66.635,51,61
99.737,65.372,51,61
98.945,62.781,51,61
98.149,60.328,51,61
96.547,59.244,51,61
93.299,58.76,51,61
91.349,58.201,51,61
89.762,56.735,51,61
89.423,56.456,51,61
88.831,55.789,51,61
87.08,55.206,51,61
86.353,54.999,51,61
83.322,54.124,51,61
82.83,54.872,51,61
83.144,56.665,51,61
81.8,56.261,51,61
82.094,59.181,51,61
81.484,60.296,51,61
81.787,60.537,51,61
82.15,60.274,51,61
82.206,60.007,51,61
79.304,60.248,51,61
77.901,60.804,51,61
76.802,62.789,51,61
75.514,63.799,51,61
74.992,63.672,51,61
73.769,64.299,51,61
73.702,68.172,51,61
73.169,69.243,51,61
71.556,69.706,51,61
70.289,71.395,51,61
72.626,72.213,51,61
72.189,73.568,51,61
71.935,74.966,51,61
72.468,75.684,51,61
71.269,75.406,51,61
74.372,75.53,51,61
73.647,73.527,51,61
75.835,71.67,51,61
75.794,70.643,51,61
77.661,72.231,51,61
80.384,70.605,51,61
82.278,68.61,51,61
82.82,68.104,51,61
86.017,65.868,51,61
88.754,64.822,51,61
90.797,63.73,51,61
92.017,62.01,51,61
93.617,60.411,51,61
94.337,61.316,51,61
95.844,61.127,51,61
95.097,60.65,51,61
96.154,58.593,51,61
98.675,56.041,51,61
97.965,55.886,51,61
96.533,54.388,51,61
98.411,53.002,51,61
99.872,51.128,51,61
101.28,50.295,51,61
100.49,48.865,51,61
100.81,48.026,51,61
101.16,48.441,51,61
99.287,46.001,51,61
99.248,45.616,51,61
98.044,44.716,51,61
96.232,46.052,51,61
94.187,45.521,51,61
92.527,46.148,51,61
92.24,46.021,51,61
92.123,44.982,51,61
90.224,44.396,51,61
87.666,43.78,51,61
84.857,44.122,51,61
86.324,44.986,51,61
84.154,44.257,51,61
83.103,43.34,51,61
82.396,42.278,51,61
81.368,41.922,51,61
81.812,39.98,51,61
81.369,39.102,51,61
79.683,38.693,51,61
77.976,36.346,51,61
79.14,36.147,51,61
77.651,35.607,51,61
76.902,36.769,51,61
76.14,36.368,51,61
76.428,34.368,51,61
78.556,34.366,51,61
76.72,34.084,51,61
79.243,34.967,51,61
77.663,36.059,51,61
77.328,37.376,51,61
76.632,37.775,51,61
76.944,40.614,51,61
77.056,41.654,51,61
77.455,43.726,51,61
79.084,45.206,51,61
79.011,46.874,51,61
79.749,47.383,51,61
79.8,48.593,51,61
83.366,48.909,51,61
83.438,49.385,51,61
86.312,52.567,51,61
86.506,53.256,51,61
88.096,52.767,51,61
91.614,50.266,51,61
93.029,47.985,51,61
95.819,45.994,51,61
97.64,44.62,51,61
99.882,43.954,51,61
104.47,40.143,51,61
108.18,39.79,51,61
110.09,39.778,51,61
112.79,38.08,51,61
114.97,37.323,51,61
117.31,36.753,51,61
118.58,36.905,51,61
120.57,35.47,51,61
121.56,35.697,51,61
124.34,35.529,51,61
125.19,36.364,51,61
126.44,37.582,51,61
129.09,36.259,51,61
131.66,37.201,51,61
133.72,36.014,51,61
136.37,34.165,51,61
137.5,35.273,51,61
140.13,35.525,51,61
141.49,34.442,51,61
141.91,35.502,51,61
144.71,34.902,51,61
144.75,35.959,51,61
146.79,36.394,51,61
150.39,37.081,51,61
148.73,35.831,51,61
152.11,35.572,51,61
155.17,34.459,51,61
156.77,36.283,51,61
155.61,37.834,51,61
155.82,39.024,51,61
154.77,42.033,51,61
156.19,41.916,51,61
156.29,42.93,51,61
156.24,44.468,51,61
158.32,47.85,51,61
162.38,48.735,51,61
165.41,50.386,51,61
165.37,51.494,51,61
162.68,53.535,51,61
163.96,54.542,51,61
163.56,55.756,51,61
163.2,57.104,51,61
164.38,57.597,51,61
165.35,59.305,51,61
164.27,60.76,51,61
164.41,59.671,51,61
164.78,58.854,51,61
161.93,59.559,51,61
160.91,58.286,51,61
160.17,57.932,51,61
158.28,58.885,51,61
157.67,60.066,51,61
157.9,59.525,51,61
156.43,60.927,51,61
153.88,61.248,51,61
151.96,61.936,51,61
149,60.764,51,61
146.97,59.629,51,61
142.92,58.815,51,61
140.4,58.972,51,61
140.56,59.053,51,61
137.35,60.336,51,61
134.03,61.371,51,61
130.63,62.992,51,61
126.31,63.956,51,61
123.13,63.379,51,61
118.37,65.743,51,61
114.34,65.912,51,61
113.13,68.266,51,61
111.58,69.081,51,61
109.66,68.736,51,61
109.01,71.171,51,61
106.66,72.589,51,61
105.14,74.908,51,61
104.67,74.976,51,61
104.5,75.179,51,61
102.31,76.89,51,61
102.08,76.609,51,61
100.21,78.533,51,61
95.141,78.813,51,61
93.23,80.077,51,61
93.115,80.377,51,61
93.397,81.735,51,61
93.964,83.282,51,61
93.833,83.852,51,61
92.38,86.937,51,61
95.354,88.565,51,61
96.152,87.176,51,61
97.457,90.026,51,61
97.378,91.072,51,61
97.988,91.867,51,61
97.645,94.021,51,61
98.2,96.196,51,61
98.036,94.391,51,61
96.912,95.555,51,61
96.039,97.1,51,61
97.532,98.676,51,61
97.736,99.406,51,61
99.032,100.16,51,61
99.293,99.124,51,61
98.254,100.59,51,61
95.084,99.905,51,61
94.616,98.407,51,61
93.102,96.905,51,61
91.273,95.673,51,61
91.511,92.024,51,61
92.203,91.054,51,61
91.579,88.384,51,61
91.797,83.818,51,61
92.701,80.884,51,61
91.562,77.924,51,61
93.005,79.657,51,61
92.679,75.638,51,61
93.855,70.058,51,61
97.274,67.47,51,61
100.52,66.141,51,61
103.35,65.426,51,61
105.59,66.231,51,61
110.82,67.063,51,61
113.29,67.166,51,61
114.6,66.733,51,61
117.9,68.189,51,61
119.92,69.714,51,61
121.72,70.016,51,61
124,69.544,51,61
126.28,69.089,51,61
127.9,67.028,51,61
129.25,67.145,51,61
127.65,67.805,51,61
128.04,67.766,51,61
125.43,66.964,51,61
124.03,64.899,51,61
121.92,66.647,51,61
120.17,67.08,51,61
118.09,66.907,51,61
116.25,68.487,51,61
112.55,65.994,51,61
109.84,66.538,51,61
107.93,67.418,51,61
106.22,66.678,51,61
104.52,69.492,51,61
102.14,70.368,51,61
99.015,69.091,51,61
97.457,70.651,51,61
93.693,70.933,51,61
92.199,73.434,51,61
90.009,72.689,51,61
90.213,75.838,51,61
90.286,75.732,51,61
90.958,74.979,51,61
89.974,76.409,51,61
89.943,75.837,51,61
87.935,77.211,51,61
89.459,80.032,51,61
89.398,81.61,51,61
90.921,83.888,51,61
91.873,85.561,51,61
92.053,87.471,51,61
94.257,88.187,51,61
95.126,89.695,51,61
97.508,91.279,51,61
96.586,92.673,51,61
97.966,93.243,51,61
96.816,93.094,51,61
95.631,92.015,51,61
96.445,93.113,51,61
98.532,94.055,51,61
99.35,93.344,51,61
100.79,93.732,51,61
101.74,92.539,51,61
104.69,92.534,51,61
105.25,92.524,51,61
106.46,91.456,51,61
106.91,89.333,51,61
106.49,87.239,51,61
106.83,88.099,51,61
106.82,86.628,51,61
106.18,85.918,51,61
104.85,82.19,51,61
104.28,82.12,51,61
102.58,79.834,51,61
102.71,77.211,51,61
99.492,77.279,51,61
97.556,75.842,51,61
96.433,75.509,51,61
94.629,74.036,51,61
92.982,72.871,51,61
91.705,71.784,51,61
91.19,72.554,51,61
90.955,68.682,51,61
88.831,65.603,51,61
88.362,64.153,51,61
88.772,63.004,51,61
92.069,61.732,51,61
93.241,60.651,51,61
94.3,60.971,51,61
95.741,61.961,51,61
98.502,61.786,51,61
99.176,60.806,51,61
101.41,61.188,51,61
103.9,60.311,51,61
105.4,61.574,51,61
106.13,61.02,51,61
106.99,60.073,51,61
108.11,59.132,51,61
110.54,58.737,51,61
109.45,59.115,51,61
109.91,59.145,51,61
109.38,60.081,51,61
108.84,63.152,51,61
110.46,63.84,51,61
111.44,62.488,51,61
113.95,61.099,51,61
114.12,57.75,51,61
113.89,60.872,51,61
115.18,60.598,51,61
118.24,61.158,51,61
118.75,61.639,51,61
121.09,61.673,51,61
121.1,59.294,51,61
123.47,58.423,51,61
124.13,57.985,51,61
124.24,56.576,51,61
125.64,55.996,51,61
126.52,56.844,51,61
125.8,56.769,51,61
127.74,58.843,51,61
128.01,58.707,51,61
129.49,58.326,51,61
129.2,59.449,51,61
129.33,59.828,51,61
128.34,60.4,51,61
128.35,60.86,51,61
128.38,61.541,51,61
126.76,62.644,51,61
125.9,65.167,51,61
127.53,65.98,51,61
128.03,66.966,51,61
127.49,69.602,51,61
127.31,71.837,51,61
127.64,74.518,51,61
127.32,75.903,51,61
126.72,75.196,51,61
125.01,75.04,51,61
126.85,75.415,51,61
125.13,76.204,51,61
124.27,77.701,51,61
123.52,78.653,51,61
121.14,79.242,51,61
122.61,78.817,51,61
123.42,78.29,51,61
123.13,79.859,51,61
124.6,77.711,51,61
123.65,76.781,51,61
122.73,77.621,51,61
120.49,74.693,51,61
119.91,73.512,51,61
120.08,72.646,51,61
118.3,71.121,51,61
120.2,67.678,51,61
119.11,66.098,51,61
118.72,65.429,51,61
119.68,64.63,51,61
118.33,61.675,51,61
116.7,61.241,51,61
115.96,59.305,51,61
115.83,55.541,51,61
114.3,54.788,51,61
111.74,53.46,51,61
107.92,55.086,51,61
106.18,52.122,51,61
103.37,52.204,51,61
104.24,51.269,51,61
102.92,51.62,51,61
102.84,52.617,51,61
102.45,51.849,51,61
100.66,53.074,51,61
99.276,52.178,51,61
98.583,52.654,51,61
99.334,54.523,51,61
98.988,53.836,51,61
96.987,54.206,51,61
95.49,54.381,51,61
95.605,55.149,51,61
95.067,54.23,51,61
94.133,53.886,51,61
93.527,53.037,51,61
92.844,53.25,51,61
92.921,52.97,51,61
91.032,51.958,51,61
90.244,52.054,51,61
90.47,55.579,51,61
91.604,56.479,51,61
91.099,55.709,51,61
94.354,57.664,51,61
96.146,58.485,51,61
98.023,58.485,51,61
101.33,58.727,51,61
103.7,60.424,51,61
106.1,60.709,51,61
109.12,61.496,51,61
110.86,62.764,51,61
112.23,65.438,51,61
112.77,66.254,51,61
114.75,67.498,51,61
116.34,68.406,51,61
117.61,69.035,51,61
118.92,71.429,51,61
120.99,72.735,51,61
122.01,73.577,51,61
121.98,72.71,51,61
122.57,74.245,51,61
124.87,75.991,51,61
127.53,75.218,51,61
129.1,75.956,51,61
129.06,77.137,51,61
129.44,78.358,51,61
126.07,77.255,51,61
123.4,76.628,51,61
123.06,77.554,51,61
124.26,79.213,51,61
124.29,79.778,51,61
124.18,79.544,51,61
123.99,82.398,51,61
125.4,81.244,51,61
125.42,80.094,51,61
126.32,81.985,51,61
125.88,82.155,51,61
125.7,83.75,51,61
126.7,83.444,51,61
126.01,84.456,51,61
126.34,83.246,51,61
126.59,84.588,51,61
127.56,84.368,51,61
129.6,84.559,51,61
127.9,83.379,51,61
128.17,84.179,51,61
126.01,84.172,51,61
126.56,81.932,51,61
127.41,82.321,51,61
127.14,83.115,51,61
125.46,82.659,51,61
123.45,81,51,61
125.26,80.508,51,61
125.18,81.152,51,61
126.38,81.518,51,61
126.56,81.321,51,61
126.55,78.981,51,61
126.81,77.157,51,61
127.4,77.085,51,61
125,76.967,51,61
124.65,77.413,51,61
125.88,78.118,51,61
123.3,77.002,51,61
124,77.925,51,61
125.25,81.216,51,61
124.7,81.327,51,61
127.04,82.815,51,61
128.57,82.147,51,61
131.47,80.087,51,61
130.71,79.589,51,61
130.14,78.804,51,61
129.3,79.617,51,61
127.9,80.095,51,61
126.22,80.726,51,61
125.34,82.936,51,61
122.83,81.814,51,61
120.94,82.862,51,61
120.12,81.978,51,61
118.07,82.071,51,61
117.91,82.021,51,61
115.72,82.315,51,61
115.39,82.517,51,61
116.67,82.452,51,61
115.73,82.341,51,61
112.79,83.409,51,61
110.82,80.983,51,61
110.03,79.662,51,61
110.01,78.442,51,61
108.92,78.222,51,61
108.32,76.804,51,61
105.28,78.15,51,61
105.62,77.74,51,61
105.25,77.56,51,61
105.32,77.64,51,61
105.1,76.582,51,61
107.86,75.648,51,61
107.45,75.485,51,61
105.98,74.065,51,61
107.88,74.208,51,61
110.19,71.477,51,61
109.81,72.339,51,61
110.97,72.702,51,61
112.93,71.77,51,61
113.18,72.715,51,61
113.31,73.206,51,61
112.95,73.794,51,61
111.75,73.056,51,61
112.49,74.26,51,61
114.06,74.094,51,61
112.24,73.007,51,61
111.12,73.536,51,61
109.9,74.596,51,61
109.85,76.328,51,61
109.72,75.659,51,61
107.69,77.209,51,61
108.23,78.995,51,61
108.88,76.32,51,61
108.15,76.494,51,61
106.81,77.058,51,61
107.52,76.407,51,61
104.71,74.826,51,61
103.37,73.612,51,61
100.92,74.635,51,61
98.991,73.361,51,61
98.685,72.194,51,61
97.488,70.011,51,61
97.612,69.23,51,61
99.275,67.776,51,61
100.43,63.696,51,61
104.66,62.46,51,61
105.35,61.355,51,61
105.8,59.429,51,61
106.97,57.285,51,61
107.37,55.057,51,61
107.81,53.1,51,61
108.12,50.049,51,61
108.38,49.992,51,61
106.59,48.272,51,61
106.63,47.78,51,61
109.34,45.25,51,61
111.02,46.285,51,61
113.04,46.488,51,61
115.42,46.85,51,61
115.68,45.151,51,61
115.65,45.227,51,61
117.38,44.826,51,61
118.46,45.737,51,61
120.95,45.735,51,61
123,44.416,51,61
122.16,46.265,51,61
122.31,46.058,51,61
123.16,47.074,51,61
124.07,47.506,51,61
126.25,46.695,51,61
125.38,47.361,51,61
127.19,49.064,51,61
127.65,49.683,51,61
128.17,51.308,51,61
129.23,52,51,61
127.22,52.563,51,61
125.7,51.848,51,61
124.52,53.142,51,61
123.66,52.463,51,61
122.61,52.427,51,61
122.8,52.43,51,61
121.71,52.925,51,61
120.46,52.885,51,61
119.42,53.149,51,61
117.15,52.154,51,61
115.56,51.947,51,61
112.3,54.183,51,61
108.75,55.63,51,61
106.69,57.407,51,61
103.51,59.082,51,61
100.8,61.963,51,61
98.582,62.205,51,61
97.039,61.991,51,61
94.962,61.863,51,61
93.225,63.286,51,61
90.352,63.488,51,61
88.744,64.093,51,61
87.619,66.488,51,61
87.208,68.673,51,61
88.456,68.869,51,61
88.517,69.286,51,61
88.39,71.141,51,61
89.913,71.333,51,61
88.379,71.495,51,61
87.838,73.703,51,61
88.91,75.627,51,61
86.512,77.839,51,61
88.294,78.218,51,61
87.658,78.623,51,61
88.75,77.558,51,61
90.145,77.385,51,61
89.52,76.886,51,61
88.126,78.712,51,61
90.115,78.458,51,61
91.417,78.315,51,61
93.228,81.771,51,61
92.822,82.278,51,61
94.053,82.714,51,61
95.468,82.603,51,61
96.104,81.634,51,61
97.577,79.369,51,61
97.955,79.432,51,61
98.446,78.611,51,61
100.25,76.677,51,61
101.13,75.441,51,61
101.99,73.006,51,61
101.08,70.712,51,61
104.85,70.367,51,61
107,69.321,51,61
108.49,69.726,51,61
110.87,69.627,51,61
112.68,70.322,51,61
114.32,70.042,51,61
116.87,71.905,51,61
117.37,72.24,51,61
118.14,72.82,51,61
118.4,75.162,51,61
120.27,75.583,51,61
120.26,75.912,51,61
119.86,74.504,51,61
120.21,74.07,51,61
121.05,74.857,51,61
121.13,76.77,51,61
124.67,78.536,51,61
124.62,79.512,51,61
125.03,80.098,51,61
128.5,80.302,51,61
131.85,81.755,51,61
131.85,82.652,51,61
130.66,83.112,51,61
131.06,86.957,51,61
132.92,85.148,51,61
134.32,87.863,51,61
134.13,90.802,51,61
135.42,90.731,51,61
135.49,91.208,51,61
137.6,90.151,51,61
137.25,89.149,51,61
136.85,91.617,51,61
136.38,90.697,51,61
137.81,92.977,51,61
137.59,92.4,51,61
138.03,95.518,51,61
139.37,94.388,51,61
138.77,95.443,51,61
139.62,92.446,51,61
139.89,92.495,51,61
141.14,93.475,51,61
140.3,95.603,51,61
140.84,97.064,51,61
141.89,96.634,51,61
143.35,96.073,51,61
142.31,96.328,51,61
142.89,95.921,51,61
143.61,95.355,51,61
144.97,93.84,51,61
147.31,94.694,51,61
146.64,95.786,51,61
145.24,95.367,51,61
144.55,97.542,51,61
144.22,97.152,51,61
144.88,96.63,51,61
145.37,98.226,51,61
145.76,99.2,51,61
147.11,100.56,51,61
145.39,98.133,51,61
145.86,100.41,51,61
148.3,99.289,51,61
148.74,98.682,51,61
149.67,97.427,51,61
150.43,96.512,51,61
152,96.112,51,61
153.39,96.183,51,61
153.8,96.643,51,61
153.66,98.649,51,61
153.35,99.538,51,61
152.32,101.26,51,61
152.76,100.43,51,61
154.23,101.58,51,61
156.98,102.46,51,61
157.29,101.12,51,61
159.12,100.43,51,61
157.4,102.77,51,61
156.16,101.24,51,61
156.35,100.68,51,61
155.68,99.779,51,61
156.66,99.885,51,61
156.58,100.71,51,61
155.64,101.9,51,61
156.06,100.72,51,61
155.75,101.56,51,61
155.67,101.83,51,61
156.09,104.23,51,61
157.05,104.53,51,61
156.81,103.48,51,61
