130,132,31,115
130.1,131.83,31,115
131.18,131.49,31,115
131.05,130.61,31,115
130.33,130.2,31,115
129.67,128.93,31,115
130.12,131.49,31,115
129.52,131.11,31,115
129.07,130.27,31,115
128.93,130.52,31,115
127.95,129.33,31,115
129.27,129.25,31,115
128.32,129.23,31,115
128.68,129.98,31,115
128.88,131.2,31,115
127.67,130.16,31,115
127.35,127.32,31,115
126.93,126.42,31,115
124.78,126.65,31,115
125.53,127.96,31,115
125.03,125.66,31,115
124.13,123.36,31,115
124.48,124.22,31,115
125.17,122.68,31,115
125.27,123.19,31,115
125.98,123.81,31,115
125.65,125.2,31,115
124.39,122.86,31,115
123.32,121.44,31,115
122.5,119.54,31,115
123.29,119.28,31,115
123.94,119.01,31,115
125.36,117.61,31,115
123.81,119.34,31,115
122.06,120.47,31,115
122.93,118.65,31,115
122,118.87,31,115
121.25,119.55,31,115
120.55,117.98,31,115
120.55,114.94,31,115
120.9,116.59,31,115
120.3,115.05,31,115
120.72,114.35,31,115
121.73,114.06,31,115
121.99,112.14,31,115
121.95,111.83,31,115
122.24,112.61,31,115
121.78,111.86,31,115
120.8,111.73,31,115
122.44,110.06,31,115
121.27,111.53,31,115
120.36,111.27,31,115
120.13,110.98,31,115
120.82,110.31,31,115
120.93,111.71,31,115
121.13,111.27,31,115
121.68,112.08,31,115
120.52,110.49,31,115
120.23,110.07,31,115
119.38,108.28,31,115
119.43,109.03,31,115
118.48,107.23,31,115
118.37,107.62,31,115
119.3,103.96,31,115
118.78,102.89,31,115
118.49,101.99,31,115
117.19,101.97,31,115
117.13,102.95,31,115
118.47,102.22,31,115
118.37,101.43,31,115
118.33,101.46,31,115
118.79,101.54,31,115
118.6,99.453,31,115
118.68,97.623,31,115
117.41,97.213,31,115
117.8,95.469,31,115
117.28,94.708,31,115
117.15,97.056,31,115
117.77,98.171,31,115
117.78,98.977,31,115
116.91,100.42,31,115
117.24,100.19,31,115
117.46,98.353,31,115
116.18,96.784,31,115
114.98,96.541,31,115
116.05,93.45,31,115
116,90.77,31,115
115.42,92.279,31,115
116.54,92.081,31,115
116.45,91.361,31,115
115.54,91.036,31,115
116.46,92.946,31,115
115.81,92.652,31,115
116.93,91.817,31,115
116.6,92.064,31,115
117.41,92.16,31,115
117.23,89.94,31,115
117.15,89.894,31,115
115.24,87.771,31,115
116.04,86.053,31,115
115.73,86.232,31,115
117.03,86.883,31,115
115.98,85.423,31,115
116.15,86.371,31,115
115.37,86.169,31,115
114.23,85.391,31,115
113.8,84.994,31,115
115.23,84.883,31,115
114.91,85.416,31,115
116.05,86.791,31,115
115.51,86.231,31,115
114.82,84.586,31,115
115.99,81.051,31,115
115.3,80.554,31,115
116.24,83.248,31,115
114.33,83.682,31,115
114.32,84.157,31,115
113.51,84.351,31,115
113.78,85.276,31,115
114.16,87.668,31,115
113.74,85.841,31,115
113.92,85.794,31,115
112.93,85.702,31,115
113.19,84.483,31,115
113.66,84.825,31,115
114.14,83.803,31,115
113.68,84.29,31,115
112.45,81.618,31,115
112.81,78.49,31,115
111.04,79.544,31,115
110.47,79.48,31,115
110.36,78.375,31,115
110.88,77.477,31,115
110.1,76.205,31,115
110.14,77.261,31,115
110.77,77.165,31,115
110.25,78.379,31,115
111.75,77.534,31,115
111.12,77.892,31,115
109.33,75.855,31,115
109.86,75.289,31,115
109.65,74.539,31,115
109.59,77.261,31,115
109.57,77.207,31,115
109.11,76.997,31,115
109.89,78.205,31,115
109.16,77.849,31,115
107.8,77.005,31,115
108.37,76.851,31,115
106.65,74.526,31,115
106.52,72.582,31,115
107.25,71.304,31,115
106.76,70.123,31,115
104.68,68.597,31,115
105.47,69.058,31,115
104.46,68.227,31,115
103.89,66.321,31,115
104.2,65.325,31,115
104.39,64.763,31,115
104.84,65.018,31,115
105.09,68.501,31,115
104.32,67.53,31,115
104.27,68.018,31,115
104.46,69.515,31,115
103.09,66.295,31,115
102.36,68.269,31,115
102.7,69.58,31,115
103.33,68.134,31,115
102.64,70.615,31,115
103.37,69.658,31,115
103.1,66.946,31,115
101.51,68.109,31,115
101.21,67.311,31,115
101.81,66.472,31,115
100.53,65.432,31,115
101.53,63.387,31,115
100.01,61,31,115
100.89,63.071,31,115
100.62,64.924,31,115
101.36,68.085,31,115
101.15,65.388,31,115
100.68,65.239,31,115
99.985,63.073,31,115
99.204,61.404,31,115
98.522,60.736,31,115
97.537,62.108,31,115
98.112,63.988,31,115
99.204,64.247,31,115
98.266,68.656,31,115
96.701,70.354,31,115
95.189,69.684,31,115
96.382,67.771,31,115
97.477,68.266,31,115
95.791,68.581,31,115
94.86,69.448,31,115
95.852,70.419,31,115
96.653,72.54,31,115
96.114,71.913,31,115
97.017,72.63,31,115
96.647,72.622,31,115
97.408,72.105,31,115
97.215,72.954,31,115
96.674,73.156,31,115
97.746,72.219,31,115
97.372,71.723,31,115
98.997,67.733,31,115
99.015,67.43,31,115
99.743,69.1,31,115
100.28,71.059,31,115
100.26,70.844,31,115
100.24,71.111,31,115
100.45,71.789,31,115
101.11,73.89,31,115
99.953,72.368,31,115
101.31,73.208,31,115
101.98,73.278,31,115
101.62,72.058,31,115
103.01,73.876,31,115
104.68,74.411,31,115
103.33,76.709,31,115
103.05,77.078,31,115
104.88,79.485,31,115
105.44,84.612,31,115
105.6,85.147,31,115
106.62,88.973,31,115
107.3,89.741,31,115
108.45,90.446,31,115
107.62,90.187,31,115
107.45,91.4,31,115
107.04,92.775,31,115
110.26,93.387,31,115
111.19,95.519,31,115
110.65,93.299,31,115
109.17,94.079,31,115
109.1,92.538,31,115
109.62,93.196,31,115
110.16,91.899,31,115
110.87,92.445,31,115
110.13,91.915,31,115
110.98,91.926,31,115
110.65,93.582,31,115
110.9,94.76,31,115
113.23,94.643,31,115
114.76,100.25,31,115
114.81,101.28,31,115
115.66,101.96,31,115
116.04,101.99,31,115
115.07,102.88,31,115
113.58,101.65,31,115
113.18,102.78,31,115
114.88,103.4,31,115
116.72,103.25,31,115
117.54,104.32,31,115
118.58,103.81,31,115
120.4,103.62,31,115
119,105.6,31,115
120.63,107.63,31,115
122.5,108.38,31,115
122.13,109.15,31,115
123.94,111.3,31,115
124.32,112.26,31,115
126.93,113.53,31,115
127.03,112.74,31,115
129.3,112.56,31,115
128.15,114.52,31,115
128.47,115.18,31,115
129.31,114.58,31,115
130.31,116.47,31,115
129.76,116.45,31,115
129.69,115.68,31,115
129.89,117.17,31,115
132.1,117.74,31,115
132.01,116.85,31,115
131.22,117.67,31,115
133.04,120.04,31,115
133.59,118.38,31,115
132.11,118.01,31,115
131.39,119.14,31,115
131.33,120.9,31,115
132.49,121.09,31,115
131.3,120.31,31,115
132.53,121.44,31,115
132.36,121.03,31,115
133.71,123.45,31,115
134.24,122.43,31,115
133.8,121.52,31,115
132.81,122.4,31,115
133.77,120.73,31,115
134.88,121.33,31,115
134.49,120.81,31,115
137,123.17,31,115
137.15,124.02,31,115
137.83,123.25,31,115
138.42,126.05,31,115
138.22,127.21,31,115
137.74,128.1,31,115
138.05,127.79,31,115
138.54,126.54,31,115
137.41,126.31,31,115
138.52,127.81,31,115
139.36,125.77,31,115
139.47,124.2,31,115
139.63,124.85,31,115
138.38,123.39,31,115
137.52,124.68,31,115
136.52,121.3,31,115
137.47,118.49,31,115
136.47,118.22,31,115
135.47,117.36,31,115
135.74,116.71,31,115
136.68,114.03,31,115
135.71,112.38,31,115
135.89,111.3,31,115
136.27,111.41,31,115
135.66,111.67,31,115
135.85,112.45,31,115
137.24,112.3,31,115
137.21,111.79,31,115
137.83,111.02,31,115
137.69,112.62,31,115
137.49,109.52,31,115
138.42,107.83,31,115
137.99,105.23,31,115
139.71,105.79,31,115
139.03,102.49,31,115
139.76,101.73,31,115
141.06,102.34,31,115
139.9,101.72,31,115
141.86,98.652,31,115
142.92,99.149,31,115
141.89,97.275,31,115
143.26,96.009,31,115
142.67,96.05,31,115
143.67,94.921,31,115
144.19,94.941,31,115
144.15,95.682,31,115
143.44,95.09,31,115
142.06,95.202,31,115
142.81,96.307,31,115
142.39,95.355,31,115
141.64,93.751,31,115
141.68,94.656,31,115
142.92,94.203,31,115
144.02,94.873,31,115
143.48,93.897,31,115
143.43,94.3,31,115
142.98,93.957,31,115
142.57,94.729,31,115
141.24,95.931,31,115
141.08,95.526,31,115
141.47,95.268,31,115
140.1,94.363,31,115
140.02,92.277,31,115
139.32,94.141,31,115
139.12,93.596,31,115
138.4,93.832,31,115
138.22,92.65,31,115
135.94,93.981,31,115
133.78,93.723,31,115
132.44,92.373,31,115
130.09,91.678,31,115
129.11,92.739,31,115
127.15,90.883,31,115
126.17,89.157,31,115
121.93,88.316,31,115
119.06,89.387,31,115
116.78,87.555,31,115
114.22,86.741,31,115
113.63,88.318,31,115
110.06,87.562,31,115
107.05,88.501,31,115
105.23,88.488,31,115
101.79,87.508,31,115
100.91,86.95,31,115
98.753,85.734,31,115
96.148,84.027,31,115
95.308,85.211,31,115
94.176,85.531,31,115
90.076,83.721,31,115
89.866,83.073,31,115
88.595,83.226,31,115
88.094,82.723,31,115
87.743,83.852,31,115
88.014,84.572,31,115
87.637,85.369,31,115
86.265,84.035,31,115
88.161,82.823,31,115
87.939,84.815,31,115
87.962,86.795,31,115
87.315,88.223,31,115
88.034,88.039,31,115
88.179,89.548,31,115
90.01,87.929,31,115
91.078,87.907,31,115
93.416,89.32,31,115
93.033,88.206,31,115
93.4,87.569,31,115
92.991,85.68,31,115
91.528,85.63,31,115
90.322,83.29,31,115
90.774,82.82,31,115
90.807,80.949,31,115
91.346,80.426,31,115
92.519,78.801,31,115
91.365,80.558,31,115
91.146,81.972,31,115
91.576,82.119,31,115
92.708,83.195,31,115
94.224,83.83,31,115
95.038,84.183,31,115
96.423,84.03,31,115
96.815,84.218,31,115
96.127,83.361,31,115
97.136,81.01,31,115
96.186,80.118,31,115
95.314,81.414,31,115
94.993,82.405,31,115
94.821,81.226,31,115
92.917,81.074,31,115
94.752,77.061,31,115
95.768,78.133,31,115
95.649,79.279,31,115
95.32,78.869,31,115
94.352,77.353,31,115
94.004,77.394,31,115
94.526,77.914,31,115
93.384,78.131,31,115
94.369,77.943,31,115
93.832,76.678,31,115
95.94,75.397,31,115
95.089,77.507,31,115
95.661,78.438,31,115
96.546,78.983,31,115
96.045,79.146,31,115
94.107,81.344,31,115
93.044,81.389,31,115
93.389,81.435,31,115
94.256,82.213,31,115
96.169,82.338,31,115
96.354,80.214,31,115
97.021,81.226,31,115
98.652,80.835,31,115
97.423,82.079,31,115
99.584,84.138,31,115
99.659,84.952,31,115
98.751,84.59,31,115
98.667,85.897,31,115
96.881,85.617,31,115
96.196,85.891,31,115
98.48,84.31,31,115
97.666,84.892,31,115
96.912,84.612,31,115
96.556,82.166,31,115
96.372,81.302,31,115
96.123,80.508,31,115
96.274,79.336,31,115
96.433,80.925,31,115
97.194,80.974,31,115
96.059,79.156,31,115
96.309,78.645,31,115
94.641,78.326,31,115
92.716,78.466,31,115
93.552,79.237,31,115
93.366,77.296,31,115
92.072,78.298,31,115
93.065,77.384,31,115
95.547,77.878,31,115
97.309,78.227,31,115
95.863,78.57,31,115
96.459,79.38,31,115
96.102,78.523,31,115
94.883,78.511,31,115
97.293,77.233,31,115
95.395,76.553,31,115
96.105,76.394,31,115
93.731,77.117,31,115
94.871,74.571,31,115
95.449,75.265,31,115
94.044,74.321,31,115
93.91,73.045,31,115
95.057,72.804,31,115
94.905,73.414,31,115
96.534,73.306,31,115
94.79,73.415,31,115
96.713,73.5,31,115
97.917,71.406,31,115
97.656,71.205,31,115
95.994,70.309,31,115
96.876,71.682,31,115
95.995,73.189,31,115
95.93,71.594,31,115
96.162,71.154,31,115
97.423,67.749,31,115
96.035,67.556,31,115
96.899,65.31,31,115
95.975,64.373,31,115
95.129,62.379,31,115
95.353,61.437,31,115
94.359,61.078,31,115
95.012,61.359,31,115
