336,164.5,26,61
336,164.5,26,61
336,164.5,26,61
334,163.5,26,61
331,183.5,26,61
322.5,185.5,25,59
320.5,186.5,25,59
318.5,186.5,25,59
314,184,26,60
306.5,185.5,25,59
302.5,184.5,25,59
297.5,183.5,25,59
289.5,182.5,25,59
325.5,164.5,25,59
324.5,165.5,25,59
325.5,168,25,58
307.5,158,25,58
302.5,148.5,25,59
298.5,147,25,58
301.5,167,25,58
299.5,167,25,58
288.5,163,25,58
273.5,144,25,58
266.5,143,25,58
262,139.5,24,57
267,155.5,24,57
258.5,153,25,58
254,148.5,24,57
240,146.5,24,57
232,170.5,24,57
233,167.5,24,57
227,138.5,24,57
172,139.5,24,57
163,137.5,24,57
160,135.5,24,57
153,134.5,24,57
145,131.5,24,57
137,128.5,24,57
133,129.5,24,57
125,123,24,56
164,116.5,24,57
154,115.5,24,57
101,117,24,56
93,113,24,56
84.5,112.5,23,55
77.5,112.5,23,55
69.5,109.5,23,55
61.5,109,23,54
55.5,107.5,23,53
47.5,104.5,23,53
41.5,102.5,23,53
23.5,98.5,23,53
14.5,95.5,23,53
12,94.5,22,53
7,93.5,22,51
30,71,22,52
32,84.5,22,51
26,84,22,50
19.5,81.5,21,49
3.5,78.5,21,49
29.5,101.5,21,49
38,73,20,48
60.5,52.5,21,49
52,51,20,48
40,46,20,48
53.5,13,21,48
53.5,13.5,21,49
54.5,39,21,48
27.5,66.5,21,49
53,82,20,48
56,63,20,48
76,74,20,48
36.5,57.5,21,49
52.5,13,21,50
18.5,18.5,21,49
11.5,15,21,48
4.5,14.5,21,49
44.5,17.5,21,49
55.5,33.5,21,49
81.5,55.5,21,49
91.5,36.5,21,49
115.5,85.5,21,49
124.5,88.5,21,49
136.5,92.5,21,49
110,86,20,48
128,91,20,48
92.5,113,21,48
81.5,111,21,48
73,110,20,48
83.5,111.5,21,49
112.5,119.5,21,49
110.5,118.5,21,49
96.5,115.5,21,49
77.5,110,21,50
67.5,106,21,50
60.5,103,21,50
42.5,116,21,50
61.5,87.5,21,49
16.5,92.5,21,49
4.5,89.5,21,49
34.5,98,21,48
13.5,92.5,21,49
4.5,89.5,21,49
4.5,89.5,21,49
6.5,90.5,21,49
25.5,95.5,21,49
18.5,93,21,50
29.5,96,21,50
54.5,70,21,50
48.5,69,21,50
48.5,69,21,50
48.5,69,21,50
34.5,66,21,50
11,59.5,22,51
11,59.5,22,51
18,61,22,52
10,58,22,52
13.5,58.5,23,53
8,58.5,22,51
19,95.5,22,51
14,93.5,22,51
18,95.5,22,51
52,104,22,52
40,102,22,52
32,100,22,52
58,71.5,22,53
74.5,76.5,23,53
49,71.5,22,53
34.5,68.5,23,53
15.5,64,23,54
23.5,65.5,23,55
10.5,63.5,23,55
36.5,69.5,23,55
8,63.5,24,55
19.5,102.5,23,55
23.5,87,23,54
4.5,83,23,54
18.5,87,23,54
41.5,93,23,54
7.5,104,23,54
8.5,106,23,54
53.5,116,23,54
36.5,113.5,23,53
58.5,119,23,54
43.5,116,23,54
73.5,125,23,54
97.5,130,23,54
99.5,131,23,54
76.5,126,23,54
88.5,127.5,23,55
90.5,127.5,23,55
70.5,103.5,23,55
84.5,125.5,23,55
74,86,24,56
56,83,24,56
48.5,80,25,58
56.5,47,25,58
58.5,33,25,58
39.5,14.5,25,59
41,12.5,24,57
41,12.5,24,57
29,34.5,24,57
29,34.5,24,57
29,34.5,24,57
29,34.5,24,57
48.5,13,25,58
40.5,15,25,58
51.5,10,25,58
39.5,14,25,58
51,10.5,24,57
41.5,14,25,58
51,10.5,24,57
39,13.5,24,57
51,11,24,56
52,10.5,24,57
41,13.5,24,57
53,11,24,56
40,15,24,56
51.5,11.5,23,55
51.5,11.5,23,55
39,13.5,24,55
40,14,24,56
40,15,24,56
50,14.5,24,57
40,15.5,24,57
52,9.5,24,57
39,14,24,56
51,10,24,56
40,15,24,56
59,32.5,24,55
58.5,34.5,23,55
12,13,24,56
52.5,13.5,23,55
93,33.5,24,55
93,33.5,24,55
94,31,24,56
94,31,24,56
94,31,24,56
94,31,24,56
94,31,24,56
94,31,24,56
94,31,24,56
94,31,24,56
94,31,24,56
94,31,24,56
94,31,24,56
94,31,24,56
94,31,24,56
94,31.5,24,55
94,31.5,24,55
94,31.5,24,55
94,31.5,24,55
94.5,32.5,23,55
94.5,32,23,54
94.5,32,23,54
94.5,32,23,54
94.5,32,23,54
94.5,32,23,54
94.5,32,23,54
94.5,33,23,54
94.5,33.5,23,53
94.5,33.5,23,53
94.5,33.5,23,53
94.5,33.5,23,53
94.5,33.5,23,53
94.5,33.5,23,53
94.5,33.5,23,53
94.5,33.5,23,53
94.5,33.5,23,53
94.5,33.5,23,53
94.5,33.5,23,53
94.5,33.5,23,53
94.5,33.5,23,53
94.5,33.5,23,53
94.5,33.5,23,53
94.5,33.5,23,53
94.5,33.5,23,53
94.5,33.5,23,53
94.5,33.5,23,53
140.5,58,23,54
94.5,35,23,54
94.5,33,23,54
94.5,33,23,54
94.5,33,23,54
94.5,33,23,54
94.5,33,23,54
94.5,33,23,54
94.5,33,23,54
94.5,33,23,54
94.5,33,23,54
94.5,33,23,54
94.5,33,23,54
111.5,74,23,54
94.5,77,23,54
75.5,79.5,23,53
55,84,22,52
35,88,22,52
16,90,22,52
27,99,22,52
13,37.5,22,51
30.5,34.5,21,49
15.5,8,21,50
43.5,16.5,21,49
53.5,15.5,21,49
53.5,15.5,21,49
39.5,16,21,48
19.5,23.5,21,49
11.5,3.5,21,49
4.5,4,21,48
16.5,44.5,21,49
14.5,13,21,50
32,32.5,22,51
4.5,27,21,50
39,14.5,22,51
19.5,14,21,50
46.5,14,21,50
54.5,14.5,21,49
37,30,20,48
41.5,16.5,21,49
34.5,30,21,48
43.5,17.5,21,49
53.5,15,21,48
40.5,16.5,21,49
34.5,30.5,21,49
25.5,13.5,21,49
32.5,35,21,48
26.5,38.5,21,49
36.5,75.5,21,49
35,80,20,48
17.5,123.5,21,49
22.5,149,21,48
19,146.5,20,47
12,148.5,20,47
4,151.5,20,47
5,111,20,48
5.5,126,21,48
55.5,99.5,21,49
68.5,55.5,21,49
54.5,49.5,21,49
98.5,33,21,50
87.5,42,21,50
76.5,50,21,50
66.5,54,21,50
55.5,59,21,50
45,64,22,52
33,67.5,22,51
24.5,72,21,50
11.5,77.5,21,49
3.5,62.5,21,49
14.5,66,21,48
33.5,33.5,21,49
10.5,41.5,21,49
38.5,31.5,21,49
59.5,34.5,21,49
69.5,45.5,21,49
65.5,48.5,21,49
58.5,52.5,21,49
54.5,55.5,21,49
53.5,56.5,21,49
51.5,57.5,21,49
47.5,64,21,48
44.5,65,21,48
43.5,66.5,21,49
40,70.5,20,47
39,73,20,48
37,79,20,48
36,79.5,20,47
37,33.5,20,47
22,31.5,20,47
45.5,17,19,46
43.5,18.5,19,45
33.5,38,19,44
23.5,37,19,44
24,38.5,18,43
40,30,18,42
35,36,18,42
32,34.5,18,43
23,64,18,42
23,70,18,42
23,71,18,42
63,34,18,42
65,63,18,42
24,80,18,42
46,63,18,42
44,65.5,18,43
29,90,18,42
31,91.5,18,43
29,79,18,42
26,77.5,18,43
33,80,18,42
