287.5,143,35,42
290.5,142,35,42
290.5,142,35,42
291.5,141,35,42
295.5,142,35,42
295.5,140,35,42
296.5,139,35,42
296.5,139,35,42
296.5,139,35,42
297.5,140,35,42
297.5,140,35,42
297.5,140,35,42
298.5,143,35,42
296.5,141,35,42
296.5,140,35,42
296.5,140,35,42
298,142.5,34,41
298,142.5,34,41
298,142.5,34,41
296,144.5,34,41
296,144.5,34,41
297,145.5,34,41
297,145.5,34,41
295,147,34,40
293.5,148,33,40
293.5,148,33,40
293.5,148,33,40
293.5,148,33,40
291.5,149,33,40
292.5,150,33,40
290.5,149.5,33,39
290.5,149.5,33,39
292.5,150.5,33,39
292.5,150.5,33,39
292.5,150.5,33,39
291.5,148.5,33,39
293.5,147.5,33,39
293.5,147.5,33,39
293.5,147.5,33,39
293.5,147.5,33,39
293.5,147.5,33,39
293.5,147.5,33,39
293.5,147.5,33,39
293.5,147.5,33,39
293.5,147.5,33,39
295.5,148.5,33,39
294.5,149.5,33,39
291.5,148,33,40
291.5,148,33,40
290.5,149.5,33,39
290.5,151,33,40
290.5,151,33,40
290.5,151,33,40
289.5,150,33,40
289.5,150,33,40
288.5,151,33,40
288.5,153,33,40
288,153,34,40
288,154.5,34,41
288,154.5,34,41
289.5,155,33,40
289,155,34,40
289,155,34,40
289,155,34,40
289.5,154,33,40
291.5,154,33,40
291.5,154,33,40
292.5,155,33,40
292.5,155,33,40
294.5,155,33,40
296,156,34,40
297,155.5,34,41
301,158.5,34,41
303,159.5,34,41
308,162.5,34,41
311,164,34,40
314.5,169,33,40
315.5,174,33,40
316.5,180,33,40
317.5,187,33,40
318.5,190,33,40
317,196,34,40
315,201,34,40
313.5,203,33,40
309,205,34,40
305.5,204,33,40
298,204,34,40
293,199,34,40
291.5,193,33,40
284.5,184,33,40
282.5,174,33,40
279,162.5,34,41
278,152,34,40
278.5,145,33,40
282.5,136,33,40
283.5,132,33,40
284.5,129.5,33,39
285.5,128.5,33,39
289.5,133,33,40
291.5,136,33,40
292.5,141,33,40
294.5,150,33,40
296.5,161,33,40
297.5,172.5,33,39
299,183.5,32,39
298,191.5,32,39
297.5,196,33,40
295.5,195.5,33,39
290,193.5,32,39
285.5,190.5,33,39
275.5,178.5,33,39
271.5,173.5,33,39
261.5,163.5,33,39
253.5,161,33,40
245.5,161,33,40
240,156,34,40
237,157,34,40
237,165,34,40
234,167,34,40
236,171.5,34,41
239,177,34,40
245,177.5,34,41
249,175.5,34,41
254,170.5,34,41
259,157.5,34,41
270,149.5,34,41
280,144.5,34,41
290,143,34,40
303.5,141,33,40
298,139.5,34,41
305,139.5,34,41
313,141.5,34,41
323,150.5,34,41
319,154.5,34,41
322,166.5,34,41
324,175.5,34,41
325.5,185.5,35,41
322.5,188,35,42
320.5,190,35,42
317.5,191,35,42
314.5,187,35,42
309.5,178,35,42
303.5,169,35,42
298.5,158,35,42
294.5,150,35,42
290.5,146,35,42
286,144.5,34,41
283,140.5,34,41
280,141.5,34,41
276,144.5,34,41
271,146.5,34,41
269.5,152,35,42
271.5,161,35,42
270.5,169,35,42
268,169.5,36,43
267.5,171,35,42
265.5,169,35,42
265.5,167,35,42
262.5,163.5,35,43
260.5,160,35,42
256.5,154.5,35,43
256,152.5,36,43
256,152.5,36,43
258,151.5,36,43
261,152,36,44
262,157.5,36,43
263,161,36,44
262.5,167,37,44
264.5,173,37,44
265.5,182,37,44
266,188.5,36,43
266,188.5,36,43
267,184.5,36,43
266,180.5,36,43
265.5,170.5,35,43
267,164.5,36,43
269.5,160,35,42
273,159.5,36,43
277,157.5,36,43
284,157.5,36,43
290,159.5,36,43
298,163.5,36,43
305,164.5,36,43
309,170.5,36,43
313.5,172,35,42
314.5,171,35,42
310.5,170,35,42
310.5,169,35,42
303.5,170,35,42
299.5,174,35,42
295.5,182,35,42
297,187.5,34,41
292,193.5,34,41
290,201.5,34,41
282,205.5,34,41
277,205.5,34,41
272,199.5,34,41
264,194.5,34,41
262,188,34,40
263.5,179,33,40
270.5,173,33,40
277.5,168,33,40
287.5,168,33,40
296.5,170.5,33,39
306.5,175,33,40
312,182,34,40
311.5,196,33,40
322.5,193.5,33,39
321,200,32,38
317,203,32,38
311,200,32,38
304,195.5,32,39
290.5,192.5,33,39
281.5,185,33,40
273.5,182,33,40
266.5,183.5,33,39
262.5,183,33,40
260,183.5,34,41
259,187.5,34,41
261,189.5,34,41
266,186.5,34,41
268,182.5,34,41
273,175.5,34,41
279.5,170.5,35,41
281,173.5,34,41
284.5,173.5,35,41
283.5,175,35,42
284.5,177,35,42
284.5,181,35,42
283.5,196,35,42
283.5,180,35,42
279.5,175.5,35,41
275,169.5,34,41
269.5,162,35,42
264,155.5,34,41
259.5,152,35,42
255.5,152,35,42
251.5,153,35,42
249.5,154,35,42
246.5,157,35,42
245,159.5,34,41
241,167.5,34,41
242,173.5,34,41
242,173.5,34,41
243.5,172,35,42
246.5,169.5,35,41
250.5,164,35,42
254.5,155,35,42
259,151.5,34,41
267,149.5,34,41
274,148,34,40
278.5,147,33,40
281.5,149,33,40
284.5,147,33,40
287.5,150,33,40
285,153.5,32,39
279.5,153.5,33,39
276,149.5,32,39
270,146,32,38
264,139,32,38
259,134,32,38
251,129,32,38
239,128,32,38
229,130,32,38
212,140.5,32,39
192.5,149,33,40
178.5,160,33,40
166.5,176,33,40
162.5,188,33,40
164,195.5,34,41
167,201.5,34,41
167,204.5,34,41
170,200.5,34,41
170,194.5,34,41
171,188.5,34,41
174.5,181.5,35,41
182,177.5,34,41
185,176.5,34,41
190,178.5,34,41
194.5,181,35,42
199.5,186,35,42
199.5,190,35,42
204,195.5,34,41
206.5,200,35,42
211.5,207,35,42
212.5,213,35,42
206,219.5,34,41
200.5,221.5,35,41
198.5,220,35,42
200,214.5,34,41
202.5,208,35,42
202.5,206,35,42
202,206.5,34,41
205,207.5,34,41
205,209.5,34,41
204,215.5,34,41
203,218.5,34,41
202,221.5,34,41
202,221.5,34,41
202,216.5,34,41
201,210.5,34,41
202,201.5,34,41
202.5,195,35,42
201.5,194,35,42
199.5,194,35,42
197.5,192,35,42
198.5,193,35,42
198.5,195,35,42
198.5,198,35,42
197.5,205,35,42
196,206.5,36,43
197,205.5,36,43
198,199.5,36,43
201,193.5,36,43
201,193.5,36,43
203,190.5,36,43
203,190.5,36,43
201,193,36,44
199,196.5,36,43
200.5,200,37,44
202,205,36,44
199,211,36,44
199.5,218,37,44
195.5,221,37,44
196.5,222,37,44
198.5,214,37,44
200,209,36,44
198,200.5,36,43
194,195.5,36,43
190,190.5,36,43
185.5,187,35,42
178,185.5,36,43
177,183.5,36,43
179,183.5,36,43
174.5,189,35,42
167,195.5,36,43
167,202.5,36,43
169.5,209,35,42
170.5,211,35,42
170.5,212,35,42
174.5,210,35,42
175,205.5,36,43
175.5,204,35,42
175.5,203.5,35,43
182.5,205.5,35,43
187,207.5,36,43
192,212.5,36,43
199,216.5,36,43
209,222.5,36,43
220.5,224,35,42
229.5,230,35,42
240.5,224,35,42
251,213.5,36,43
258.5,204,35,42
265,194.5,36,43
276,188.5,36,43
282,188.5,36,43
291,184.5,36,43
295,186.5,36,43
295,191.5,36,43
293,197.5,36,43
289,205.5,36,43
285,215.5,36,43
278.5,224.5,35,43
265.5,229,35,42
252.5,231,35,42
237,231.5,36,43
221.5,233.5,35,43
207.5,237,35,42
197,239.5,36,43
192,240.5,36,43
188,242.5,36,43
175,243.5,36,43
163,238.5,36,43
156,226,36,44
157,218,36,44
159.5,204,37,44
168.5,194,37,44
179,189,36,44
188,196.5,36,43
198,196.5,36,43
211,206.5,36,43
224,216.5,36,43
235,231.5,36,43
252,240.5,36,43
265,247.5,36,43
277,251.5,36,43
288,249.5,36,43
304,247,36,44
317,240.5,36,43
333,235,36,44
346,230.5,36,43
360,229.5,36,43
370,226.5,36,43
374,228,36,44
372.5,228,37,44
368.5,231,37,44
359,235,36,44
345.5,238,37,44
325.5,249,37,44
304.5,255,37,44
285,258,36,44
267,253,36,44
252,249,36,44
235,241.5,36,43
223,236.5,36,43
208,229.5,36,43
199,226.5,36,43
196.5,220.5,35,43
195.5,215.5,35,43
197.5,217,35,42
199.5,214,35,42
208.5,215.5,35,41
212.5,216,35,42
222.5,219,35,42
234.5,217,35,42
250,212.5,34,41
261,206.5,34,41
268,198.5,34,41
276,194.5,34,41
287,188.5,34,41
294,185.5,34,41
299,186.5,34,41
307,192.5,34,41
313,201.5,34,41
323,207.5,34,41
327,219.5,34,41
334,229.5,34,41
341.5,235,35,42
343.5,235,35,42
346.5,237,35,42
350.5,228,35,42
354.5,221,35,42
351.5,216.5,35,43
349,213.5,36,43
347,209.5,36,43
341,209.5,36,43
335.5,207,37,44
324.5,212,37,44
314.5,218,37,44
302.5,227,37,44
292.5,238,37,44
281.5,244,37,44
266.5,245,37,44
254.5,236,37,44
243,230,36,44
231.5,223,37,44
222.5,218.5,37,45
211.5,213.5,37,45
200.5,207.5,37,45
192,209.5,38,45
186,207.5,38,45
180,207,38,46
180,206,38,46
183,199.5,38,45
189,196.5,38,45
197,183,38,46
209.5,177,39,46
223.5,172,39,46
241.5,163.5,39,47
255.5,168.5,39,47
270.5,172,39,46
279.5,178,39,46
284.5,185.5,39,47
290.5,188.5,39,47
291.5,194.5,39,47
293.5,199,39,46
289.5,202,39,46
287.5,194.5,39,47
284.5,186.5,39,47
280,176,40,48
279,165,40,48
275.5,162.5,39,47
266.5,161.5,39,47
264.5,165.5,39,47
263,171,40,48
263.5,176.5,39,47
270.5,184.5,39,47
275,189.5,40,47
279,201,40,48
280,209,40,48
279,212,40,48
281,209,40,48
283,202,40,48
286,190.5,40,47
292,175,40,48
292,166,40,48
290,158,40,48
286,151.5,40,47
289.5,144.5,39,47
287.5,137.5,39,47
282,135,40,48
276,135,40,48
270,138,40,48
264,140,40,48
255,141,40,48
250.5,145.5,39,47
249.5,149.5,39,47
240.5,151.5,39,47
233.5,160.5,39,47
225.5,168.5,39,47
219.5,176.5,39,47
213.5,185.5,39,47
212.5,190.5,39,47
212.5,195.5,39,47
213.5,198,39,46
214.5,194.5,39,47
221.5,186.5,39,47
228.5,173.5,39,47
234.5,159.5,39,47
236.5,146,39,46
235.5,135.5,39,47
235,126,38,46
234.5,121.5,39,47
236.5,121.5,39,47
235.5,124.5,39,47
231.5,128.5,39,47
226.5,137,39,46
223.5,147,39,46
225.5,157.5,39,47
229.5,170.5,39,47
230.5,181.5,39,47
232.5,186.5,39,47
231,189,40,48
229.5,191.5,39,47
224.5,186.5,39,47
217,180,40,48
212,173,40,48
208,168,40,48
202,168,40,48
198,170,40,48
196.5,172.5,39,47
194.5,174.5,39,47
191.5,178.5,39,47
190.5,185.5,39,47
191,191,38,46
195,196,38,46
194,195.5,38,45
194,190.5,38,45
197,181,38,46
201,172,38,46
205,166,38,46
209,162,38,46
212,163,38,46
215,165,38,46
223,167,38,46
221.5,172,39,46
225,180,38,46
224.5,185,39,46
227,192,38,46
224,200.5,38,45
219,208.5,38,45
215,210.5,38,45
214,213,38,46
209,206.5,38,45
207,198.5,38,45
207,186,38,46
209.5,177.5,37,45
210,165.5,38,45
206.5,156.5,37,45
203.5,152.5,37,45
199.5,146.5,37,45
194.5,144.5,37,45
193.5,144.5,37,45
193.5,148,37,44
192.5,151,37,44
192.5,159,37,44
196,167,36,44
199.5,174,37,44
205.5,183.5,37,45
209,190.5,38,45
212,198,38,46
214,197,38,46
217.5,190,39,46
221.5,179,39,46
225.5,166.5,39,47
229.5,151.5,39,47
235.5,139.5,39,47
243.5,135.5,39,47
249.5,127.5,39,47
253.5,114.5,39,47
256,113.5,40,47
268,108,40,48
268,123,40,48
274,110,40,48
273,117,40,48
263,131,40,48
262.5,144.5,41,49
258.5,156.5,41,49
259,172,42,50
254,179,42,50
251,180,42,50
246,176.5,42,51
247,166.5,42,51
243,158,42,50
240.5,147.5,43,51
241.5,141.5,43,51
248,132.5,42,51
249,127.5,42,51
254,128.5,42,51
254,129,42,50
271,124.5,42,51
