72.5,125.5,29,23
72.5,125.5,29,23
72.5,125.5,29,23
73.5,124.5,29,23
73.5,124.5,29,23
73,125.5,30,23
75,124,30,24
75,124,30,24
77.5,124.5,29,23
77.5,124.5,29,23
77.5,124.5,29,23
77.5,124.5,29,23
79.5,122.5,29,23
79.5,122.5,29,23
79.5,122.5,29,23
79.5,122.5,29,23
79.5,122.5,29,23
80.5,122.5,29,23
80.5,122.5,29,23
81.5,121.5,29,23
81.5,121.5,29,23
81.5,121.5,29,23
81,121,30,24
83.5,122.5,29,23
83.5,122.5,29,23
83.5,122.5,29,23
84.5,122.5,29,23
84.5,122.5,29,23
84.5,122.5,29,23
85,122,30,24
85,122,30,24
85,122,30,24
85,122,30,24
85,122,30,24
85,122,30,24
86,122,30,24
86,122,30,24
86,122,30,24
86,122,30,24
86,123,30,24
86,123,30,24
86,123,30,24
87,124,30,24
87,125,30,24
87,125,30,24
87,125,30,24
87,125,30,24
88,126,30,24
88,126,30,24
88,126,30,24
88,126,30,24
88,126,30,24
88,126,30,24
88,126,30,24
88,126,30,24
88,126,30,24
88,126,30,24
88,126,30,24
94,126,30,24
94,126,30,24
94,126,30,24
94,126,30,24
94,125,30,24
94,125,30,24
94,125,30,24
94,125,30,24
94,125,30,24
94,125,30,24
94,125,30,24
94,125,30,24
94,125,30,24
94,125,30,24
94,125,30,24
94,125,30,24
94,125,30,24
94,125,30,24
94,125,30,24
94,125,30,24
94,125,30,24
94,125,30,24
94,125,30,24
94,125,30,24
94,125,30,24
94,125,30,24
94,125,30,24
94.5,125,31,24
94.5,125,31,24
94.5,125,31,24
94.5,125,31,24
94.5,125,31,24
94.5,125,31,24
94.5,125,31,24
94.5,125,31,24
94.5,125,31,24
94.5,125,31,24
94.5,125,31,24
94.5,125,31,24
94.5,125,31,24
94.5,125,31,24
94.5,125,31,24
94.5,125,31,24
94.5,125,31,24
94.5,125,31,24
94.5,125,31,24
94.5,125,31,24
94.5,125,31,24
94.5,125,31,24
94.5,125,31,24
94.5,125,31,24
94.5,125,31,24
94.5,125,31,24
94.5,125,31,24
94.5,125,31,24
94.5,124.5,31,25
94.5,124.5,31,25
94.5,124.5,31,25
94.5,124.5,31,25
94.5,124.5,31,25
94.5,123.5,31,25
94.5,123.5,31,25
94.5,123.5,31,25
94.5,122.5,31,25
94.5,122.5,31,25
94.5,122.5,31,25
94.5,122.5,31,25
94.5,122.5,31,25
94.5,122.5,31,25
94.5,122.5,31,25
94.5,122.5,31,25
94.5,122.5,31,25
94.5,122.5,31,25
94.5,122.5,31,25
94.5,122.5,31,25
94.5,122.5,31,25
94.5,122.5,31,25
94.5,122.5,31,25
94.5,122.5,31,25
94.5,122.5,31,25
94.5,122.5,31,25
94.5,122.5,31,25
94.5,122.5,31,25
94.5,122.5,31,25
94.5,122.5,31,25
94.5,122.5,31,25
94.5,122.5,31,25
94.5,122.5,31,25
94.5,122.5,31,25
94.5,122.5,31,25
94.5,122.5,31,25
94.5,122.5,31,25
94.5,122.5,31,25
94.5,122.5,31,25
94.5,122.5,31,25
94.5,122.5,31,25
94.5,122.5,31,25
94.5,122.5,31,25
94.5,122.5,31,25
94.5,122.5,31,25
94.5,122.5,31,25
94.5,122.5,31,25
94.5,122.5,31,25
94.5,122.5,31,25
94.5,122.5,31,25
94.5,122.5,31,25
94.5,122.5,31,25
94.5,122.5,31,25
94.5,122.5,31,25
94.5,122.5,31,25
94.5,122.5,31,25
94.5,122.5,31,25
94.5,122.5,31,25
94.5,122.5,31,25
94.5,122.5,31,25
94.5,122.5,31,25
94.5,122.5,31,25
94.5,122.5,31,25
94.5,122.5,31,25
94.5,122.5,31,25
94.5,122.5,31,25
94.5,122.5,31,25
94.5,122.5,31,25
94.5,122.5,31,25
94.5,122.5,31,25
94.5,122.5,31,25
94.5,122.5,31,25
94.5,122.5,31,25
94.5,122.5,31,25
95.5,122.5,31,25
95.5,122.5,31,25
95.5,122.5,31,25
95.5,122.5,31,25
95.5,122.5,31,25
95.5,122.5,31,25
95.5,122.5,31,25
95.5,122.5,31,25
95,122.5,32,25
95,122.5,32,25
95,122.5,32,25
95,122.5,32,25
95,122.5,32,25
95,122.5,32,25
95,122.5,32,25
95,122.5,32,25
95,122.5,32,25
95,122.5,32,25
95,122.5,32,25
95,122.5,32,25
95,122.5,32,25
95,122.5,32,25
95,122.5,32,25
95,122.5,32,25
95,122.5,32,25
95,122.5,32,25
95,122.5,32,25
95,122.5,32,25
95,122.5,32,25
95,122.5,32,25
95,122.5,32,25
96,122.5,32,25
96.5,123.5,31,25
96.5,123.5,31,25
96.5,123.5,31,25
96.5,123.5,31,25
96.5,123.5,31,25
96.5,123.5,31,25
97.5,121.5,31,25
98.5,122.5,31,25
98.5,122.5,31,25
96.5,121.5,31,25
96.5,121.5,31,25
98,120.5,32,25
98,120.5,32,25
113,119.5,32,25
113,119.5,32,25
97.5,120.5,31,25
97.5,120.5,31,25
102.5,120.5,31,25
103.5,122,31,24
103.5,122,31,24
103.5,122,31,24
116.5,122,31,24
116.5,122,31,24
116.5,122,31,24
105.5,122,31,24
115.5,123.5,31,25
117.5,122.5,31,25
119.5,122,31,24
119.5,122,31,24
119.5,122,31,24
119.5,122,31,24
121.5,121,31,24
121.5,121,31,24
121.5,121,31,24
121.5,121,31,24
121.5,121,31,24
123.5,121,31,24
123,122,30,24
123,122,30,24
115,120,30,24
126,121,30,24
126,121,30,24
126,121,30,24
115,121,30,24
115,121,30,24
116,121,30,24
116,121,30,24
116,120,30,24
120,121,30,24
121,120,30,24
121,120,30,24
114.5,120.5,29,23
114.5,120.5,29,23
114.5,120.5,29,23
114.5,120.5,29,23
114.5,118.5,29,23
114.5,118.5,29,23
114.5,118.5,29,23
137.5,118.5,29,23
148.5,118.5,29,23
148.5,118.5,29,23
114.5,117.5,29,23
112.5,116.5,29,23
152.5,116.5,29,23
151.5,117.5,29,23
153.5,116.5,29,23
141.5,117.5,29,23
154.5,116.5,29,23
155,118,28,22
141.5,120.5,29,23
141.5,120.5,29,23
143,120,28,22
145,120,28,22
144,120,28,22
111,120,28,22
135,120,28,22
135,119,28,22
135,119,28,22
147,117.5,28,23
147,117.5,28,23
145,120,28,22
148,118,28,22
137,117,28,22
148,119,28,22
145.5,119.5,29,23
145.5,119.5,29,23
75.5,120.5,29,23
89.5,117.5,29,23
106.5,119.5,29,23
105.5,118.5,29,23
148.5,121.5,29,23
148.5,121.5,29,23
149,123,28,22
149,123,28,22
149,123,28,22
194,108,28,22
211.5,93.5,29,23
258.5,115.5,29,23
284.5,115.5,29,23
284.5,115.5,29,23
284.5,115.5,29,23
284.5,115.5,29,23
283.5,114.5,29,23
285.5,114.5,29,23
285.5,112.5,29,23
285,111.5,28,23
284,112,28,22
284,112.5,28,23
282.5,111.5,29,23
283,110.5,28,23
279.5,111.5,29,23
279.5,111.5,29,23
279.5,111.5,29,23
277,110,28,22
275,111,28,22
275,111,28,22
243.5,118.5,29,23
243.5,118.5,29,23
244.5,118.5,29,23
242.5,121.5,29,23
242.5,121.5,29,23
242.5,121.5,29,23
242.5,121.5,29,23
240.5,122.5,29,23
240,121,30,24
238,122,30,24
239.5,120.5,29,23
238,122,30,24
237,122,30,24
237,122,30,24
236,123,30,24
234,124,30,24
234,124,30,24
233,124,30,24
232,124,30,24
231,124,30,24
231,124,30,24
230,124.5,30,23
230,124.5,30,23
256.5,117.5,29,23
256.5,116.5,29,23
255.5,115.5,29,23
255.5,115.5,29,23
254.5,115.5,29,23
253.5,115.5,29,23
253.5,115.5,29,23
253.5,115.5,29,23
285.5,154.5,29,23
281,124.5,28,23
294.5,118.5,29,23
252.5,114.5,29,23
252.5,114.5,29,23
222,120,28,22
203,157.5,28,23
217,157.5,28,23
216.5,157.5,29,23
194.5,217.5,29,23
191.5,214.5,29,23
193,214.5,28,23
189.5,214.5,29,23
189.5,214.5,29,23
193.5,217.5,29,23
194.5,216.5,29,23
199.5,217.5,29,23
202.5,217.5,29,23
225.5,167.5,29,23
227.5,169.5,29,23
228.5,170.5,29,23
228.5,171.5,29,23
186.5,169.5,29,23
185.5,168.5,29,23
184,169,30,24
184,169,30,24
198,216,30,24
