204.5,151,17,50
204.5,151,17,50
201,150,18,52
200.5,150.5,17,51
200,150,18,52
200,150,18,52
198,149.5,18,53
194,148.5,18,53
194,147.5,18,53
192,147.5,18,53
190,147,18,52
190,147,18,52
190,146,18,52
186,142.5,18,53
186,142.5,18,53
183,141.5,18,53
181,142,18,52
181.5,142.5,17,51
181.5,141.5,17,51
181.5,141.5,17,51
180.5,141.5,17,51
178.5,139,17,50
176.5,136,17,50
176.5,137,17,50
176.5,137,17,50
175.5,137.5,17,51
175.5,137.5,17,51
172.5,137,17,50
172.5,137,17,50
170.5,136.5,17,49
169.5,134.5,17,49
160.5,123.5,17,49
167.5,132,17,50
167.5,128.5,17,51
165,126,18,52
165,126,18,52
163,127.5,18,53
163,127.5,18,53
155,118.5,18,53
162,123.5,18,53
163,122.5,18,53
163,122.5,18,53
161,124,18,52
161,124,18,52
161,124,18,52
159,124,18,52
160.5,124.5,17,51
158.5,123.5,17,51
158.5,122.5,17,51
183.5,105.5,17,49
182.5,102.5,17,51
153.5,121,17,50
150.5,121.5,17,49
150,118,16,48
149,118,16,48
148,117,16,48
146,119,16,48
147,119.5,16,47
145.5,118.5,17,49
143,120,16,48
140.5,122.5,17,49
138.5,116,17,50
135.5,116.5,17,49
135.5,116.5,17,49
135.5,116.5,17,49
135,117,16,48
131,115,16,48
132.5,116.5,17,49
127.5,115.5,17,49
124.5,113.5,17,49
124.5,113.5,17,49
122.5,113.5,17,49
123.5,110.5,17,49
122.5,109.5,17,49
122,110,16,48
120,112,16,48
117,108,16,48
117,108,16,48
115,108,16,48
114,108.5,16,49
112.5,105.5,17,49
111,104,16,48
111,104,16,48
107.5,103.5,17,49
105.5,102.5,17,49
103.5,103.5,17,49
103.5,103.5,17,49
100.5,101.5,17,49
100.5,101.5,17,49
97.5,101.5,17,49
95.5,98,17,50
95.5,98,17,50
91.5,98,17,50
91.5,98,17,50
89.5,100.5,17,49
89.5,100.5,17,49
87.5,101,17,50
86.5,98,17,50
83.5,98.5,17,49
83,97,16,48
81,96,16,48
81,96,16,48
77.5,95.5,17,49
75.5,95.5,17,49
73.5,96.5,17,49
73.5,96.5,17,49
72.5,97.5,17,49
71,96,16,48
69,94,16,48
67,92,16,48
67,92,16,48
66,93.5,16,47
63,93,16,46
63,93,16,46
60,93,16,46
59.5,94,15,44
59.5,93,15,44
57.5,92.5,15,43
56.5,90.5,15,43
57,92,14,42
