118,57,82,98
117,55.5,82,97
117,55.5,82,97
117,55.5,82,97
117,55.5,82,97
117,55.5,82,97
119,54,82,98
119,54,82,98
120,54,82,98
120,54,82,98
118,55,82,98
118,55,82,98
118,55,82,98
118,55,82,98
117,54,82,98
117,54,82,98
117,54,82,98
117,54,82,98
115,54,82,98
115,54,82,98
115,54,82,98
115,53,82,98
114,51,82,98
114.5,53.5,81,97
114.5,54.5,81,97
113.5,51.5,81,97
113.5,51.5,81,97
113,56,80,96
112.5,53,81,96
111.5,55,81,96
110,55,80,96
110,55,80,96
109,54,80,96
107,55,80,96
107,55,80,96
107,56,80,96
107,56,80,96
106,57.5,80,95
105,55.5,80,95
105,59.5,80,95
105,59.5,80,95
105.5,58.5,79,95
105.5,58.5,79,95
104,58.5,80,95
101,57.5,80,95
101,57.5,80,95
100,58.5,80,95
100,58.5,80,95
99,56.5,80,95
99,56.5,80,95
99,57,80,96
102,54,80,96
103,56,80,96
103,55,80,96
103,55,80,96
103,55,80,96
105,55,80,96
104,53,80,96
104,53,80,96
104,53,80,96
105,52,80,96
105.5,52,81,96
109,55,80,96
110.5,52,81,96
116.5,51.5,81,97
116.5,49.5,81,97
119.5,48.5,81,97
119.5,48.5,81,97
119.5,48.5,81,97
121.5,45.5,81,97
123.5,47.5,81,97
123.5,47.5,81,97
123.5,48.5,81,97
125.5,49.5,81,97
126.5,51.5,81,97
125.5,52.5,81,97
125.5,52.5,81,97
125.5,56.5,81,97
124.5,54.5,81,97
122.5,55.5,81,97
122.5,55.5,81,97
120.5,55.5,81,97
120.5,56,81,96
120.5,56,81,96
120.5,56,81,96
119.5,55.5,81,97
117.5,47.5,81,97
118.5,55,81,96
118.5,55.5,81,97
118.5,57.5,81,97
118.5,57.5,81,97
118.5,59,81,96
118.5,59,81,96
117,57,80,96
116.5,54.5,81,97
116.5,54.5,81,97
116.5,56,81,96
116.5,56,81,96
117,53,80,96
118,57,80,96
118,55.5,80,95
117,55.5,80,95
117,55.5,80,95
118,54,80,96
118,54,80,96
118,53.5,80,95
120,52.5,80,95
122,53,80,96
122,53,80,96
122.5,53.5,79,95
122.5,53.5,79,95
122.5,53.5,79,95
122.5,53.5,79,95
122.5,54.5,79,95
122.5,54.5,79,95
121.5,54.5,79,95
119,54.5,80,95
119.5,55.5,79,95
119.5,55.5,79,95
119.5,55.5,79,95
119.5,55.5,79,95
119.5,55.5,79,95
119.5,55.5,79,95
119,54.5,80,95
119.5,54.5,79,95
119.5,54.5,79,95
119.5,54.5,79,95
119.5,54.5,79,95
119.5,54.5,79,95
119.5,54.5,79,95
119.5,54.5,79,95
119,55.5,80,95
119,55,80,96
119,55,80,96
119,55,80,96
119,55,80,96
119,55,80,96
119,55,80,96
121,54,80,96
121,54,80,96
121,54,80,96
120,54,80,96
120,54,80,96
123,55,80,96
121,55,80,96
121,55,80,96
121,55,80,96
121,55,80,96
121,55,80,96
121,55,80,96
121,55,80,96
123,55,80,96
123,55,80,96
121.5,55.5,79,95
121.5,55.5,79,95
121.5,55.5,79,95
120,56.5,80,95
120,56.5,80,95
120,56.5,80,95
120,54.5,80,95
120,54.5,80,95
120,54.5,80,95
120,54.5,80,95
120,54.5,80,95
122,55.5,80,95
120.5,57.5,79,95
122,55.5,80,95
122,55.5,80,95
121.5,55.5,79,95
119.5,54.5,79,95
119,54.5,80,95
120,57.5,80,95
122,55,80,96
121,56,80,96
121,56,80,96
121,56,80,96
119,56,80,96
120,56,80,96
120,56,80,96
120,56,80,96
119,56,80,96
119,56,80,96
119,56,80,96
118,54,80,96
118,54,80,96
118,55,80,96
118,55,80,96
118,55,80,96
119,57.5,80,95
119,57.5,80,95
119,57.5,80,95
119,57.5,80,95
119,57.5,80,95
119,57.5,80,95
119,57.5,80,95
119,57.5,80,95
119,57.5,80,95
119.5,56.5,79,95
119.5,56.5,79,95
119.5,56.5,79,95
119.5,56.5,79,95
119.5,56.5,79,95
119.5,56.5,79,95
119.5,56.5,79,95
119.5,56.5,79,95
119.5,56.5,79,95
118,56.5,80,95
116,55.5,80,95
116,55.5,80,95
116,55.5,80,95
117,55.5,80,95
118,54.5,80,95
118.5,54.5,79,95
120.5,53.5,79,95
121,55,80,96
122,54,80,96
124,54.5,80,95
125,55.5,80,95
125,55.5,80,95
125.5,55.5,79,95
126.5,54.5,79,95
126.5,54.5,79,95
126.5,54.5,79,95
126.5,54.5,79,95
126.5,54.5,79,95
126.5,54.5,79,95
126.5,54.5,79,95
126.5,54.5,79,95
125.5,53,79,94
125.5,55,79,94
125.5,55,79,94
125.5,55,79,94
126.5,55,79,94
124.5,53,79,94
124.5,53,79,94
124.5,53,79,94
123,52,78,94
123,52,78,94
123,52,78,94
123,52,78,94
122,55,78,94
120,51.5,78,93
119,50,78,94
119,50,78,94
119,50,78,94
119.5,52,79,94
121.5,50,79,94
119.5,50,79,94
118.5,50,79,94
116.5,49,79,94
117.5,52,79,94
117.5,52,79,94
117.5,52,79,94
121.5,53.5,79,95
119.5,50.5,79,95
118.5,50.5,79,95
120,51.5,80,95
117.5,50.5,79,95
117,48.5,80,95
117,49.5,80,95
115,51.5,80,95
115.5,49.5,79,95
116.5,47,79,94
118.5,53,79,94
118.5,48,79,94
118.5,48,79,94
117.5,49,79,94
117.5,50,79,94
117.5,55,79,94
115.5,51.5,79,95
116.5,49.5,79,95
117.5,52,79,94
118.5,52.5,79,95
117.5,50.5,79,95
116.5,49,79,94
113,48.5,78,93
115,51.5,78,93
118,55.5,78,93
116,50.5,78,93
116,50.5,78,93
116,50.5,78,93
117,51.5,78,93
117,51.5,78,93
118,52.5,78,93
118,52.5,78,93
118,52.5,78,93
118,52.5,78,93
118,52.5,78,93
119,54.5,78,93
121,53.5,78,93
121,53.5,78,93
121,53.5,78,93
122,54.5,78,93
122,54.5,78,93
122,54.5,78,93
120.5,54.5,77,93
121,55.5,78,93
118.5,55,77,92
118.5,57.5,77,93
116.5,57,77,92
115.5,58,77,92
113.5,58,77,92
113,56.5,76,91
113,56.5,76,91
113,56.5,76,91
114,56.5,76,91
114,56.5,76,91
114,56.5,76,91
114,56.5,76,91
113.5,57.5,77,91
113,57.5,76,91
111,54.5,76,91
109,55.5,76,91
109,59.5,76,91
108,59.5,76,91
106,60.5,76,91
101,60.5,76,91
100.5,61,75,90
98,61,76,90
100,65,76,90
97,64,76,90
93.5,65,75,90
105.5,53,75,90
105.5,53,75,90
100.5,51,75,90
100.5,51,75,90
102.5,52,75,90
100.5,53,75,90
96.5,60.5,75,89
96.5,60.5,75,89
96.5,60.5,75,89
96.5,60.5,75,89
101,58.5,74,89
98,63,74,88
96.5,62,73,88
96.5,62,73,88
96.5,62,73,88
95.5,63,73,88
95.5,63,73,88
97.5,60.5,73,87
98.5,62,73,88
102.5,64,73,88
97.5,62.5,73,87
97.5,63.5,73,87
97.5,64.5,73,87
93.5,62.5,73,87
100,64,74,88
97.5,63,73,88
95.5,61,73,88
93,63,74,88
101,61,74,88
95,61.5,74,89
95,61,74,88
99,59.5,74,89
97,61.5,74,89
96,62.5,74,89
101,57.5,74,89
101,57.5,74,89
96,60.5,74,89
96,60.5,74,89
98,61,74,88
102,56,74,88
100.5,56.5,73,87
101.5,55.5,73,87
105,47,72,86
111,54.5,72,87
110.5,46.5,73,87
122,51,72,86
119.5,53.5,73,87
122,57.5,72,87
135.5,48.5,73,87
134.5,46.5,73,87
186.5,41.5,73,87
150.5,45.5,73,87
129.5,47.5,73,87
135.5,48.5,73,87
138.5,51.5,73,87
137.5,45.5,73,87
112,57,72,86
113.5,59.5,73,87
118.5,62.5,73,87
153.5,116.5,73,87
149.5,110.5,73,87
146.5,112,73,88
154.5,112,73,88
145.5,111.5,73,87
146.5,113.5,73,87
140.5,112.5,73,87
134.5,111.5,73,87
129.5,112.5,73,87
120.5,107.5,73,87
148.5,67.5,73,87
146.5,66.5,73,87
108.5,53.5,73,87
103.5,54.5,73,87
90.5,52.5,73,87
91.5,57.5,73,87
91.5,43,73,88
89.5,55.5,73,87
106.5,65.5,73,87
95.5,63.5,73,87
94,62,72,86
89,62,72,86
102,62.5,72,87
92,63,72,86
90,63,72,86
90,65,72,86
71,61,72,86
64,49,72,86
74,67,72,86
73,55.5,72,87
80.5,64.5,73,87
79.5,63.5,73,87
79.5,63.5,73,87
80.5,64.5,73,87
80.5,64,73,88
81.5,66,73,88
81.5,66,73,88
83.5,66.5,73,87
83.5,65,73,88
82.5,64,73,88
82.5,64,73,88
61,53,74,88
79.5,65.5,73,87
72.5,51.5,73,87
65.5,54.5,73,87
89.5,66.5,73,87
89.5,66.5,73,87
89.5,66.5,73,87
90.5,66.5,73,87
91.5,64.5,73,87
89,63,74,88
96,65,74,88
94,66,74,88
88,64,74,88
87,63,74,88
86,64,74,88
89,63,74,88
88,63,74,88
95,65,74,88
94,67,74,88
92,66,74,88
91,67,74,88
91,67,74,88
91,65,74,88
91,65,74,88
93,67,74,88
93,67,74,88
93,69,74,88
93,68,74,88
65,67,74,88
61.5,52,73,88
64,59,74,88
64,54,74,88
65.5,52,73,88
67,52,74,88
77.5,67,73,88
77.5,67,73,88
73.5,54.5,73,87
79.5,69.5,73,87
59.5,54,73,88
60,58,74,88
62.5,55.5,73,87
61.5,56.5,73,87
62.5,54.5,73,87
62.5,54.5,73,87
63.5,58.5,73,87
62.5,56.5,73,87
62.5,56.5,73,87
61.5,54.5,73,87
62.5,55.5,73,87
83.5,67.5,73,87
83.5,67.5,73,87
87.5,61.5,73,87
87.5,61.5,73,87
95,63.5,72,87
95,63.5,72,87
87,63,72,86
88,65,72,86
88,65,72,86
88,65,72,86
88,65,72,86
88,65,72,86
88,64,72,86
88,64,72,86
88,64,72,86
91,65,72,86
90,73,72,86
90,64.5,72,87
92,70,72,86
92,70,72,86
91,67,72,86
91,67,72,86
91,67,72,86
91,67,72,86
91,67,72,86
87,64,72,86
88,65,72,86
92.5,66.5,71,85
93.5,66,71,84
93.5,66,71,84
93.5,59.5,71,85
94.5,60,71,84
94.5,60,71,84
94.5,60,71,84
75.5,71,71,84
52,61,70,84
69.5,56,71,84
66.5,53,71,84
103,66,70,84
100,72,70,84
100,71,70,84
100,71.5,70,83
94,69.5,70,83
100,69.5,70,83
98.5,67.5,69,83
96.5,71.5,69,83
99.5,71.5,69,83
101.5,72,69,82
101.5,72,69,82
101.5,72,69,82
104,73,68,82
105,70,68,82
103,69.5,68,81
107,69.5,68,81
108,69.5,68,81
109,69.5,68,81
113,67.5,68,81
111,67.5,68,81
112,69.5,68,81
114,71.5,68,81
122,68,68,82
118,73,68,82
122,70,68,82
122,70,68,82
121,71,68,82
122,67.5,68,81
122,67.5,68,81
123,67.5,68,81
124,67.5,68,81
124.5,69.5,67,81
107.5,77.5,67,81
107.5,77.5,67,81
107.5,77.5,67,81
107.5,77.5,67,81
108,74.5,68,81
118,67.5,68,81
108,74.5,68,81
110,79.5,68,81
122,70.5,68,81
121,70.5,68,81
118,78.5,68,81
115,80.5,68,81
116,78.5,68,81
118,81.5,68,81
118,81.5,68,81
120,81.5,68,81
120,81.5,68,81
126.5,81.5,67,81
127.5,82.5,67,81
128.5,84,67,80
128.5,83,67,80
131.5,86,67,80
130.5,85,67,80
130.5,85,67,80
130,88.5,68,81
130.5,89.5,67,81
129.5,87.5,67,81
130,93.5,68,81
130,93.5,68,81
131,95.5,68,81
131,95.5,68,81
134,100.5,68,81
133,104.5,68,81
136,105.5,68,81
135.5,99.5,67,81
133,97.5,68,81
132,94.5,68,81
132,94.5,68,81
130,87.5,68,81
129,85.5,68,81
129,85.5,68,81
129,85.5,68,81
129.5,85.5,67,81
129.5,85.5,67,81
128,83.5,68,81
128,85.5,68,81
129,87.5,68,81
128.5,88,67,80
127.5,89,67,80
127.5,89,67,80
125.5,86.5,67,81
127,86.5,68,81
127,86.5,68,81
128.5,88,67,80
127,88.5,68,81
127,86.5,68,81
127,88.5,68,81
129,88.5,68,81
128,87.5,68,81
127,90.5,68,81
126,87.5,68,81
126,87.5,68,81
129,92.5,68,81
127,92.5,68,81
127,92.5,68,81
125,91.5,68,81
125,91.5,68,81
127.5,93,67,80
127.5,93,67,80
128.5,92.5,67,81
128,90.5,68,81
127.5,90,67,80
127.5,90,67,80
127.5,90,67,80
124,87.5,68,81
128,91.5,68,81
129,91.5,68,81
130,90,68,82
130,90,68,82
127.5,91,69,82
128.5,90,69,82
128.5,90,69,82
128.5,90,69,82
128.5,90,69,82
128.5,90,69,82
128.5,90,69,82
128.5,90,69,82
128.5,90,69,82
129.5,91,69,82
128.5,90,69,82
128.5,90,69,82
128.5,88.5,69,83
127.5,87.5,69,83
127.5,87.5,69,83
127.5,87.5,69,83
129.5,89,69,82
126.5,87.5,69,83
128.5,88.5,69,83
126.5,83.5,69,83
126.5,83.5,69,83
125,84.5,70,83
127,82.5,70,83
126,82,70,84
125,82.5,70,83
125.5,84.5,69,83
125.5,86.5,69,83
123.5,87,69,82
123.5,87,69,82
123.5,89,69,82
122.5,90,69,82
122.5,90,69,82
122.5,90,69,82
123.5,90,69,82
123.5,90,69,82
123.5,92,69,82
125.5,96.5,69,83
126.5,97.5,69,83
126,95.5,70,83
127.5,93.5,69,83
129.5,100.5,69,83
128,94.5,70,83
128,94.5,70,83
127,99.5,70,83
127,99.5,70,83
127,93,70,84
125,95,70,84
126.5,94.5,69,83
125.5,98.5,69,83
127.5,94.5,69,83
127.5,92.5,69,83
127.5,92.5,69,83
127.5,92.5,69,83
126.5,92.5,69,83
126.5,92.5,69,83
126.5,92.5,69,83
126.5,92.5,69,83
125.5,91.5,69,83
125.5,92,69,82
125.5,92,69,82
126.5,93,69,82
126.5,93,69,82
126.5,93,69,82
126.5,93,69,82
126.5,93,69,82
125.5,92.5,69,83
127.5,91,69,82
127.5,91,69,82
126.5,94.5,69,83
125.5,60.5,69,83
125,93.5,70,83
128.5,92.5,69,83
125,90.5,70,83
129,63,70,84
129.5,60.5,69,83
129.5,60.5,69,83
127,59.5,70,83
130,60.5,70,83
127,59.5,70,83
127,59.5,70,83
127.5,59.5,69,83
128.5,59.5,69,83
117.5,60.5,69,83
115.5,58.5,69,83
123.5,61.5,69,83
117.5,59.5,69,83
119,58.5,70,83
119,58.5,70,83
124,60.5,70,83
118,59.5,70,83
120,60,70,84
123,58,70,84
124,58,70,84
118,60,70,84
118,59,70,84
126,60,70,84
125,62,70,84
127,59,70,84
118,59,70,84
127,58,70,84
128,57,70,84
128,59,70,84
128,59,70,84
123,58,70,84
125,59,70,84
118,59,70,84
126,59,70,84
125,91,70,84
125,90,70,84
123,91,70,84
124,58,70,84
129,59,70,84
129,59,70,84
126,88,70,84
125,91,70,84
125,91,70,84
126,91,70,84
126,91,70,84
126,91,70,84
125,90.5,70,83
125,90.5,70,83
124,89.5,70,83
124,89.5,70,83
124,89.5,70,83
124,89.5,70,83
127,89,70,84
124,89,70,84
124,89,70,84
124,89,70,84
125,89.5,70,83
126,87,70,84
126,87,70,84
125,88.5,70,83
125,88.5,70,83
126,86.5,70,83
126,86,70,84
126,86,70,84
128,86,70,84
128,86,70,84
128,86,70,84
128,86,70,84
128,86,70,84
130,84,70,84
129,83,70,84
129,83,70,84
129,83,70,84
129,83,70,84
128,84,70,84
129,81,70,84
129,81,70,84
128,81,70,84
128,81,70,84
127,81,70,84
128,80,70,84
128,80,70,84
128,80,70,84
127,84,70,84
128,78,70,84
127.5,79,71,84
126.5,79.5,71,85
126.5,79.5,71,85
129.5,78.5,71,85
129.5,78.5,71,85
129.5,78.5,71,85
125.5,86.5,71,85
128.5,79.5,71,85
128.5,79.5,71,85
128.5,79.5,71,85
127.5,78.5,71,85
125.5,80,71,84
121.5,86,71,84
122.5,85.5,71,85
120.5,84.5,71,85
126,79,72,86
126,79,72,86
121.5,86.5,71,85
124.5,80.5,71,85
120,86,72,86
120.5,85.5,71,85
125.5,80.5,71,85
125.5,80.5,71,85
125.5,80.5,71,85
119,86.5,72,85
120,85.5,72,85
120,87,72,86
120,86,72,86
121.5,86.5,71,85
120.5,86.5,71,85
120.5,86.5,71,85
124.5,80.5,71,85
120.5,84.5,71,85
120.5,84.5,71,85
