405,256,122,148
405,256,122,148
406,254,122,148
411.5,250.5,123,149
413.5,246.5,123,149
417,241.5,122,149
419.5,240.5,123,149
419.5,234.5,123,149
417.5,230.5,123,149
413,227.5,122,149
403.5,223.5,123,149
395.5,215.5,123,149
388.5,204.5,123,149
381.5,196.5,123,149
370.5,191,123,150
360,191,124,150
352,189,124,150
343,187,124,150
336,187.5,124,151
332,186.5,124,151
329,186,124,150
324,188,124,150
319,188.5,124,151
317,186.5,124,151
312,184.5,124,151
305,182.5,124,151
297,178.5,124,151
290,173,124,150
281,167,124,150
272.5,161,123,150
270.5,154,123,150
267.5,141,123,150
267.5,127,123,150
266.5,116.5,123,149
273.5,102.5,123,149
278.5,92.5,123,149
283,86,122,148
288,79,122,148
298,60,122,148
304,57.5,122,147
307.5,54.5,121,147
307,54,120,146
308,55,120,146
305,59,120,146
301,63,120,146
298,67.5,120,145
297.5,71.5,119,145
290.5,77.5,119,145
283.5,85,119,144
280.5,88,119,144
274,92,118,144
266.5,93,119,144
258.5,98,119,144
256,102,118,144
252,105,118,144
253,108,118,144
253.5,108,119,144
253.5,108,119,144
253,103,118,144
251,105.5,118,143
251,105.5,118,143
249.5,108,119,144
249.5,108,119,144
245.5,107,119,144
246.5,105,119,144
250.5,102,119,144
253,96,118,144
252.5,98,119,144
253.5,93,119,144
254,91,118,144
254,86.5,118,143
253,85.5,118,143
255,85.5,118,143
255,83.5,118,143
255,83.5,118,143
256,83.5,118,143
256.5,83,117,142
256.5,81,117,142
259.5,83,117,142
260.5,82,117,142
264,82.5,116,141
265,83,116,140
269,84,116,140
272.5,84,115,140
280.5,84,115,140
286.5,83.5,115,139
293.5,84.5,115,139
298,84.5,114,139
302,84.5,114,139
307,80.5,114,139
311,78.5,114,139
312,77,114,138
316,73,114,138
316,71,114,138
316,68,114,138
317,65,114,138
316,65,114,138
319,66,114,138
322,67.5,114,139
323,72,114,138
324,73.5,114,139
323,78,114,138
318,85,114,138
318,91,114,138
314,98,114,138
307,108,114,138
299,121,114,138
293,134,114,138
289,144,114,138
279,153,114,138
276,163,114,138
271,171,114,138
266,179,114,138
258,188,114,138
249,197,114,138
240,206,114,138
234,209.5,114,139
226,216.5,114,139
220,224,114,138
216,229,114,138
213,235,114,138
213,239,114,138
213,239,114,138
215,237,114,138
225,236.5,114,139
227.5,236.5,115,139
231.5,236.5,115,139
238.5,237.5,115,139
248,239.5,114,139
258.5,240.5,115,139
266.5,244,115,140
276.5,246.5,115,139
285,252,114,138
295,254.5,114,139
304,256.5,114,139
311.5,252.5,115,139
318.5,245,115,140
326.5,239,115,140
330,234,116,140
331,228,116,140
330,222,116,140
325,214,116,140
322,209,116,140
313,206.5,116,141
294,203.5,116,141
289,199.5,116,141
276,195.5,116,141
263,193.5,116,141
250,190.5,116,141
234,187.5,116,141
220.5,184.5,117,141
208,179.5,116,141
192,175.5,116,141
178.5,171,117,142
169.5,166,117,142
168.5,159,117,142
168.5,151,117,142
169.5,144,117,142
169.5,144,117,142
174,141.5,116,141
176,139.5,116,141
180,136.5,116,141
185,132.5,116,141
187.5,131,117,142
191.5,129,117,142
191.5,129,117,142
192.5,127,117,142
194.5,126,117,142
194.5,126,117,142
197.5,125,117,142
199.5,126,117,142
205.5,130,117,142
212.5,135,117,142
220.5,140,117,142
223.5,146,117,142
231.5,149,117,142
237.5,150,117,142
241.5,150,117,142
243.5,148,117,142
248.5,145,117,142
248.5,145,117,142
246.5,136,117,142
243.5,131,117,142
243,125.5,116,141
241,115.5,116,141
243,105,116,140
245,88.5,116,141
243,80,116,140
244,66.5,116,141
243,55.5,116,141
244,46.5,116,141
245,37.5,116,141
250,34.5,116,141
263,29,116,140
276.5,35,115,140
290.5,40,115,140
301.5,50,115,140
316.5,55,115,140
327,63,116,140
340.5,68,115,140
349.5,71.5,115,139
359.5,79.5,115,139
364.5,84,115,140
372.5,89,115,140
379.5,95,115,140
380,101,116,140
382.5,110,115,140
381.5,117,115,140
377.5,125,115,140
364,135,116,140
356,137.5,116,141
350,140.5,116,141
338,143.5,116,141
332.5,144,117,142
322.5,147,117,142
314.5,148,117,142
304.5,151,117,142
296.5,156,117,142
283.5,159,117,142
273.5,163,117,142
261.5,163,117,142
251.5,161,117,142
242.5,162,117,142
231.5,168,117,142
219.5,176,117,142
208,177.5,118,143
197.5,186,117,142
187.5,190,117,142
179.5,195,117,142
168.5,205,117,142
160,213.5,116,141
149,218.5,116,141
141,223.5,116,141
135,223.5,116,141
129,225.5,116,141
125.5,225,117,142
119.5,226,117,142
119.5,226,117,142
118.5,220,117,142
120.5,216,117,142
119,213.5,116,141
121,213.5,116,141
127,213.5,116,141
130,213.5,116,141
133,214,116,140
146,214,116,140
148.5,215,115,140
151.5,214.5,115,139
157.5,216.5,115,139
160.5,220.5,115,139
162,222.5,114,139
162,227.5,114,139
162,231,114,138
164,232.5,114,139
161,236,114,138
158,234,114,138
163,234,114,138
161,240,114,138
161,243,114,138
162,241,114,138
157,243,114,138
158,246,114,138
174.5,237.5,113,137
177.5,241.5,113,137
179.5,234.5,113,137
182.5,228.5,113,137
183.5,231.5,113,137
186.5,222.5,113,137
185.5,217,113,138
188.5,216,113,138
192.5,204,113,138
196,203,114,138
199,196,114,138
203,186,114,138
208,180.5,114,139
214,160,114,138
219,164.5,114,139
221.5,160.5,115,139
228,156.5,114,139
235,159.5,114,139
233.5,154.5,115,139
239.5,151.5,115,139
242.5,147.5,115,139
245.5,147.5,115,139
243.5,146.5,115,139
241.5,145,115,140
246.5,144,115,140
243,141,116,140
242,142,116,140
246.5,143,115,140
246.5,144,115,140
250,144,116,140
247,143,116,140
247,143,116,140
240,144,116,140
234,144.5,116,141
234,144.5,116,141
236,143.5,116,141
235.5,147,117,142
233.5,152,117,142
233,156.5,118,143
235,162.5,118,143
238,166.5,118,143
238,167.5,118,143
245,170.5,118,143
247,178.5,118,143
249.5,179,117,142
249.5,187,117,142
250.5,186.5,117,143
256,186.5,118,143
255,178.5,118,143
255,179.5,118,143
258.5,175,117,142
257.5,173,117,142
259,171.5,118,143
266.5,167,117,142
275,161.5,118,143
280.5,165.5,117,143
285,165.5,118,143
289.5,167,117,142
300,168.5,118,143
307,172.5,118,143
312,181.5,118,143
315,189.5,118,143
312,195,118,144
317,198.5,118,143
314,199,118,144
311,201,118,144
304,203.5,118,143
303,206.5,118,143
299,210.5,118,143
296,210,118,144
293.5,206,119,144
293.5,209,119,144
296.5,203,119,144
298.5,196,119,144
301.5,193,119,144
307,184.5,118,143
306,181,118,144
305,175,118,144
308.5,169,119,144
311,163,118,144
298,151,118,144
296,152.5,118,143
296,148,118,144
284,137.5,118,143
281,132.5,118,143
279,128.5,118,143
277,122.5,118,143
279,122.5,118,143
283,122.5,118,143
285,123.5,118,143
284,124,118,144
288,127.5,118,143
290,133.5,118,143
290,141.5,118,143
287,153.5,118,143
286.5,162.5,117,143
284.5,166,117,142
276.5,170,117,142
263.5,176,117,142
243.5,176,117,142
221.5,175,117,142
183.5,191,117,142
175.5,195,117,142
163.5,191,117,142
151.5,192.5,117,141
145.5,189,117,142
143.5,184,117,142
137.5,180,117,142
136.5,176,117,142
132.5,174,117,142
131.5,171,117,142
129.5,169,117,142
122.5,165,117,142
120.5,162,117,142
117.5,155,117,142
117,148.5,118,143
113.5,150,117,142
113,144.5,118,143
114,141.5,118,143
114,136.5,118,143
118,132.5,118,143
123,130,118,144
127,127.5,118,143
136,125.5,118,143
150,127.5,118,143
154,129.5,118,143
170.5,135,117,142
179.5,139,117,142
204.5,139,117,142
199.5,148,117,142
196.5,150,117,142
211,151.5,116,141
222,151.5,116,141
233,150.5,116,141
240.5,150,115,140
251.5,149,115,140
259.5,146,115,140
265.5,154,115,140
275,156,116,140
286,152.5,116,141
296.5,158.5,117,141
306,161.5,116,141
316,154.5,116,141
331,158.5,116,141
345,157.5,116,141
353,154.5,116,141
365,150.5,116,141
395,139.5,116,141
403,140.5,116,141
409,138.5,116,141
418,135.5,116,141
424,134.5,116,141
429.5,132,115,140
428.5,133,115,140
417.5,134,115,140
417.5,137.5,115,139
408.5,140.5,115,139
401,140.5,114,139
406.5,141.5,115,139
407.5,140,115,140
400.5,143,115,140
392.5,142,115,140
388.5,142,115,140
381.5,143,115,140
369.5,141,115,140
361.5,141.5,115,139
354,143.5,114,139
352,147.5,114,139
347,148,114,138
344,150,114,138
341,152,114,138
341.5,152.5,113,137
335.5,154.5,113,137
330.5,152.5,113,137
328.5,151.5,113,137
322,150,112,136
315,146,112,136
309,143.5,112,135
305,138.5,112,135
301,133.5,112,135
297,130,112,136
297,125,112,136
296.5,120.5,111,135
294.5,115.5,111,135
292.5,113.5,111,135
292.5,113.5,111,135
289.5,113.5,111,135
292.5,113,111,134
293.5,112,111,134
293.5,112,111,134
298,113,110,134
298,114,110,134
305,116.5,110,133
303,119,110,134
308,120,110,134
306,120.5,110,133
312,117.5,110,133
317,114.5,110,133
330,116.5,110,133
322.5,114.5,109,133
319,115.5,110,133
317,115.5,110,133
317,117.5,110,133
323,120,110,134
308,117.5,110,133
311,120.5,110,133
299,121.5,110,133
291,124,110,134
286,124.5,110,133
282,125.5,110,133
287,125.5,110,133
274,124.5,110,133
272.5,124.5,109,133
269.5,125,109,132
268.5,125,109,132
269.5,128,109,132
272.5,130,109,132
274.5,133,109,132
277.5,134,109,132
282.5,134,109,132
288,134.5,108,131
292,136.5,108,131
297,134.5,108,131
302,135,108,130
305,131.5,108,131
313,127.5,108,131
321,124.5,108,131
318,122.5,108,131
373,98.5,108,131
407,143,108,130
457,127,108,130
468.5,118,107,130
462.5,120,107,130
459.5,123,107,130
450.5,124,107,130
441.5,126,107,130
429.5,129,107,130
424.5,127,107,130
420.5,135,107,130
417.5,138,107,130
413,142.5,108,131
407,142.5,108,131
408,142.5,108,131
406,148.5,108,131
401,141.5,108,131
403,145.5,108,131
398,147.5,108,131
397.5,146,109,132
394.5,147,109,132
393.5,145,109,132
386.5,148,109,132
387,147.5,110,133
383,143.5,110,133
378,152.5,110,133
374,148.5,110,133
376,148,110,134
375,151,110,134
373,152,110,134
372.5,154,111,134
370.5,161,111,134
370.5,156,111,134
376,157,110,134
377,154,110,134
375,159,110,134
382,160,110,134
384,159,110,134
382,160,110,134
383,160,110,134
388,164,110,134
385,164,110,134
385,164,110,134
385,164,110,134
385,160,110,134
386,164,110,134
386.5,160,111,134
384.5,159.5,111,135
380.5,159.5,111,135
380.5,159.5,111,135
380.5,159.5,111,135
376.5,158.5,111,135
378,156,112,136
378,156,112,136
375,156.5,112,135
372,150,112,136
375,154,112,136
375,154,112,136
374,152,112,136
375,148,112,136
375,153.5,112,135
375.5,153.5,111,135
375.5,153.5,111,135
372,152.5,112,135
373.5,159.5,111,135
375,149.5,112,135
371,142,112,136
372,146,112,136
367,145.5,112,135
366,144,112,136
366,144,112,136
365,150,112,136
365,150,112,136
363,151,112,136
363,153,112,136
365.5,151.5,113,137
366.5,152.5,113,137
366.5,154.5,113,137
369.5,152.5,113,137
371.5,156.5,113,137
369.5,157.5,113,137
369.5,157.5,113,137
372,157,114,138
372,157,114,138
368.5,159.5,113,137
368.5,159.5,113,137
369.5,160.5,113,137
370.5,163.5,113,137
368.5,165.5,113,137
365.5,164.5,113,137
370.5,172.5,113,137
366.5,173.5,113,137
369.5,172.5,113,137
366.5,174.5,113,137
369,174,112,136
369,174,112,136
369,174,112,136
367,178,112,136
367,173,112,136
367,173,112,136
371,174,112,136
369.5,173,113,136
366.5,173.5,113,137
365.5,172.5,113,137
363.5,169.5,113,137
361.5,173.5,113,137
367.5,169.5,113,137
362,175,112,136
361,174,112,136
360,176,112,136
359,176,112,136
357,177,112,136
359.5,177.5,113,137
357,180,112,136
369,180,112,136
382,186,112,136
391,182,112,136
401,183.5,112,135
415,190.5,112,135
422.5,192.5,111,135
437.5,187.5,111,135
450,190.5,112,135
456,191.5,112,135
461.5,193.5,111,135
462.5,199,111,134
465.5,199,111,134
459,199,110,134
460.5,194,111,134
462.5,210,111,134
467.5,197,111,134
477,214,110,134
487,197,110,134
502,194,110,134
522,194,110,134
539,195,110,134
558,199,110,134
576,209,110,134
590,215,110,134
603,219,110,134
610,225,110,134
610,225.5,110,133
610.5,248,109,132
610.5,251,109,132
611.5,245,109,132
609.5,276.5,109,133
610.5,306,109,132
611.5,302,109,132
610.5,283,109,132
611.5,268,109,132
610,277.5,108,131
611,269.5,108,131
602,259.5,108,131
611,209.5,108,131
611,181.5,108,131
611,169.5,108,131
612,225.5,108,131
612.5,270,107,130
557.5,286,107,130
519,282.5,108,131
535,285.5,108,131
551,288.5,108,131
570,284.5,108,131
585,287,108,130
599.5,283,107,130
611,275,108,130
612.5,274,107,130
612,267.5,108,131
613.5,271,107,130
614,285.5,106,129
614,294.5,106,129
614,350.5,106,129
547,351.5,106,129
537,352,106,128
531.5,352,105,128
511.5,352.5,105,127
508,354,104,126
513,354,104,126
512.5,354.5,103,125
515.5,354.5,103,125
518.5,356,103,124
532,356,102,124
546.5,356.5,101,123
567.5,302.5,101,123
605.5,298.5,101,123
607.5,306.5,101,123
607.5,306.5,101,123
615.5,306.5,101,123
619.5,312,101,122
620,315,100,122
618.5,310,101,122
618.5,310,101,122
620,295.5,100,121
620,288.5,100,121
620.5,279,99,120
596.5,253,99,120
602.5,249,99,120
542.5,212,99,120
521.5,225,99,120
533,192.5,98,119
517,140.5,98,119
514,122.5,98,119
513,122.5,98,119
515,131.5,98,119
514,140.5,98,119
508,146.5,98,119
510,151.5,98,119
509,155.5,98,119
516,155.5,98,119
517,158.5,98,119
521,156.5,98,119
521.5,159,99,120
513,156.5,98,119
499,152.5,98,119
493,157.5,98,119
488,158,98,118
481,151.5,98,119
472,142.5,98,119
