252.5,66,23,28
252.5,66,23,28
248.5,68,23,28
244.5,68,23,28
244.5,68,23,28
239.5,69,23,28
237.5,69,23,28
237.5,69,23,28
235.5,69,23,28
234.5,67,23,28
231,65.5,24,29
231,65.5,24,29
231,65.5,24,29
233,64.5,24,29
232,64.5,24,29
230,64.5,24,29
230,64.5,24,29
230,64.5,24,29
230,64.5,24,29
230,64.5,24,29
230,64.5,24,29
230,64.5,24,29
231,62.5,24,29
231,62.5,24,29
229,61.5,24,29
228,59.5,24,29
225,59.5,24,29
224.5,58.5,23,29
222.5,56.5,23,29
221,55.5,24,29
221,55.5,24,29
218,55.5,24,29
215.5,55,23,28
213.5,56,23,28
213.5,56,23,28
212.5,58,23,28
211,59.5,22,27
211,59.5,22,27
208,59.5,22,27
207,59.5,22,27
207,59.5,22,27
201,59.5,22,27
200.5,57,23,28
200.5,57,23,28
200.5,57,23,28
198.5,54,23,28
199.5,52,23,28
199.5,52,23,28
198.5,51,23,28
197.5,51,23,28
198.5,50.5,23,27
198.5,50.5,23,27
198.5,50.5,23,27
199.5,51,23,28
199.5,51,23,28
199.5,51,23,28
200.5,53,23,28
201.5,54,23,28
201.5,54,23,28
201.5,56,23,28
203.5,56,23,28
203.5,58,23,28
203.5,57,23,28
203.5,57,23,28
203.5,55,23,28
203.5,55,23,28
202.5,53,23,28
202.5,53,23,28
199,51.5,24,29
200,50.5,24,29
199,50.5,24,29
197,50,24,30
194.5,49,25,30
191.5,47,25,30
189.5,48.5,25,31
188.5,50,25,30
186.5,49,25,30
184.5,50.5,25,31
184.5,50.5,25,31
183,48.5,26,31
181,51.5,26,31
178,50,26,32
176,44,26,32
174,43,26,32
172.5,42.5,27,33
169.5,44,27,32
167.5,44.5,27,33
162.5,44.5,27,33
156.5,46.5,27,33
151.5,47.5,27,33
145.5,49,27,32
142,59,26,32
153.5,77.5,27,33
149.5,81,27,32
146,81,26,32
142,83,26,32
138,83.5,26,31
108,62.5,26,31
128,81.5,26,31
117,66,26,32
89,65,26,32
85,65.5,26,31
83,67.5,26,31
111,78,26,32
78,68,26,32
107,79,26,32
107,79,26,32
105,81,26,32
102,83,26,32
102,86,26,32
100,90,26,32
101,90,26,32
102,92,26,32
102,94,26,32
102,94,26,32
103,93,26,32
103,93,26,32
106,92,26,32
108,91.5,26,31
109,90.5,26,31
112,90,26,32
112,90,26,32
113.5,87.5,25,31
115,85.5,26,31
116,87.5,26,31
116,87.5,26,31
118,86.5,26,31
120,88.5,26,31
121,88.5,26,31
124,88,26,32
126,89,26,32
126,90,26,32
128.5,90,27,32
128.5,90,27,32
170.5,91.5,27,33
135.5,84,27,32
108.5,94.5,27,33
111,96,26,32
107.5,91,27,32
109,91,26,32
106,89,26,32
102.5,87.5,27,33
100.5,88.5,27,33
112,67,28,34
113,68,28,34
113,68,28,34
109,66,28,34
107.5,69.5,27,33
102.5,68.5,27,33
98.5,68.5,27,33
95,69,28,34
88,70,28,34
85,70,28,34
81,69,28,34
81,69,28,34
78,70,28,34
77,70,28,34
56,82,28,34
80,70,28,34
83,72,28,34
85,71,28,34
90,70,28,34
93.5,71.5,27,33
98.5,70.5,27,33
102.5,70.5,27,33
108,71,28,34
112,70,28,34
118,68,28,34
122,65.5,28,33
126.5,66.5,27,33
130,63,28,34
138,59,28,34
139,58,28,34
143,56,28,34
156,58,28,34
155,55.5,28,35
159,57,28,34
161.5,55.5,29,35
163.5,57.5,29,35
167,59,30,36
169.5,59,29,36
170,61,30,36
172,60,30,36
174.5,62,29,36
177,61,30,36
179,62,30,36
182.5,62,29,36
181.5,56,29,36
187.5,57.5,29,35
189.5,54.5,29,35
193.5,53.5,29,35
196.5,51.5,29,35
200.5,47.5,29,35
204,45.5,28,35
207,44,28,34
210,44,28,34
211,42,28,34
213,42,28,34
216,43.5,28,33
216,45,28,34
220,48,28,34
223,51.5,28,35
227.5,54.5,29,35
226.5,57.5,29,35
231.5,61.5,29,35
232.5,61.5,29,35
235,61.5,28,35
240.5,65.5,29,35
240.5,65.5,29,35
240.5,65.5,29,35
243,67,28,34
232,68,28,34
240,66,28,34
230,67,28,34
230,67,28,34
229,69,28,34
200,92,28,34
202,93,28,34
203,97,28,34
203,97,28,34
203,99,28,34
205,99,28,34
204,100,28,34
204,100,28,34
239,77,28,34
240,73.5,28,35
239.5,74.5,29,35
233.5,72.5,29,35
230.5,71.5,29,35
223.5,69.5,29,35
220.5,68.5,29,35
219.5,69.5,29,35
217.5,69,29,36
213,71,30,36
209.5,71,29,36
203,74,30,36
201,76,30,36
199,78,30,36
179,78,30,36
187,80.5,30,37
185,83,30,36
180,84,30,36
177,85,30,36
175,85,30,36
173,83,30,36
158,80.5,30,37
159,77.5,30,37
160.5,75,31,38
163.5,74,31,38
169.5,73,31,38
171.5,73.5,31,37
176.5,72.5,31,37
179.5,71,31,38
180.5,74,31,38
184.5,74.5,31,37
187.5,74,31,38
190.5,77,31,38
191.5,79,31,38
196.5,79,31,38
201.5,81,31,38
205.5,83,31,38
208.5,84.5,31,37
214.5,84.5,31,37
219.5,85,31,38
225.5,83,31,38
233.5,84,31,38
218.5,88,31,38
245.5,82.5,31,37
248.5,82.5,31,37
253,83.5,30,37
253.5,81.5,31,37
255.5,80,31,38
258.5,81.5,31,37
259.5,81.5,31,37
260.5,82,31,38
265.5,117,31,38
266.5,117,31,38
225.5,130.5,31,37
227.5,130,31,38
230.5,133,31,38
230.5,133,31,38
230.5,133,31,38
231.5,132,31,38
235.5,129,31,38
234.5,127.5,31,37
234.5,127.5,31,37
237.5,126,31,38
237.5,128,31,38
228.5,87.5,31,37
230.5,44,31,38
281.5,0,31,38
276.5,4.5,31,37
276.5,4.5,31,37
276.5,4.5,31,37
276.5,4.5,31,37
276.5,4.5,31,37
276.5,4.5,31,37
275.5,5.5,31,37
274.5,4.5,31,37
281.5,3,31,38
283.5,2,31,38
278.5,3,31,38
278.5,3,31,38
280,2,32,38
294,-0.5,32,39
286,1.5,32,39
294,-0.5,32,39
298,-0.5,32,39
295,-0.5,32,39
299.5,0,31,38
285.5,2,31,38
302.5,0,31,38
293,0,32,38
294.5,0,31,38
294.5,0,31,38
295.5,0,31,38
290.5,0,31,38
290.5,0,31,38
291.5,0,31,38
298,0.5,30,37
298,-0.5,30,37
298,0.5,30,37
301,0,30,36
301,0,30,36
294,-0.5,30,37
293,0.5,30,37
