245,63.5,12,13
245,63.5,12,13
245,63.5,12,13
245,63.5,12,13
245,63.5,12,13
245,63.5,12,13
245,63.5,12,13
245,63.5,12,13
245,63.5,12,13
245,63.5,12,13
245,63.5,12,13
245,63.5,12,13
245,63.5,12,13
245,63.5,12,13
245,63.5,12,13
245,63.5,12,13
245,63.5,12,13
245,63.5,12,13
245,63.5,12,13
245,63.5,12,13
245,63.5,12,13
245,63.5,12,13
245,63.5,12,13
245,63.5,12,13
245,63.5,12,13
245,63.5,12,13
244,63.5,12,13
241,63.5,12,13
241,63.5,12,13
241,63.5,12,13
241,63.5,12,13
239,62.5,12,13
236.5,63,13,14
236.5,63,13,14
233.5,63,13,14
233.5,65,13,14
232,65.5,12,13
232,65.5,12,13
228.5,64,13,14
226.5,65,13,14
227,65.5,12,13
225,64.5,12,13
221,65.5,12,13
187.5,91,13,14
187.5,91,13,14
187.5,91,13,14
187.5,91,13,14
187.5,91,13,14
187.5,91,13,14
187.5,91,13,14
187.5,91,13,14
187.5,91,13,14
187.5,91,13,14
187.5,91,13,14
187.5,91,13,14
187.5,91,13,14
187.5,91,13,14
187.5,91,13,14
187.5,91,13,14
187.5,91,13,14
187.5,91,13,14
187.5,91,13,14
187,61.5,12,13
183.5,63,13,14
183.5,61,13,14
180.5,62,13,14
179.5,61,13,14
139.5,63,13,14
139.5,63,13,14
139.5,63,13,14
139.5,63,13,14
139.5,63,13,14
139.5,63,13,14
139.5,63,13,14
139.5,63,13,14
139.5,63,13,14
139.5,63,13,14
139.5,63,13,14
139.5,63,13,14
139.5,63,13,14
139.5,63,13,14
139.5,63,13,14
139.5,63,13,14
139.5,63,13,14
139.5,63,13,14
139.5,63,13,14
139.5,63,13,14
139.5,63,13,14
139.5,63,13,14
139.5,63,13,14
139.5,63,13,14
139.5,63,13,14
139.5,63,13,14
139.5,63,13,14
139.5,63,13,14
139.5,63,13,14
139.5,63,13,14
139.5,63,13,14
139.5,63,13,14
139.5,63,13,14
139.5,63,13,14
139.5,63,13,14
139.5,63,13,14
139.5,63,13,14
139.5,63,13,14
139.5,63,13,14
139.5,63,13,14
139.5,63,13,14
139.5,63,13,14
139.5,63,13,14
139.5,63,13,14
139.5,63,13,14
139.5,63,13,14
139.5,63,13,14
139.5,63,13,14
139.5,63,13,14
139.5,63,13,14
139.5,63,13,14
139.5,63,13,14
139.5,63,13,14
139.5,63,13,14
139.5,63,13,14
139.5,63,13,14
139.5,63,13,14
139.5,63,13,14
139.5,63,13,14
139.5,63,13,14
139.5,63,13,14
139.5,63,13,14
139.5,63,13,14
139.5,63,13,14
139.5,63,13,14
139.5,63,13,14
139.5,63,13,14
139.5,63,13,14
139.5,63,13,14
139.5,63,13,14
139.5,63,13,14
139.5,63,13,14
139.5,63,13,14
139.5,63,13,14
139.5,63,13,14
139.5,63,13,14
139.5,63,13,14
139.5,63,13,14
139.5,63,13,14
139.5,63,13,14
139.5,63,13,14
139.5,63,13,14
139.5,63,13,14
139.5,63,13,14
138.5,58,13,14
138.5,58,13,14
138.5,59,13,14
136.5,58,13,14
134.5,59,13,14
131.5,59,13,14
130.5,60,13,14
127.5,60,13,14
127.5,60,13,14
125.5,60,13,14
122,60.5,12,13
121,59.5,12,13
121,59.5,12,13
118,60.5,12,13
117,57.5,12,13
117,57.5,12,13
114,56.5,12,13
114,56.5,12,13
111,54.5,12,13
109,54.5,12,13
108,54.5,12,13
106.5,54,11,12
105.5,55,11,12
105.5,55,11,12
105.5,55,11,12
102.5,55,11,12
102.5,55,11,12
102.5,55,11,12
102.5,56,11,12
102.5,56,11,12
102.5,56,11,12
102.5,56,11,12
100.5,56,11,12
100.5,56,11,12
99.5,55,11,12
98.5,54,11,12
97.5,54,11,12
97.5,54,11,12
97.5,54,11,12
97.5,54,11,12
95.5,55,11,12
92.5,55,11,12
91.5,54,11,12
91.5,54,11,12
86.5,56,11,12
84.5,57.5,11,11
81.5,56,11,12
81.5,58,11,12
81.5,63,11,12
76.5,57,11,12
75.5,57,11,12
74.5,52,11,12
72.5,57,11,12
71.5,55,11,12
71.5,55,11,12
71.5,55,11,12
71.5,55,11,12
71.5,55,11,12
71.5,55,11,12
71.5,55,11,12
71.5,55,11,12
72.5,55,11,12
73.5,54,11,12
75.5,54,11,12
75.5,55,11,12
77.5,54,11,12
77.5,54,11,12
78.5,53,11,12
81.5,53,11,12
80.5,53,11,12
80.5,53,11,12
83.5,53,11,12
83.5,53,11,12
83.5,53,11,12
83.5,53,11,12
83.5,53,11,12
84.5,51,11,12
85.5,52,11,12
85.5,52,11,12
86,54,12,12
87.5,54,11,12
87.5,54,11,12
87.5,54,11,12
87.5,54,11,12
87.5,54,11,12
87.5,54,11,12
88.5,53,11,12
88.5,53,11,12
88.5,53,11,12
88.5,53,11,12
88.5,53,11,12
88.5,53,11,12
88.5,52,11,12
90.5,50,11,12
90,48.5,12,13
90,48.5,12,13
90,48.5,12,13
90,48.5,12,13
90,48.5,12,13
94,49,12,12
96,49.5,12,13
99,50.5,12,13
102,49.5,12,13
106,50.5,12,13
109,50.5,12,13
113,51.5,12,13
116,52.5,12,13
120,53,12,12
123.5,54,11,12
127.5,54,11,12
129.5,55,11,12
133.5,55,11,12
137.5,53,11,12
139.5,52,11,12
141.5,50,11,12
141,48.5,12,13
141,48.5,12,13
142,47.5,12,13
143.5,47,11,12
145.5,48,11,12
147,46,12,12
147.5,46,11,12
148,45.5,12,13
150,46.5,12,13
154,48.5,12,13
158,49.5,12,13
161,49.5,12,13
165,49.5,12,13
171,49.5,12,13
174,49.5,12,13
179,50.5,12,13
183,50.5,12,13
187,52.5,12,13
192,52.5,12,13
195,54.5,12,13
201,53.5,12,13
204.5,54,13,14
209.5,55,13,14
213,55.5,14,15
217.5,55.5,13,15
220.5,55.5,13,15
223.5,55,13,14
225.5,56,13,14
227.5,55.5,13,15
231.5,56,13,14
232.5,57,13,14
233.5,58,13,14
237.5,58,13,14
240.5,57,13,14
243.5,57,13,14
244.5,58,13,14
246,60,12,14
250,60.5,12,13
252,62.5,12,13
254,62,12,14
257,62.5,12,13
259,62.5,12,13
261,63.5,12,13
264,62.5,12,13
266,61.5,12,13
268,60.5,12,13
269.5,59,13,14
272,58.5,12,13
274.5,56,13,14
276.5,55,13,14
277.5,56,13,14
280,56,12,14
282,56.5,12,13
283.5,56,13,14
284.5,56,13,14
286.5,56,13,14
288.5,57,13,14
288.5,53,13,14
290.5,53,13,14
292.5,48,13,14
293,51.5,12,13
293.5,50,13,14
294.5,49,13,14
295.5,48,13,14
296.5,49,13,14
318.5,47,13,14
295.5,47,13,14
295.5,43,13,14
295.5,43,13,14
297.5,43,13,14
297.5,42,13,14
299.5,43,13,14
300.5,45,13,14
303,46.5,12,13
305,47.5,12,13
308,47.5,12,13
310,49.5,12,13
311,50.5,12,13
315,48.5,12,13
317,47.5,12,13
324.5,55,11,12
324.5,55,11,12
324,42.5,12,13
324,42.5,12,13
324.5,43,11,12
324.5,43,11,12
327,50,12,12
321,40.5,12,13
320,39.5,12,13
319,39,12,14
318,39.5,12,13
316,40.5,12,13
313,40.5,12,13
339,43.5,12,13
316.5,42,11,12
305,45.5,12,13
330,48.5,12,13
311,73.5,12,13
310.5,75,11,12
298.5,48,11,12
294,47.5,12,13
293,47.5,12,13
289,47.5,12,13
288,46.5,12,13
307,47.5,12,13
304,47.5,12,13
277,45.5,12,13
298,48.5,12,13
294.5,46,13,14
291,46.5,12,13
288,49.5,12,13
283.5,48,13,14
280.5,49,13,14
276.5,50,13,14
275.5,48,13,14
273.5,47.5,13,15
268.5,47,13,14
266,48.5,14,15
263.5,47,13,14
245.5,58,13,14
260.5,44.5,13,15
240,57.5,14,15
237,58.5,14,15
243,91.5,14,15
243,91.5,14,15
242,91,14,16
242,91,14,16
245,48,14,16
245,48,14,16
241.5,50,15,16
247,96,14,16
243.5,51,15,16
242.5,48,15,16
242.5,45.5,15,17
244.5,45,15,16
244.5,44,15,16
223.5,50.5,15,17
246.5,41.5,15,17
219.5,30.5,15,17
253,33.5,16,17
227,23.5,16,17
230,21.5,16,17
225,23,16,18
224.5,21,17,18
222,19,16,18
222,19,16,18
227,17.5,16,17
224,19.5,16,17
213,22.5,16,17
209,20.5,16,17
204,24.5,16,17
205,24,16,18
192,28,16,18
190,28.5,16,17
179,31.5,16,17
167,33.5,16,17
155,35.5,16,17
142.5,36.5,15,17
129,37.5,16,17
118,39,16,18
108,39,16,18
98,40.5,16,17
91,49.5,16,17
82,38.5,16,17
72,38.5,16,17
69,37.5,16,17
62,38,16,18
57,40.5,16,17
80,42.5,16,17
76,43.5,16,17
47.5,43.5,15,17
70.5,43,15,16
58.5,84.5,15,17
67.5,40.5,15,17
66.5,43,15,16
65.5,41,15,16
65.5,39,15,16
64.5,36.5,15,17
65.5,36,15,16
66.5,33,15,16
65.5,34,15,16
38.5,23,15,16
36.5,22,15,16
34.5,21,15,16
33.5,18.5,15,17
36.5,18,15,16
34.5,17.5,15,17
33.5,16.5,15,17
31.5,17.5,15,17
22.5,16.5,15,17
18.5,17,15,16
13.5,17,15,16
8,29,14,16
4.5,43,15,16
3.5,12,15,16
0.5,12,15,16
27.5,48,15,16
21,43.5,16,17
14,41.5,16,17
7,40.5,16,17
0.5,40,15,16
13.5,67,15,16
14.5,76,15,16
12.5,137,15,16
3.5,136,15,16
35.5,150,15,16
51.5,138.5,15,17
51.5,138.5,15,17
