110.5,97.5,25,101
109.5,98.5,25,101
109.5,100.5,25,101
107.5,102,25,102
106,101,26,104
106,101.5,26,105
103,103.5,26,105
104,105.5,26,105
101.5,108,25,102
99.5,110.5,25,101
96,111.5,26,103
92,110,26,104
91,113.5,26,103
89.5,111,25,102
85,106,26,104
88.5,106.5,25,103
87,108,26,106
87,108,26,106
90,109.5,26,105
90,104,26,104
92,105,26,104
93,103.5,26,105
95,100.5,26,105
95,100.5,26,105
98,100.5,26,105
101,102,26,104
102,104.5,26,105
103,104,26,104
104,103.5,26,103
106,98,26,104
106,98,26,104
104,95.5,26,105
104,95.5,26,105
104,95.5,26,105
104,95.5,26,105
107,101.5,26,103
105.5,101.5,25,103
105,97.5,26,103
102,97.5,26,103
102,92.5,26,105
99,92,26,104
98,92,26,104
98,92,26,104
99,95,26,104
96,93,26,104
96,94.5,26,103
89.5,95,25,102
87,95,26,104
84,92,26,104
82,89.5,26,105
80,89,26,106
80,97,26,104
80.5,97.5,25,103
83,103.5,26,105
82,104,26,104
84,98.5,26,105
84,99,26,106
91,96,26,106
93,92.5,26,105
96,91.5,26,105
98,90,26,106
103,93.5,26,107
103,93.5,26,107
105,93.5,26,105
108,90,26,106
113,87,26,106
113,83,26,106
113.5,84,27,108
111.5,87.5,27,107
107.5,88,27,108
106.5,88.5,27,109
103.5,85.5,27,107
100.5,80.5,27,107
97,81.5,26,105
95,82,26,104
92,81,26,104
131,90.5,26,105
127,95.5,26,105
113,104.5,26,105
105,101.5,26,105
103,104,26,106
100,102,26,104
102,101,26,104
103,95.5,26,105
105,89.5,26,103
106,88.5,26,103
110.5,87.5,25,101
111.5,86,25,102
116.5,93.5,25,101
118.5,99.5,25,99
118.5,93.5,25,101
121.5,93.5,25,101
122.5,91.5,25,101
124.5,95.5,25,101
124.5,92,25,102
127.5,94.5,25,101
126.5,98,25,100
124.5,100,25,100
125.5,98,25,102
125.5,101,25,102
126.5,98,25,102
124,89.5,26,103
124,89.5,26,103
122.5,85,25,102
121,88.5,26,103
121,88.5,26,103
123,89.5,26,103
120,86,26,104
117,80.5,26,105
114.5,78.5,27,107
114,78.5,26,107
108.5,72,27,108
104.5,66.5,27,107
100.5,67.5,27,109
98,69,28,112
98.5,78.5,27,111
96,81.5,28,111
96,81.5,28,111
92.5,88.5,27,109
92.5,90,27,108
93.5,88,27,108
98.5,91,27,108
99.5,91.5,27,109
103.5,89.5,27,109
108.5,93,27,110
110.5,93.5,27,111
112,95,28,112
112,95,28,112
113,96.5,28,111
116.5,90.5,27,111
117.5,92.5,27,111
120.5,96.5,27,111
121,101,28,112
122,103,28,112
125,105.5,28,113
124,112.5,28,113
126,112,28,114
127.5,111,29,116
127.5,111,29,116
125.5,110,29,116
123,113.5,28,115
123.5,114,29,116
126.5,117,29,118
124.5,115,29,116
125.5,113.5,29,117
124.5,113,29,116
122.5,113,29,116
126.5,105.5,29,115
126.5,105.5,29,115
126.5,108,29,116
128.5,107,29,116
130.5,101.5,29,117
131.5,97.5,29,119
129,96,30,120
129,96,30,120
128,92.5,30,121
126,89.5,30,121
126,83.5,30,121
124,87.5,30,121
124,90.5,30,121
126,90.5,30,121
130,88,30,122
133,90.5,30,121
133,90.5,30,121
133,90.5,30,121
132,85.5,30,123
134,87,30,122
135,90,30,122
136,92.5,30,123
137,96,30,122
135,102,30,122
136,103,30,122
135,100,30,122
133,95,30,122
130,94.5,30,123
127.5,96,31,124
130.5,98,31,126
126.5,101.5,31,125
126.5,101.5,31,127
124.5,100.5,31,127
125.5,102.5,31,125
124.5,96,31,126
124.5,96,31,126
121.5,93,31,126
114.5,97.5,31,125
115.5,101,31,124
110,100,30,122
110.5,96,31,124
106.5,95.5,31,127
106,92.5,32,127
109.5,92,31,126
112.5,85.5,31,127
115.5,86,31,126
118.5,89.5,31,127
119.5,95,31,126
124.5,93,31,126
126.5,95,31,126
129.5,92.5,31,127
129.5,90.5,31,125
126.5,85,31,126
125.5,83,31,126
128.5,90,31,124
132.5,96,31,124
137.5,99.5,31,125
137.5,99.5,31,125
139.5,99,31,126
140.5,101,31,126
141.5,97,31,126
140.5,101,31,126
139.5,105,31,126
142,102.5,32,129
145.5,105.5,31,127
144.5,114.5,31,127
141.5,111.5,31,127
138.5,113,31,126
133.5,121,31,124
130.5,122,31,126
129.5,121,31,126
120.5,121,31,126
123,127,30,122
123,134.5,30,121
125,133.5,30,121
121,128,30,122
121.5,125,31,124
119,120,30,122
118,118,30,122
116,110,30,122
111,106.5,30,123
110.5,108.5,31,123
110.5,108.5,31,123
112.5,113,31,124
107.5,112,31,124
104.5,114.5,31,125
106.5,106.5,31,125
104.5,102.5,31,127
104.5,95.5,31,127
97,92,32,128
93,87,32,128
99.5,85.5,31,127
105,90.5,32,129
109,92,32,130
115,95.5,32,131
119.5,93,33,132
119.5,88.5,33,133
113.5,90.5,33,133
115.5,90.5,33,133
116.5,93.5,33,135
118.5,93.5,33,135
117.5,97,33,134
118.5,101,33,134
120.5,102,33,134
120.5,102,33,134
122.5,104,33,134
125.5,102,33,134
126.5,105,33,134
126.5,105,33,134
128.5,111.5,33,133
128.5,111.5,33,133
131.5,113,33,132
132.5,115,33,132
134.5,116.5,33,133
135.5,115,33,134
137.5,115.5,33,135
133,116.5,34,135
122.5,127,33,134
120.5,127.5,33,135
118.5,127.5,33,135
114.5,128,33,134
114,122.5,34,135
113.5,119.5,33,135
111,115,34,136
111,115,34,136
111,111,34,138
114,114.5,34,137
113,113,34,136
108,113.5,34,137
109,113,34,136
109,111.5,34,135
108,111,34,136
106.5,111.5,33,135
102,111.5,34,135
102,114.5,34,137
107,123,34,136
108,119.5,34,137
108,119.5,34,137
108,117.5,34,137
111.5,121,33,134
110,119,34,136
105,117.5,34,137
105,115.5,34,139
106,121,34,138
108,123.5,34,139
111,123.5,34,139
108.5,122,35,140
108.5,122,35,140
105.5,126,35,140
102.5,126,35,142
104.5,126.5,35,143
107.5,127,35,142
107.5,131,35,142
105.5,128,35,142
103.5,124,35,140
101,120.5,34,139
100,121,34,138
96,115.5,34,139
90.5,114,35,140
85,112.5,34,139
